<?xml version="1.0" encoding="UTF-8" standalone="no"?>
<svg
   xmlns:dc="http://purl.org/dc/elements/1.1/"
   xmlns:cc="http://creativecommons.org/ns#"
   xmlns:rdf="http://www.w3.org/1999/02/22-rdf-syntax-ns#"
   xmlns:svg="http://www.w3.org/2000/svg"
   xmlns="http://www.w3.org/2000/svg"
   xmlns:sodipodi="http://sodipodi.sourceforge.net/DTD/sodipodi-0.dtd"
   xmlns:inkscape="http://www.inkscape.org/namespaces/inkscape"
   inkscape:version="1.0 (4035a4fb49, 2020-05-01)"
   sodipodi:docname="huron_domoticaro.svg"
   version="1.1"
   width="512"
   viewBox="0 0 504.5 504.5"
   height="512"
   enable-background="new 0 0 504.5 504.5"
   id="Capa_1">
  <path
     style="fill:#ffffff"
     id="path930-9"
     fill="#ffb5c0"
     d="m -417.18242,706.4039 c 6.883,21.505 28.863,34.016 56.094,27.421 6.587,-27.322 -5.889,-49.266 -27.406,-56.124 -17.519,-5.584 -34.293,11.191 -28.688,28.703 z" />
  <path
     style="fill:#000000;fill-opacity:1"
     id="path932-1"
     fill="#926f72"
     d="m -375.20742,743.0639 c -23.083,0 -42.226,-12.84 -49.118,-34.374 -3.451,-10.781 -0.576,-22.503 7.502,-30.59 8.083,-8.094 19.812,-10.983 30.607,-7.544 26.298,8.382 39.629,35.123 32.419,65.028 -0.659,2.734 -2.792,4.869 -5.526,5.531 -5.427,1.314 -10.754,1.949 -15.884,1.949 z m -34.832,-38.947 c 5.593,17.474 22.382,26.489 42.576,23.338 3.147,-20.238 -5.857,-37.046 -23.309,-42.608 -5.506,-1.752 -11.277,-0.314 -15.439,3.853 -4.156,4.159 -5.587,9.924 -3.828,15.417 z" />
  <path
     style="fill:#ffffff"
     id="path936-7"
     fill="#ffb5c0"
     d="m -199.38242,706.4039 c -6.883,21.505 -28.863,34.016 -56.094,27.421 -6.587,-27.322 5.889,-49.266 27.406,-56.124 17.519,-5.584 34.293,11.191 28.688,28.703 z" />
  <path
     style="fill:#000000;fill-opacity:1"
     id="path938-0"
     fill="#ad888b"
     d="m -241.35742,743.0639 c -5.131,0 -10.456,-0.634 -15.884,-1.949 -2.733,-0.662 -4.867,-2.797 -5.526,-5.531 -7.21,-29.905 6.121,-56.646 32.419,-65.028 10.794,-3.441 22.523,-0.55 30.607,7.544 8.078,8.087 10.953,19.809 7.502,30.59 -6.892,21.533 -26.038,34.374 -49.118,34.374 z m -7.744,-15.609 c 20.193,3.15 36.983,-5.864 42.576,-23.338 1.758,-5.493 0.327,-11.258 -3.829,-15.418 -4.163,-4.168 -9.937,-5.608 -15.439,-3.853 -17.451,5.563 -26.455,22.371 -23.308,42.609 z m 49.719,-21.052 h 0.01 z" />
  <path
     style="fill:#ffffff;fill-opacity:1;stroke:#000000;stroke-width:10.9522;stroke-linecap:round;stroke-miterlimit:4;stroke-dasharray:none;stroke-opacity:1"
     d="m -281.65442,672.0119 c -8.521,-1.732 -17.431,-2.657 -26.607,-2.657 -60.751,0 -110,40.294 -110,90 0,49.068 47.994,88.96 107.669,89.976 0.775,0.013 1.552,0.024 2.331,0.024 60.751,0 110,-40.294 110,-90 0,-42.198 -35.498,-77.608 -83.393,-87.343 z"
     fill="#ffedee"
     id="path944-3" />
  <path
     style="fill:#000000"
     id="path962-7"
     fill="#926f72"
     d="m -292.99442,810.8359 c -4.136,0 -7.5,-3.364 -7.5,-7.5 v -9.824 h -15 v 9.824 c 0,4.136 -3.364,7.5 -7.5,7.5 -4.142,0 -7.5,3.357 -7.5,7.5 0,4.143 3.358,7.5 7.5,7.5 5.758,0 11.016,-2.177 15,-5.748 3.984,3.571 9.242,5.748 15,5.748 4.142,0 7.5,-3.357 7.5,-7.5 0,-4.143 -3.358,-7.5 -7.5,-7.5 z" />
  <path
     id="path1486"
     d="m -319.43583,793.5119 c -6.52312,-6.6389 -6.70646,-12.0218 -0.66635,-19.5632 5.57562,-6.9614 17.05648,-7.7608 22.56008,-1.5709 5.1483,5.7904 4.46602,16.8878 -1.3665,22.2267 -6.47312,5.9252 -14.02679,5.523 -20.52723,-1.0926 z"
     style="opacity:0.989;fill:#926f72;fill-opacity:1;stroke:none;stroke-width:4.14756;stop-color:#000000" />
  <path
     id="path964-9"
     fill="#ff8e9e"
     d="m -286.6995,783.6584 c 0,-8.284 -8.954,-15 -20,-15 -11.04601,0 -20.00002,6.716 -20.00002,15 0,8.284 8.95401,19 20.00002,19 11.046,0 20,-10.716 20,-19 z" />
  <path
     id="path1600"
     d="m -441.9691,678.37906 c -9.11442,-4.23716 -12.63367,-15.05993 -7.84465,-24.12467 2.15534,-4.07966 18.37428,-19.29299 28.62415,-26.84939 26.97641,-19.88752 54.79746,-31.34746 88.13688,-36.305 13.29779,-1.97737 40.88273,-1.72618 54.2483,0.49398 37.95744,6.30513 70.95778,22.40188 100.19139,48.87088 13.52873,12.24932 17.09052,18.80727 14.59877,26.87917 -2.15251,6.97301 -6.57863,10.95149 -14.12716,12.6984 -4.59898,1.06431 -11.51655,-1.72845 -16.0495,-6.47949 -11.71902,-12.28284 -29.60372,-25.53051 -44.6076,-33.04203 -21.3147,-10.67095 -42.95324,-15.78395 -67.63439,-15.98141 -24.79082,-0.19836 -46.46031,4.52131 -67.90491,14.78981 -15.80832,7.56964 -34.22261,20.88328 -45.88037,33.17181 -7.33982,7.73695 -13.92441,9.51636 -21.75091,5.87794 z"
     style="opacity:0.989;fill:#000000;fill-opacity:1;stroke:none;stroke-width:1.72402;stop-color:#000000" />
  <path
     id="path1604"
     d="m -362.34197,757.52486 c -9.97931,-4.72725 -13.45635,-15.94705 -7.69956,-24.84513 3.26569,-5.04767 13.09357,-13.92695 19.77764,-17.86867 8.0186,-4.72872 18.73418,-8.86869 27.08929,-10.46595 10.32187,-1.97326 28.66991,-1.15931 38.21399,1.69523 18.19908,5.44315 39.19438,21.21938 41.85265,31.44876 2.02671,7.79911 -2.08734,16.3625 -9.56007,19.89923 -7.52151,3.55983 -13.1401,2.08216 -21.25714,-5.59055 -6.56716,-6.20769 -13.32488,-10.31766 -20.45674,-12.44155 -6.03494,-1.79724 -17.49286,-2.14634 -23.95179,-0.72976 -7.05273,1.5468 -15.95345,6.63743 -22.77001,13.02294 -8.34136,7.81389 -13.89994,9.35164 -21.23826,5.87545 z"
     style="opacity:0.989;fill:#000000;fill-opacity:1;stroke:none;stroke-width:1.72402;stop-color:#000000" />
  <path
     id="path1606"
     d="m -312.89525,807.96604 c -10.43271,-2.11139 -19.14851,-12.79843 -19.10112,-23.42118 0.0764,-17.11933 16.3935,-28.89934 32.30389,-23.32154 5.74276,2.01327 11.05012,6.92803 13.88857,12.8612 4.2646,8.91419 2.10814,20.41465 -5.16866,27.56461 -5.55842,5.46153 -14.05379,7.90943 -21.92268,6.31691 z"
     style="opacity:0.989;fill:#000000;fill-opacity:1;stroke:none;stroke-width:1.72402;stop-color:#000000" />
  <path
     d="m -257.84985,725.7652 c -4.142,0 -7.5,3.358 -7.5,7.5 v 12 c 0,4.142 3.358,7.5 7.5,7.5 4.142,0 7.5,-3.358 7.5,-7.5 v -12 c 0,-4.142 -3.358,-7.5 -7.5,-7.5 z"
     id="path956-1"
     style="fill:#ffffff" />
  <path
     d="m -354.11683,726.7417 c -4.142,0 -7.5,3.358 -7.5,7.5 v 12 c 0,4.142 3.358,7.5 7.5,7.5 4.142,0 7.5,-3.358 7.5,-7.5 v -12 c 0,-4.142 -3.358,-7.5 -7.5,-7.5 z"
     id="path958-8"
     style="fill:#ffffff" />
  <path
     style="opacity:0.989;fill:#000000;fill-opacity:1;stroke:none;stroke-width:2.36842;stop-color:#000000"
     d="m -509.99056,590.08271 c -13.83209,-5.26926 -19.17292,-18.72829 -11.90508,-30.00107 3.27095,-5.0734 27.88489,-23.99246 43.44015,-33.38949 40.93953,-24.73181 83.16089,-38.98322 133.75695,-45.14834 20.18079,-2.45902 62.04383,-2.14665 82.32748,0.61431 57.60439,7.84096 107.68587,27.85863 152.05093,60.77508 20.531273,15.23306 25.936673,23.38843 22.155183,33.42652 -3.26666,8.67153 -9.98377,13.61911 -21.439453,15.79154 -6.97943,1.32356 -17.47757,-2.14948 -24.3568,-8.0578 -17.78484,-15.27475 -44.92674,-31.74935 -67.69671,-41.09056 -32.34728,-13.27023 -65.18605,-19.62868 -102.64228,-19.87424 -37.62266,-0.24667 -70.50839,5.62263 -103.05282,18.39238 -23.99078,9.41349 -51.93639,25.97013 -69.62827,41.25196 -11.13894,9.62155 -21.13175,11.8344 -33.00928,7.30971 z"
     id="path1627" />
  <metadata
     id="metadata973">
    <rdf:RDF>
      <cc:Work
         rdf:about="">
        <dc:format>image/svg+xml</dc:format>
        <dc:type
           rdf:resource="http://purl.org/dc/dcmitype/StillImage" />
        <dc:title></dc:title>
      </cc:Work>
    </rdf:RDF>
  </metadata>
  <defs
     id="defs971">
	
	
	

	
	
	
















	















</defs>
  <sodipodi:namedview
     inkscape:current-layer="Capa_1"
     inkscape:window-maximized="1"
     inkscape:window-y="8"
     inkscape:window-x="1366"
     inkscape:cy="358.64102"
     inkscape:cx="14.545762"
     inkscape:zoom="0.38186528"
     showgrid="false"
     id="namedview969"
     inkscape:window-height="744"
     inkscape:window-width="1366"
     inkscape:pageshadow="2"
     inkscape:pageopacity="0"
     guidetolerance="10"
     gridtolerance="10"
     objecttolerance="10"
     borderopacity="1"
     bordercolor="#666666"
     pagecolor="#ffffff" />
  <g
     id="g966">
    <path
       id="path922"
       fill="#926f72"
       d="m376.234 300.9s.042-.202.164-.573c-.329 1-8.532 24.611-50.624 34.462-12.1 2.832-19.613 14.936-16.781 27.035 2.428 10.376 11.673 17.378 21.889 17.378 1.089 0 2.19-.089 3.294-.252-1.792 4.235-2.31 9.054-1.182 13.875 2.428 10.375 11.674 17.378 21.889 17.378 1.698 0 3.422-.193 5.146-.597 55.616-13.016 79.459-49.863 84.374-68.294z" />
    <g
       id="g928">
      <path
         id="path924"
         fill="#926f72"
         d="m266.875 127.975c-3.392 9.647-17.245 8.632-19.263-1.394-4.654-23.122-14.052-43.37-26.527-59.457l-144.648 113.872c20.94 6.898 34.89 26.698 34.34 48.739h.004c-.965 38.557 12.887 68.929 35.077 88.489l6.618 71.547c1.079 11.669 10.887 20.43 22.378 20.43.694 0 1.394-.032 2.099-.098 12.374-1.145 21.477-12.104 20.332-24.477l-4.115-44.49c6.709 1.281 13.643 1.939 20.731 1.939 4.795 0 9.629-.309 14.483-.906l-4.02 43.457c-1.145 12.373 7.958 23.332 20.332 24.477.706.065 1.404.097 2.099.097 11.49 0 21.298-8.76 22.378-20.429l5.754-62.203c12.11-6.139 23.99-14.055 35.351-23.667 15.567-11.676 38.968-9.993 53.68 5.086l47.568-125.47-31.759-136.675c-43.951-7.532-90.034 16.124-112.892 81.133z" />
      <path
         id="path926"
         fill="#ad888b"
         d="m481.7 139.769c-18.956-37.67-52.027-84.371-101.933-92.927-73.788 68.184-82.466 183.282-15.811 262.144 1.209 1.24 2.367 2.558 3.45 3.979 13.944 18.299 35.962 30.109 60.745 30.109 5.478 0 10.926-.609 16.252-1.763.338 3.582.727 7.698 1.186 12.545 3.915 54.038-36.509 106.874-102.261 114.512-7.088.823-12.654 6.778-12.798 14.111-.156 8.001 6.202 14.771 14.205 14.771 87.033 0 159.766-64.798 159.766-155.35v-78.956c-.001-35.812-1.612-81.067-22.801-123.175z" />
    </g>
    <g
       id="g942">
      <g
         id="g934">
        <path
           id="path930"
           fill="#ffb5c0"
           d="m8.579 44.525c6.883 21.505 28.863 34.016 56.094 27.421 6.587-27.322-5.889-49.266-27.406-56.124-17.519-5.584-34.293 11.191-28.688 28.703z" />
        <path
           id="path932"
           fill="#926f72"
           d="m50.554 81.185c-23.083 0-42.226-12.84-49.118-34.374-3.451-10.781-.576-22.503 7.502-30.59 8.083-8.094 19.812-10.983 30.607-7.544 26.298 8.382 39.629 35.123 32.419 65.028-.659 2.734-2.792 4.869-5.526 5.531-5.427 1.314-10.754 1.949-15.884 1.949zm-34.832-38.947c5.593 17.474 22.382 26.489 42.576 23.338 3.147-20.238-5.857-37.046-23.309-42.608-5.506-1.752-11.277-.314-15.439 3.853-4.156 4.159-5.587 9.924-3.828 15.417z" />
      </g>
      <g
         id="g940">
        <path
           id="path936"
           fill="#ffb5c0"
           d="m226.379 44.525c-6.883 21.505-28.863 34.016-56.094 27.421-6.587-27.322 5.889-49.266 27.406-56.124 17.519-5.584 34.293 11.191 28.688 28.703z" />
        <path
           id="path938"
           fill="#ad888b"
           d="m184.404 81.185c-5.131 0-10.456-.634-15.884-1.949-2.733-.662-4.867-2.797-5.526-5.531-7.21-29.905 6.121-56.646 32.419-65.028 10.794-3.441 22.523-.55 30.607 7.544 8.078 8.087 10.953 19.809 7.502 30.59-6.892 21.533-26.038 34.374-49.118 34.374zm-7.744-15.609c20.193 3.15 36.983-5.864 42.576-23.338 1.758-5.493.327-11.258-3.829-15.418-4.163-4.168-9.937-5.608-15.439-3.853-17.451 5.563-26.455 22.371-23.308 42.609zm49.719-21.052h.01z" />
      </g>
    </g>
    <g
       id="g948">
      <path
         id="path944"
         fill="#ffedee"
         d="m144.107 10.133c-8.521-1.732-17.431-2.657-26.607-2.657-60.751 0-110 40.294-110 90 0 49.068 47.994 88.96 107.669 89.976.775.013 1.552.024 2.331.024 60.751 0 110-40.294 110-90 0-42.198-35.498-77.608-83.393-87.343z" />
      <path
         id="path946"
         fill="#ffd4d5"
         d="m73.5 107.476c0-41.992 28.537-78.529 70.607-97.343-8.521-1.732-17.431-2.657-26.607-2.657-60.751 0-110 40.294-110 90 0 49.068 47.994 88.96 107.669 89.976-25.681-20.175-41.669-48.547-41.669-79.976z" />
    </g>
    <g
       id="g954">
      <path
         id="path950"
         fill="#ad888b"
         d="m117.5 37.476c-42.113 0-80 26.004-80 59.999 0 .168.001.337.003.505.23 20.157 25.921 28.431 38.201 12.445 10.892-14.179 25.719-22.949 41.797-22.949 16.441 0 31.009 8.864 41.67 22.782 12.323 16.086 38.103 7.984 38.326-12.278.002-.168.003-.336.003-.505 0-32.542-35.944-59.999-80-59.999z" />
      <path
         id="path952"
         fill="#926f72"
         d="m73.651 112.758c-.099-1.741-.151-3.52-.151-5.282 0-26.06 10.999-50.027 29.393-68.953-35.879 5.173-65.393 28.951-65.393 58.953 0 .168.001.337.003.505.218 19.098 23.28 27.542 36.148 14.777z" />
    </g>
    <g
       id="g960"
       fill="#313d40">
      <path
         id="path956"
         d="m63.051 74.656c-4.142 0-7.5 3.358-7.5 7.5v12c0 4.142 3.358 7.5 7.5 7.5s7.5-3.358 7.5-7.5v-12c0-4.142-3.358-7.5-7.5-7.5z" />
      <path
         id="path958"
         d="m171.949 74.656c-4.142 0-7.5 3.358-7.5 7.5v12c0 4.142 3.358 7.5 7.5 7.5s7.5-3.358 7.5-7.5v-12c0-4.142-3.358-7.5-7.5-7.5z" />
    </g>
    <path
       id="path962"
       fill="#926f72"
       d="m132.767 148.957c-4.136 0-7.5-3.364-7.5-7.5v-9.824h-15v9.824c0 4.136-3.364 7.5-7.5 7.5-4.142 0-7.5 3.357-7.5 7.5s3.358 7.5 7.5 7.5c5.758 0 11.016-2.177 15-5.748 3.984 3.571 9.242 5.748 15 5.748 4.142 0 7.5-3.357 7.5-7.5s-3.358-7.5-7.5-7.5z" />
    <path
       id="path964"
       fill="#ff8e9e"
       d="m137.767 122.457c0-8.284-8.954-15-20-15s-20 6.716-20 15 8.954 19 20 19 20-10.716 20-19z" />
  </g>
  <path
     id="path1723"
     d="m -619.26491,510.22944 c -20.46362,-7.56886 -28.36501,-26.90166 -17.61274,-43.09408 4.83914,-7.28753 41.25376,-34.46321 64.26668,-47.96127 60.5672,-35.52523 123.03077,-55.99621 197.88413,-64.8519 29.85608,-3.53218 91.78955,-3.08349 121.7978,0.8824 85.2217,11.2629 159.313773,40.01665 224.948803,87.29844 30.3745899,21.88104 38.3715,33.59556 32.7770599,48.01446 -4.83279998,12.45594 -14.7703,19.56274 -31.7181899,22.68325 -10.32558,1.90119 -25.85685,-3.08755 -36.0342,-11.57437 -26.31144,-21.94093 -66.466003,-45.60534 -100.152593,-59.02323 -47.85555,-19.0616 -96.43822,-28.19499 -151.85212,-28.54772 -55.66011,-0.35432 -104.31227,8.07645 -152.4595,26.41915 -35.49269,13.52171 -76.83628,37.30397 -103.01019,59.25507 -16.4793,13.82057 -31.26296,16.99915 -48.83494,10.4998 z"
     style="opacity:0.989;fill:#000000;fill-opacity:1;stroke:none;stroke-width:3.4526;stop-color:#000000" />
</svg>
