<?xml version="1.0" encoding="UTF-8" standalone="no"?>
<svg
   xmlns:dc="http://purl.org/dc/elements/1.1/"
   xmlns:cc="http://creativecommons.org/ns#"
   xmlns:rdf="http://www.w3.org/1999/02/22-rdf-syntax-ns#"
   xmlns:svg="http://www.w3.org/2000/svg"
   xmlns="http://www.w3.org/2000/svg"
   xmlns:sodipodi="http://sodipodi.sourceforge.net/DTD/sodipodi-0.dtd"
   xmlns:inkscape="http://www.inkscape.org/namespaces/inkscape"
   sodipodi:docname="logo valentin.svg"
   inkscape:version="1.0 (4035a4fb49, 2020-05-01)"
   id="svg8"
   version="1.1"
   viewBox="0 0 210 297"
   height="297mm"
   width="210mm">
  <defs
     id="defs2">
    <inkscape:path-effect
       bendpath-nodetypes="cc"
       vertical="false"
       scale_y_rel="false"
       prop_scale="1"
       bendpath="m -98.330757,259.50831 c 4.109954,-6.69901 8.035271,-5.9332 11.982516,0"
       is_visible="true"
       id="path-effect4654"
       effect="bend_path" />
    <inkscape:path-effect
       effect="bend_path"
       id="path-effect4650"
       is_visible="true"
       bendpath="m -98.330757,259.50831 c 4.109954,-6.69901 8.035271,-5.9332 11.982516,0"
       prop_scale="1"
       scale_y_rel="false"
       vertical="false"
       bendpath-nodetypes="cc" />
    <inkscape:path-effect
       bendpath-nodetypes="cc"
       vertical="false"
       scale_y_rel="false"
       prop_scale="1"
       bendpath="m -98.330757,259.50831 c 3.917615,-2.75605 7.900358,-3.16748 11.982516,0"
       is_visible="true"
       id="path-effect4644"
       effect="bend_path" />
    <inkscape:path-effect
       bendpath-nodetypes="cc"
       vertical="false"
       scale_y_rel="false"
       prop_scale="1"
       bendpath="m -108.52039,255.13304 c 13.758632,-15.46497 27.528275,-16.30799 41.310833,0"
       is_visible="true"
       id="path-effect4625"
       effect="bend_path" />
    <inkscape:path-effect
       bendpath-nodetypes="cc"
       vertical="false"
       scale_y_rel="false"
       prop_scale="1"
       bendpath="m -109.83055,255.55877 c 5.36283,-10.09543 11.050187,-9.2165 16.984105,0"
       is_visible="true"
       id="path-effect4611"
       effect="bend_path" />
    <inkscape:path-effect
       bendpath-nodetypes="cc"
       vertical="false"
       scale_y_rel="false"
       prop_scale="1"
       bendpath="m -85.826347,265.09034 c 24.715365,-22.88429 48.730755,-20.56943 72.239074,0"
       is_visible="true"
       id="path-effect4606"
       effect="bend_path" />
    <inkscape:path-effect
       bendpath-nodetypes="cc"
       vertical="false"
       scale_y_rel="false"
       prop_scale="1"
       bendpath="m -100.54591,244.98223 c 33.593139,-26.96332 67.481184,-27.38515 101.6781961,0"
       is_visible="true"
       id="path-effect4603"
       effect="bend_path" />
    <inkscape:path-effect
       bendpath-nodetypes="cc"
       vertical="false"
       scale_y_rel="false"
       prop_scale="1"
       bendpath="m -116.17128,224.87417 c 44.616915,-33.185 88.915865,-32.02977 132.92894,0"
       is_visible="true"
       id="path-effect4598"
       effect="bend_path" />
    <inkscape:path-effect
       bendpath-nodetypes="cc"
       vertical="false"
       scale_y_rel="false"
       prop_scale="1.24"
       bendpath="m -127.26757,220.00539 c 41.36001,-36.87044 68.50595,-20.71147 94.431633,0"
       is_visible="true"
       id="path-effect4589"
       effect="bend_path" />
  </defs>
  <sodipodi:namedview
     inkscape:document-rotation="0"
     inkscape:window-maximized="1"
     inkscape:window-y="18"
     inkscape:window-x="0"
     inkscape:window-height="728"
     inkscape:window-width="1362"
     inkscape:guide-bbox="true"
     showguides="true"
     showgrid="false"
     inkscape:current-layer="layer1"
     inkscape:document-units="mm"
     inkscape:cy="363.88027"
     inkscape:cx="532.62709"
     inkscape:zoom="1.7904445"
     inkscape:pageshadow="2"
     inkscape:pageopacity="0.0"
     borderopacity="1.0"
     bordercolor="#666666"
     pagecolor="#ffffff"
     id="base" />
  <metadata
     id="metadata5">
    <rdf:RDF>
      <cc:Work
         rdf:about="">
        <dc:format>image/svg+xml</dc:format>
        <dc:type
           rdf:resource="http://purl.org/dc/dcmitype/StillImage" />
        <dc:title></dc:title>
      </cc:Work>
    </rdf:RDF>
  </metadata>
  <g
     id="layer1"
     inkscape:groupmode="layer"
     inkscape:label="Capa 1">
    <path
       inkscape:connector-curvature="0"
       id="path4679"
       d="m 100.84253,42.610838 c -9.950734,-0.05313 -19.802174,1.836623 -29.033523,5.284533 -7.715674,2.890044 -14.968237,6.754504 -21.736055,11.253999 -3.945537,2.62314 -5.22888,7.048096 -3.265706,9.74086 1.969013,2.700777 6.333974,2.745928 9.780109,0.452698 6.130234,-4.079374 12.573414,-7.534613 19.308364,-10.026743 8.006265,-2.972299 16.469637,-4.616149 24.868961,-4.547261 8.38749,0.041 16.82353,1.789035 24.82644,4.805011 6.6309,2.494049 12.98786,5.882928 19.05977,9.855345 3.47349,2.272457 7.84044,2.182888 9.78207,-0.53905 1.93599,-2.71401 0.60871,-7.120926 -3.34551,-9.705537 -6.67617,-4.363755 -13.79774,-8.13702 -21.35271,-11.009984 -9.17159,-3.481757 -18.96262,-5.483089 -28.89221,-5.563871 z m -0.42457,19.974981 c -7.875558,0.04408 -15.602332,1.743914 -22.745465,4.699033 -5.36199,2.224118 -10.38509,5.054568 -15.073805,8.283984 -4.03976,2.782436 -5.193636,7.320442 -3.140103,9.930577 2.065572,2.62542 6.449731,2.480413 9.821981,0.149153 4.099914,-2.834298 8.382696,-5.265766 12.851526,-7.088128 5.891142,-2.409934 12.143607,-3.815987 18.323156,-3.816533 6.20027,-0.03883 12.48203,1.337198 18.40231,3.728218 4.55716,1.834209 8.92295,4.302246 13.10076,7.185601 3.37559,2.329674 7.76064,2.469421 9.8233,-0.158311 2.05067,-2.612472 0.89199,-7.148851 -3.14861,-9.927304 -4.7751,-3.283527 -9.89535,-6.15474 -15.36491,-8.395199 -7.18212,-2.933533 -14.94683,-4.596873 -22.85014,-4.591091 z m -0.41606,19.979558 c -5.631771,0.05375 -11.120119,1.353751 -16.119852,3.614391 -3.444678,1.567757 -6.645557,3.490475 -9.613951,5.649566 -4.245174,3.087775 -5.102351,7.844024 -2.892163,10.279266 2.084971,2.29725 6.025594,2.01814 9.140968,0.0778 a 7.3416338,6.8743255 0 0 1 -1.487622,-4.133162 7.3416338,6.8743255 0 0 1 7.3413,-6.87421 7.3416338,6.8743255 0 0 1 6.879442,4.498198 c 2.515019,-0.684187 5.078895,-1.029327 7.593158,-0.951191 2.23598,0.03702 4.50277,0.410924 6.74665,1.044086 a 7.3416338,6.8743255 0 0 1 6.91672,-4.591093 7.3416338,6.8743255 0 0 1 7.3413,6.87421 7.3416338,6.8743255 0 0 1 -1.47453,4.120072 c 3.23734,2.09959 7.39694,2.37676 9.49095,-0.0648 2.14672,-2.50296 1.15294,-7.204426 -3.08776,-10.186366 -2.7415,-1.927751 -5.65839,-3.673604 -8.76285,-5.155657 -5.17049,-2.469886 -10.90691,-4.016257 -16.88394,-4.195307 -0.37663,-0.0076 -0.75237,-0.0095 -1.12782,-0.0059 z M 86.37058,94.468983 a 3.8276891,3.5840499 0 0 0 -3.827657,3.5843 3.8276891,3.5840499 0 0 0 0.798766,2.187607 c 1.729873,-1.132857 3.506662,-2.12572 5.336865,-2.930765 0.419347,-0.186065 0.842995,-0.361696 1.268471,-0.529892 a 3.8276891,3.5840499 0 0 0 -3.576445,-2.31125 z m 28.13597,0 a 3.8276891,3.5840499 0 0 0 -3.61635,2.420499 c 0.71103,0.281143 1.41679,0.584712 2.11565,0.909974 1.53492,0.715149 3.03577,1.544749 4.5067,2.466284 a 3.8276891,3.5840499 0 0 0 0.82166,-2.212457 3.8276891,3.5840499 0 0 0 -3.82766,-3.5843 z m -14.02513,4.205123 c -3.897711,0.12439 -7.468978,1.325056 -10.463089,3.166274 -1.506379,0.9177 -2.902001,1.93586 -4.197923,3.0217 -3.228513,2.70508 -3.225381,6.63431 -1.127822,8.55153 2.156187,1.97081 5.629744,1.46481 7.717459,-0.32121 0.914629,-0.78243 1.851839,-1.47014 2.822167,-2.0306 1.835143,-1.04101 3.721553,-1.76164 5.408168,-1.72507 1.65717,-0.0846 3.51806,0.56308 5.27996,1.55368 0.97972,0.55295 1.92198,1.2545 2.83852,2.06332 2.02043,1.78294 5.48058,2.37318 7.6841,0.45988 2.1374,-1.85586 2.25557,-5.80891 -0.98521,-8.59601 -1.33821,-1.15089 -2.79364,-2.22449 -4.37848,-3.18067 -3.06244,-1.848297 -6.69605,-2.965983 -10.59785,-2.962824 z m -9.744791,6.068904 c 0.775912,0 1.400618,0.47253 1.400618,1.05979 v 3.2631 c 0,0.58722 -0.624706,1.05976 -1.400618,1.05976 -0.775912,0 -1.400616,-0.47254 -1.400616,-1.05976 v -3.2631 c 0,-0.58726 0.624704,-1.05979 1.400616,-1.05979 z m 19.806861,0 c 0.77591,0 1.40061,0.47253 1.40061,1.05979 v 3.2631 c 0,0.58722 -0.6247,1.05976 -1.40061,1.05976 -0.77592,0 -1.39997,-0.47254 -1.39997,-1.05976 v -3.2631 c 0,-0.58726 0.62405,-1.05979 1.39997,-1.05979 z m -9.97049,8.07333 a 4.4686425,2.36405 0 0 0 -4.468758,2.36423 4.4686425,2.36405 0 0 0 3.341593,2.28442 c -0.01975,0.11026 -0.04783,0.21421 -0.09289,0.30225 -0.104059,0.30229 -0.413702,0.56197 -0.760818,0.77259 -0.256746,0.14758 -0.538269,0.25258 -0.838018,0.3317 -0.561591,0.14811 -1.07911,0.55272 -1.064363,1.01199 0.01405,0.43627 0.565651,0.79292 1.314918,0.58355 0.381565,-0.10672 0.766895,-0.25392 1.147445,-0.45794 0.539884,-0.28018 1.049721,-0.76005 1.400611,-1.42937 0.35091,0.66932 0.86008,1.14919 1.39997,1.42937 0.38055,0.20402 0.76654,0.35136 1.14809,0.45794 0.74927,0.20937 1.30092,-0.14732 1.31493,-0.58355 0.0147,-0.45927 -0.50278,-0.86388 -1.06437,-1.01199 -0.29975,-0.079 -0.58128,-0.18409 -0.83801,-0.3317 -0.34712,-0.21062 -0.65742,-0.4703 -0.76148,-0.77259 -0.0442,-0.0863 -0.0711,-0.18786 -0.0909,-0.29568 a 4.4686425,2.36405 0 0 0 3.38019,-2.29099 4.4686425,2.36405 0 0 0 -4.46811,-2.36423 z"
       style="opacity:0.98999999;fill:#000000;fill-opacity:1;stroke:none;stroke-width:0.76499999;stroke-miterlimit:4;stroke-dasharray:none;stroke-dashoffset:0;stroke-opacity:1" />
  </g>
</svg>
