\relax 
\providecommand\hyper@newdestlabel[2]{}
\providecommand\zref@newlabel[2]{}
\providecommand\BKM@entry[2]{}
\bbl@cs{beforestart}
\catcode `"\active 
\catcode `<\active 
\catcode `>\active 
\@nameuse{es@quoting}
\providecommand\HyperFirstAtBeginDocument{\AtBeginDocument}
\HyperFirstAtBeginDocument{\ifx\hyper@anchor\@undefined
\global\let\oldcontentsline\contentsline
\gdef\contentsline#1#2#3#4{\oldcontentsline{#1}{#2}{#3}}
\global\let\oldnewlabel\newlabel
\gdef\newlabel#1#2{\newlabelxx{#1}#2}
\gdef\newlabelxx#1#2#3#4#5#6{\oldnewlabel{#1}{{#2}{#3}}}
\AtEndDocument{\ifx\hyper@anchor\@undefined
\let\contentsline\oldcontentsline
\let\newlabel\oldnewlabel
\fi}
\fi}
\global\let\hyper@last\relax 
\gdef\HyperFirstAtBeginDocument#1{#1}
\providecommand\HyField@AuxAddToFields[1]{}
\providecommand\HyField@AuxAddToCoFields[2]{}
\babel@aux{spanish}{}
\pgfsyspdfmark {pgfid2}{0}{55380990}
\pgfsyspdfmark {pgfid1}{6749099}{48836679}
\pgfsyspdfmark {pgfid4}{0}{55380990}
\pgfsyspdfmark {pgfid3}{6749099}{48836679}
\BKM@entry{id=1,open,dest={636861707465722E31},flags=2,srcline={1}}{31205072655C3334316D62756C6F}
\BKM@entry{id=2,open,dest={73656374696F6E2E312E31},srcline={6}}{312E31204E6F746173207920416476657274656E63696173}
\BKM@entry{id=3,open,dest={73656374696F6E2E312E32},srcline={28}}{312E322043756164726F7320646520635C3336336469676F206675656E7465}
\@writefile{toc}{\contentsline {chapter}{\numberline {1}Preámbulo}{5}{chapter.1}\protected@file@percent }
\@writefile{lof}{\addvspace {10\p@ }}
\@writefile{lot}{\addvspace {10\p@ }}
\pgfsyspdfmark {pgfid6}{0}{55380990}
\pgfsyspdfmark {pgfid5}{5594039}{48836679}
\@writefile{toc}{\contentsline {section}{\numberline {1.1}Notas y Advertencias}{5}{section.1.1}\protected@file@percent }
\@writefile{toc}{\contentsline {section}{\numberline {1.2}Cuadros de código fuente}{6}{section.1.2}\protected@file@percent }
\BKM@entry{id=4,open,dest={73656374696F6E2E312E33},srcline={2}}{312E3320496E74726F64756363695C3336336E}
\@writefile{toc}{\contentsline {section}{\numberline {1.3}Introducción}{7}{section.1.3}\protected@file@percent }
\@writefile{lof}{\contentsline {figure}{\numberline {1.1}{\ignorespaces La placa \textbf  {La.C.E.R.Ar V1.3 }}}{7}{figure.1.1}\protected@file@percent }
\newlabel{fig:}{{1.1}{7}{La placa \placa }{figure.1.1}{}}
\BKM@entry{id=5,open,dest={636861707465722E32},flags=2,srcline={2}}{322048657272616D69656E746173}
\BKM@entry{id=6,open,dest={73656374696F6E2E322E31},srcline={6}}{322E3120536F6C6461646F72}
\@writefile{toc}{\contentsline {chapter}{\numberline {2}Herramientas}{8}{chapter.2}\protected@file@percent }
\@writefile{lof}{\addvspace {10\p@ }}
\@writefile{lot}{\addvspace {10\p@ }}
\pgfsyspdfmark {pgfid13}{0}{55380990}
\pgfsyspdfmark {pgfid12}{5594039}{48836679}
\@writefile{toc}{\contentsline {section}{\numberline {2.1}Soldador}{8}{section.2.1}\protected@file@percent }
\@writefile{lof}{\contentsline {figure}{\numberline {2.1}{\ignorespaces Soldador}}{8}{figure.2.1}\protected@file@percent }
\newlabel{fig:soldador}{{2.1}{8}{Soldador}{figure.2.1}{}}
\BKM@entry{id=7,open,dest={73656374696F6E2E322E32},srcline={24}}{322E3220457374615C3336316F}
\@writefile{toc}{\contentsline {section}{\numberline {2.2}Estaño}{10}{section.2.2}\protected@file@percent }
\@writefile{lof}{\contentsline {figure}{\numberline {2.2}{\ignorespaces Estaño}}{10}{figure.2.2}\protected@file@percent }
\newlabel{fig:estanio}{{2.2}{10}{Estaño}{figure.2.2}{}}
\BKM@entry{id=8,open,dest={73656374696F6E2E322E33},srcline={41}}{322E332050696E7A61}
\@writefile{toc}{\contentsline {section}{\numberline {2.3}Pinza}{11}{section.2.3}\protected@file@percent }
\@writefile{lof}{\contentsline {figure}{\numberline {2.3}{\ignorespaces Alicate para Electronica}}{11}{figure.2.3}\protected@file@percent }
\newlabel{fig:pinza}{{2.3}{11}{Alicate para Electronica}{figure.2.3}{}}
\BKM@entry{id=9,open,dest={73656374696F6E2E322E34},srcline={54}}{322E3420446573746F726E696C6C61646F72}
\@writefile{toc}{\contentsline {section}{\numberline {2.4}Destornillador}{12}{section.2.4}\protected@file@percent }
\@writefile{lof}{\contentsline {figure}{\numberline {2.4}{\ignorespaces Destornillador Plano Pequeño}}{12}{figure.2.4}\protected@file@percent }
\newlabel{fig:destornillador}{{2.4}{12}{Destornillador Plano Pequeño}{figure.2.4}{}}
\BKM@entry{id=10,open,dest={73656374696F6E2E322E35},srcline={67}}{322E35204465736F6C6461646F7220646520457374615C3336316F}
\@writefile{toc}{\contentsline {section}{\numberline {2.5}Desoldador de Estaño}{13}{section.2.5}\protected@file@percent }
\@writefile{lof}{\contentsline {figure}{\numberline {2.5}{\ignorespaces Desoldador de Estaño}}{13}{figure.2.5}\protected@file@percent }
\newlabel{fig:desoldador}{{2.5}{13}{Desoldador de Estaño}{figure.2.5}{}}
\BKM@entry{id=11,open,dest={636861707465722E33},flags=2,srcline={3}}{33204C69737461646F20646520436F6D706F6E656E746573}
\@writefile{toc}{\contentsline {chapter}{\numberline {3}Listado de Componentes}{14}{chapter.3}\protected@file@percent }
\@writefile{lof}{\addvspace {10\p@ }}
\@writefile{lot}{\addvspace {10\p@ }}
\pgfsyspdfmark {pgfid16}{0}{55380990}
\pgfsyspdfmark {pgfid15}{5594039}{48836679}
\BKM@entry{id=12,open,dest={636861707465722E34},flags=2,srcline={1}}{342041726D61646F206465206C6120706C616361204C612E432E452E522E41722056312E3320}
\@writefile{toc}{\contentsline {chapter}{\numberline {4}Armado de la placa \textbf  {La.C.E.R.Ar V1.3 }}{18}{chapter.4}\protected@file@percent }
\@writefile{lof}{\addvspace {10\p@ }}
\@writefile{lot}{\addvspace {10\p@ }}
\pgfsyspdfmark {pgfid18}{0}{55380990}
\pgfsyspdfmark {pgfid17}{5594039}{48836679}
\@writefile{lof}{\contentsline {figure}{\numberline {4.1}{\ignorespaces La placa \textbf  {La.C.E.R.Ar V1.3 }con sus componentes}}{19}{figure.4.1}\protected@file@percent }
\newlabel{fig:placa_1}{{4.1}{19}{La placa \placa con sus componentes}{figure.4.1}{}}
\BKM@entry{id=13,open,dest={73656374696F6E2E342E31},srcline={15}}{342E3120526573697374656E6369617320646520343730206F686D73}
\@writefile{toc}{\contentsline {section}{\numberline {4.1}Resistencias de 470 ohms}{20}{section.4.1}\protected@file@percent }
\@writefile{lof}{\contentsline {figure}{\numberline {4.2}{\ignorespaces resistencias de 470 ohms}}{20}{figure.4.2}\protected@file@percent }
\newlabel{fig:placa_1}{{4.2}{20}{resistencias de 470 ohms}{figure.4.2}{}}
\BKM@entry{id=14,open,dest={73656374696F6E2E342E32},srcline={29}}{342E322044696F646F732079207075656E746520646520616C616D627265}
\@writefile{toc}{\contentsline {section}{\numberline {4.2}Diodos y puente de alambre}{21}{section.4.2}\protected@file@percent }
\@writefile{lof}{\contentsline {figure}{\numberline {4.3}{\ignorespaces Diodos}}{21}{figure.4.3}\protected@file@percent }
\newlabel{fig:placa_2}{{4.3}{21}{Diodos}{figure.4.3}{}}
\BKM@entry{id=15,open,dest={73656374696F6E2E342E33},srcline={49}}{342E33204C4D37383035}
\@writefile{toc}{\contentsline {section}{\numberline {4.3}LM7805}{22}{section.4.3}\protected@file@percent }
\@writefile{lof}{\contentsline {figure}{\numberline {4.4}{\ignorespaces LM7805}}{22}{figure.4.4}\protected@file@percent }
\newlabel{fig:placa_3}{{4.4}{22}{LM7805}{figure.4.4}{}}
\BKM@entry{id=16,open,dest={73656374696F6E2E342E34},srcline={61}}{342E34207A5C33363363616C6F20387832}
\@writefile{toc}{\contentsline {section}{\numberline {4.4}zócalo 8x2}{23}{section.4.4}\protected@file@percent }
\@writefile{lof}{\contentsline {figure}{\numberline {4.5}{\ignorespaces zócalo 8x2 numeración de pines}}{23}{figure.4.5}\protected@file@percent }
\newlabel{fig:placa_4}{{4.5}{23}{zócalo 8x2 numeración de pines}{figure.4.5}{}}
\@writefile{lof}{\contentsline {figure}{\numberline {4.6}{\ignorespaces zocalo 8x2}}{24}{figure.4.6}\protected@file@percent }
\newlabel{fig:placa_4}{{4.6}{24}{zocalo 8x2}{figure.4.6}{}}
\BKM@entry{id=17,open,dest={73656374696F6E2E342E35},srcline={86}}{342E3520636170616369746F722030312E207546}
\@writefile{toc}{\contentsline {section}{\numberline {4.5}capacitor 01. uF}{25}{section.4.5}\protected@file@percent }
\@writefile{lof}{\contentsline {figure}{\numberline {4.7}{\ignorespaces capacitor 01. uF}}{25}{figure.4.7}\protected@file@percent }
\newlabel{fig:placa_4}{{4.7}{25}{capacitor 01. uF}{figure.4.7}{}}
\BKM@entry{id=18,open,dest={73656374696F6E2E342E36},srcline={101}}{342E36204C454473}
\@writefile{toc}{\contentsline {section}{\numberline {4.6}LEDs}{26}{section.4.6}\protected@file@percent }
\@writefile{lof}{\contentsline {figure}{\numberline {4.8}{\ignorespaces capacitor 01. uF}}{26}{figure.4.8}\protected@file@percent }
\newlabel{fig:placa_4}{{4.8}{26}{capacitor 01. uF}{figure.4.8}{}}
\@writefile{lof}{\contentsline {figure}{\numberline {4.9}{\ignorespaces capacitor 01. uF}}{27}{figure.4.9}\protected@file@percent }
\newlabel{fig:placa_4}{{4.9}{27}{capacitor 01. uF}{figure.4.9}{}}
\BKM@entry{id=19,open,dest={73656374696F6E2E342E37},srcline={124}}{342E372050696E65732048656D62726173}
\@writefile{toc}{\contentsline {section}{\numberline {4.7}Pines Hembras}{28}{section.4.7}\protected@file@percent }
\@writefile{lof}{\contentsline {figure}{\numberline {4.10}{\ignorespaces capacitor 01. uF}}{28}{figure.4.10}\protected@file@percent }
\newlabel{fig:placa_4}{{4.10}{28}{capacitor 01. uF}{figure.4.10}{}}
\BKM@entry{id=20,open,dest={73656374696F6E2E342E38},srcline={136}}{342E3820426F726E6572617320646F626C6573}
\@writefile{toc}{\contentsline {section}{\numberline {4.8}Borneras dobles}{29}{section.4.8}\protected@file@percent }
\@writefile{lof}{\contentsline {figure}{\numberline {4.11}{\ignorespaces capacitor 01. uF}}{29}{figure.4.11}\protected@file@percent }
\newlabel{fig:placa_4}{{4.11}{29}{capacitor 01. uF}{figure.4.11}{}}
\BKM@entry{id=21,open,dest={73656374696F6E2E342E39},srcline={149}}{342E392050757368627574746F6E205C28426F745C3336336E2064652072657365745C29}
\@writefile{toc}{\contentsline {section}{\numberline {4.9}Pushbutton (Botón de reset)}{30}{section.4.9}\protected@file@percent }
\@writefile{lof}{\contentsline {figure}{\numberline {4.12}{\ignorespaces capacitor 01. uF}}{30}{figure.4.12}\protected@file@percent }
\newlabel{fig:placa_4}{{4.12}{30}{capacitor 01. uF}{figure.4.12}{}}
\BKM@entry{id=22,open,dest={73656374696F6E2E342E3130},srcline={162}}{342E31302052656C6520355663}
\@writefile{toc}{\contentsline {section}{\numberline {4.10}Rele 5Vc}{31}{section.4.10}\protected@file@percent }
\@writefile{lof}{\contentsline {figure}{\numberline {4.13}{\ignorespaces capacitor 01. uF}}{31}{figure.4.13}\protected@file@percent }
\newlabel{fig:placa_4}{{4.13}{31}{capacitor 01. uF}{figure.4.13}{}}
\BKM@entry{id=23,open,dest={73656374696F6E2E342E3131},srcline={176}}{342E313120436170616369746F72657320656C656374726F6C697469636F73}
\@writefile{toc}{\contentsline {section}{\numberline {4.11}Capacitores electroliticos}{32}{section.4.11}\protected@file@percent }
\@writefile{lof}{\contentsline {figure}{\numberline {4.14}{\ignorespaces capacitor 01. uF}}{32}{figure.4.14}\protected@file@percent }
\newlabel{fig:placa_4}{{4.14}{32}{capacitor 01. uF}{figure.4.14}{}}
\BKM@entry{id=24,open,dest={73656374696F6E2E342E3132},srcline={188}}{342E313220496E7465677261646F20554C4E32303033}
\@writefile{toc}{\contentsline {section}{\numberline {4.12}Integrado ULN2003}{33}{section.4.12}\protected@file@percent }
\@writefile{lof}{\contentsline {figure}{\numberline {4.15}{\ignorespaces capacitor 01. uF}}{33}{figure.4.15}\protected@file@percent }
\newlabel{fig:placa_4}{{4.15}{33}{capacitor 01. uF}{figure.4.15}{}}
\BKM@entry{id=25,open,dest={73656374696F6E2E342E3133},srcline={199}}{342E3133205765656D6F73204431204D696E69}
\@writefile{toc}{\contentsline {section}{\numberline {4.13}Weemos D1 Mini}{34}{section.4.13}\protected@file@percent }
\@writefile{lof}{\contentsline {figure}{\numberline {4.16}{\ignorespaces capacitor 01. uF}}{34}{figure.4.16}\protected@file@percent }
\newlabel{fig:placa_4}{{4.16}{34}{capacitor 01. uF}{figure.4.16}{}}
\BKM@entry{id=26,open,dest={73656374696F6E2E342E3134},srcline={210}}{342E31342050616E74616C6C61204F4C45442031323878333220706978656C6573}
\@writefile{toc}{\contentsline {section}{\numberline {4.14}Pantalla OLED 128x32 pixeles}{35}{section.4.14}\protected@file@percent }
\@writefile{lof}{\contentsline {figure}{\numberline {4.17}{\ignorespaces capacitor 01. uF}}{35}{figure.4.17}\protected@file@percent }
\newlabel{fig:placa_4}{{4.17}{35}{capacitor 01. uF}{figure.4.17}{}}
\ttl@finishall
