\relax 
\providecommand\hyper@newdestlabel[2]{}
\@writefile{toc}{\contentsline {chapter}{\numberline {C}Jupyter}{243}{appendix.Alph3}\protected@file@percent }
\@writefile{lof}{\addvspace {10\p@ }}
\@writefile{lot}{\addvspace {10\p@ }}
\@writefile{toc}{\contentsline {subsection}{\numberline {C.0.1}Introducción}{243}{subsection.Alph3.0.1}\protected@file@percent }
\newlabel{introducciuxf3n}{{C.0.1}{243}{Introducción}{subsection.Alph3.0.1}{}}
\@setckpt{./anexos/anexo_jupyter_tesis/anexo_jupyter_tesis}{
\setcounter{page}{255}
\setcounter{equation}{0}
\setcounter{enumi}{7}
\setcounter{enumii}{0}
\setcounter{enumiii}{0}
\setcounter{enumiv}{0}
\setcounter{footnote}{0}
\setcounter{mpfootnote}{1}
\setcounter{part}{0}
\setcounter{chapter}{3}
\setcounter{section}{0}
\setcounter{subsection}{1}
\setcounter{subsubsection}{0}
\setcounter{paragraph}{0}
\setcounter{subparagraph}{0}
\setcounter{figure}{0}
\setcounter{table}{0}
\setcounter{float@type}{16}
\setcounter{Item}{29}
\setcounter{Hfootnote}{24}
\setcounter{Hy@AnnotLevel}{0}
\setcounter{bookmark@seq@number}{81}
\setcounter{BibCnt}{3}
\setcounter{NAT@ctr}{183}
\setcounter{lstnumber}{3}
\setcounter{tcbbreakpart}{1}
\setcounter{tcblayer}{0}
\setcounter{tcolorbox@number}{12}
\setcounter{caption@flags}{0}
\setcounter{continuedfloat}{0}
\setcounter{parentequation}{0}
\setcounter{FancyVerbLine}{1}
\setcounter{LT@tables}{0}
\setcounter{LT@chunks}{0}
\setcounter{section@level}{2}
\setcounter{maskedRefs}{0}
\setcounter{lstlisting}{0}
}
