<?xml version="1.0" standalone="no"?>
 <!DOCTYPE svg PUBLIC "-//W3C//DTD SVG 1.1//EN" 
 "http://www.w3.org/Graphics/SVG/1.1/DTD/svg11.dtd"> 
<svg xmlns="http://www.w3.org/2000/svg" version="1.1" 
    width="11.0693cm" height="6.24332cm" viewBox="0 0 43580 24580 ">
<title>SVG Picture created as lacerar_wemos-F_SilkS.svg date 2020/02/20 09:39:53 </title>
  <desc>Picture generated by PCBNEW </desc>
<g style="fill:#000000; fill-opacity:1;stroke:#000000; stroke-opacity:1;
stroke-linecap:round; stroke-linejoin:round; "
 transform="translate(0 0) scale(1 1)">
</g>
<g style="fill:#000000; fill-opacity:0.0; 
stroke:#000000; stroke-width:-0.000393701; stroke-opacity:1; 
stroke-linecap:round; stroke-linejoin:round;">
</g>
<g style="fill:#008484; fill-opacity:0.0; 
stroke:#008484; stroke-width:-0.000393701; stroke-opacity:1; 
stroke-linecap:round; stroke-linejoin:round;">
</g>
<g style="fill:#008484; fill-opacity:0.0; 
stroke:#008484; stroke-width:47.2441; stroke-opacity:1; 
stroke-linecap:round; stroke-linejoin:round;">
<path d="M42723 11573
L42723 7573
" />
<path d="M39723 11573
L42723 11573
" />
<path d="M39723 7573
L39723 11573
" />
<path d="M42723 7573
L39723 7573
" />
<path d="M42223 7573
L42223 11573
" />
<path d="M4887 10274
L4887 19455
" />
<path d="M7604 9274
L17615 9274
" />
<path d="M4887 19455
L17615 19455
" />
<path d="M18454 18621
L18454 10113
" />
</g>
<g style="fill:#008484; fill-opacity:1.0; 
stroke:#008484; stroke-width:59.0551; stroke-opacity:1; 
stroke-linecap:round; stroke-linejoin:round;">
<path style="fill:#008484; fill-opacity:1.0; 
stroke:#008484; stroke-width:59.0551; stroke-opacity:1; 
stroke-linecap:round; stroke-linejoin:round;fill-rule:evenodd;"
d="M 15420.9,8865.16
14920.9,8865.16
15170.9,9115.16
" /> 
</g>
<g style="fill:#008484; fill-opacity:1.0; 
stroke:#008484; stroke-width:47.2441; stroke-opacity:1; 
stroke-linecap:round; stroke-linejoin:round;">
</g>
<g style="fill:#008484; fill-opacity:0.0; 
stroke:#008484; stroke-width:47.2441; stroke-opacity:1; 
stroke-linecap:round; stroke-linejoin:round;">
<path d="M7604 9274
L7604 10274
" />
<path d="M7604 10274
L4887 10274
" />
<path d="M18454.4 10113.2 A838.583 838.583 0.0 0 0 17615.8 9274.61 " />
<path d="M17615.8 19455.7 A838.583 838.583 0.0 0 0 18454.4 18617.1 " />
<circle cx="17680.4" cy="22197.8" r="1622.05" /> 
<path d="M16074 22197
L19286 22197
" />
<path d="M16074 22182
L19286 22182
" />
<path d="M16074 22166
L19286 22166
" />
<path d="M16074 22150
L19286 22150
" />
<path d="M16075 22134
L19285 22134
" />
<path d="M16075 22119
L19285 22119
" />
<path d="M16076 22103
L17270 22103
" />
<path d="M18089 22103
L19284 22103
" />
<path d="M16077 22087
L17270 22087
" />
<path d="M18089 22087
L19283 22087
" />
<path d="M16078 22071
L17270 22071
" />
<path d="M18089 22071
L19282 22071
" />
<path d="M16080 22056
L17270 22056
" />
<path d="M18089 22056
L19280 22056
" />
<path d="M16081 22040
L17270 22040
" />
<path d="M18089 22040
L19279 22040
" />
<path d="M16083 22024
L17270 22024
" />
<path d="M18089 22024
L19277 22024
" />
<path d="M16085 22008
L17270 22008
" />
<path d="M18089 22008
L19275 22008
" />
<path d="M16086 21993
L17270 21993
" />
<path d="M18089 21993
L19274 21993
" />
<path d="M16089 21977
L17270 21977
" />
<path d="M18089 21977
L19271 21977
" />
<path d="M16091 21961
L17270 21961
" />
<path d="M18089 21961
L19269 21961
" />
<path d="M16093 21945
L17270 21945
" />
<path d="M18089 21945
L19267 21945
" />
<path d="M16096 21930
L17270 21930
" />
<path d="M18089 21930
L19264 21930
" />
<path d="M16098 21913
L17270 21913
" />
<path d="M18089 21913
L19261 21913
" />
<path d="M16101 21898
L17270 21898
" />
<path d="M18089 21898
L19259 21898
" />
<path d="M16104 21882
L17270 21882
" />
<path d="M18089 21882
L19256 21882
" />
<path d="M16108 21866
L17270 21866
" />
<path d="M18089 21866
L19252 21866
" />
<path d="M16111 21850
L17270 21850
" />
<path d="M18089 21850
L19249 21850
" />
<path d="M16115 21835
L17270 21835
" />
<path d="M18089 21835
L19245 21835
" />
<path d="M16118 21819
L17270 21819
" />
<path d="M18089 21819
L19242 21819
" />
<path d="M16122 21803
L17270 21803
" />
<path d="M18089 21803
L19238 21803
" />
<path d="M16126 21787
L17270 21787
" />
<path d="M18089 21787
L19234 21787
" />
<path d="M16130 21772
L17270 21772
" />
<path d="M18089 21772
L19230 21772
" />
<path d="M16135 21756
L17270 21756
" />
<path d="M18089 21756
L19225 21756
" />
<path d="M16139 21740
L17270 21740
" />
<path d="M18089 21740
L19221 21740
" />
<path d="M16144 21725
L17270 21725
" />
<path d="M18089 21725
L19216 21725
" />
<path d="M16149 21709
L17270 21709
" />
<path d="M18089 21709
L19211 21709
" />
<path d="M16154 21693
L17270 21693
" />
<path d="M18089 21693
L19206 21693
" />
<path d="M16159 21677
L17270 21677
" />
<path d="M18089 21677
L19201 21677
" />
<path d="M16164 21662
L17270 21662
" />
<path d="M18089 21662
L19196 21662
" />
<path d="M16170 21646
L17270 21646
" />
<path d="M18089 21646
L19190 21646
" />
<path d="M16176 21630
L17270 21630
" />
<path d="M18089 21630
L19184 21630
" />
<path d="M16182 21614
L17270 21614
" />
<path d="M18089 21614
L19178 21614
" />
<path d="M16188 21599
L17270 21599
" />
<path d="M18089 21599
L19172 21599
" />
<path d="M16194 21583
L17270 21583
" />
<path d="M18089 21583
L19166 21583
" />
<path d="M16201 21567
L17270 21567
" />
<path d="M18089 21567
L19159 21567
" />
<path d="M16208 21551
L17270 21551
" />
<path d="M18089 21551
L19152 21551
" />
<path d="M16215 21536
L17270 21536
" />
<path d="M18089 21536
L19145 21536
" />
<path d="M16222 21520
L17270 21520
" />
<path d="M18089 21520
L19138 21520
" />
<path d="M16229 21504
L17270 21504
" />
<path d="M18089 21504
L19131 21504
" />
<path d="M16237 21488
L17270 21488
" />
<path d="M18089 21488
L19123 21488
" />
<path d="M16244 21473
L17270 21473
" />
<path d="M18089 21473
L19116 21473
" />
<path d="M16252 21457
L17270 21457
" />
<path d="M18089 21457
L19108 21457
" />
<path d="M16260 21441
L17270 21441
" />
<path d="M18089 21441
L19100 21441
" />
<path d="M16269 21425
L17270 21425
" />
<path d="M18089 21425
L19091 21425
" />
<path d="M16278 21410
L17270 21410
" />
<path d="M18089 21410
L19082 21410
" />
<path d="M16286 21394
L17270 21394
" />
<path d="M18089 21394
L19074 21394
" />
<path d="M16295 21378
L17270 21378
" />
<path d="M18089 21378
L19065 21378
" />
<path d="M16305 21362
L17270 21362
" />
<path d="M18089 21362
L19055 21362
" />
<path d="M16314 21347
L17270 21347
" />
<path d="M18089 21347
L19046 21347
" />
<path d="M16324 21331
L17270 21331
" />
<path d="M18089 21331
L19036 21331
" />
<path d="M16334 21315
L17270 21315
" />
<path d="M18089 21315
L19026 21315
" />
<path d="M16345 21299
L17270 21299
" />
<path d="M18089 21299
L19015 21299
" />
<path d="M16355 21284
L19005 21284
" />
<path d="M16366 21268
L18994 21268
" />
<path d="M16377 21252
L18983 21252
" />
<path d="M16389 21236
L18971 21236
" />
<path d="M16400 21221
L18959 21221
" />
<path d="M16412 21205
L18948 21205
" />
<path d="M16424 21189
L18935 21189
" />
<path d="M16437 21173
L18922 21173
" />
<path d="M16450 21158
L18910 21158
" />
<path d="M16463 21142
L18896 21142
" />
<path d="M16477 21126
L18883 21126
" />
<path d="M16491 21110
L18869 21110
" />
<path d="M16506 21095
L18854 21095
" />
<path d="M16520 21079
L18839 21079
" />
<path d="M16535 21063
L18824 21063
" />
<path d="M16551 21047
L18809 21047
" />
<path d="M16567 21032
L18793 21032
" />
<path d="M16584 21016
L18776 21016
" />
<path d="M16601 21000
L18759 21000
" />
<path d="M16618 20984
L18742 20984
" />
<path d="M16636 20969
L18724 20969
" />
<path d="M16655 20953
L18705 20953
" />
<path d="M16674 20937
L18686 20937
" />
<path d="M16694 20921
L18666 20921
" />
<path d="M16714 20906
L18646 20906
" />
<path d="M16735 20890
L18625 20890
" />
<path d="M16757 20874
L18603 20874
" />
<path d="M16780 20858
L18580 20858
" />
<path d="M16803 20843
L18557 20843
" />
<path d="M16827 20827
L18533 20827
" />
<path d="M16852 20811
L18508 20811
" />
<path d="M16879 20795
L18481 20795
" />
<path d="M16907 20780
L18453 20780
" />
<path d="M16936 20764
L18424 20764
" />
<path d="M16966 20748
L18394 20748
" />
<path d="M16998 20732
L18361 20732
" />
<path d="M17032 20717
L18328 20717
" />
<path d="M17069 20701
L18291 20701
" />
<path d="M17108 20685
L18252 20685
" />
<path d="M17150 20669
L18210 20669
" />
<path d="M17196 20654
L18164 20654
" />
<path d="M17248 20638
L18112 20638
" />
<path d="M17307 20622
L18053 20622
" />
<path d="M17378 20606
L17982 20606
" />
<path d="M17470 20591
L17890 20591
" />
<path d="M16769 23933
L16769 23618
" />
<path d="M16611 23776
L16926 23776
" />
<path d="M15176 20983
L14861 20983
" />
<path d="M15019 20825
L15019 21140
" />
<path d="M14317 24168
L13897 24168
" />
<path d="M14409 24152
L13805 24152
" />
<path d="M14480 24137
L13734 24137
" />
<path d="M14539 24121
L13675 24121
" />
<path d="M14591 24105
L13623 24105
" />
<path d="M14637 24089
L13577 24089
" />
<path d="M14679 24074
L13535 24074
" />
<path d="M14718 24058
L13496 24058
" />
<path d="M14755 24042
L13459 24042
" />
<path d="M14789 24026
L13426 24026
" />
<path d="M14821 24011
L13393 24011
" />
<path d="M14851 23995
L13363 23995
" />
<path d="M14880 23979
L13334 23979
" />
<path d="M14908 23963
L13306 23963
" />
<path d="M14935 23948
L13280 23948
" />
<path d="M14960 23932
L13254 23932
" />
<path d="M14984 23916
L13230 23916
" />
<path d="M15008 23900
L13207 23900
" />
<path d="M15030 23885
L13184 23885
" />
<path d="M15052 23869
L13162 23869
" />
<path d="M15073 23853
L13141 23853
" />
<path d="M15093 23837
L13121 23837
" />
<path d="M15113 23822
L13101 23822
" />
<path d="M15132 23806
L13082 23806
" />
<path d="M15151 23790
L13063 23790
" />
<path d="M15169 23775
L13045 23775
" />
<path d="M15186 23759
L13028 23759
" />
<path d="M15203 23743
L13011 23743
" />
<path d="M15220 23727
L12995 23727
" />
<path d="M15236 23712
L12978 23712
" />
<path d="M15252 23696
L12963 23696
" />
<path d="M15267 23680
L12948 23680
" />
<path d="M15282 23664
L12933 23664
" />
<path d="M15296 23649
L12919 23649
" />
<path d="M15310 23633
L12904 23633
" />
<path d="M15324 23617
L12891 23617
" />
<path d="M15337 23601
L12877 23601
" />
<path d="M15350 23586
L12865 23586
" />
<path d="M15363 23570
L12852 23570
" />
<path d="M15375 23554
L12839 23554
" />
<path d="M15387 23538
L12828 23538
" />
<path d="M15398 23523
L12816 23523
" />
<path d="M15410 23507
L12804 23507
" />
<path d="M15421 23491
L12793 23491
" />
<path d="M15432 23475
L12782 23475
" />
<path d="M13698 23460
L12772 23460
" />
<path d="M15443 23460
L14517 23460
" />
<path d="M13698 23444
L12761 23444
" />
<path d="M15453 23444
L14517 23444
" />
<path d="M13698 23428
L12751 23428
" />
<path d="M15463 23428
L14517 23428
" />
<path d="M13698 23412
L12741 23412
" />
<path d="M15473 23412
L14517 23412
" />
<path d="M13698 23397
L12732 23397
" />
<path d="M15482 23397
L14517 23397
" />
<path d="M13698 23381
L12722 23381
" />
<path d="M15492 23381
L14517 23381
" />
<path d="M13698 23365
L12713 23365
" />
<path d="M15501 23365
L14517 23365
" />
<path d="M13698 23349
L12705 23349
" />
<path d="M15509 23349
L14517 23349
" />
<path d="M13698 23334
L12696 23334
" />
<path d="M15518 23334
L14517 23334
" />
<path d="M13698 23318
L12687 23318
" />
<path d="M15527 23318
L14517 23318
" />
<path d="M13698 23302
L12679 23302
" />
<path d="M15535 23302
L14517 23302
" />
<path d="M13698 23286
L12671 23286
" />
<path d="M15543 23286
L14517 23286
" />
<path d="M13698 23271
L12664 23271
" />
<path d="M15550 23271
L14517 23271
" />
<path d="M13698 23255
L12656 23255
" />
<path d="M15558 23255
L14517 23255
" />
<path d="M13698 23239
L12649 23239
" />
<path d="M15565 23239
L14517 23239
" />
<path d="M13698 23223
L12642 23223
" />
<path d="M15572 23223
L14517 23223
" />
<path d="M13698 23208
L12635 23208
" />
<path d="M15580 23208
L14517 23208
" />
<path d="M13698 23192
L12628 23192
" />
<path d="M15586 23192
L14517 23192
" />
<path d="M13698 23176
L12621 23176
" />
<path d="M15593 23176
L14517 23176
" />
<path d="M13698 23160
L12615 23160
" />
<path d="M15599 23160
L14517 23160
" />
<path d="M13698 23145
L12609 23145
" />
<path d="M15605 23145
L14517 23145
" />
<path d="M13698 23129
L12603 23129
" />
<path d="M15611 23129
L14517 23129
" />
<path d="M13698 23113
L12597 23113
" />
<path d="M15617 23113
L14517 23113
" />
<path d="M13698 23097
L12591 23097
" />
<path d="M15623 23097
L14517 23097
" />
<path d="M13698 23082
L12586 23082
" />
<path d="M15628 23082
L14517 23082
" />
<path d="M13698 23066
L12581 23066
" />
<path d="M15633 23066
L14517 23066
" />
<path d="M13698 23050
L12576 23050
" />
<path d="M15638 23050
L14517 23050
" />
<path d="M13698 23034
L12571 23034
" />
<path d="M15643 23034
L14517 23034
" />
<path d="M13698 23019
L12566 23019
" />
<path d="M15648 23019
L14517 23019
" />
<path d="M13698 23003
L12562 23003
" />
<path d="M15652 23003
L14517 23003
" />
<path d="M13698 22987
L12558 22987
" />
<path d="M15657 22987
L14517 22987
" />
<path d="M13698 22971
L12553 22971
" />
<path d="M15661 22971
L14517 22971
" />
<path d="M13698 22956
L12549 22956
" />
<path d="M15665 22956
L14517 22956
" />
<path d="M13698 22940
L12545 22940
" />
<path d="M15669 22940
L14517 22940
" />
<path d="M13698 22924
L12542 22924
" />
<path d="M15672 22924
L14517 22924
" />
<path d="M13698 22908
L12538 22908
" />
<path d="M15676 22908
L14517 22908
" />
<path d="M13698 22893
L12535 22893
" />
<path d="M15680 22893
L14517 22893
" />
<path d="M13698 22877
L12532 22877
" />
<path d="M15683 22877
L14517 22877
" />
<path d="M13698 22861
L12528 22861
" />
<path d="M15686 22861
L14517 22861
" />
<path d="M13698 22845
L12526 22845
" />
<path d="M15689 22845
L14517 22845
" />
<path d="M13698 22829
L12523 22829
" />
<path d="M15691 22829
L14517 22829
" />
<path d="M13698 22813
L12520 22813
" />
<path d="M15694 22813
L14517 22813
" />
<path d="M13698 22798
L12518 22798
" />
<path d="M15696 22798
L14517 22798
" />
<path d="M13698 22782
L12516 22782
" />
<path d="M15698 22782
L14517 22782
" />
<path d="M13698 22766
L12513 22766
" />
<path d="M15701 22766
L14517 22766
" />
<path d="M13698 22750
L12512 22750
" />
<path d="M15702 22750
L14517 22750
" />
<path d="M13698 22735
L12510 22735
" />
<path d="M15704 22735
L14517 22735
" />
<path d="M13698 22719
L12508 22719
" />
<path d="M15706 22719
L14517 22719
" />
<path d="M13698 22703
L12507 22703
" />
<path d="M15708 22703
L14517 22703
" />
<path d="M13698 22687
L12506 22687
" />
<path d="M15709 22687
L14517 22687
" />
<path d="M13698 22672
L12504 22672
" />
<path d="M15710 22672
L14517 22672
" />
<path d="M13698 22656
L12503 22656
" />
<path d="M15711 22656
L14517 22656
" />
<path d="M15712 22640
L12502 22640
" />
<path d="M15712 22625
L12502 22625
" />
<path d="M15713 22609
L12501 22609
" />
<path d="M15713 22593
L12501 22593
" />
<path d="M15713 22577
L12501 22577
" />
<path d="M15713 22562
L12501 22562
" />
<circle cx="14107.6" cy="22562" r="1622.05" /> 
<path d="M27570 18416
L24719 18416
" />
<path d="M27570 17534
L24719 17534
" />
<path d="M27570 18416
L27570 17534
" />
<path d="M24719 18416
L24719 17534
" />
<path d="M30700 14932
L29542 14932
" />
<path d="M30700 15026
L29542 15026
" />
<path d="M30700 14979
L29542 14979
" />
<path d="M29542 16766
L29672 16766
" />
<path d="M29542 14625
L29542 16766
" />
<path d="M29672 14625
L29542 14625
" />
<path d="M30700 16766
L30570 16766
" />
<path d="M30700 14625
L30700 16766
" />
<path d="M30570 14625
L30700 14625
" />
<path d="M28641.1 19116.9 A1177.17 1177.17 0.0 0 0 30826.1 19725.3 " />
<path d="M30826.1 18508.9 A1177.17 1177.17 0.0 0 0 28641.1 19117.3 " />
<circle cx="29818.2" cy="19117.1" r="984.252" /> 
<path d="M30826 19725
L30826 18508
" />
<path d="M30708 12756
L30708 11540
" />
<circle cx="29700.1" cy="12148.6" r="984.252" /> 
<path d="M30708 11540.4 A1177.17 1177.17 0.0 0 0 28523 12148.8 " />
<path d="M28523 12148.4 A1177.17 1177.17 0.0 0 0 30708 12756.8 " />
<path d="M30648 7656
L30778 7656
" />
<path d="M30778 7656
L30778 9798
" />
<path d="M30778 9798
L30648 9798
" />
<path d="M29751 7656
L29621 7656
" />
<path d="M29621 7656
L29621 9798
" />
<path d="M29621 9798
L29751 9798
" />
<path d="M30778 8010
L29621 8010
" />
<path d="M30778 8058
L29621 8058
" />
<path d="M30778 7963
L29621 7963
" />
<path d="M8255 22900
L8125 22900
" />
<path d="M8125 22900
L8125 20758
" />
<path d="M8125 20758
L8255 20758
" />
<path d="M9152 22900
L9282 22900
" />
<path d="M9282 22900
L9282 20758
" />
<path d="M9282 20758
L9152 20758
" />
<path d="M8125 22546
L9282 22546
" />
<path d="M8125 22499
L9282 22499
" />
<path d="M8125 22593
L9282 22593
" />
<path d="M34278.9 22631.1 A1177.17 1177.17 0.0 0 0 32093.8 22022.7 " />
<path d="M32093.8 23239.1 A1177.17 1177.17 0.0 0 0 34278.9 22630.7 " />
<circle cx="33101.7" cy="22630.9" r="984.252" /> 
<path d="M32093 22022
L32093 23239
" />
<path d="M9802 19813
L9802 20861
" />
<path d="M11826 19813
L9802 19813
" />
<path d="M11826 20861
L9802 20861
" />
<path d="M11826 19813
L11826 20861
" />
<path d="M12326 19813
L12849 19813
" />
<path d="M12849 19813
L12849 20337
" />
<path d="M5184 23857
L5184 19857
" />
<path d="M4684 23857
L7684 23857
" />
<path d="M7684 23857
L7684 19857
" />
<path d="M7684 19857
L4684 19857
" />
<path d="M4684 19857
L4684 23857
" />
<path d="M42723 15747
L42723 11747
" />
<path d="M39723 15747
L42723 15747
" />
<path d="M39723 11747
L39723 15747
" />
<path d="M42723 11747
L39723 11747
" />
<path d="M42223 11747
L42223 15747
" />
<path d="M42145 18156
L42145 22156
" />
<path d="M42645 18156
L39645 18156
" />
<path d="M39645 18156
L39645 22156
" />
<path d="M39645 22156
L42645 22156
" />
<path d="M42645 22156
L42645 18156
" />
<path d="M9070 7776
L9070 8823
" />
<path d="M10093 7776
L9070 7776
" />
<path d="M10093 8823
L9070 8823
" />
<path d="M10093 7776
L10093 8823
" />
<path d="M10593 7776
L11117 7776
" />
<path d="M11117 7776
L11117 8300
" />
<path d="M12747 5404
L13270 5404
" />
<path d="M12747 5928
L12747 5404
" />
<path d="M12747 6428
L13794 6428
" />
<path d="M13794 6428
L13794 8451
" />
<path d="M12747 6428
L12747 8451
" />
<path d="M12747 8451
L13794 8451
" />
<path d="M19597 6569
L19597 6046
" />
<path d="M20121 6569
L19597 6569
" />
<path d="M20621 6569
L20621 5522
" />
<path d="M20621 5522
L23645 5522
" />
<path d="M20621 6569
L23645 6569
" />
<path d="M23645 6569
L23645 5522
" />
<path d="M24558 5522
L24558 6569
" />
<path d="M27582 5522
L24558 5522
" />
<path d="M27582 6569
L24558 6569
" />
<path d="M27582 5522
L27582 6569
" />
<path d="M28082 5522
L28605 5522
" />
<path d="M28605 5522
L28605 6046
" />
<path d="M31538 18132
L31538 20731
" />
<path d="M31538 14589
L31538 17187
" />
<path d="M31538 14589
L39333 14589
" />
<path d="M39333 14589
L39333 20731
" />
<path d="M39333 20731
L31538 20731
" />
<path d="M37660 19313
L37660 18349
" />
<path d="M37660 16006
L37660 16991
" />
<path d="M33487 20042
L34471 20042
" />
<path d="M33133 17680
L32818 17680
" />
<path d="M34471 15317
L33487 15317
" />
<path d="M35810 17680
L36400 17680
" />
<path d="M36400 17680
L38211 16695
" />
<path d="M35810 19097
L33133 19097
" />
<path d="M35810 17680
L35810 19097
" />
<path d="M33133 17680
L33133 19097
" />
<path d="M34471 15317
L34471 16971
" />
<path d="M34471 18388
L34471 20042
" />
<path d="M35259 18388
L33684 16971
" />
<path d="M33684 18388
L33684 16971
" />
<path d="M33684 16971
L35259 16971
" />
<path d="M35259 16971
L35259 18388
" />
<path d="M35259 18388
L33684 18388
" />
<path d="M35259 11302
L33684 11302
" />
<path d="M35259 9884
L35259 11302
" />
<path d="M33684 9884
L35259 9884
" />
<path d="M33684 11302
L33684 9884
" />
<path d="M35259 11302
L33684 9884
" />
<path d="M34471 11302
L34471 12955
" />
<path d="M34471 8231
L34471 9884
" />
<path d="M33133 10593
L33133 12010
" />
<path d="M35810 10593
L35810 12010
" />
<path d="M35810 12010
L33133 12010
" />
<path d="M36400 10593
L38211 9609
" />
<path d="M35810 10593
L36400 10593
" />
<path d="M34471 8231
L33487 8231
" />
<path d="M33133 10593
L32818 10593
" />
<path d="M33487 12955
L34471 12955
" />
<path d="M37660 8920
L37660 9904
" />
<path d="M37660 12227
L37660 11262
" />
<path d="M39333 13644
L31538 13644
" />
<path d="M39333 7502
L39333 13644
" />
<path d="M31538 7502
L39333 7502
" />
<path d="M31538 7502
L31538 10101
" />
<path d="M31538 11046
L31538 13644
" />
<path d="M30645 22658
L29133 22658
" />
<path d="M30645 21934
L29133 21934
" />
<path d="M21731 19400
L21731 23432
" />
<path d="M27987 19400
L27987 23432
" />
<path d="M27987 19400
L21731 19400
" />
<path d="M27987 23432
L21731 23432
" />
<path d="M21731 20416
L20731 20416
" />
<path d="M21731 21416
L20731 21416
" />
<path d="M21731 22416
L20731 22416
" />
<path d="M28263 14991
L28263 16502
" />
<path d="M28987 14991
L28987 16502
" />
<path d="M28987 7668
L28987 9180
" />
<path d="M28263 7668
L28263 9180
" />
<path d="M8436 5680
L8298 5680
" />
<path d="M8436 5329
L8436 5680
" />
<path d="M8318 5329
L8436 5329
" />
<path d="M7278 5329
L5763 5329
" />
<path d="M5763 5329
L5763 8376
" />
<path d="M5763 8376
L7278 8376
" />
<path d="M7432 7833
L7432 5873
" />
<path d="M8436 8026
L8436 8376
" />
<path d="M8436 8026
L8298 8026
" />
<path d="M8318 8376
L8436 8376
" />
<path d="M19125.3 13955.7 A393.701 393.701 0.0 0 0 19125.3 13168.3 " />
<path d="M19125 13955
L19125 14447
" />
<path d="M19125 14447
L27172 14447
" />
<path d="M27172 14447
L27172 12676
" />
<path d="M27172 12676
L19125 12676
" />
<path d="M19125 12676
L19125 13168
" />
<path d="M19101 15628
L27196 15628
" />
<path d="M27196 15628
L27196 11495
" />
<path d="M27196 11495
L19101 11495
" />
<path d="M19101 11495
L19101 15628
" />
</g>
<g style="fill:#008484; fill-opacity:0.0; 
stroke:#008484; stroke-width:59.0551; stroke-opacity:1; 
stroke-linecap:round; stroke-linejoin:round;">
<g transform="rotate(-90 40160.8 7168.31)">
<text x="40160.8" y="7365.16"
textLength="777.278" font-size="524.934" lengthAdjust="spacingAndGlyphs"
text-anchor="middle" opacity="0">J9</text>
</g>
<path d="M39945 7299
L40226 7299
L40282 7318
L40320 7355
L40338 7412
L40338 7449
" />
<path d="M40338 7093
L40338 7018
L40320 6980
L40301 6962
L40245 6924
L40170 6905
L40020 6905
L39982 6924
L39963 6943
L39945 6980
L39945 7055
L39963 7093
L39982 7112
L40020 7130
L40113 7130
L40151 7112
L40170 7093
L40188 7055
L40188 6980
L40170 6943
L40151 6924
L40113 6905
" />
<g transform="rotate(-90 9432.41 5829.72)">
<text x="9432.41" y="6026.57"
textLength="2064.02" font-size="524.934" lengthAdjust="spacingAndGlyphs"
text-anchor="middle" opacity="0">3.2mm</text>
</g>
<path d="M9216 6767
L9216 6523
L9366 6654
L9366 6598
L9385 6560
L9404 6542
L9441 6523
L9535 6523
L9573 6542
L9591 6560
L9610 6598
L9610 6710
L9591 6748
L9573 6767
" />
<path d="M9573 6354
L9591 6335
L9610 6354
L9591 6373
L9573 6354
L9610 6354
" />
<path d="M9254 6185
L9235 6167
L9216 6129
L9216 6035
L9235 5998
L9254 5979
L9291 5960
L9329 5960
L9385 5979
L9610 6204
L9610 5960
" />
<path d="M9610 5792
L9348 5792
" />
<path d="M9385 5792
L9366 5773
L9348 5735
L9348 5679
L9366 5642
L9404 5623
L9610 5623
" />
<path d="M9404 5623
L9366 5604
L9348 5567
L9348 5511
L9366 5473
L9404 5454
L9610 5454
" />
<path d="M9610 5267
L9348 5267
" />
<path d="M9385 5267
L9366 5248
L9348 5211
L9348 5154
L9366 5117
L9404 5098
L9610 5098
" />
<path d="M9404 5098
L9366 5079
L9348 5042
L9348 4986
L9366 4948
L9404 4929
L9610 4929
" />
<text x="12109.6" y="24432.1"
textLength="2064.02" font-size="524.934" lengthAdjust="spacingAndGlyphs"
text-anchor="middle" opacity="0">3.2mm</text>
<path d="M11172 24019
L11415 24019
L11284 24169
L11340 24169
L11378 24188
L11397 24207
L11415 24244
L11415 24338
L11397 24375
L11378 24394
L11340 24413
L11228 24413
L11190 24394
L11172 24375
" />
<path d="M11584 24375
L11603 24394
L11584 24413
L11565 24394
L11584 24375
L11584 24413
" />
<path d="M11753 24057
L11772 24038
L11809 24019
L11903 24019
L11940 24038
L11959 24057
L11978 24094
L11978 24132
L11959 24188
L11734 24413
L11978 24413
" />
<path d="M12147 24413
L12147 24150
" />
<path d="M12147 24188
L12165 24169
L12203 24150
L12259 24150
L12297 24169
L12315 24207
L12315 24413
" />
<path d="M12315 24207
L12334 24169
L12372 24150
L12428 24150
L12465 24169
L12484 24207
L12484 24413
" />
<path d="M12672 24413
L12672 24150
" />
<path d="M12672 24188
L12690 24169
L12728 24150
L12784 24150
L12821 24169
L12840 24207
L12840 24413
" />
<path d="M12840 24207
L12859 24169
L12896 24150
L12953 24150
L12990 24169
L13009 24207
L13009 24413
" />
<text x="38054.5" y="5337.6"
textLength="2064.02" font-size="524.934" lengthAdjust="spacingAndGlyphs"
text-anchor="middle" opacity="0">3.2mm</text>
<path d="M37117 4925
L37360 4925
L37229 5075
L37285 5075
L37323 5093
L37342 5112
L37360 5150
L37360 5243
L37342 5281
L37323 5300
L37285 5318
L37173 5318
L37135 5300
L37117 5281
" />
<path d="M37529 5281
L37548 5300
L37529 5318
L37510 5300
L37529 5281
L37529 5318
" />
<path d="M37698 4962
L37717 4943
L37754 4925
L37848 4925
L37885 4943
L37904 4962
L37923 5000
L37923 5037
L37904 5093
L37679 5318
L37923 5318
" />
<path d="M38091 5318
L38091 5056
" />
<path d="M38091 5093
L38110 5075
L38148 5056
L38204 5056
L38241 5075
L38260 5112
L38260 5318
" />
<path d="M38260 5112
L38279 5075
L38316 5056
L38373 5056
L38410 5075
L38429 5112
L38429 5318
" />
<path d="M38616 5318
L38616 5056
" />
<path d="M38616 5093
L38635 5075
L38673 5056
L38729 5056
L38766 5075
L38785 5112
L38785 5318
" />
<path d="M38785 5112
L38804 5075
L38841 5056
L38898 5056
L38935 5075
L38954 5112
L38954 5318
" />
<text x="36076.1" y="21774.6"
textLength="2064.02" font-size="524.934" lengthAdjust="spacingAndGlyphs"
text-anchor="middle" opacity="0">3.2mm</text>
<path d="M35138 21362
L35382 21362
L35251 21512
L35307 21512
L35344 21530
L35363 21549
L35382 21587
L35382 21680
L35363 21718
L35344 21737
L35307 21755
L35194 21755
L35157 21737
L35138 21718
" />
<path d="M35551 21718
L35569 21737
L35551 21755
L35532 21737
L35551 21718
L35551 21755
" />
<path d="M35719 21399
L35738 21380
L35776 21362
L35869 21362
L35907 21380
L35926 21399
L35944 21437
L35944 21474
L35926 21530
L35701 21755
L35944 21755
" />
<path d="M36113 21755
L36113 21493
" />
<path d="M36113 21530
L36132 21512
L36169 21493
L36226 21493
L36263 21512
L36282 21549
L36282 21755
" />
<path d="M36282 21549
L36301 21512
L36338 21493
L36394 21493
L36432 21512
L36451 21549
L36451 21755
" />
<path d="M36638 21755
L36638 21493
" />
<path d="M36638 21530
L36657 21512
L36694 21493
L36751 21493
L36788 21512
L36807 21549
L36807 21755
" />
<path d="M36807 21549
L36826 21512
L36863 21493
L36919 21493
L36957 21512
L36976 21549
L36976 21755
" />
<g transform="rotate(-90 5574.15 17926.2)">
<text x="5574.15" y="18123"
textLength="864.173" font-size="524.934" lengthAdjust="spacingAndGlyphs"
text-anchor="middle" opacity="0">U1</text>
</g>
<path d="M5358 18226
L5677 18226
L5714 18207
L5733 18188
L5752 18151
L5752 18076
L5733 18038
L5714 18019
L5677 18001
L5358 18001
" />
<path d="M5752 17607
L5752 17832
" />
<path d="M5752 17719
L5358 17719
L5414 17757
L5452 17794
L5471 17832
" />
<text x="18113.5" y="24314"
textLength="845.426" font-size="524.934" lengthAdjust="spacingAndGlyphs"
text-anchor="middle" opacity="0">C2</text>
<path d="M18047 24257
L18029 24276
L17972 24295
L17935 24295
L17879 24276
L17841 24238
L17822 24201
L17804 24126
L17804 24070
L17822 23995
L17841 23957
L17879 23920
L17935 23901
L17972 23901
L18029 23920
L18047 23939
" />
<path d="M18197 23939
L18216 23920
L18254 23901
L18347 23901
L18385 23920
L18404 23939
L18422 23976
L18422 24014
L18404 24070
L18179 24295
L18422 24295
" />
<text x="15662.7" y="21115.2"
textLength="845.426" font-size="524.934" lengthAdjust="spacingAndGlyphs"
text-anchor="middle" opacity="0">C1</text>
<path d="M15597 21058
L15578 21077
L15522 21096
L15484 21096
L15428 21077
L15390 21040
L15372 21002
L15353 20927
L15353 20871
L15372 20796
L15390 20758
L15428 20721
L15484 20702
L15522 20702
L15578 20721
L15597 20740
" />
<path d="M15972 21096
L15747 21096
" />
<path d="M15859 21096
L15859 20702
L15822 20758
L15784 20796
L15747 20815
" />
<text x="26145" y="19058.1"
textLength="845.426" font-size="524.934" lengthAdjust="spacingAndGlyphs"
text-anchor="middle" opacity="0">C3</text>
<path d="M26079 19001
L26060 19020
L26004 19039
L25966 19039
L25910 19020
L25873 18983
L25854 18945
L25835 18870
L25835 18814
L25854 18739
L25873 18701
L25910 18664
L25966 18645
L26004 18645
L26060 18664
L26079 18683
" />
<path d="M26210 18645
L26454 18645
L26323 18795
L26379 18795
L26416 18814
L26435 18833
L26454 18870
L26454 18964
L26435 19001
L26416 19020
L26379 19039
L26266 19039
L26229 19020
L26210 19001
" />
<g transform="rotate(-90 31056.4 16961.6)">
<text x="31056.4" y="17158.5"
textLength="845.426" font-size="524.934" lengthAdjust="spacingAndGlyphs"
text-anchor="middle" opacity="0">D1</text>
</g>
<path d="M31234 17252
L30840 17252
L30840 17158
L30859 17102
L30897 17064
L30934 17045
L31009 17027
L31065 17027
L31140 17045
L31178 17064
L31215 17102
L31234 17158
L31234 17252
" />
<path d="M31234 16652
L31234 16877
" />
<path d="M31234 16764
L30840 16764
L30897 16802
L30934 16839
L30953 16877
" />
<g transform="rotate(-90 30121.4 16449.8)">
<text x="30121.4" y="16646.7"
textLength="470.472" font-size="524.934" lengthAdjust="spacingAndGlyphs"
text-anchor="middle" opacity="0">K</text>
</g>
<path d="M30299 16552
L29905 16552
" />
<path d="M30299 16327
L30074 16496
" />
<path d="M29905 16327
L30130 16552
" />
<text x="29818.2" y="20000.3"
textLength="845.426" font-size="524.934" lengthAdjust="spacingAndGlyphs"
text-anchor="middle" opacity="0">D2</text>
<path d="M29527 19981
L29527 19587
L29621 19587
L29677 19606
L29715 19644
L29733 19681
L29752 19756
L29752 19812
L29733 19887
L29715 19925
L29677 19962
L29621 19981
L29527 19981
" />
<path d="M29902 19625
L29921 19606
L29958 19587
L30052 19587
L30090 19606
L30108 19625
L30127 19662
L30127 19700
L30108 19756
L29883 19981
L30127 19981
" />
<text x="30918.6" y="11223.4"
textLength="845.426" font-size="524.934" lengthAdjust="spacingAndGlyphs"
text-anchor="middle" opacity="0">D3</text>
<path d="M30628 11204
L30628 10810
L30721 10810
L30778 10829
L30815 10867
L30834 10904
L30853 10979
L30853 11035
L30834 11110
L30815 11148
L30778 11185
L30721 11204
L30628 11204
" />
<path d="M30984 10810
L31227 10810
L31096 10960
L31152 10960
L31190 10979
L31209 10998
L31227 11035
L31227 11129
L31209 11167
L31190 11185
L31152 11204
L31040 11204
L31002 11185
L30984 11167
" />
<g transform="rotate(-90 31125.3 7778.54)">
<text x="31125.3" y="7975.39"
textLength="845.426" font-size="524.934" lengthAdjust="spacingAndGlyphs"
text-anchor="middle" opacity="0">D4</text>
</g>
<path d="M31303 8069
L30909 8069
L30909 7975
L30928 7919
L30965 7881
L31003 7862
L31078 7844
L31134 7844
L31209 7862
L31247 7881
L31284 7919
L31303 7975
L31303 8069
" />
<path d="M31040 7506
L31303 7506
" />
<path d="M30890 7600
L31172 7694
L31172 7450
" />
<text x="30180.4" y="8733.27"
textLength="470.472" font-size="524.934" lengthAdjust="spacingAndGlyphs"
text-anchor="middle" opacity="0">K</text>
<path d="M30077 8714
L30077 8320
" />
<path d="M30302 8714
L30133 8489
" />
<path d="M30302 8320
L30077 8545
" />
<text x="9698.16" y="21981.3"
textLength="845.426" font-size="524.934" lengthAdjust="spacingAndGlyphs"
text-anchor="middle" opacity="0">D5</text>
<path d="M9407 21962
L9407 21568
L9501 21568
L9557 21587
L9595 21625
L9613 21662
L9632 21737
L9632 21793
L9613 21868
L9595 21906
L9557 21943
L9501 21962
L9407 21962
" />
<path d="M9988 21568
L9801 21568
L9782 21756
L9801 21737
L9838 21718
L9932 21718
L9970 21737
L9988 21756
L10007 21793
L10007 21887
L9988 21925
L9970 21943
L9932 21962
L9838 21962
L9801 21943
L9782 21925
" />
<g transform="rotate(-90 8841.86 22010.8)">
<text x="8841.86" y="22207.7"
textLength="470.472" font-size="524.934" lengthAdjust="spacingAndGlyphs"
text-anchor="middle" opacity="0">K</text>
</g>
<path d="M9019 22113
L8626 22113
" />
<path d="M9019 21888
L8794 22057
" />
<path d="M8626 21888
L8851 22113
" />
<text x="31853.7" y="21479.3"
textLength="845.426" font-size="524.934" lengthAdjust="spacingAndGlyphs"
text-anchor="middle" opacity="0">D6</text>
<path d="M31563 21460
L31563 21066
L31656 21066
L31713 21085
L31750 21123
L31769 21160
L31788 21235
L31788 21291
L31769 21366
L31750 21404
L31713 21441
L31656 21460
L31563 21460
" />
<path d="M32125 21066
L32050 21066
L32013 21085
L31994 21104
L31956 21160
L31938 21235
L31938 21385
L31956 21423
L31975 21441
L32013 21460
L32088 21460
L32125 21441
L32144 21423
L32163 21385
L32163 21291
L32144 21254
L32125 21235
L32088 21216
L32013 21216
L31975 21235
L31956 21254
L31938 21291
" />
<text x="13379.3" y="20554.1"
textLength="751.687" font-size="524.934" lengthAdjust="spacingAndGlyphs"
text-anchor="middle" opacity="0">J1</text>
<path d="M13248 20141
L13248 20422
L13229 20479
L13191 20516
L13135 20535
L13098 20535
" />
<path d="M13641 20535
L13416 20535
" />
<path d="M13529 20535
L13529 20141
L13491 20197
L13454 20235
L13416 20254
" />
<text x="5121.39" y="24392.7"
textLength="751.687" font-size="524.934" lengthAdjust="spacingAndGlyphs"
text-anchor="middle" opacity="0">J2</text>
<path d="M4990 23980
L4990 24261
L4971 24317
L4933 24355
L4877 24373
L4840 24373
" />
<path d="M5158 24017
L5177 23999
L5215 23980
L5308 23980
L5346 23999
L5365 24017
L5383 24055
L5383 24092
L5365 24148
L5140 24373
L5383 24373
" />
<g transform="rotate(-90 40003.3 16193.9)">
<text x="40003.3" y="16390.7"
textLength="751.687" font-size="524.934" lengthAdjust="spacingAndGlyphs"
text-anchor="middle" opacity="0">J3</text>
</g>
<path d="M39787 16325
L40068 16325
L40125 16343
L40162 16381
L40181 16437
L40181 16475
" />
<path d="M39787 16175
L39787 15931
L39937 16062
L39937 16006
L39956 15968
L39975 15950
L40012 15931
L40106 15931
L40143 15950
L40162 15968
L40181 16006
L40181 16118
L40162 16156
L40143 16175
" />
<g transform="rotate(-90 39845.8 22552.2)">
<text x="39845.8" y="22749"
textLength="751.687" font-size="524.934" lengthAdjust="spacingAndGlyphs"
text-anchor="middle" opacity="0">J4</text>
</g>
<path d="M39630 22683
L39911 22683
L39967 22702
L40005 22739
L40023 22795
L40023 22833
" />
<path d="M39761 22327
L40023 22327
" />
<path d="M39611 22420
L39892 22514
L39892 22270
" />
<text x="11568.2" y="8536.42"
textLength="751.687" font-size="524.934" lengthAdjust="spacingAndGlyphs"
text-anchor="middle" opacity="0">J5</text>
<path d="M11437 8123
L11437 8405
L11418 8461
L11380 8498
L11324 8517
L11287 8517
" />
<path d="M11811 8123
L11624 8123
L11605 8311
L11624 8292
L11661 8273
L11755 8273
L11793 8292
L11811 8311
L11830 8348
L11830 8442
L11811 8480
L11793 8498
L11755 8517
L11661 8517
L11624 8498
L11605 8480
" />
<text x="12404.9" y="5790.35"
textLength="751.687" font-size="524.934" lengthAdjust="spacingAndGlyphs"
text-anchor="middle" opacity="0">J6</text>
<path d="M12273 5377
L12273 5659
L12254 5715
L12217 5752
L12161 5771
L12123 5771
" />
<path d="M12629 5377
L12554 5377
L12517 5396
L12498 5415
L12461 5471
L12442 5546
L12442 5696
L12461 5734
L12479 5752
L12517 5771
L12592 5771
L12629 5752
L12648 5734
L12667 5696
L12667 5602
L12648 5565
L12629 5546
L12592 5527
L12517 5527
L12479 5546
L12461 5565
L12442 5602
" />
<text x="19038.7" y="6144.69"
textLength="751.687" font-size="524.934" lengthAdjust="spacingAndGlyphs"
text-anchor="middle" opacity="0">J7</text>
<path d="M18907 5732
L18907 6013
L18888 6069
L18851 6107
L18794 6125
L18757 6125
" />
<path d="M19057 5732
L19319 5732
L19151 6125
" />
<text x="29147" y="6065.94"
textLength="751.687" font-size="524.934" lengthAdjust="spacingAndGlyphs"
text-anchor="middle" opacity="0">J8</text>
<path d="M29015 5653
L29015 5934
L28997 5990
L28959 6028
L28903 6047
L28865 6047
" />
<path d="M29259 5822
L29221 5803
L29203 5784
L29184 5747
L29184 5728
L29203 5690
L29221 5672
L29259 5653
L29334 5653
L29371 5672
L29390 5690
L29409 5728
L29409 5747
L29390 5784
L29371 5803
L29334 5822
L29259 5822
L29221 5840
L29203 5859
L29184 5897
L29184 5972
L29203 6009
L29221 6028
L29259 6047
L29334 6047
L29371 6028
L29390 6009
L29409 5972
L29409 5897
L29390 5859
L29371 5840
L29334 5822
" />
<text x="38546.6" y="21272.6"
textLength="845.426" font-size="524.934" lengthAdjust="spacingAndGlyphs"
text-anchor="middle" opacity="0">K1</text>
<path d="M38255 21253
L38255 20860
" />
<path d="M38480 21253
L38312 21028
" />
<path d="M38480 20860
L38255 21085
" />
<path d="M38855 21253
L38630 21253
" />
<path d="M38743 21253
L38743 20860
L38705 20916
L38668 20953
L38630 20972
" />
<text x="34107.6" y="7365.16"
textLength="845.426" font-size="524.934" lengthAdjust="spacingAndGlyphs"
text-anchor="middle" opacity="0">K2</text>
<path d="M33817 7346
L33817 6952
" />
<path d="M34041 7346
L33873 7121
" />
<path d="M34041 6952
L33817 7177
" />
<path d="M34191 6990
L34210 6971
L34248 6952
L34341 6952
L34379 6971
L34398 6990
L34416 7027
L34416 7065
L34398 7121
L34173 7346
L34416 7346
" />
<text x="30711.9" y="21794.3"
textLength="845.426" font-size="524.934" lengthAdjust="spacingAndGlyphs"
text-anchor="middle" opacity="0">R1</text>
<path d="M30646 21775
L30515 21588
" />
<path d="M30421 21775
L30421 21381
L30571 21381
L30608 21400
L30627 21419
L30646 21456
L30646 21513
L30627 21550
L30608 21569
L30571 21588
L30421 21588
" />
<path d="M31021 21775
L30796 21775
" />
<path d="M30908 21775
L30908 21381
L30871 21438
L30833 21475
L30796 21494
" />
<g transform="rotate(-90 28381.2 21416.3)">
<text x="28381.2" y="21613.2"
textLength="864.173" font-size="524.934" lengthAdjust="spacingAndGlyphs"
text-anchor="middle" opacity="0">U3</text>
</g>
<path d="M28165 21716
L28484 21716
L28521 21697
L28540 21678
L28559 21641
L28559 21566
L28540 21528
L28521 21510
L28484 21491
L28165 21491
" />
<path d="M28165 21341
L28165 21097
L28315 21228
L28315 21172
L28334 21135
L28353 21116
L28390 21097
L28484 21097
L28521 21116
L28540 21135
L28559 21172
L28559 21285
L28540 21322
L28521 21341
" />
<g transform="rotate(-90 28546.6 13959.6)">
<text x="28546.6" y="14156.5"
textLength="845.426" font-size="524.934" lengthAdjust="spacingAndGlyphs"
text-anchor="middle" opacity="0">R2</text>
</g>
<path d="M28724 14025
L28537 14156
" />
<path d="M28724 14250
L28330 14250
L28330 14100
L28349 14062
L28368 14044
L28405 14025
L28462 14025
L28499 14044
L28518 14062
L28537 14100
L28537 14250
" />
<path d="M28368 13875
L28349 13856
L28330 13819
L28330 13725
L28349 13687
L28368 13669
L28405 13650
L28443 13650
L28499 13669
L28724 13894
L28724 13650
" />
<g transform="rotate(-90 27798.6 8546.26)">
<text x="27798.6" y="8743.11"
textLength="845.426" font-size="524.934" lengthAdjust="spacingAndGlyphs"
text-anchor="middle" opacity="0">R3</text>
</g>
<path d="M27976 8611
L27789 8743
" />
<path d="M27976 8836
L27582 8836
L27582 8686
L27601 8649
L27620 8630
L27657 8611
L27714 8611
L27751 8630
L27770 8649
L27789 8686
L27789 8836
" />
<path d="M27582 8480
L27582 8236
L27732 8368
L27732 8311
L27751 8274
L27770 8255
L27807 8236
L27901 8236
L27939 8255
L27957 8274
L27976 8311
L27976 8424
L27957 8461
L27939 8480
" />
<g transform="rotate(-90 7798.56 6853.35)">
<text x="7798.56" y="7050.2"
textLength="1857.8" font-size="524.934" lengthAdjust="spacingAndGlyphs"
text-anchor="middle" opacity="0">RESET</text>
</g>
<path d="M7976 7425
L7789 7556
" />
<path d="M7976 7650
L7582 7650
L7582 7500
L7601 7462
L7620 7443
L7657 7425
L7714 7425
L7751 7443
L7770 7462
L7789 7500
L7789 7650
" />
<path d="M7770 7256
L7770 7125
" />
<path d="M7976 7068
L7976 7256
L7582 7256
L7582 7068
" />
<path d="M7957 6918
L7976 6862
L7976 6768
L7957 6731
L7939 6712
L7901 6693
L7864 6693
L7826 6712
L7807 6731
L7789 6768
L7770 6843
L7751 6881
L7732 6900
L7695 6918
L7657 6918
L7620 6900
L7601 6881
L7582 6843
L7582 6750
L7601 6693
" />
<path d="M7770 6525
L7770 6394
" />
<path d="M7976 6337
L7976 6525
L7582 6525
L7582 6337
" />
<path d="M7582 6225
L7582 6000
" />
<path d="M7976 6112
L7582 6112
" />
<g transform="rotate(-90 18731.6 13562)">
<text x="18731.6" y="13758.9"
textLength="864.173" font-size="524.934" lengthAdjust="spacingAndGlyphs"
text-anchor="middle" opacity="0">U2</text>
</g>
<path d="M18516 13861
L18834 13861
L18872 13843
L18890 13824
L18909 13786
L18909 13711
L18890 13674
L18872 13655
L18834 13636
L18516 13636
" />
<path d="M18553 13468
L18534 13449
L18516 13412
L18516 13318
L18534 13280
L18553 13262
L18591 13243
L18628 13243
L18684 13262
L18909 13487
L18909 13243
" />
<g >
</g>
</g>
<g style="fill:#000000; fill-opacity:0.0; 
stroke:#000000; stroke-width:59.0551; stroke-opacity:1; 
stroke-linecap:round; stroke-linejoin:round;">
</g>
<g style="fill:#C2C200; fill-opacity:0.0; 
stroke:#C2C200; stroke-width:59.0551; stroke-opacity:1; 
stroke-linecap:round; stroke-linejoin:round;">
</g>
<g style="fill:#C2C200; fill-opacity:0.0; 
stroke:#C2C200; stroke-width:39.3701; stroke-opacity:1; 
stroke-linecap:round; stroke-linejoin:round;">
<path d="M43507 4747
L43507 24432
" />
<path d="M4452 4747
L43507 4747
" />
<path d="M4452 24432
L4452 4747
" />
<path d="M43507 24432
L4452 24432
" />
<g >
</g>
<g >
</g>
<g >
</g>
<g >
</g>
<g >
</g>
<g >
</g>
<g >
</g>
<g >
</g>
<g >
</g>
<g >
</g>
<g >
</g>
<g >
</g>
<g >
</g>
<g >
</g>
<g >
</g>
<g >
</g>
<g >
</g>
<g >
</g>
<g >
</g>
<g >
</g>
<g >
</g>
<g >
</g>
<g >
</g>
<g >
</g>
<g >
</g>
<g >
</g>
<g >
</g>
<g >
</g>
<g >
</g>
<g >
</g>
<g >
</g>
<g >
</g>
</g> 
</svg>
