<?xml version="1.0" standalone="no"?>
 <!DOCTYPE svg PUBLIC "-//W3C//DTD SVG 1.1//EN" 
 "http://www.w3.org/Graphics/SVG/1.1/DTD/svg11.dtd"> 
<svg xmlns="http://www.w3.org/2000/svg" version="1.1" 
    width="11.0693cm" height="6.24332cm" viewBox="0 0 43580 24580 ">
<title>SVG Picture created as lacerar_wemos-Dwgs_User.svg date 2020/02/20 09:39:53 </title>
  <desc>Picture generated by PCBNEW </desc>
<g style="fill:#000000; fill-opacity:1;stroke:#000000; stroke-opacity:1;
stroke-linecap:round; stroke-linejoin:round; "
 transform="translate(0 0) scale(1 1)">
</g>
<g style="fill:#000000; fill-opacity:0.0; 
stroke:#000000; stroke-width:-0.000393701; stroke-opacity:1; 
stroke-linecap:round; stroke-linejoin:round;">
</g>
<g style="fill:#C2C2C2; fill-opacity:0.0; 
stroke:#C2C2C2; stroke-width:-0.000393701; stroke-opacity:1; 
stroke-linecap:round; stroke-linejoin:round;">
</g>
<g style="fill:#C2C2C2; fill-opacity:0.0; 
stroke:#C2C2C2; stroke-width:59.0551; stroke-opacity:1; 
stroke-linecap:round; stroke-linejoin:round;">
<g transform="rotate(-270 1735.56 14589.6)">
<text x="1735.56" y="14786.4"
textLength="3488.85" font-size="524.934" lengthAdjust="spacingAndGlyphs"
text-anchor="middle" opacity="0">50,000 mm</text>
</g>
<path d="M1951 13164
L1951 12977
L1763 12958
L1782 12977
L1801 13014
L1801 13108
L1782 13145
L1763 13164
L1726 13183
L1632 13183
L1594 13164
L1576 13145
L1557 13108
L1557 13014
L1576 12977
L1594 12958
" />
<path d="M1951 13427
L1951 13464
L1932 13502
L1913 13520
L1876 13539
L1801 13558
L1707 13558
L1632 13539
L1594 13520
L1576 13502
L1557 13464
L1557 13427
L1576 13389
L1594 13370
L1632 13352
L1707 13333
L1801 13333
L1876 13352
L1913 13370
L1932 13389
L1951 13427
" />
<path d="M1576 13745
L1557 13745
L1519 13727
L1501 13708
" />
<path d="M1951 13989
L1951 14027
L1932 14064
L1913 14083
L1876 14102
L1801 14120
L1707 14120
L1632 14102
L1594 14083
L1576 14064
L1557 14027
L1557 13989
L1576 13952
L1594 13933
L1632 13914
L1707 13895
L1801 13895
L1876 13914
L1913 13933
L1932 13952
L1951 13989
" />
<path d="M1951 14364
L1951 14402
L1932 14439
L1913 14458
L1876 14477
L1801 14495
L1707 14495
L1632 14477
L1594 14458
L1576 14439
L1557 14402
L1557 14364
L1576 14327
L1594 14308
L1632 14289
L1707 14270
L1801 14270
L1876 14289
L1913 14308
L1932 14327
L1951 14364
" />
<path d="M1951 14739
L1951 14777
L1932 14814
L1913 14833
L1876 14852
L1801 14870
L1707 14870
L1632 14852
L1594 14833
L1576 14814
L1557 14777
L1557 14739
L1576 14702
L1594 14683
L1632 14664
L1707 14645
L1801 14645
L1876 14664
L1913 14683
L1932 14702
L1951 14739
" />
<path d="M1557 15339
L1819 15339
" />
<path d="M1782 15339
L1801 15358
L1819 15395
L1819 15451
L1801 15489
L1763 15508
L1557 15508
" />
<path d="M1763 15508
L1801 15526
L1819 15564
L1819 15620
L1801 15658
L1763 15676
L1557 15676
" />
<path d="M1557 15864
L1819 15864
" />
<path d="M1782 15864
L1801 15883
L1819 15920
L1819 15976
L1801 16014
L1763 16033
L1557 16033
" />
<path d="M1763 16033
L1801 16051
L1819 16089
L1819 16145
L1801 16183
L1763 16201
L1557 16201
" />
<path d="M2247 4747
L2247 24432
" />
<path d="M4215 4747
L2016 4747
" />
<path d="M4215 24432
L2016 24432
" />
<path d="M2247 24432
L2016 23988
" />
<path d="M2247 24432
L2478 23988
" />
<path d="M2247 4747
L2016 5190
" />
<path d="M2247 4747
L2478 5190
" />
</g>
<g style="fill:#C2C2C2; fill-opacity:0.0; 
stroke:#C2C2C2; stroke-width:39.3701; stroke-opacity:1; 
stroke-linecap:round; stroke-linejoin:round;">
<path d="M15722 9333
L15722 19412
" />
<path d="M15722 19412
L18399 19412
" />
<path d="M18399 19412
L18399 9333
" />
<path d="M18399 9333
L15722 9333
" />
<path d="M15722 9333
L18399 12010
" />
<path d="M15722 10121
L18399 12798
" />
<path d="M15722 10908
L18399 13585
" />
<path d="M15722 11695
L18399 14373
" />
<path d="M15722 12483
L18399 15160
" />
<path d="M15722 13270
L18399 15947
" />
<path d="M15722 14058
L18399 16735
" />
<path d="M15722 14845
L18399 17522
" />
<path d="M15722 15632
L18399 18310
" />
<path d="M15722 16420
L18399 19097
" />
<path d="M15722 17207
L17926 19412
" />
<path d="M15722 17995
L17139 19412
" />
<path d="M15722 18782
L16352 19412
" />
<path d="M16509 9333
L18399 11223
" />
<path d="M17316 9353
L18399 10436
" />
<path d="M18084 9333
L18399 9648
" />
<g >
</g>
<g >
</g>
<g >
</g>
<g >
</g>
<g >
</g>
<g >
</g>
<g >
</g>
<g >
</g>
<g >
</g>
<g >
</g>
<g >
</g>
<g >
</g>
<g >
</g>
<g >
</g>
<g >
</g>
<g >
</g>
<g >
</g>
<g >
</g>
<g >
</g>
<g >
</g>
<g >
</g>
<g >
</g>
<g >
</g>
<g >
</g>
<g >
</g>
<g >
</g>
<g >
</g>
<g >
</g>
<g >
</g>
<g >
</g>
<g >
</g>
<g >
</g>
</g>
<g style="fill:#000000; fill-opacity:0.0; 
stroke:#000000; stroke-width:39.3701; stroke-opacity:1; 
stroke-linecap:round; stroke-linejoin:round;">
</g>
<g style="fill:#C2C200; fill-opacity:0.0; 
stroke:#C2C200; stroke-width:39.3701; stroke-opacity:1; 
stroke-linecap:round; stroke-linejoin:round;">
<path d="M43507 4747
L43507 24432
" />
<path d="M4452 4747
L43507 4747
" />
<path d="M4452 24432
L4452 4747
" />
<path d="M43507 24432
L4452 24432
" />
<g >
</g>
<g >
</g>
<g >
</g>
<g >
</g>
<g >
</g>
<g >
</g>
<g >
</g>
<g >
</g>
<g >
</g>
<g >
</g>
<g >
</g>
<g >
</g>
<g >
</g>
<g >
</g>
<g >
</g>
<g >
</g>
<g >
</g>
<g >
</g>
<g >
</g>
<g >
</g>
<g >
</g>
<g >
</g>
<g >
</g>
<g >
</g>
<g >
</g>
<g >
</g>
<g >
</g>
<g >
</g>
<g >
</g>
<g >
</g>
<g >
</g>
<g >
</g>
</g> 
</svg>
