<?xml version="1.0" standalone="no"?>
 <!DOCTYPE svg PUBLIC "-//W3C//DTD SVG 1.1//EN" 
 "http://www.w3.org/Graphics/SVG/1.1/DTD/svg11.dtd"> 
<svg xmlns="http://www.w3.org/2000/svg" version="1.1" 
    width="11.0693cm" height="6.24332cm" viewBox="0 0 43580 24580 ">
<title>SVG Picture created as lacerar_wemos-F_Fab.svg date 2020/02/20 09:39:53 </title>
  <desc>Picture generated by PCBNEW </desc>
<g style="fill:#000000; fill-opacity:1;stroke:#000000; stroke-opacity:1;
stroke-linecap:round; stroke-linejoin:round; "
 transform="translate(0 0) scale(1 1)">
</g>
<g style="fill:#000000; fill-opacity:0.0; 
stroke:#000000; stroke-width:-0.000393701; stroke-opacity:1; 
stroke-linecap:round; stroke-linejoin:round;">
</g>
<g style="fill:#848484; fill-opacity:0.0; 
stroke:#848484; stroke-width:-0.000393701; stroke-opacity:1; 
stroke-linecap:round; stroke-linejoin:round;">
</g>
<g style="fill:#848484; fill-opacity:0.0; 
stroke:#848484; stroke-width:39.3701; stroke-opacity:1; 
stroke-linecap:round; stroke-linejoin:round;">
<path d="M39747 7605
L39747 11542
" />
<path d="M42700 7605
L39747 7605
" />
<path d="M42700 11542
L42700 7605
" />
<path d="M39747 11542
L42700 11542
" />
<path d="M42227 11522
L42227 7625
" />
<path d="M4938 10325
L4938 19404
" />
<path d="M4938 19404
L17615 19404
" />
<path d="M18403 18617
L18403 10113
" />
<path d="M14777 9325
L7655 9325
" />
<path d="M7655 9325
L7655 10325
" />
<path d="M7655 10325
L4938 10325
" />
<path d="M17615 9325
L15564 9325
" />
<path d="M14777 9325
L15170 9719
" />
<path d="M15170 9719
L15564 9325
" />
<path d="M18403.2 10113.2 A787.402 787.402 0.0 0 0 17615.8 9325.79 " />
<path d="M17607.9 19404.5 A787.441 787.441 0.0 0 0 18403.2 18625 " />
<circle cx="17680.4" cy="22197.8" r="1574.8" /> 
<path d="M16992 23546
L16992 23231
" />
<path d="M16834 23389
L17149 23389
" />
<path d="M14953 21370
L14638 21370
" />
<path d="M14795 21212
L14795 21527
" />
<circle cx="14107.6" cy="22562" r="1574.8" /> 
<path d="M27522 18369
L27522 17581
" />
<path d="M27522 17581
L24767 17581
" />
<path d="M24767 17581
L24767 18369
" />
<path d="M24767 18369
L27522 18369
" />
<path d="M30652 14939
L29589 14939
" />
<path d="M30652 15018
L29589 15018
" />
<path d="M30652 14979
L29589 14979
" />
<path d="M30121 17195
L30121 16719
" />
<path d="M30121 14195
L30121 14672
" />
<path d="M30652 16719
L30652 14672
" />
<path d="M29589 16719
L30652 16719
" />
<path d="M29589 14672
L29589 16719
" />
<path d="M30652 14672
L29589 14672
" />
<path d="M30802.5 18538.5 A1141.73 1141.73 0.0 1 0 30802.5 19695.7 " />
<circle cx="29818.2" cy="19117.1" r="984.252" /> 
<path d="M30802 19695
L30802 18538
" />
<path d="M30684 12727
L30684 11570
" />
<circle cx="29700.1" cy="12148.6" r="984.252" /> 
<path d="M30684.4 11570 A1141.73 1141.73 0.0 1 0 30684.4 12727.2 " />
<path d="M30731 7703
L29668 7703
" />
<path d="M29668 7703
L29668 9750
" />
<path d="M29668 9750
L30731 9750
" />
<path d="M30731 9750
L30731 7703
" />
<path d="M30200 7227
L30200 7703
" />
<path d="M30200 10227
L30200 9750
" />
<path d="M30731 8010
L29668 8010
" />
<path d="M30731 8050
L29668 8050
" />
<path d="M30731 7971
L29668 7971
" />
<path d="M8172 22853
L9235 22853
" />
<path d="M9235 22853
L9235 20806
" />
<path d="M9235 20806
L8172 20806
" />
<path d="M8172 20806
L8172 22853
" />
<path d="M8704 23329
L8704 22853
" />
<path d="M8704 20329
L8704 20806
" />
<path d="M8172 22546
L9235 22546
" />
<path d="M8172 22506
L9235 22506
" />
<path d="M8172 22585
L9235 22585
" />
<path d="M32117.4 23209.5 A1141.73 1141.73 0.0 1 0 32117.5 22052.3 " />
<circle cx="33101.7" cy="22630.9" r="984.252" /> 
<path d="M32117 22052
L32117 23209
" />
<path d="M12826 20087
L12826 20837
" />
<path d="M12826 20837
L9826 20837
" />
<path d="M9826 20837
L9826 19837
" />
<path d="M9826 19837
L12576 19837
" />
<path d="M12576 19837
L12826 20087
" />
<path d="M5180 19908
L5180 23806
" />
<path d="M7660 19888
L4708 19888
" />
<path d="M4708 19888
L4708 23825
" />
<path d="M4708 23825
L7660 23825
" />
<path d="M7660 23825
L7660 19888
" />
<path d="M39747 11778
L39747 15715
" />
<path d="M42700 11778
L39747 11778
" />
<path d="M42700 15715
L42700 11778
" />
<path d="M39747 15715
L42700 15715
" />
<path d="M42227 15695
L42227 11798
" />
<path d="M42148 22105
L42148 18207
" />
<path d="M39668 22125
L42621 22125
" />
<path d="M42621 22125
L42621 18187
" />
<path d="M42621 18187
L39668 18187
" />
<path d="M39668 18187
L39668 22125
" />
<path d="M11093 8050
L11093 8800
" />
<path d="M11093 8800
L9093 8800
" />
<path d="M9093 8800
L9093 7800
" />
<path d="M9093 7800
L10843 7800
" />
<path d="M10843 7800
L11093 8050
" />
<path d="M12770 5678
L13020 5428
" />
<path d="M12770 8428
L12770 5678
" />
<path d="M13770 8428
L12770 8428
" />
<path d="M13770 5428
L13770 8428
" />
<path d="M13020 5428
L13770 5428
" />
<path d="M19871 6546
L19621 6296
" />
<path d="M23621 6546
L19871 6546
" />
<path d="M23621 5546
L23621 6546
" />
<path d="M19621 5546
L23621 5546
" />
<path d="M19621 6296
L19621 5546
" />
<path d="M28582 5796
L28582 6546
" />
<path d="M28582 6546
L24582 6546
" />
<path d="M24582 6546
L24582 5546
" />
<path d="M24582 5546
L28332 5546
" />
<path d="M28332 5546
L28582 5796
" />
</g>
<g style="fill:#848484; fill-opacity:0.0; 
stroke:#848484; stroke-width:47.2441; stroke-opacity:1; 
stroke-linecap:round; stroke-linejoin:round;">
<path d="M31578 14628
L39294 14628
" />
<path d="M39294 14628
L39294 20691
" />
<path d="M39294 20691
L31578 20691
" />
<path d="M31578 20691
L31578 14628
" />
<path d="M31578 13605
L31578 7542
" />
<path d="M39294 13605
L31578 13605
" />
<path d="M39294 7542
L39294 13605
" />
<path d="M31578 7542
L39294 7542
" />
</g>
<g style="fill:#848484; fill-opacity:0.0; 
stroke:#848484; stroke-width:39.3701; stroke-opacity:1; 
stroke-linecap:round; stroke-linejoin:round;">
<path d="M30597 22611
L30597 21981
" />
<path d="M30597 21981
L29180 21981
" />
<path d="M29180 21981
L29180 22611
" />
<path d="M29180 22611
L30597 22611
" />
<path d="M30889 22296
L30597 22296
" />
<path d="M28889 22296
L29180 22296
" />
<circle cx="26837.9" cy="21416.3" r="728.346" /> 
<path d="M25420 19447
L27940 19447
" />
<path d="M27940 19447
L27940 23384
" />
<path d="M27940 23384
L25420 23384
" />
<path d="M25420 23384
L25420 19447
" />
<path d="M21778 19447
L25420 19447
" />
<path d="M25420 19447
L25420 23384
" />
<path d="M25420 23384
L21778 23384
" />
<path d="M21778 23384
L21778 19447
" />
<path d="M21778 20416
L20278 20416
" />
<path d="M21778 21416
L20278 21416
" />
<path d="M21778 22416
L20278 22416
" />
<path d="M28625 16747
L28625 16455
" />
<path d="M28625 14747
L28625 15038
" />
<path d="M28940 16455
L28940 15038
" />
<path d="M28310 16455
L28940 16455
" />
<path d="M28310 15038
L28310 16455
" />
<path d="M28940 15038
L28310 15038
" />
<path d="M28940 7715
L28310 7715
" />
<path d="M28310 7715
L28310 9132
" />
<path d="M28310 9132
L28940 9132
" />
<path d="M28940 9132
L28940 7715
" />
<path d="M28625 7424
L28625 7715
" />
<path d="M28625 9424
L28625 9132
" />
<path d="M4511 7502
L4511 6203
" />
<path d="M5810 5376
L8389 5376
" />
<path d="M8389 5376
L8389 5632
" />
<path d="M8389 8073
L8389 8329
" />
<path d="M8389 8329
L5810 8329
" />
<path d="M7385 5632
L7385 8073
" />
<path d="M7385 5632
L8389 5632
" />
<path d="M7385 8073
L8389 8073
" />
<path d="M5810 5376
L5810 8329
" />
<path d="M5810 7502
L4511 7502
" />
<path d="M5810 6203
L4511 6203
" />
<path d="M19148 14418
L19148 12312
" />
<path d="M19148 12312
L27148 12312
" />
<path d="M27148 12312
L27148 14812
" />
<path d="M27148 14812
L19542 14812
" />
<path d="M19542 14812
L19148 14418
" />
<path d="M19125 15562
L27172 15562
" />
<path d="M27172 15562
L27172 11562
" />
<path d="M27172 11562
L19125 11562
" />
<path d="M19125 11562
L19125 15562
" />
<g >
</g>
<g >
</g>
<g >
</g>
<g >
</g>
<g >
</g>
<g >
</g>
<g >
</g>
<g >
</g>
<g >
</g>
<g >
</g>
<g >
</g>
<g >
</g>
<g >
</g>
<g >
</g>
<g >
</g>
<g >
</g>
<g >
</g>
<g >
</g>
<g >
</g>
<g >
</g>
<g >
</g>
<g >
</g>
<g >
</g>
<g >
</g>
<g >
</g>
<g >
</g>
<g >
</g>
<g >
</g>
<g >
</g>
<g >
</g>
<g >
</g>
</g>
<g style="fill:#848484; fill-opacity:0.0; 
stroke:#848484; stroke-width:39.3701; stroke-opacity:1; 
stroke-linecap:round; stroke-linejoin:round;">
</g>
<g style="fill:#848484; fill-opacity:0.0; 
stroke:#848484; stroke-width:59.0551; stroke-opacity:1; 
stroke-linecap:round; stroke-linejoin:round;">
<g transform="rotate(-90 43223.8 9573.82)">
<text x="43223.8" y="9770.67"
textLength="3601.33" font-size="524.934" lengthAdjust="spacingAndGlyphs"
text-anchor="middle" opacity="0">salida_REL2</text>
</g>
<path d="M43383 11261
L43401 11223
L43401 11148
L43383 11111
L43345 11092
L43326 11092
L43289 11111
L43270 11148
L43270 11204
L43251 11242
L43214 11261
L43195 11261
L43158 11242
L43139 11204
L43139 11148
L43158 11111
" />
<path d="M43401 10754
L43195 10754
L43158 10773
L43139 10811
L43139 10886
L43158 10923
" />
<path d="M43383 10754
L43401 10792
L43401 10886
L43383 10923
L43345 10942
L43308 10942
L43270 10923
L43251 10886
L43251 10792
L43233 10754
" />
<path d="M43401 10511
L43383 10548
L43345 10567
L43008 10567
" />
<path d="M43401 10361
L43139 10361
" />
<path d="M43008 10361
L43026 10379
L43045 10361
L43026 10342
L43008 10361
L43045 10361
" />
<path d="M43401 10005
L43008 10005
" />
<path d="M43383 10005
L43401 10042
L43401 10117
L43383 10154
L43364 10173
L43326 10192
L43214 10192
L43176 10173
L43158 10154
L43139 10117
L43139 10042
L43158 10005
" />
<path d="M43401 9648
L43195 9648
L43158 9667
L43139 9705
L43139 9780
L43158 9817
" />
<path d="M43383 9648
L43401 9686
L43401 9780
L43383 9817
L43345 9836
L43308 9836
L43270 9817
L43251 9780
L43251 9686
L43233 9648
" />
<path d="M43439 9555
L43439 9255
" />
<path d="M43401 8936
L43214 9067
" />
<path d="M43401 9161
L43008 9161
L43008 9011
L43026 8973
L43045 8955
L43083 8936
L43139 8936
L43176 8955
L43195 8973
L43214 9011
L43214 9161
" />
<path d="M43195 8767
L43195 8636
" />
<path d="M43401 8580
L43401 8767
L43008 8767
L43008 8580
" />
<path d="M43401 8223
L43401 8411
L43008 8411
" />
<path d="M43045 8111
L43026 8092
L43008 8055
L43008 7961
L43026 7924
L43045 7905
L43083 7886
L43120 7886
L43176 7905
L43401 8130
L43401 7886
" />
<g transform="rotate(-90 41223.8 9573.82)">
<text x="41223.8" y="9770.67"
textLength="751.687" font-size="524.934" lengthAdjust="spacingAndGlyphs"
text-anchor="middle" opacity="0">J9</text>
</g>
<path d="M41008 9705
L41289 9705
L41345 9723
L41383 9761
L41401 9817
L41401 9855
" />
<path d="M41401 9498
L41401 9423
L41383 9386
L41364 9367
L41308 9330
L41233 9311
L41083 9311
L41045 9330
L41026 9348
L41008 9386
L41008 9461
L41026 9498
L41045 9517
L41083 9536
L41176 9536
L41214 9517
L41233 9498
L41251 9461
L41251 9386
L41233 9348
L41214 9330
L41176 9311
" />
<text x="11076.1" y="5258.86"
textLength="4501.22" font-size="524.934" lengthAdjust="spacingAndGlyphs"
text-anchor="middle" opacity="0">tornillo_3.2mm</text>
<path d="M8901 4977
L9051 4977
" />
<path d="M8957 4846
L8957 5183
L8976 5221
L9013 5240
L9051 5240
" />
<path d="M9238 5240
L9201 5221
L9182 5202
L9163 5165
L9163 5052
L9182 5015
L9201 4996
L9238 4977
L9295 4977
L9332 4996
L9351 5015
L9370 5052
L9370 5165
L9351 5202
L9332 5221
L9295 5240
L9238 5240
" />
<path d="M9538 5240
L9538 4977
" />
<path d="M9538 5052
L9557 5015
L9576 4996
L9613 4977
L9651 4977
" />
<path d="M9782 4977
L9782 5240
" />
<path d="M9782 5015
L9801 4996
L9838 4977
L9895 4977
L9932 4996
L9951 5033
L9951 5240
" />
<path d="M10138 5240
L10138 4977
" />
<path d="M10138 4846
L10119 4865
L10138 4883
L10157 4865
L10138 4846
L10138 4883
" />
<path d="M10382 5240
L10344 5221
L10326 5183
L10326 4846
" />
<path d="M10588 5240
L10551 5221
L10532 5183
L10532 4846
" />
<path d="M10794 5240
L10757 5221
L10738 5202
L10719 5165
L10719 5052
L10738 5015
L10757 4996
L10794 4977
L10851 4977
L10888 4996
L10907 5015
L10926 5052
L10926 5165
L10907 5202
L10888 5221
L10851 5240
L10794 5240
" />
<path d="M11001 5277
L11301 5277
" />
<path d="M11357 4846
L11601 4846
L11469 4996
L11526 4996
L11563 5015
L11582 5033
L11601 5071
L11601 5165
L11582 5202
L11563 5221
L11526 5240
L11413 5240
L11376 5221
L11357 5202
" />
<path d="M11769 5202
L11788 5221
L11769 5240
L11751 5221
L11769 5202
L11769 5240
" />
<path d="M11938 4883
L11957 4865
L11994 4846
L12088 4846
L12125 4865
L12144 4883
L12163 4921
L12163 4958
L12144 5015
L11919 5240
L12163 5240
" />
<path d="M12332 5240
L12332 4977
" />
<path d="M12332 5015
L12350 4996
L12388 4977
L12444 4977
L12482 4996
L12500 5033
L12500 5240
" />
<path d="M12500 5033
L12519 4996
L12557 4977
L12613 4977
L12650 4996
L12669 5033
L12669 5240
" />
<path d="M12857 5240
L12857 4977
" />
<path d="M12857 5015
L12875 4996
L12913 4977
L12969 4977
L13007 4996
L13025 5033
L13025 5240
" />
<path d="M13025 5033
L13044 4996
L13082 4977
L13138 4977
L13175 4996
L13194 5033
L13194 5240
" />
<text x="11076.1" y="6302.17"
textLength="2064.02" font-size="524.934" lengthAdjust="spacingAndGlyphs"
text-anchor="middle" opacity="0">3.2mm</text>
<path d="M10138 5889
L10382 5889
L10251 6039
L10307 6039
L10344 6058
L10363 6077
L10382 6114
L10382 6208
L10363 6245
L10344 6264
L10307 6283
L10194 6283
L10157 6264
L10138 6245
" />
<path d="M10551 6245
L10569 6264
L10551 6283
L10532 6264
L10551 6245
L10551 6283
" />
<path d="M10719 5927
L10738 5908
L10776 5889
L10869 5889
L10907 5908
L10926 5927
L10944 5964
L10944 6002
L10926 6058
L10701 6283
L10944 6283
" />
<path d="M11113 6283
L11113 6020
" />
<path d="M11113 6058
L11132 6039
L11169 6020
L11226 6020
L11263 6039
L11282 6077
L11282 6283
" />
<path d="M11282 6077
L11301 6039
L11338 6020
L11394 6020
L11432 6039
L11451 6077
L11451 6283
" />
<path d="M11638 6283
L11638 6020
" />
<path d="M11638 6058
L11657 6039
L11694 6020
L11751 6020
L11788 6039
L11807 6077
L11807 6283
" />
<path d="M11807 6077
L11826 6039
L11863 6020
L11919 6020
L11957 6039
L11976 6077
L11976 6283
" />
<text x="8054.46" y="24343.5"
textLength="4501.22" font-size="524.934" lengthAdjust="spacingAndGlyphs"
text-anchor="middle" opacity="0">tornillo_3.2mm</text>
<path d="M5879 24062
L6029 24062
" />
<path d="M5935 23931
L5935 24268
L5954 24306
L5992 24324
L6029 24324
" />
<path d="M6217 24324
L6179 24306
L6160 24287
L6142 24249
L6142 24137
L6160 24099
L6179 24081
L6217 24062
L6273 24062
L6310 24081
L6329 24099
L6348 24137
L6348 24249
L6329 24287
L6310 24306
L6273 24324
L6217 24324
" />
<path d="M6517 24324
L6517 24062
" />
<path d="M6517 24137
L6535 24099
L6554 24081
L6592 24062
L6629 24062
" />
<path d="M6760 24062
L6760 24324
" />
<path d="M6760 24099
L6779 24081
L6817 24062
L6873 24062
L6910 24081
L6929 24118
L6929 24324
" />
<path d="M7117 24324
L7117 24062
" />
<path d="M7117 23931
L7098 23949
L7117 23968
L7135 23949
L7117 23931
L7117 23968
" />
<path d="M7360 24324
L7323 24306
L7304 24268
L7304 23931
" />
<path d="M7567 24324
L7529 24306
L7510 24268
L7510 23931
" />
<path d="M7773 24324
L7735 24306
L7717 24287
L7698 24249
L7698 24137
L7717 24099
L7735 24081
L7773 24062
L7829 24062
L7866 24081
L7885 24099
L7904 24137
L7904 24249
L7885 24287
L7866 24306
L7829 24324
L7773 24324
" />
<path d="M7979 24362
L8279 24362
" />
<path d="M8335 23931
L8579 23931
L8448 24081
L8504 24081
L8541 24099
L8560 24118
L8579 24156
L8579 24249
L8560 24287
L8541 24306
L8504 24324
L8391 24324
L8354 24306
L8335 24287
" />
<path d="M8748 24287
L8766 24306
L8748 24324
L8729 24306
L8748 24287
L8748 24324
" />
<path d="M8916 23968
L8935 23949
L8973 23931
L9066 23931
L9104 23949
L9123 23968
L9141 24006
L9141 24043
L9123 24099
L8898 24324
L9141 24324
" />
<path d="M9310 24324
L9310 24062
" />
<path d="M9310 24099
L9329 24081
L9366 24062
L9423 24062
L9460 24081
L9479 24118
L9479 24324
" />
<path d="M9479 24118
L9498 24081
L9535 24062
L9591 24062
L9629 24081
L9648 24118
L9648 24324
" />
<path d="M9835 24324
L9835 24062
" />
<path d="M9835 24099
L9854 24081
L9891 24062
L9947 24062
L9985 24081
L10004 24118
L10004 24324
" />
<path d="M10004 24118
L10022 24081
L10060 24062
L10116 24062
L10154 24081
L10172 24118
L10172 24324
" />
<text x="11095.8" y="23251"
textLength="2064.02" font-size="524.934" lengthAdjust="spacingAndGlyphs"
text-anchor="middle" opacity="0">3.2mm</text>
<path d="M10158 22838
L10402 22838
L10270 22988
L10327 22988
L10364 23007
L10383 23026
L10402 23063
L10402 23157
L10383 23194
L10364 23213
L10327 23232
L10214 23232
L10177 23213
L10158 23194
" />
<path d="M10570 23194
L10589 23213
L10570 23232
L10552 23213
L10570 23194
L10570 23232
" />
<path d="M10739 22876
L10758 22857
L10795 22838
L10889 22838
L10927 22857
L10945 22876
L10964 22913
L10964 22951
L10945 23007
L10720 23232
L10964 23232
" />
<path d="M11133 23232
L11133 22969
" />
<path d="M11133 23007
L11152 22988
L11189 22969
L11245 22969
L11283 22988
L11302 23026
L11302 23232
" />
<path d="M11302 23026
L11320 22988
L11358 22969
L11414 22969
L11452 22988
L11470 23026
L11470 23232
" />
<path d="M11658 23232
L11658 22969
" />
<path d="M11658 23007
L11676 22988
L11714 22969
L11770 22969
L11808 22988
L11826 23026
L11826 23232
" />
<path d="M11826 23026
L11845 22988
L11883 22969
L11939 22969
L11976 22988
L11995 23026
L11995 23232
" />
<text x="39658.8" y="5898.62"
textLength="4501.22" font-size="524.934" lengthAdjust="spacingAndGlyphs"
text-anchor="middle" opacity="0">tornillo_3.2mm</text>
<path d="M37484 5617
L37634 5617
" />
<path d="M37540 5486
L37540 5823
L37559 5861
L37596 5879
L37634 5879
" />
<path d="M37821 5879
L37784 5861
L37765 5842
L37746 5804
L37746 5692
L37765 5654
L37784 5636
L37821 5617
L37877 5617
L37915 5636
L37934 5654
L37952 5692
L37952 5804
L37934 5842
L37915 5861
L37877 5879
L37821 5879
" />
<path d="M38121 5879
L38121 5617
" />
<path d="M38121 5692
L38140 5654
L38158 5636
L38196 5617
L38233 5617
" />
<path d="M38365 5617
L38365 5879
" />
<path d="M38365 5654
L38383 5636
L38421 5617
L38477 5617
L38515 5636
L38533 5673
L38533 5879
" />
<path d="M38721 5879
L38721 5617
" />
<path d="M38721 5486
L38702 5504
L38721 5523
L38740 5504
L38721 5486
L38721 5523
" />
<path d="M38965 5879
L38927 5861
L38908 5823
L38908 5486
" />
<path d="M39171 5879
L39133 5861
L39115 5823
L39115 5486
" />
<path d="M39377 5879
L39340 5861
L39321 5842
L39302 5804
L39302 5692
L39321 5654
L39340 5636
L39377 5617
L39433 5617
L39471 5636
L39490 5654
L39508 5692
L39508 5804
L39490 5842
L39471 5861
L39433 5879
L39377 5879
" />
<path d="M39583 5917
L39883 5917
" />
<path d="M39940 5486
L40183 5486
L40052 5636
L40108 5636
L40146 5654
L40164 5673
L40183 5711
L40183 5804
L40164 5842
L40146 5861
L40108 5879
L39996 5879
L39958 5861
L39940 5842
" />
<path d="M40352 5842
L40371 5861
L40352 5879
L40333 5861
L40352 5842
L40352 5879
" />
<path d="M40521 5523
L40539 5504
L40577 5486
L40671 5486
L40708 5504
L40727 5523
L40746 5561
L40746 5598
L40727 5654
L40502 5879
L40746 5879
" />
<path d="M40914 5879
L40914 5617
" />
<path d="M40914 5654
L40933 5636
L40971 5617
L41027 5617
L41064 5636
L41083 5673
L41083 5879
" />
<path d="M41083 5673
L41102 5636
L41139 5617
L41196 5617
L41233 5636
L41252 5673
L41252 5879
" />
<path d="M41439 5879
L41439 5617
" />
<path d="M41439 5654
L41458 5636
L41496 5617
L41552 5617
L41589 5636
L41608 5673
L41608 5879
" />
<path d="M41608 5673
L41627 5636
L41664 5617
L41721 5617
L41758 5636
L41777 5673
L41777 5879
" />
<text x="36204.1" y="6321.85"
textLength="2064.02" font-size="524.934" lengthAdjust="spacingAndGlyphs"
text-anchor="middle" opacity="0">3.2mm</text>
<path d="M35266 5909
L35510 5909
L35379 6059
L35435 6059
L35472 6078
L35491 6096
L35510 6134
L35510 6228
L35491 6265
L35472 6284
L35435 6303
L35322 6303
L35285 6284
L35266 6265
" />
<path d="M35679 6265
L35697 6284
L35679 6303
L35660 6284
L35679 6265
L35679 6303
" />
<path d="M35847 5946
L35866 5928
L35904 5909
L35997 5909
L36035 5928
L36054 5946
L36072 5984
L36072 6021
L36054 6078
L35829 6303
L36072 6303
" />
<path d="M36241 6303
L36241 6040
" />
<path d="M36241 6078
L36260 6059
L36297 6040
L36354 6040
L36391 6059
L36410 6096
L36410 6303
" />
<path d="M36410 6096
L36429 6059
L36466 6040
L36522 6040
L36560 6059
L36579 6096
L36579 6303
" />
<path d="M36766 6303
L36766 6040
" />
<path d="M36766 6078
L36785 6059
L36822 6040
L36878 6040
L36916 6059
L36935 6096
L36935 6303
" />
<path d="M36935 6096
L36953 6059
L36991 6040
L37047 6040
L37085 6059
L37103 6096
L37103 6303
" />
<text x="39176.5" y="24382.9"
textLength="4501.22" font-size="524.934" lengthAdjust="spacingAndGlyphs"
text-anchor="middle" opacity="0">tornillo_3.2mm</text>
<path d="M37001 24101
L37151 24101
" />
<path d="M37058 23970
L37058 24307
L37076 24345
L37114 24364
L37151 24364
" />
<path d="M37339 24364
L37301 24345
L37282 24326
L37264 24289
L37264 24176
L37282 24139
L37301 24120
L37339 24101
L37395 24101
L37432 24120
L37451 24139
L37470 24176
L37470 24289
L37451 24326
L37432 24345
L37395 24364
L37339 24364
" />
<path d="M37639 24364
L37639 24101
" />
<path d="M37639 24176
L37657 24139
L37676 24120
L37714 24101
L37751 24101
" />
<path d="M37882 24101
L37882 24364
" />
<path d="M37882 24139
L37901 24120
L37939 24101
L37995 24101
L38032 24120
L38051 24157
L38051 24364
" />
<path d="M38239 24364
L38239 24101
" />
<path d="M38239 23970
L38220 23989
L38239 24007
L38257 23989
L38239 23970
L38239 24007
" />
<path d="M38482 24364
L38445 24345
L38426 24307
L38426 23970
" />
<path d="M38689 24364
L38651 24345
L38632 24307
L38632 23970
" />
<path d="M38895 24364
L38857 24345
L38839 24326
L38820 24289
L38820 24176
L38839 24139
L38857 24120
L38895 24101
L38951 24101
L38989 24120
L39007 24139
L39026 24176
L39026 24289
L39007 24326
L38989 24345
L38951 24364
L38895 24364
" />
<path d="M39101 24401
L39401 24401
" />
<path d="M39457 23970
L39701 23970
L39570 24120
L39626 24120
L39663 24139
L39682 24157
L39701 24195
L39701 24289
L39682 24326
L39663 24345
L39626 24364
L39513 24364
L39476 24345
L39457 24326
" />
<path d="M39870 24326
L39888 24345
L39870 24364
L39851 24345
L39870 24326
L39870 24364
" />
<path d="M40038 24007
L40057 23989
L40095 23970
L40188 23970
L40226 23989
L40245 24007
L40263 24045
L40263 24082
L40245 24139
L40020 24364
L40263 24364
" />
<path d="M40432 24364
L40432 24101
" />
<path d="M40432 24139
L40451 24120
L40488 24101
L40545 24101
L40582 24120
L40601 24157
L40601 24364
" />
<path d="M40601 24157
L40620 24120
L40657 24101
L40713 24101
L40751 24120
L40770 24157
L40770 24364
" />
<path d="M40957 24364
L40957 24101
" />
<path d="M40957 24139
L40976 24120
L41013 24101
L41070 24101
L41107 24120
L41126 24157
L41126 24364
" />
<path d="M41126 24157
L41145 24120
L41182 24101
L41238 24101
L41276 24120
L41294 24157
L41294 24364
" />
<text x="36194.2" y="23270.7"
textLength="2064.02" font-size="524.934" lengthAdjust="spacingAndGlyphs"
text-anchor="middle" opacity="0">3.2mm</text>
<path d="M35256 22858
L35500 22858
L35369 23008
L35425 23008
L35463 23026
L35481 23045
L35500 23083
L35500 23176
L35481 23214
L35463 23233
L35425 23251
L35313 23251
L35275 23233
L35256 23214
" />
<path d="M35669 23214
L35688 23233
L35669 23251
L35650 23233
L35669 23214
L35669 23251
" />
<path d="M35838 22895
L35856 22876
L35894 22858
L35988 22858
L36025 22876
L36044 22895
L36062 22933
L36062 22970
L36044 23026
L35819 23251
L36062 23251
" />
<path d="M36231 23251
L36231 22989
" />
<path d="M36231 23026
L36250 23008
L36287 22989
L36344 22989
L36381 23008
L36400 23045
L36400 23251
" />
<path d="M36400 23045
L36419 23008
L36456 22989
L36512 22989
L36550 23008
L36569 23045
L36569 23251
" />
<path d="M36756 23251
L36756 22989
" />
<path d="M36756 23026
L36775 23008
L36812 22989
L36869 22989
L36906 23008
L36925 23045
L36925 23251
" />
<path d="M36925 23045
L36944 23008
L36981 22989
L37037 22989
L37075 23008
L37094 23045
L37094 23251
" />
<g transform="rotate(-90 15170.9 14471.5)">
<text x="15170.9" y="14668.3"
textLength="3545.09" font-size="524.934" lengthAdjust="spacingAndGlyphs"
text-anchor="middle" opacity="0">WeMos_mini</text>
</g>
<path d="M14955 16149
L15349 16055
L15067 15980
L15349 15905
L14955 15811
" />
<path d="M15330 15511
L15349 15549
L15349 15624
L15330 15661
L15292 15680
L15142 15680
L15105 15661
L15086 15624
L15086 15549
L15105 15511
L15142 15493
L15180 15493
L15217 15680
" />
<path d="M15349 15324
L14955 15324
L15236 15193
L14955 15062
L15349 15062
" />
<path d="M15349 14818
L15330 14855
L15311 14874
L15274 14893
L15161 14893
L15124 14874
L15105 14855
L15086 14818
L15086 14762
L15105 14724
L15124 14705
L15161 14687
L15274 14687
L15311 14705
L15330 14724
L15349 14762
L15349 14818
" />
<path d="M15330 14537
L15349 14499
L15349 14424
L15330 14387
L15292 14368
L15274 14368
L15236 14387
L15217 14424
L15217 14480
L15199 14518
L15161 14537
L15142 14537
L15105 14518
L15086 14480
L15086 14424
L15105 14387
" />
<path d="M15386 14293
L15386 13993
" />
<path d="M15349 13899
L15086 13899
" />
<path d="M15124 13899
L15105 13880
L15086 13843
L15086 13787
L15105 13749
L15142 13730
L15349 13730
" />
<path d="M15142 13730
L15105 13712
L15086 13674
L15086 13618
L15105 13580
L15142 13562
L15349 13562
" />
<path d="M15349 13374
L15086 13374
" />
<path d="M14955 13374
L14974 13393
L14992 13374
L14974 13355
L14955 13374
L14992 13374
" />
<path d="M15086 13187
L15349 13187
" />
<path d="M15124 13187
L15105 13168
L15086 13130
L15086 13074
L15105 13037
L15142 13018
L15349 13018
" />
<path d="M15349 12831
L15086 12831
" />
<path d="M14955 12831
L14974 12849
L14992 12831
L14974 12812
L14955 12831
L14992 12831
" />
<g transform="rotate(-90 11233.9 14365.2)">
<text x="11233.9" y="14562"
textLength="864.173" font-size="524.934" lengthAdjust="spacingAndGlyphs"
text-anchor="middle" opacity="0">U1</text>
</g>
<path d="M11018 14665
L11337 14665
L11374 14646
L11393 14627
L11412 14590
L11412 14515
L11393 14477
L11374 14458
L11337 14440
L11018 14440
" />
<path d="M11412 14046
L11412 14271
" />
<path d="M11412 14158
L11018 14158
L11074 14196
L11112 14233
L11130 14271
" />
<text x="19009.2" y="20652.6"
textLength="864.173" font-size="524.934" lengthAdjust="spacingAndGlyphs"
text-anchor="middle" opacity="0">CP</text>
<path d="M18934 20596
L18915 20615
L18859 20633
L18821 20633
L18765 20615
L18727 20577
L18709 20540
L18690 20465
L18690 20408
L18709 20333
L18727 20296
L18765 20258
L18821 20240
L18859 20240
L18915 20258
L18934 20277
" />
<path d="M19102 20633
L19102 20240
L19252 20240
L19290 20258
L19309 20277
L19327 20315
L19327 20371
L19309 20408
L19290 20427
L19252 20446
L19102 20446
" />
<text x="19166.7" y="23979.3"
textLength="845.426" font-size="524.934" lengthAdjust="spacingAndGlyphs"
text-anchor="middle" opacity="0">C2</text>
<path d="M19101 23923
L19082 23941
L19026 23960
L18988 23960
L18932 23941
L18894 23904
L18876 23866
L18857 23791
L18857 23735
L18876 23660
L18894 23623
L18932 23585
L18988 23566
L19026 23566
L19082 23585
L19101 23604
" />
<path d="M19251 23604
L19269 23585
L19307 23566
L19401 23566
L19438 23585
L19457 23604
L19476 23641
L19476 23679
L19457 23735
L19232 23960
L19476 23960
" />
<text x="15141.1" y="22365.2"
textLength="864.173" font-size="524.934" lengthAdjust="spacingAndGlyphs"
text-anchor="middle" opacity="0">CP</text>
<path d="M15066 22308
L15047 22327
L14991 22346
L14953 22346
L14897 22327
L14859 22290
L14841 22252
L14822 22177
L14822 22121
L14841 22046
L14859 22008
L14897 21971
L14953 21952
L14991 21952
L15047 21971
L15066 21990
" />
<path d="M15234 22346
L15234 21952
L15384 21952
L15422 21971
L15441 21990
L15459 22027
L15459 22083
L15441 22121
L15422 22140
L15384 22158
L15234 22158
" />
<text x="15593.8" y="24205.7"
textLength="845.426" font-size="524.934" lengthAdjust="spacingAndGlyphs"
text-anchor="middle" opacity="0">C1</text>
<path d="M15528 24149
L15509 24168
L15453 24186
L15415 24186
L15359 24168
L15321 24130
L15303 24093
L15284 24018
L15284 23961
L15303 23886
L15321 23849
L15359 23812
L15415 23793
L15453 23793
L15509 23812
L15528 23830
" />
<path d="M15903 24186
L15678 24186
" />
<path d="M15790 24186
L15790 23793
L15753 23849
L15715 23886
L15678 23905
" />
<text x="26145" y="17286.4"
textLength="470.472" font-size="524.934" lengthAdjust="spacingAndGlyphs"
text-anchor="middle" opacity="0">C</text>
<path d="M26266 17230
L26248 17248
L26191 17267
L26154 17267
L26098 17248
L26060 17211
L26041 17173
L26023 17098
L26023 17042
L26041 16967
L26060 16930
L26098 16892
L26154 16873
L26191 16873
L26248 16892
L26266 16911
" />
<text x="25948.2" y="18251"
textLength="845.426" font-size="524.934" lengthAdjust="spacingAndGlyphs"
text-anchor="middle" opacity="0">C3</text>
<path d="M25882 18194
L25863 18213
L25807 18232
L25770 18232
L25713 18213
L25676 18175
L25657 18138
L25638 18063
L25638 18007
L25657 17932
L25676 17894
L25713 17857
L25770 17838
L25807 17838
L25863 17857
L25882 17876
" />
<path d="M26013 17838
L26257 17838
L26126 17988
L26182 17988
L26220 18007
L26238 18026
L26257 18063
L26257 18157
L26238 18194
L26220 18213
L26182 18232
L26070 18232
L26032 18213
L26013 18194
" />
<g transform="rotate(-90 30121.4 14786.4)">
<text x="30121.4" y="14983.3"
textLength="470.472" font-size="524.934" lengthAdjust="spacingAndGlyphs"
text-anchor="middle" opacity="0">D</text>
</g>
<path d="M30299 14889
L29905 14889
L29905 14795
L29924 14739
L29962 14702
L29999 14683
L30074 14664
L30130 14664
L30205 14683
L30243 14702
L30280 14739
L30299 14795
L30299 14889
" />
<g transform="rotate(-90 30101.7 15987.2)">
<text x="30101.7" y="16184.1"
textLength="470.472" font-size="524.934" lengthAdjust="spacingAndGlyphs"
text-anchor="middle" opacity="0">K</text>
</g>
<path d="M30279 16090
L29886 16090
" />
<path d="M30279 15865
L30054 16034
" />
<path d="M29886 15865
L30111 16090
" />
<g transform="rotate(-90 30121.4 15377)">
<text x="30121.4" y="15573.8"
textLength="845.426" font-size="524.934" lengthAdjust="spacingAndGlyphs"
text-anchor="middle" opacity="0">D1</text>
</g>
<path d="M30299 15667
L29905 15667
L29905 15573
L29924 15517
L29962 15480
L29999 15461
L30074 15442
L30130 15442
L30205 15461
L30243 15480
L30280 15517
L30299 15573
L30299 15667
" />
<path d="M30299 15067
L30299 15292
" />
<path d="M30299 15180
L29905 15180
L29962 15217
L29999 15255
L30018 15292
" />
<text x="28940.3" y="18228.7"
textLength="1145.39" font-size="524.934" lengthAdjust="spacingAndGlyphs"
text-anchor="middle" opacity="0">LED</text>
<path d="M28687 18209
L28499 18209
L28499 17816
" />
<path d="M28818 18003
L28949 18003
" />
<path d="M29005 18209
L28818 18209
L28818 17816
L29005 17816
" />
<path d="M29174 18209
L29174 17816
L29268 17816
L29324 17834
L29362 17872
L29380 17909
L29399 17984
L29399 18041
L29380 18116
L29362 18153
L29324 18191
L29268 18209
L29174 18209
" />
</g>
<g style="fill:#848484; fill-opacity:0.0; 
stroke:#848484; stroke-width:78.7402; stroke-opacity:1; 
stroke-linecap:round; stroke-linejoin:round;">
<text x="29826.1" y="18583"
textLength="691.695" font-size="419.947" lengthAdjust="spacingAndGlyphs"
text-anchor="middle" opacity="0">D2</text>
<path d="M29593 18568
L29593 18253
L29668 18253
L29713 18268
L29743 18298
L29758 18328
L29773 18388
L29773 18433
L29758 18493
L29743 18523
L29713 18553
L29668 18568
L29593 18568
" />
<path d="M29893 18283
L29908 18268
L29938 18253
L30013 18253
L30043 18268
L30058 18283
L30073 18313
L30073 18343
L30058 18388
L29878 18568
L30073 18568
" />
</g>
<g style="fill:#848484; fill-opacity:0.0; 
stroke:#848484; stroke-width:59.0551; stroke-opacity:1; 
stroke-linecap:round; stroke-linejoin:round;">
<text x="28369.4" y="11174.2"
textLength="1170.98" font-size="524.934" lengthAdjust="spacingAndGlyphs"
text-anchor="middle" opacity="0">LED</text>
<path d="M28116 11155
L27928 11155
L27928 10761
" />
<path d="M28247 10949
L28378 10949
" />
<path d="M28435 11155
L28247 11155
L28247 10761
L28435 10761
" />
<path d="M28603 11155
L28603 10761
L28697 10761
L28753 10780
L28791 10818
L28809 10855
L28828 10930
L28828 10986
L28809 11061
L28791 11099
L28753 11136
L28697 11155
L28603 11155
" />
</g>
<g style="fill:#848484; fill-opacity:0.0; 
stroke:#848484; stroke-width:78.7402; stroke-opacity:1; 
stroke-linecap:round; stroke-linejoin:round;">
<text x="29387.1" y="12593.1"
textLength="691.695" font-size="419.947" lengthAdjust="spacingAndGlyphs"
text-anchor="middle" opacity="0">D3</text>
<path d="M29154 12578
L29154 12263
L29229 12263
L29274 12278
L29304 12308
L29319 12338
L29334 12398
L29334 12443
L29319 12503
L29304 12533
L29274 12563
L29229 12578
L29154 12578
" />
<path d="M29439 12263
L29634 12263
L29529 12383
L29574 12383
L29604 12398
L29619 12413
L29634 12443
L29634 12518
L29619 12548
L29604 12563
L29574 12578
L29484 12578
L29454 12563
L29439 12548
" />
</g>
<g style="fill:#848484; fill-opacity:0.0; 
stroke:#848484; stroke-width:59.0551; stroke-opacity:1; 
stroke-linecap:round; stroke-linejoin:round;">
<text x="30524.9" y="8221.46"
textLength="496.063" font-size="524.934" lengthAdjust="spacingAndGlyphs"
text-anchor="middle" opacity="0">D</text>
<path d="M30421 8202
L30421 7809
L30515 7809
L30571 7827
L30609 7865
L30628 7902
L30646 7977
L30646 8033
L30628 8108
L30609 8146
L30571 8183
L30515 8202
L30421 8202
" />
<g transform="rotate(-90 30200.1 9392.72)">
<text x="30200.1" y="9589.57"
textLength="845.426" font-size="524.934" lengthAdjust="spacingAndGlyphs"
text-anchor="middle" opacity="0">D4</text>
</g>
<path d="M30378 9683
L29984 9683
L29984 9589
L30003 9533
L30040 9495
L30078 9477
L30153 9458
L30209 9458
L30284 9477
L30321 9495
L30359 9533
L30378 9589
L30378 9683
" />
<path d="M30115 9120
L30378 9120
" />
<path d="M29965 9214
L30247 9308
L30247 9064
" />
<text x="29963.9" y="8142.72"
textLength="470.472" font-size="524.934" lengthAdjust="spacingAndGlyphs"
text-anchor="middle" opacity="0">K</text>
<path d="M29860 8123
L29860 7730
" />
<path d="M30085 8123
L29917 7898
" />
<path d="M30085 7730
L29860 7955
" />
<g transform="rotate(-90 7916.67 21951.8)">
<text x="7916.67" y="22148.6"
textLength="470.472" font-size="524.934" lengthAdjust="spacingAndGlyphs"
text-anchor="middle" opacity="0">D</text>
</g>
<path d="M8094 22054
L7701 22054
L7701 21961
L7719 21904
L7757 21867
L7794 21848
L7869 21829
L7926 21829
L8001 21848
L8038 21867
L8076 21904
L8094 21961
L8094 22054
" />
<g transform="rotate(-90 8655.34 21510.8)">
<text x="8655.34" y="21707.7"
textLength="845.426" font-size="524.934" lengthAdjust="spacingAndGlyphs"
text-anchor="middle" opacity="0">D5</text>
</g>
<path d="M8833 21801
L8439 21801
L8439 21707
L8458 21651
L8495 21613
L8533 21595
L8608 21576
L8664 21576
L8739 21595
L8777 21613
L8814 21651
L8833 21707
L8833 21801
" />
<path d="M8439 21220
L8439 21407
L8627 21426
L8608 21407
L8589 21370
L8589 21276
L8608 21238
L8627 21220
L8664 21201
L8758 21201
L8795 21220
L8814 21238
L8833 21276
L8833 21370
L8814 21407
L8795 21426
" />
<g transform="rotate(-90 8832.02 22325.8)">
<text x="8832.02" y="22522.6"
textLength="470.472" font-size="524.934" lengthAdjust="spacingAndGlyphs"
text-anchor="middle" opacity="0">K</text>
</g>
<path d="M9010 22428
L8616 22428
" />
<path d="M9010 22203
L8785 22372
" />
<path d="M8616 22203
L8841 22428
" />
<text x="32867.5" y="24333.7"
textLength="3057.65" font-size="524.934" lengthAdjust="spacingAndGlyphs"
text-anchor="middle" opacity="0">encendido</text>
<path d="M31620 24296
L31583 24314
L31508 24314
L31470 24296
L31452 24258
L31452 24108
L31470 24071
L31508 24052
L31583 24052
L31620 24071
L31639 24108
L31639 24146
L31452 24183
" />
<path d="M31808 24052
L31808 24314
" />
<path d="M31808 24089
L31826 24071
L31864 24052
L31920 24052
L31958 24071
L31976 24108
L31976 24314
" />
<path d="M32333 24296
L32295 24314
L32220 24314
L32183 24296
L32164 24277
L32145 24239
L32145 24127
L32164 24089
L32183 24071
L32220 24052
L32295 24052
L32333 24071
" />
<path d="M32651 24296
L32614 24314
L32539 24314
L32501 24296
L32483 24258
L32483 24108
L32501 24071
L32539 24052
L32614 24052
L32651 24071
L32670 24108
L32670 24146
L32483 24183
" />
<path d="M32839 24052
L32839 24314
" />
<path d="M32839 24089
L32858 24071
L32895 24052
L32951 24052
L32989 24071
L33008 24108
L33008 24314
" />
<path d="M33364 24314
L33364 23921
" />
<path d="M33364 24296
L33326 24314
L33251 24314
L33214 24296
L33195 24277
L33176 24239
L33176 24127
L33195 24089
L33214 24071
L33251 24052
L33326 24052
L33364 24071
" />
<path d="M33551 24314
L33551 24052
" />
<path d="M33551 23921
L33532 23939
L33551 23958
L33570 23939
L33551 23921
L33551 23958
" />
<path d="M33907 24314
L33907 23921
" />
<path d="M33907 24296
L33870 24314
L33795 24314
L33757 24296
L33739 24277
L33720 24239
L33720 24127
L33739 24089
L33757 24071
L33795 24052
L33870 24052
L33907 24071
" />
<path d="M34151 24314
L34114 24296
L34095 24277
L34076 24239
L34076 24127
L34095 24089
L34114 24071
L34151 24052
L34207 24052
L34245 24071
L34264 24089
L34282 24127
L34282 24239
L34264 24277
L34245 24296
L34207 24314
L34151 24314
" />
</g>
<g style="fill:#848484; fill-opacity:0.0; 
stroke:#848484; stroke-width:78.7402; stroke-opacity:1; 
stroke-linecap:round; stroke-linejoin:round;">
<text x="34274.9" y="23851.4"
textLength="691.695" font-size="419.947" lengthAdjust="spacingAndGlyphs"
text-anchor="middle" opacity="0">D6</text>
<path d="M34042 23836
L34042 23521
L34117 23521
L34162 23536
L34192 23566
L34207 23596
L34222 23656
L34222 23701
L34207 23761
L34192 23791
L34162 23821
L34117 23836
L34042 23836
" />
<path d="M34492 23521
L34432 23521
L34402 23536
L34387 23551
L34357 23596
L34342 23656
L34342 23776
L34357 23806
L34372 23821
L34402 23836
L34462 23836
L34492 23821
L34507 23806
L34522 23776
L34522 23701
L34507 23671
L34492 23656
L34462 23641
L34402 23641
L34372 23656
L34357 23671
L34342 23701
" />
</g>
<g style="fill:#848484; fill-opacity:0.0; 
stroke:#848484; stroke-width:59.0551; stroke-opacity:1; 
stroke-linecap:round; stroke-linejoin:round;">
<text x="11420.6" y="21400.6"
textLength="2952.01" font-size="524.934" lengthAdjust="spacingAndGlyphs"
text-anchor="middle" opacity="0">Analogico</text>
<path d="M10070 21269
L10258 21269
" />
<path d="M10033 21381
L10164 20988
L10295 21381
" />
<path d="M10426 21119
L10426 21381
" />
<path d="M10426 21156
L10445 21138
L10483 21119
L10539 21119
L10576 21138
L10595 21175
L10595 21381
" />
<path d="M10951 21381
L10951 21175
L10933 21138
L10895 21119
L10820 21119
L10783 21138
" />
<path d="M10951 21363
L10914 21381
L10820 21381
L10783 21363
L10764 21325
L10764 21288
L10783 21250
L10820 21231
L10914 21231
L10951 21213
" />
<path d="M11195 21381
L11158 21363
L11139 21325
L11139 20988
" />
<path d="M11401 21381
L11364 21363
L11345 21344
L11326 21306
L11326 21194
L11345 21156
L11364 21138
L11401 21119
L11458 21119
L11495 21138
L11514 21156
L11533 21194
L11533 21306
L11514 21344
L11495 21363
L11458 21381
L11401 21381
" />
<path d="M11870 21119
L11870 21438
L11851 21475
L11833 21494
L11795 21513
L11739 21513
L11701 21494
" />
<path d="M11870 21363
L11833 21381
L11758 21381
L11720 21363
L11701 21344
L11683 21306
L11683 21194
L11701 21156
L11720 21138
L11758 21119
L11833 21119
L11870 21138
" />
<path d="M12058 21381
L12058 21119
" />
<path d="M12058 20988
L12039 21006
L12058 21025
L12076 21006
L12058 20988
L12058 21025
" />
<path d="M12414 21363
L12376 21381
L12301 21381
L12264 21363
L12245 21344
L12226 21306
L12226 21194
L12245 21156
L12264 21138
L12301 21119
L12376 21119
L12414 21138
" />
<path d="M12639 21381
L12601 21363
L12582 21344
L12564 21306
L12564 21194
L12582 21156
L12601 21138
L12639 21119
L12695 21119
L12732 21138
L12751 21156
L12770 21194
L12770 21306
L12751 21344
L12732 21363
L12695 21381
L12639 21381
" />
<text x="11706" y="20042.3"
textLength="751.687" font-size="524.934" lengthAdjust="spacingAndGlyphs"
text-anchor="middle" opacity="0">J1</text>
<path d="M11574 19629
L11574 19911
L11556 19967
L11518 20004
L11462 20023
L11424 20023
" />
<path d="M11968 20023
L11743 20023
" />
<path d="M11856 20023
L11856 19629
L11818 19686
L11781 19723
L11743 19742
" />
<g transform="rotate(-90 4865.49 20898.6)">
<text x="4865.49" y="21095.5"
textLength="6113.52" font-size="524.934" lengthAdjust="spacingAndGlyphs"
text-anchor="middle" opacity="0">alimentación 7-12V</text>
</g>
<path d="M5043 23654
L4837 23654
L4799 23673
L4781 23710
L4781 23785
L4799 23823
" />
<path d="M5024 23654
L5043 23692
L5043 23785
L5024 23823
L4987 23842
L4949 23842
L4912 23823
L4893 23785
L4893 23692
L4874 23654
" />
<path d="M5043 23410
L5024 23448
L4987 23467
L4649 23467
" />
<path d="M5043 23260
L4781 23260
" />
<path d="M4649 23260
L4668 23279
L4687 23260
L4668 23242
L4649 23260
L4687 23260
" />
<path d="M5043 23073
L4781 23073
" />
<path d="M4818 23073
L4799 23054
L4781 23017
L4781 22960
L4799 22923
L4837 22904
L5043 22904
" />
<path d="M4837 22904
L4799 22885
L4781 22848
L4781 22792
L4799 22754
L4837 22735
L5043 22735
" />
<path d="M5024 22398
L5043 22435
L5043 22510
L5024 22548
L4987 22567
L4837 22567
L4799 22548
L4781 22510
L4781 22435
L4799 22398
L4837 22379
L4874 22379
L4912 22567
" />
<path d="M4781 22210
L5043 22210
" />
<path d="M4818 22210
L4799 22192
L4781 22154
L4781 22098
L4799 22060
L4837 22042
L5043 22042
" />
<path d="M4781 21910
L4781 21761
" />
<path d="M4649 21854
L4987 21854
L5024 21836
L5043 21798
L5043 21761
" />
<path d="M5043 21461
L4837 21461
L4799 21479
L4781 21517
L4781 21592
L4799 21629
" />
<path d="M5024 21461
L5043 21498
L5043 21592
L5024 21629
L4987 21648
L4949 21648
L4912 21629
L4893 21592
L4893 21498
L4874 21461
" />
<path d="M5024 21104
L5043 21142
L5043 21217
L5024 21254
L5006 21273
L4968 21292
L4856 21292
L4818 21273
L4799 21254
L4781 21217
L4781 21142
L4799 21104
" />
<path d="M5043 20936
L4781 20936
" />
<path d="M4649 20936
L4668 20954
L4687 20936
L4668 20917
L4649 20936
L4687 20936
" />
<path d="M5043 20692
L5024 20729
L5006 20748
L4968 20767
L4856 20767
L4818 20748
L4799 20729
L4781 20692
L4781 20636
L4799 20598
L4818 20579
L4856 20561
L4968 20561
L5006 20579
L5024 20598
L5043 20636
L5043 20692
" />
<path d="M4631 20617
L4687 20673
" />
<path d="M4781 20392
L5043 20392
" />
<path d="M4818 20392
L4799 20373
L4781 20336
L4781 20279
L4799 20242
L4837 20223
L5043 20223
" />
<path d="M4649 19773
L4649 19511
L5043 19680
" />
<path d="M4893 19361
L4893 19061
" />
<path d="M5043 18667
L5043 18892
" />
<path d="M5043 18780
L4649 18780
L4706 18817
L4743 18855
L4762 18892
" />
<path d="M4687 18517
L4668 18498
L4649 18461
L4649 18367
L4668 18330
L4687 18311
L4724 18292
L4762 18292
L4818 18311
L5043 18536
L5043 18292
" />
<path d="M4649 18180
L5043 18048
L4649 17917
" />
<text x="7030.84" y="22207.7"
textLength="751.687" font-size="524.934" lengthAdjust="spacingAndGlyphs"
text-anchor="middle" opacity="0">J2</text>
<path d="M6899 21795
L6899 22076
L6880 22132
L6843 22170
L6787 22188
L6749 22188
" />
<path d="M7068 21832
L7087 21813
L7124 21795
L7218 21795
L7255 21813
L7274 21832
L7293 21870
L7293 21907
L7274 21963
L7049 22188
L7293 22188
" />
<g transform="rotate(-90 43223.8 13747)">
<text x="43223.8" y="13943.9"
textLength="3601.33" font-size="524.934" lengthAdjust="spacingAndGlyphs"
text-anchor="middle" opacity="0">salida_REL1</text>
</g>
<path d="M43383 15434
L43401 15396
L43401 15321
L43383 15284
L43345 15265
L43326 15265
L43289 15284
L43270 15321
L43270 15378
L43251 15415
L43214 15434
L43195 15434
L43158 15415
L43139 15378
L43139 15321
L43158 15284
" />
<path d="M43401 14928
L43195 14928
L43158 14946
L43139 14984
L43139 15059
L43158 15096
" />
<path d="M43383 14928
L43401 14965
L43401 15059
L43383 15096
L43345 15115
L43308 15115
L43270 15096
L43251 15059
L43251 14965
L43233 14928
" />
<path d="M43401 14684
L43383 14721
L43345 14740
L43008 14740
" />
<path d="M43401 14534
L43139 14534
" />
<path d="M43008 14534
L43026 14553
L43045 14534
L43026 14515
L43008 14534
L43045 14534
" />
<path d="M43401 14178
L43008 14178
" />
<path d="M43383 14178
L43401 14215
L43401 14290
L43383 14328
L43364 14346
L43326 14365
L43214 14365
L43176 14346
L43158 14328
L43139 14290
L43139 14215
L43158 14178
" />
<path d="M43401 13822
L43195 13822
L43158 13840
L43139 13878
L43139 13953
L43158 13990
" />
<path d="M43383 13822
L43401 13859
L43401 13953
L43383 13990
L43345 14009
L43308 14009
L43270 13990
L43251 13953
L43251 13859
L43233 13822
" />
<path d="M43439 13728
L43439 13428
" />
<path d="M43401 13109
L43214 13240
" />
<path d="M43401 13334
L43008 13334
L43008 13184
L43026 13147
L43045 13128
L43083 13109
L43139 13109
L43176 13128
L43195 13147
L43214 13184
L43214 13334
" />
<path d="M43195 12940
L43195 12809
" />
<path d="M43401 12753
L43401 12940
L43008 12940
L43008 12753
" />
<path d="M43401 12397
L43401 12584
L43008 12584
" />
<path d="M43401 12059
L43401 12284
" />
<path d="M43401 12172
L43008 12172
L43064 12209
L43101 12247
L43120 12284
" />
<g transform="rotate(-90 41223.8 13747)">
<text x="41223.8" y="13943.9"
textLength="751.687" font-size="524.934" lengthAdjust="spacingAndGlyphs"
text-anchor="middle" opacity="0">J3</text>
</g>
<path d="M41008 13878
L41289 13878
L41345 13897
L41383 13934
L41401 13990
L41401 14028
" />
<path d="M41008 13728
L41008 13484
L41158 13615
L41158 13559
L41176 13522
L41195 13503
L41233 13484
L41326 13484
L41364 13503
L41383 13522
L41401 13559
L41401 13672
L41383 13709
L41364 13728
" />
<g transform="rotate(-90 43145 20156.5)">
<text x="43145" y="20353.3"
textLength="6863.42" font-size="524.934" lengthAdjust="spacingAndGlyphs"
text-anchor="middle" opacity="0">entrada_potencia_reles</text>
</g>
<path d="M43304 23306
L43323 23343
L43323 23418
L43304 23456
L43266 23474
L43116 23474
L43079 23456
L43060 23418
L43060 23343
L43079 23306
L43116 23287
L43154 23287
L43191 23474
" />
<path d="M43060 23118
L43323 23118
" />
<path d="M43098 23118
L43079 23099
L43060 23062
L43060 23006
L43079 22968
L43116 22949
L43323 22949
" />
<path d="M43060 22818
L43060 22668
" />
<path d="M42929 22762
L43266 22762
L43304 22743
L43323 22706
L43323 22668
" />
<path d="M43323 22537
L43060 22537
" />
<path d="M43135 22537
L43098 22518
L43079 22499
L43060 22462
L43060 22424
" />
<path d="M43323 22125
L43116 22125
L43079 22143
L43060 22181
L43060 22256
L43079 22293
" />
<path d="M43304 22125
L43323 22162
L43323 22256
L43304 22293
L43266 22312
L43229 22312
L43191 22293
L43173 22256
L43173 22162
L43154 22125
" />
<path d="M43323 21768
L42929 21768
" />
<path d="M43304 21768
L43323 21806
L43323 21881
L43304 21918
L43285 21937
L43248 21956
L43135 21956
L43098 21937
L43079 21918
L43060 21881
L43060 21806
L43079 21768
" />
<path d="M43323 21412
L43116 21412
L43079 21431
L43060 21468
L43060 21543
L43079 21581
" />
<path d="M43304 21412
L43323 21450
L43323 21543
L43304 21581
L43266 21600
L43229 21600
L43191 21581
L43173 21543
L43173 21450
L43154 21412
" />
<path d="M43360 21318
L43360 21018
" />
<path d="M43060 20925
L43454 20925
" />
<path d="M43079 20925
L43060 20887
L43060 20812
L43079 20775
L43098 20756
L43135 20737
L43248 20737
L43285 20756
L43304 20775
L43323 20812
L43323 20887
L43304 20925
" />
<path d="M43323 20512
L43304 20550
L43285 20568
L43248 20587
L43135 20587
L43098 20568
L43079 20550
L43060 20512
L43060 20456
L43079 20418
L43098 20400
L43135 20381
L43248 20381
L43285 20400
L43304 20418
L43323 20456
L43323 20512
" />
<path d="M43060 20268
L43060 20119
" />
<path d="M42929 20212
L43266 20212
L43304 20193
L43323 20156
L43323 20119
" />
<path d="M43304 19837
L43323 19875
L43323 19950
L43304 19987
L43266 20006
L43116 20006
L43079 19987
L43060 19950
L43060 19875
L43079 19837
L43116 19819
L43154 19819
L43191 20006
" />
<path d="M43060 19650
L43323 19650
" />
<path d="M43098 19650
L43079 19631
L43060 19594
L43060 19537
L43079 19500
L43116 19481
L43323 19481
" />
<path d="M43304 19125
L43323 19162
L43323 19237
L43304 19275
L43285 19294
L43248 19312
L43135 19312
L43098 19294
L43079 19275
L43060 19237
L43060 19162
L43079 19125
" />
<path d="M43323 18956
L43060 18956
" />
<path d="M42929 18956
L42948 18975
L42966 18956
L42948 18937
L42929 18956
L42966 18956
" />
<path d="M43323 18600
L43116 18600
L43079 18619
L43060 18656
L43060 18731
L43079 18769
" />
<path d="M43304 18600
L43323 18637
L43323 18731
L43304 18769
L43266 18787
L43229 18787
L43191 18769
L43173 18731
L43173 18637
L43154 18600
" />
<path d="M43360 18506
L43360 18206
" />
<path d="M43323 18113
L43060 18113
" />
<path d="M43135 18113
L43098 18094
L43079 18075
L43060 18038
L43060 18000
" />
<path d="M43304 17719
L43323 17756
L43323 17831
L43304 17869
L43266 17888
L43116 17888
L43079 17869
L43060 17831
L43060 17756
L43079 17719
L43116 17700
L43154 17700
L43191 17888
" />
<path d="M43323 17475
L43304 17513
L43266 17531
L42929 17531
" />
<path d="M43304 17175
L43323 17213
L43323 17288
L43304 17325
L43266 17344
L43116 17344
L43079 17325
L43060 17288
L43060 17213
L43079 17175
L43116 17156
L43154 17156
L43191 17344
" />
<path d="M43304 17006
L43323 16969
L43323 16894
L43304 16856
L43266 16838
L43248 16838
L43210 16856
L43191 16894
L43191 16950
L43173 16988
L43135 17006
L43116 17006
L43079 16988
L43060 16950
L43060 16894
L43079 16856
" />
<g transform="rotate(-90 40100.6 20287.5)">
<text x="40100.6" y="20484.3"
textLength="751.687" font-size="524.934" lengthAdjust="spacingAndGlyphs"
text-anchor="middle" opacity="0">J4</text>
</g>
<path d="M39884 20418
L40166 20418
L40222 20437
L40259 20474
L40278 20531
L40278 20568
" />
<path d="M40016 20062
L40278 20062
" />
<path d="M39866 20156
L40147 20249
L40147 20006
" />
<text x="10170.6" y="7729.33"
textLength="2007.78" font-size="524.934" lengthAdjust="spacingAndGlyphs"
text-anchor="middle" opacity="0">RX-TX</text>
<path d="M9523 7710
L9392 7523
" />
<path d="M9298 7710
L9298 7316
L9448 7316
L9486 7335
L9505 7354
L9523 7391
L9523 7448
L9505 7485
L9486 7504
L9448 7523
L9298 7523
" />
<path d="M9655 7316
L9917 7710
" />
<path d="M9917 7316
L9655 7710
" />
<path d="M10067 7560
L10367 7560
" />
<path d="M10498 7316
L10723 7316
" />
<path d="M10611 7710
L10611 7316
" />
<path d="M10817 7316
L11079 7710
" />
<path d="M11079 7316
L10817 7710
" />
<text x="11607.6" y="8034.45"
textLength="751.687" font-size="524.934" lengthAdjust="spacingAndGlyphs"
text-anchor="middle" opacity="0">J5</text>
<path d="M11476 7622
L11476 7903
L11457 7959
L11420 7996
L11363 8015
L11326 8015
" />
<path d="M11851 7622
L11663 7622
L11645 7809
L11663 7790
L11701 7771
L11795 7771
L11832 7790
L11851 7809
L11870 7846
L11870 7940
L11851 7978
L11832 7996
L11795 8015
L11701 8015
L11663 7996
L11645 7978
" />
<g transform="rotate(-90 14461.9 6607.28)">
<text x="14461.9" y="6804.13"
textLength="1932.79" font-size="524.934" lengthAdjust="spacingAndGlyphs"
text-anchor="middle" opacity="0">DTH11</text>
</g>
<path d="M14640 7441
L14246 7441
L14246 7347
L14265 7291
L14302 7254
L14340 7235
L14415 7216
L14471 7216
L14546 7235
L14583 7254
L14621 7291
L14640 7347
L14640 7441
" />
<path d="M14246 7104
L14246 6879
" />
<path d="M14640 6991
L14246 6991
" />
<path d="M14640 6747
L14246 6747
" />
<path d="M14433 6747
L14433 6522
" />
<path d="M14640 6522
L14246 6522
" />
<path d="M14640 6129
L14640 6354
" />
<path d="M14640 6241
L14246 6241
L14302 6279
L14340 6316
L14358 6354
" />
<path d="M14640 5754
L14640 5979
" />
<path d="M14640 5866
L14246 5866
L14302 5904
L14340 5941
L14358 5979
" />
<g transform="rotate(-90 12896.5 6479.33)">
<text x="12896.5" y="6676.18"
textLength="751.687" font-size="524.934" lengthAdjust="spacingAndGlyphs"
text-anchor="middle" opacity="0">J6</text>
</g>
<path d="M12680 6610
L12962 6610
L13018 6629
L13055 6666
L13074 6723
L13074 6760
" />
<path d="M12680 6254
L12680 6329
L12699 6366
L12718 6385
L12774 6423
L12849 6441
L12999 6441
L13037 6423
L13055 6404
L13074 6366
L13074 6291
L13055 6254
L13037 6235
L12999 6216
L12905 6216
L12868 6235
L12849 6254
L12830 6291
L12830 6366
L12849 6404
L12868 6423
L12905 6441
" />
<text x="21233.6" y="7315.94"
textLength="4276.25" font-size="524.934" lengthAdjust="spacingAndGlyphs"
text-anchor="middle" opacity="0">pantalla_OLED</text>
<path d="M19227 7034
L19227 7428
" />
<path d="M19227 7053
L19265 7034
L19340 7034
L19377 7053
L19396 7072
L19415 7109
L19415 7222
L19396 7259
L19377 7278
L19340 7297
L19265 7297
L19227 7278
" />
<path d="M19752 7297
L19752 7090
L19733 7053
L19696 7034
L19621 7034
L19583 7053
" />
<path d="M19752 7278
L19715 7297
L19621 7297
L19583 7278
L19565 7240
L19565 7203
L19583 7165
L19621 7147
L19715 7147
L19752 7128
" />
<path d="M19940 7034
L19940 7297
" />
<path d="M19940 7072
L19958 7053
L19996 7034
L20052 7034
L20089 7053
L20108 7090
L20108 7297
" />
<path d="M20239 7034
L20389 7034
" />
<path d="M20296 6903
L20296 7240
L20314 7278
L20352 7297
L20389 7297
" />
<path d="M20689 7297
L20689 7090
L20671 7053
L20633 7034
L20558 7034
L20521 7053
" />
<path d="M20689 7278
L20652 7297
L20558 7297
L20521 7278
L20502 7240
L20502 7203
L20521 7165
L20558 7147
L20652 7147
L20689 7128
" />
<path d="M20933 7297
L20896 7278
L20877 7240
L20877 6903
" />
<path d="M21139 7297
L21102 7278
L21083 7240
L21083 6903
" />
<path d="M21458 7297
L21458 7090
L21439 7053
L21402 7034
L21327 7034
L21289 7053
" />
<path d="M21458 7278
L21421 7297
L21327 7297
L21289 7278
L21271 7240
L21271 7203
L21289 7165
L21327 7147
L21421 7147
L21458 7128
" />
<path d="M21552 7334
L21852 7334
" />
<path d="M22020 6903
L22095 6903
L22133 6922
L22170 6959
L22189 7034
L22189 7165
L22170 7240
L22133 7278
L22095 7297
L22020 7297
L21983 7278
L21946 7240
L21927 7165
L21927 7034
L21946 6959
L21983 6922
L22020 6903
" />
<path d="M22545 7297
L22358 7297
L22358 6903
" />
<path d="M22677 7090
L22808 7090
" />
<path d="M22864 7297
L22677 7297
L22677 6903
L22864 6903
" />
<path d="M23033 7297
L23033 6903
L23127 6903
L23183 6922
L23220 6959
L23239 6997
L23258 7072
L23258 7128
L23239 7203
L23220 7240
L23183 7278
L23127 7297
L23033 7297
" />
<text x="21253.3" y="5337.6"
textLength="751.687" font-size="524.934" lengthAdjust="spacingAndGlyphs"
text-anchor="middle" opacity="0">J7</text>
<path d="M21122 4925
L21122 5206
L21103 5262
L21065 5300
L21009 5318
L20972 5318
" />
<path d="M21272 4925
L21534 4925
L21365 5318
" />
<text x="26445" y="5166.11"
textLength="4107.52" font-size="524.934" lengthAdjust="spacingAndGlyphs"
text-anchor="middle" opacity="0">conector_RGB</text>
<path d="M24692 5128
L24654 5147
L24579 5147
L24542 5128
L24523 5109
L24504 5072
L24504 4959
L24523 4922
L24542 4903
L24579 4884
L24654 4884
L24692 4903
" />
<path d="M24917 5147
L24879 5128
L24860 5109
L24842 5072
L24842 4959
L24860 4922
L24879 4903
L24917 4884
L24973 4884
L25010 4903
L25029 4922
L25048 4959
L25048 5072
L25029 5109
L25010 5128
L24973 5147
L24917 5147
" />
<path d="M25217 4884
L25217 5147
" />
<path d="M25217 4922
L25235 4903
L25273 4884
L25329 4884
L25367 4903
L25385 4941
L25385 5147
" />
<path d="M25723 5128
L25685 5147
L25610 5147
L25573 5128
L25554 5091
L25554 4941
L25573 4903
L25610 4884
L25685 4884
L25723 4903
L25741 4941
L25741 4978
L25554 5016
" />
<path d="M26079 5128
L26041 5147
L25966 5147
L25929 5128
L25910 5109
L25891 5072
L25891 4959
L25910 4922
L25929 4903
L25966 4884
L26041 4884
L26079 4903
" />
<path d="M26191 4884
L26341 4884
" />
<path d="M26248 4753
L26248 5091
L26266 5128
L26304 5147
L26341 5147
" />
<path d="M26529 5147
L26491 5128
L26473 5109
L26454 5072
L26454 4959
L26473 4922
L26491 4903
L26529 4884
L26585 4884
L26623 4903
L26641 4922
L26660 4959
L26660 5072
L26641 5109
L26623 5128
L26585 5147
L26529 5147
" />
<path d="M26829 5147
L26829 4884
" />
<path d="M26829 4959
L26848 4922
L26866 4903
L26904 4884
L26941 4884
" />
<path d="M26979 5184
L27279 5184
" />
<path d="M27598 5147
L27466 4959
" />
<path d="M27373 5147
L27373 4753
L27523 4753
L27560 4772
L27579 4791
L27598 4828
L27598 4884
L27579 4922
L27560 4941
L27523 4959
L27373 4959
" />
<path d="M27972 4772
L27935 4753
L27879 4753
L27822 4772
L27785 4809
L27766 4847
L27747 4922
L27747 4978
L27766 5053
L27785 5091
L27822 5128
L27879 5147
L27916 5147
L27972 5128
L27991 5109
L27991 4978
L27916 4978
" />
<path d="M28291 4941
L28347 4959
L28366 4978
L28385 5016
L28385 5072
L28366 5109
L28347 5128
L28310 5147
L28160 5147
L28160 4753
L28291 4753
L28329 4772
L28347 4791
L28366 4828
L28366 4866
L28347 4903
L28329 4922
L28291 4941
L28160 4941
" />
<text x="26233.6" y="7217.52"
textLength="751.687" font-size="524.934" lengthAdjust="spacingAndGlyphs"
text-anchor="middle" opacity="0">J8</text>
<path d="M26102 6805
L26102 7086
L26083 7142
L26046 7180
L25989 7198
L25952 7198
" />
<path d="M26346 6973
L26308 6955
L26289 6936
L26271 6898
L26271 6880
L26289 6842
L26308 6823
L26346 6805
L26421 6805
L26458 6823
L26477 6842
L26496 6880
L26496 6898
L26477 6936
L26458 6955
L26421 6973
L26346 6973
L26308 6992
L26289 7011
L26271 7048
L26271 7123
L26289 7161
L26308 7180
L26346 7198
L26421 7198
L26458 7180
L26477 7161
L26496 7123
L26496 7048
L26477 7011
L26458 6992
L26421 6973
" />
<text x="35200.1" y="16479.3"
textLength="6282.25" font-size="524.934" lengthAdjust="spacingAndGlyphs"
text-anchor="middle" opacity="0">SANYOU_SRD_Form_C</text>
<path d="M32172 16441
L32228 16460
L32322 16460
L32359 16441
L32378 16423
L32397 16385
L32397 16348
L32378 16310
L32359 16291
L32322 16273
L32247 16254
L32209 16235
L32191 16216
L32172 16179
L32172 16141
L32191 16104
L32209 16085
L32247 16066
L32341 16066
L32397 16085
" />
<path d="M32547 16348
L32734 16348
" />
<path d="M32509 16460
L32641 16066
L32772 16460
" />
<path d="M32903 16460
L32903 16066
L33128 16460
L33128 16066
" />
<path d="M33390 16273
L33390 16460
" />
<path d="M33259 16066
L33390 16273
L33522 16066
" />
<path d="M33728 16066
L33803 16066
L33840 16085
L33878 16123
L33897 16198
L33897 16329
L33878 16404
L33840 16441
L33803 16460
L33728 16460
L33690 16441
L33653 16404
L33634 16329
L33634 16198
L33653 16123
L33690 16085
L33728 16066
" />
<path d="M34065 16066
L34065 16385
L34084 16423
L34103 16441
L34140 16460
L34215 16460
L34253 16441
L34272 16423
L34290 16385
L34290 16066
" />
<path d="M34384 16498
L34684 16498
" />
<path d="M34759 16441
L34815 16460
L34909 16460
L34947 16441
L34965 16423
L34984 16385
L34984 16348
L34965 16310
L34947 16291
L34909 16273
L34834 16254
L34797 16235
L34778 16216
L34759 16179
L34759 16141
L34778 16104
L34797 16085
L34834 16066
L34928 16066
L34984 16085
" />
<path d="M35378 16460
L35247 16273
" />
<path d="M35153 16460
L35153 16066
L35303 16066
L35340 16085
L35359 16104
L35378 16141
L35378 16198
L35359 16235
L35340 16254
L35303 16273
L35153 16273
" />
<path d="M35546 16460
L35546 16066
L35640 16066
L35696 16085
L35734 16123
L35753 16160
L35771 16235
L35771 16291
L35753 16366
L35734 16404
L35696 16441
L35640 16460
L35546 16460
" />
<path d="M35846 16498
L36146 16498
" />
<path d="M36371 16254
L36240 16254
" />
<path d="M36240 16460
L36240 16066
L36428 16066
" />
<path d="M36634 16460
L36596 16441
L36578 16423
L36559 16385
L36559 16273
L36578 16235
L36596 16216
L36634 16198
L36690 16198
L36728 16216
L36746 16235
L36765 16273
L36765 16385
L36746 16423
L36728 16441
L36690 16460
L36634 16460
" />
<path d="M36934 16460
L36934 16198
" />
<path d="M36934 16273
L36953 16235
L36971 16216
L37009 16198
L37046 16198
" />
<path d="M37178 16460
L37178 16198
" />
<path d="M37178 16235
L37196 16216
L37234 16198
L37290 16198
L37327 16216
L37346 16254
L37346 16460
" />
<path d="M37346 16254
L37365 16216
L37402 16198
L37459 16198
L37496 16216
L37515 16254
L37515 16460
" />
<path d="M37609 16498
L37909 16498
" />
<path d="M38227 16423
L38209 16441
L38152 16460
L38115 16460
L38059 16441
L38021 16404
L38002 16366
L37984 16291
L37984 16235
L38002 16160
L38021 16123
L38059 16085
L38115 16066
L38152 16066
L38209 16085
L38227 16104
" />
<text x="32089.9" y="16951.8"
textLength="451.725" font-size="524.934" lengthAdjust="spacingAndGlyphs"
text-anchor="middle" opacity="0">1</text>
<path d="M32202 16933
L31977 16933
" />
<path d="M32089 16933
L32089 16539
L32052 16595
L32014 16633
L31977 16651
" />
<text x="37749.3" y="21292.3"
textLength="845.426" font-size="524.934" lengthAdjust="spacingAndGlyphs"
text-anchor="middle" opacity="0">K1</text>
<path d="M37458 21273
L37458 20879
" />
<path d="M37683 21273
L37514 21048
" />
<path d="M37683 20879
L37458 21104
" />
<path d="M38058 21273
L37833 21273
" />
<path d="M37946 21273
L37946 20879
L37908 20936
L37871 20973
L37833 20992
" />
<text x="35210" y="9432.09"
textLength="6282.25" font-size="524.934" lengthAdjust="spacingAndGlyphs"
text-anchor="middle" opacity="0">SANYOU_SRD_Form_C</text>
<path d="M32182 9394
L32238 9413
L32332 9413
L32369 9394
L32388 9375
L32407 9338
L32407 9300
L32388 9263
L32369 9244
L32332 9225
L32257 9207
L32219 9188
L32200 9169
L32182 9132
L32182 9094
L32200 9057
L32219 9038
L32257 9019
L32350 9019
L32407 9038
" />
<path d="M32557 9300
L32744 9300
" />
<path d="M32519 9413
L32650 9019
L32782 9413
" />
<path d="M32913 9413
L32913 9019
L33138 9413
L33138 9019
" />
<path d="M33400 9225
L33400 9413
" />
<path d="M33269 9019
L33400 9225
L33532 9019
" />
<path d="M33738 9019
L33813 9019
L33850 9038
L33888 9075
L33907 9150
L33907 9282
L33888 9357
L33850 9394
L33813 9413
L33738 9413
L33700 9394
L33663 9357
L33644 9282
L33644 9150
L33663 9075
L33700 9038
L33738 9019
" />
<path d="M34075 9019
L34075 9338
L34094 9375
L34113 9394
L34150 9413
L34225 9413
L34263 9394
L34281 9375
L34300 9338
L34300 9019
" />
<path d="M34394 9450
L34694 9450
" />
<path d="M34769 9394
L34825 9413
L34919 9413
L34956 9394
L34975 9375
L34994 9338
L34994 9300
L34975 9263
L34956 9244
L34919 9225
L34844 9207
L34806 9188
L34788 9169
L34769 9132
L34769 9094
L34788 9057
L34806 9038
L34844 9019
L34938 9019
L34994 9038
" />
<path d="M35388 9413
L35256 9225
" />
<path d="M35163 9413
L35163 9019
L35313 9019
L35350 9038
L35369 9057
L35388 9094
L35388 9150
L35369 9188
L35350 9207
L35313 9225
L35163 9225
" />
<path d="M35556 9413
L35556 9019
L35650 9019
L35706 9038
L35744 9075
L35763 9113
L35781 9188
L35781 9244
L35763 9319
L35744 9357
L35706 9394
L35650 9413
L35556 9413
" />
<path d="M35856 9450
L36156 9450
" />
<path d="M36381 9207
L36250 9207
" />
<path d="M36250 9413
L36250 9019
L36437 9019
" />
<path d="M36644 9413
L36606 9394
L36587 9375
L36569 9338
L36569 9225
L36587 9188
L36606 9169
L36644 9150
L36700 9150
L36737 9169
L36756 9188
L36775 9225
L36775 9338
L36756 9375
L36737 9394
L36700 9413
L36644 9413
" />
<path d="M36944 9413
L36944 9150
" />
<path d="M36944 9225
L36962 9188
L36981 9169
L37019 9150
L37056 9150
" />
<path d="M37187 9413
L37187 9150
" />
<path d="M37187 9188
L37206 9169
L37244 9150
L37300 9150
L37337 9169
L37356 9207
L37356 9413
" />
<path d="M37356 9207
L37375 9169
L37412 9150
L37469 9150
L37506 9169
L37525 9207
L37525 9413
" />
<path d="M37619 9450
L37919 9450
" />
<path d="M38237 9375
L38218 9394
L38162 9413
L38125 9413
L38068 9394
L38031 9357
L38012 9319
L37994 9244
L37994 9188
L38012 9113
L38031 9075
L38068 9038
L38125 9019
L38162 9019
L38218 9038
L38237 9057
" />
<text x="33221.8" y="7345.47"
textLength="845.426" font-size="524.934" lengthAdjust="spacingAndGlyphs"
text-anchor="middle" opacity="0">K2</text>
<path d="M32931 7326
L32931 6933
" />
<path d="M33156 7326
L32987 7101
" />
<path d="M33156 6933
L32931 7157
" />
<path d="M33306 6970
L33324 6951
L33362 6933
L33456 6933
L33493 6951
L33512 6970
L33531 7008
L33531 7045
L33512 7101
L33287 7326
L33531 7326
" />
<text x="32089.9" y="9865.16"
textLength="451.725" font-size="524.934" lengthAdjust="spacingAndGlyphs"
text-anchor="middle" opacity="0">1</text>
<path d="M32202 9846
L31977 9846
" />
<path d="M32089 9846
L32089 9452
L32052 9508
L32014 9546
L31977 9565
" />
<text x="30278.9" y="22483.3"
textLength="470.472" font-size="524.934" lengthAdjust="spacingAndGlyphs"
text-anchor="middle" opacity="0">R</text>
<path d="M30400 22464
L30269 22277
" />
<path d="M30175 22464
L30175 22070
L30325 22070
L30363 22089
L30381 22108
L30400 22145
L30400 22202
L30381 22239
L30363 22258
L30325 22277
L30175 22277
" />
</g>
<g style="fill:#848484; fill-opacity:0.0; 
stroke:#848484; stroke-width:42.5197; stroke-opacity:1; 
stroke-linecap:round; stroke-linejoin:round;">
<text x="29629.3" y="22418.3"
textLength="630.202" font-size="377.953" lengthAdjust="spacingAndGlyphs"
text-anchor="middle" opacity="0">R1</text>
<path d="M29582 22404
L29487 22269
" />
<path d="M29420 22404
L29420 22121
L29528 22121
L29555 22134
L29568 22148
L29582 22175
L29582 22215
L29568 22242
L29555 22256
L29528 22269
L29420 22269
" />
<path d="M29851 22404
L29690 22404
" />
<path d="M29770 22404
L29770 22121
L29744 22161
L29717 22188
L29690 22202
" />
</g>
<g style="fill:#848484; fill-opacity:0.0; 
stroke:#848484; stroke-width:59.0551; stroke-opacity:1; 
stroke-linecap:round; stroke-linejoin:round;">
<text x="21902.9" y="19323.8"
textLength="1873.8" font-size="524.934" lengthAdjust="spacingAndGlyphs"
text-anchor="middle" opacity="0">L7805</text>
<path d="M21274 19305
L21087 19305
L21087 18911
" />
<path d="M21368 18911
L21631 18911
L21462 19305
" />
<path d="M21837 19080
L21799 19061
L21781 19042
L21762 19005
L21762 18986
L21781 18948
L21799 18930
L21837 18911
L21912 18911
L21949 18930
L21968 18948
L21987 18986
L21987 19005
L21968 19042
L21949 19061
L21912 19080
L21837 19080
L21799 19098
L21781 19117
L21762 19155
L21762 19230
L21781 19267
L21799 19286
L21837 19305
L21912 19305
L21949 19286
L21968 19267
L21987 19230
L21987 19155
L21968 19117
L21949 19098
L21912 19080
" />
<path d="M22230 18911
L22268 18911
L22305 18930
L22324 18948
L22343 18986
L22362 19061
L22362 19155
L22343 19230
L22324 19267
L22305 19286
L22268 19305
L22230 19305
L22193 19286
L22174 19267
L22155 19230
L22137 19155
L22137 19061
L22155 18986
L22174 18948
L22193 18930
L22230 18911
" />
<path d="M22718 18911
L22530 18911
L22512 19098
L22530 19080
L22568 19061
L22662 19061
L22699 19080
L22718 19098
L22737 19136
L22737 19230
L22718 19267
L22699 19286
L22662 19305
L22568 19305
L22530 19286
L22512 19267
" />
<g transform="rotate(-90 28381.2 21416.3)">
<text x="28381.2" y="21613.2"
textLength="864.173" font-size="524.934" lengthAdjust="spacingAndGlyphs"
text-anchor="middle" opacity="0">U3</text>
</g>
<path d="M28165 21716
L28484 21716
L28521 21697
L28540 21678
L28559 21641
L28559 21566
L28540 21528
L28521 21510
L28484 21491
L28165 21491
" />
<path d="M28165 21341
L28165 21097
L28315 21228
L28315 21172
L28334 21135
L28353 21116
L28390 21097
L28484 21097
L28521 21116
L28540 21135
L28559 21172
L28559 21285
L28540 21322
L28521 21341
" />
<g transform="rotate(-90 28605.6 16016.7)">
<text x="28605.6" y="16213.6"
textLength="470.472" font-size="524.934" lengthAdjust="spacingAndGlyphs"
text-anchor="middle" opacity="0">R</text>
</g>
<path d="M28783 15894
L28596 16026
" />
<path d="M28783 16119
L28390 16119
L28390 15969
L28408 15932
L28427 15913
L28465 15894
L28521 15894
L28558 15913
L28577 15932
L28596 15969
L28596 16119
" />
</g>
<g style="fill:#848484; fill-opacity:0.0; 
stroke:#848484; stroke-width:42.5197; stroke-opacity:1; 
stroke-linecap:round; stroke-linejoin:round;">
<g transform="rotate(-90 28605.6 15455.7)">
<text x="28605.6" y="15597.4"
textLength="630.202" font-size="377.953" lengthAdjust="spacingAndGlyphs"
text-anchor="middle" opacity="0">R2</text>
</g>
<path d="M28733 15502
L28598 15597
" />
<path d="M28733 15664
L28450 15664
L28450 15556
L28463 15529
L28477 15516
L28504 15502
L28544 15502
L28571 15516
L28585 15529
L28598 15556
L28598 15664
" />
<path d="M28477 15394
L28463 15381
L28450 15354
L28450 15286
L28463 15259
L28477 15246
L28504 15232
L28531 15232
L28571 15246
L28733 15408
L28733 15232
" />
</g>
<g style="fill:#848484; fill-opacity:0.0; 
stroke:#848484; stroke-width:59.0551; stroke-opacity:1; 
stroke-linecap:round; stroke-linejoin:round;">
<g transform="rotate(-90 28645 8231.3)">
<text x="28645" y="8428.15"
textLength="448.976" font-size="524.934" lengthAdjust="spacingAndGlyphs"
text-anchor="middle" opacity="0">R</text>
</g>
<path d="M28823 8109
L28635 8240
" />
<path d="M28823 8334
L28429 8334
L28429 8184
L28448 8146
L28466 8128
L28504 8109
L28560 8109
L28598 8128
L28616 8146
L28635 8184
L28635 8334
" />
</g>
<g style="fill:#848484; fill-opacity:0.0; 
stroke:#848484; stroke-width:42.5197; stroke-opacity:1; 
stroke-linecap:round; stroke-linejoin:round;">
<g transform="rotate(-90 28654.9 8802.17)">
<text x="28654.9" y="8943.9"
textLength="630.202" font-size="377.953" lengthAdjust="spacingAndGlyphs"
text-anchor="middle" opacity="0">R3</text>
</g>
<path d="M28783 8849
L28648 8943
" />
<path d="M28783 9011
L28499 9011
L28499 8903
L28513 8876
L28526 8862
L28553 8849
L28594 8849
L28621 8862
L28634 8876
L28648 8903
L28648 9011
" />
<path d="M28499 8754
L28499 8579
L28607 8673
L28607 8633
L28621 8606
L28634 8592
L28661 8579
L28729 8579
L28756 8592
L28769 8606
L28783 8633
L28783 8714
L28769 8741
L28756 8754
" />
</g>
<g style="fill:#848484; fill-opacity:0.0; 
stroke:#848484; stroke-width:59.0551; stroke-opacity:1; 
stroke-linecap:round; stroke-linejoin:round;">
<g transform="rotate(-90 5091.86 6794.29)">
<text x="5091.86" y="6991.14"
textLength="1836.3" font-size="524.934" lengthAdjust="spacingAndGlyphs"
text-anchor="middle" opacity="0">RESET</text>
</g>
<path d="M5269 7366
L5082 7497
" />
<path d="M5269 7591
L4876 7591
L4876 7441
L4895 7403
L4913 7384
L4951 7366
L5007 7366
L5044 7384
L5063 7403
L5082 7441
L5082 7591
" />
<path d="M5063 7197
L5063 7066
" />
<path d="M5269 7009
L5269 7197
L4876 7197
L4876 7009
" />
<path d="M5251 6859
L5269 6803
L5269 6709
L5251 6672
L5232 6653
L5194 6634
L5157 6634
L5119 6653
L5101 6672
L5082 6709
L5063 6784
L5044 6822
L5026 6841
L4988 6859
L4951 6859
L4913 6841
L4895 6822
L4876 6784
L4876 6691
L4895 6634
" />
<path d="M5063 6466
L5063 6334
" />
<path d="M5269 6278
L5269 6466
L4876 6466
L4876 6278
" />
<path d="M4876 6166
L4876 5941
" />
<path d="M5269 6053
L4876 6053
" />
<g transform="rotate(-90 6223.75 6853.35)">
<text x="6223.75" y="7050.2"
textLength="1857.8" font-size="524.934" lengthAdjust="spacingAndGlyphs"
text-anchor="middle" opacity="0">RESET</text>
</g>
<path d="M6401 7425
L6214 7556
" />
<path d="M6401 7650
L6008 7650
L6008 7500
L6026 7462
L6045 7443
L6083 7425
L6139 7425
L6176 7443
L6195 7462
L6214 7500
L6214 7650
" />
<path d="M6195 7256
L6195 7125
" />
<path d="M6401 7068
L6401 7256
L6008 7256
L6008 7068
" />
<path d="M6383 6918
L6401 6862
L6401 6768
L6383 6731
L6364 6712
L6326 6693
L6289 6693
L6251 6712
L6233 6731
L6214 6768
L6195 6843
L6176 6881
L6158 6900
L6120 6918
L6083 6918
L6045 6900
L6026 6881
L6008 6843
L6008 6750
L6026 6693
" />
<path d="M6195 6525
L6195 6394
" />
<path d="M6401 6337
L6401 6525
L6008 6525
L6008 6337
" />
<path d="M6008 6225
L6008 6000
" />
<path d="M6401 6112
L6008 6112
" />
<g transform="rotate(-90 27566.3 13562)">
<text x="27566.3" y="13758.9"
textLength="2720.19" font-size="524.934" lengthAdjust="spacingAndGlyphs"
text-anchor="middle" opacity="0">ULN2003</text>
</g>
<path d="M27350 14789
L27669 14789
L27706 14771
L27725 14752
L27744 14714
L27744 14639
L27725 14602
L27706 14583
L27669 14565
L27350 14565
" />
<path d="M27744 14190
L27744 14377
L27350 14377
" />
<path d="M27744 14058
L27350 14058
L27744 13833
L27350 13833
" />
<path d="M27388 13665
L27369 13646
L27350 13608
L27350 13515
L27369 13477
L27388 13458
L27425 13440
L27463 13440
L27519 13458
L27744 13683
L27744 13440
" />
<path d="M27350 13196
L27350 13158
L27369 13121
L27388 13102
L27425 13083
L27500 13065
L27594 13065
L27669 13083
L27706 13102
L27725 13121
L27744 13158
L27744 13196
L27725 13233
L27706 13252
L27669 13271
L27594 13290
L27500 13290
L27425 13271
L27388 13252
L27369 13233
L27350 13196
" />
<path d="M27350 12821
L27350 12783
L27369 12746
L27388 12727
L27425 12708
L27500 12690
L27594 12690
L27669 12708
L27706 12727
L27725 12746
L27744 12783
L27744 12821
L27725 12858
L27706 12877
L27669 12896
L27594 12915
L27500 12915
L27425 12896
L27388 12877
L27369 12858
L27350 12821
" />
<path d="M27350 12559
L27350 12315
L27500 12446
L27500 12390
L27519 12352
L27538 12334
L27575 12315
L27669 12315
L27706 12334
L27725 12352
L27744 12390
L27744 12502
L27725 12540
L27706 12559
" />
<g transform="rotate(-90 23149 13562)">
<text x="23149" y="13758.9"
textLength="864.173" font-size="524.934" lengthAdjust="spacingAndGlyphs"
text-anchor="middle" opacity="0">U2</text>
</g>
<path d="M22933 13861
L23252 13861
L23289 13843
L23308 13824
L23327 13786
L23327 13711
L23308 13674
L23289 13655
L23252 13636
L22933 13636
" />
<path d="M22970 13468
L22952 13449
L22933 13412
L22933 13318
L22952 13280
L22970 13262
L23008 13243
L23045 13243
L23102 13262
L23327 13487
L23327 13243
" />
<g >
</g>
</g>
<g style="fill:#000000; fill-opacity:0.0; 
stroke:#000000; stroke-width:59.0551; stroke-opacity:1; 
stroke-linecap:round; stroke-linejoin:round;">
</g>
<g style="fill:#C2C200; fill-opacity:0.0; 
stroke:#C2C200; stroke-width:59.0551; stroke-opacity:1; 
stroke-linecap:round; stroke-linejoin:round;">
</g>
<g style="fill:#C2C200; fill-opacity:0.0; 
stroke:#C2C200; stroke-width:39.3701; stroke-opacity:1; 
stroke-linecap:round; stroke-linejoin:round;">
<path d="M43507 4747
L43507 24432
" />
<path d="M4452 4747
L43507 4747
" />
<path d="M4452 24432
L4452 4747
" />
<path d="M43507 24432
L4452 24432
" />
<g >
</g>
<g >
</g>
<g >
</g>
<g >
</g>
<g >
</g>
<g >
</g>
<g >
</g>
<g >
</g>
<g >
</g>
<g >
</g>
<g >
</g>
<g >
</g>
<g >
</g>
<g >
</g>
<g >
</g>
<g >
</g>
<g >
</g>
<g >
</g>
<g >
</g>
<g >
</g>
<g >
</g>
<g >
</g>
<g >
</g>
<g >
</g>
<g >
</g>
<g >
</g>
<g >
</g>
<g >
</g>
<g >
</g>
<g >
</g>
<g >
</g>
<g >
</g>
</g> 
</svg>
