\relax 
\providecommand\hyper@newdestlabel[2]{}
\providecommand\zref@newlabel[2]{}
\providecommand\babel@aux[2]{}
\@nameuse{bbl@beforestart}
\catcode `"\active 
\catcode `<\active 
\catcode `>\active 
\@nameuse{es@quoting}
\providecommand\HyperFirstAtBeginDocument{\AtBeginDocument}
\HyperFirstAtBeginDocument{\ifx\hyper@anchor\@undefined
\global\let\oldcontentsline\contentsline
\gdef\contentsline#1#2#3#4{\oldcontentsline{#1}{#2}{#3}}
\global\let\oldnewlabel\newlabel
\gdef\newlabel#1#2{\newlabelxx{#1}#2}
\gdef\newlabelxx#1#2#3#4#5#6{\oldnewlabel{#1}{{#2}{#3}}}
\AtEndDocument{\ifx\hyper@anchor\@undefined
\let\contentsline\oldcontentsline
\let\newlabel\oldnewlabel
\fi}
\fi}
\global\let\hyper@last\relax 
\gdef\HyperFirstAtBeginDocument#1{#1}
\providecommand*\HyPL@Entry[1]{}
\HyPL@Entry{0<</S/D>>}
\babel@aux{spanish}{}
\pgfsyspdfmark {pgfid2}{6773687}{48836679}
\pgfsyspdfmark {pgfid1}{6773687}{48836679}
\pgfsyspdfmark {pgfid4}{6773687}{48836679}
\pgfsyspdfmark {pgfid3}{6773687}{48836679}
\@writefile{toc}{\contentsline {chapter}{\numberline {1}Preámbulo}{5}{chapter.1}\protected@file@percent }
\@writefile{lof}{\addvspace {10\p@ }}
\@writefile{lot}{\addvspace {10\p@ }}
\pgfsyspdfmark {pgfid6}{5594039}{48836679}
\pgfsyspdfmark {pgfid5}{5594039}{48836679}
\@writefile{toc}{\contentsline {section}{\numberline {1.1}Notas y Advertencias}{5}{section.1.1}\protected@file@percent }
\@writefile{toc}{\contentsline {section}{\numberline {1.2}Cuadros de código fuente}{6}{section.1.2}\protected@file@percent }
\@writefile{toc}{\contentsline {chapter}{\numberline {2}Introducción}{7}{chapter.2}\protected@file@percent }
\@writefile{lof}{\addvspace {10\p@ }}
\@writefile{lot}{\addvspace {10\p@ }}
\pgfsyspdfmark {pgfid13}{5594039}{48836679}
\pgfsyspdfmark {pgfid12}{5594039}{48836679}
\@writefile{lof}{\contentsline {figure}{\numberline {2.1}{\ignorespaces }}{7}{figure.2.1}\protected@file@percent }
\newlabel{fig:esp32}{{2.1}{7}{}{figure.2.1}{}}
\@writefile{toc}{\contentsline {subsection}{\numberline {2.0.1}Descargar THONNY}{8}{subsection.2.0.1}\protected@file@percent }
\@writefile{lof}{\contentsline {figure}{\numberline {2.2}{\ignorespaces Página web del proyecto THONNY}}{8}{figure.2.2}\protected@file@percent }
\newlabel{fig:thonny1}{{2.2}{8}{Página web del proyecto THONNY}{figure.2.2}{}}
\@writefile{lof}{\contentsline {figure}{\numberline {2.3}{\ignorespaces programa de instalación}}{8}{figure.2.3}\protected@file@percent }
\newlabel{fig:thonny2}{{2.3}{8}{programa de instalación}{figure.2.3}{}}
\@writefile{lof}{\contentsline {figure}{\numberline {2.4}{\ignorespaces programa de instalación}}{9}{figure.2.4}\protected@file@percent }
\newlabel{fig:thonny2}{{2.4}{9}{programa de instalación}{figure.2.4}{}}
\@writefile{lof}{\contentsline {figure}{\numberline {2.5}{\ignorespaces THONNY}}{9}{figure.2.5}\protected@file@percent }
\newlabel{fig:thonny2}{{2.5}{9}{THONNY}{figure.2.5}{}}
\@writefile{toc}{\contentsline {chapter}{\numberline {3}Usando micropython}{10}{chapter.3}\protected@file@percent }
\@writefile{lof}{\addvspace {10\p@ }}
\@writefile{lot}{\addvspace {10\p@ }}
\pgfsyspdfmark {pgfid16}{5594039}{48836679}
\pgfsyspdfmark {pgfid15}{5594039}{48836679}
\@writefile{lof}{\contentsline {figure}{\numberline {3.1}{\ignorespaces THONNY}}{10}{figure.3.1}\protected@file@percent }
\newlabel{fig:thonny2}{{3.1}{10}{THONNY}{figure.3.1}{}}
\@writefile{lof}{\contentsline {figure}{\numberline {3.2}{\ignorespaces THONNY}}{11}{figure.3.2}\protected@file@percent }
\newlabel{fig:thonny2}{{3.2}{11}{THONNY}{figure.3.2}{}}
\@writefile{lof}{\contentsline {figure}{\numberline {3.3}{\ignorespaces THONNY}}{11}{figure.3.3}\protected@file@percent }
\newlabel{fig:thonny2}{{3.3}{11}{THONNY}{figure.3.3}{}}
\ttl@finishall
\gdef \@abspage@last{11}
