\babel@toc {spanish}{}
\contentsline {chapter}{\numberline {1}Preámbulo}{5}{chapter.1}%
\contentsline {section}{\numberline {1.1}Notas y Advertencias}{5}{section.1.1}%
\contentsline {section}{\numberline {1.2}Cuadros de código fuente}{6}{section.1.2}%
\contentsline {chapter}{\numberline {2}Introducción}{7}{chapter.2}%
\contentsline {subsection}{\numberline {2.0.1}Descargar THONNY}{8}{subsection.2.0.1}%
\contentsline {chapter}{\numberline {3}Usando micropython}{10}{chapter.3}%
\contentsfinish 
