# Fdb version 3
["pdflatex"] 1593009144 "paquetes.tex" "paquetes.pdf" "paquetes" 1593009144
  "/home/vbasel/.texlive2019/texmf-var/web2c/pdftex/pdflatex.fmt" 1592835529 797358 67e682d2d3ba0cd597c7e63008dcf3f5 ""
  "/usr/share/texlive/texmf-dist/web2c/texmf.cnf" 1580905820 35594 9aef19174c178978f61d14961262af5d ""
  "paquetes.aux" 1593009144 8 a94a2480d3289e625eea47cd1b285758 ""
  "paquetes.tex" 1593009144 2269 2818213a1217d6c04cc3fe2b81c5786d ""
  (generated)
  "paquetes.pdf"
  "paquetes.log"
