<?xml version="1.0" standalone="no"?>
 <!DOCTYPE svg PUBLIC "-//W3C//DTD SVG 1.1//EN" 
 "http://www.w3.org/Graphics/SVG/1.1/DTD/svg11.dtd"> 
<svg xmlns="http://www.w3.org/2000/svg" version="1.1" 
    width="29.7002cm" height="21.0007cm" viewBox="0 0 116930 82680 ">
<title>SVG Picture created as lacerar_wemos-B_Cu.svg date 2020/02/07 15:13:16 </title>
  <desc>Picture generated by PCBNEW </desc>
<g style="fill:#000000; fill-opacity:1;stroke:#000000; stroke-opacity:1;
stroke-linecap:round; stroke-linejoin:round; "
 transform="translate(0 0) scale(1 1)">
</g>
<g style="fill:#000000; fill-opacity:0.0; 
stroke:#000000; stroke-width:-0.000393701; stroke-opacity:1; 
stroke-linecap:round; stroke-linejoin:round;">
</g>
<g style="fill:#000000; fill-opacity:0.0; 
stroke:#000000; stroke-width:78.7402; stroke-opacity:1; 
stroke-linecap:round; stroke-linejoin:round;">
<text x="52224.4" y="24370.1"
textLength="-4850.11" font-size="-629.921" lengthAdjust="spacingAndGlyphs"
text-anchor="middle" opacity="0">LACERAR V1.0</text>
<path d="M54350 24347
L54575 24347
L54575 23875
" />
<path d="M54215 24212
L53990 24212
" />
<path d="M54260 24347
L54102 23875
L53945 24347
" />
<path d="M53517 24302
L53540 24325
L53607 24347
L53652 24347
L53720 24325
L53765 24280
L53787 24235
L53810 24145
L53810 24077
L53787 23987
L53765 23942
L53720 23897
L53652 23875
L53607 23875
L53540 23897
L53517 23920
" />
<path d="M53315 24100
L53158 24100
" />
<path d="M53090 24347
L53315 24347
L53315 23875
L53090 23875
" />
<path d="M52618 24347
L52775 24122
" />
<path d="M52888 24347
L52888 23875
L52708 23875
L52663 23897
L52640 23920
L52618 23965
L52618 24032
L52640 24077
L52663 24100
L52708 24122
L52888 24122
" />
<path d="M52438 24212
L52213 24212
" />
<path d="M52483 24347
L52325 23875
L52168 24347
" />
<path d="M51740 24347
L51898 24122
" />
<path d="M52010 24347
L52010 23875
L51830 23875
L51785 23897
L51763 23920
L51740 23965
L51740 24032
L51763 24077
L51785 24100
L51830 24122
L52010 24122
" />
<path d="M51245 23875
L51088 24347
L50930 23875
" />
<path d="M50525 24347
L50795 24347
" />
<path d="M50660 24347
L50660 23875
L50705 23942
L50750 23987
L50795 24010
" />
<path d="M50323 24302
L50300 24325
L50323 24347
L50345 24325
L50323 24302
L50323 24347
" />
<path d="M50008 23875
L49963 23875
L49918 23897
L49895 23920
L49873 23965
L49850 24055
L49850 24167
L49873 24257
L49895 24302
L49918 24325
L49963 24347
L50008 24347
L50053 24325
L50075 24302
L50098 24257
L50120 24167
L50120 24055
L50098 23965
L50075 23920
L50053 23897
L50008 23875
" />
<text x="52224.4" y="25157.5"
textLength="-4937.01" font-size="-629.921" lengthAdjust="spacingAndGlyphs"
text-anchor="middle" opacity="0">valentin basel</text>
<path d="M54676 24820
L54564 25134
L54451 24820
" />
<path d="M54069 25134
L54069 24887
L54091 24842
L54136 24820
L54226 24820
L54271 24842
" />
<path d="M54069 25112
L54114 25134
L54226 25134
L54271 25112
L54294 25067
L54294 25022
L54271 24977
L54226 24955
L54114 24955
L54069 24932
" />
<path d="M53776 25134
L53821 25112
L53844 25067
L53844 24662
" />
<path d="M53416 25112
L53461 25134
L53551 25134
L53596 25112
L53619 25067
L53619 24887
L53596 24842
L53551 24820
L53461 24820
L53416 24842
L53394 24887
L53394 24932
L53619 24977
" />
<path d="M53191 24820
L53191 25134
" />
<path d="M53191 24865
L53169 24842
L53124 24820
L53056 24820
L53011 24842
L52989 24887
L52989 25134
" />
<path d="M52831 24820
L52651 24820
" />
<path d="M52764 24662
L52764 25067
L52741 25112
L52696 25134
L52651 25134
" />
<path d="M52494 25134
L52494 24820
" />
<path d="M52494 24662
L52516 24685
L52494 24707
L52471 24685
L52494 24662
L52494 24707
" />
<path d="M52269 24820
L52269 25134
" />
<path d="M52269 24865
L52246 24842
L52201 24820
L52134 24820
L52089 24842
L52066 24887
L52066 25134
" />
<path d="M51482 25134
L51482 24662
" />
<path d="M51482 24842
L51437 24820
L51347 24820
L51302 24842
L51279 24865
L51257 24910
L51257 25044
L51279 25089
L51302 25112
L51347 25134
L51437 25134
L51482 25112
" />
<path d="M50852 25134
L50852 24887
L50874 24842
L50919 24820
L51009 24820
L51054 24842
" />
<path d="M50852 25112
L50897 25134
L51009 25134
L51054 25112
L51077 25067
L51077 25022
L51054 24977
L51009 24955
L50897 24955
L50852 24932
" />
<path d="M50649 25112
L50604 25134
L50514 25134
L50469 25112
L50447 25067
L50447 25044
L50469 25000
L50514 24977
L50582 24977
L50627 24955
L50649 24910
L50649 24887
L50627 24842
L50582 24820
L50514 24820
L50469 24842
" />
<path d="M50064 25112
L50109 25134
L50199 25134
L50244 25112
L50267 25067
L50267 24887
L50244 24842
L50199 24820
L50109 24820
L50064 24842
L50042 24887
L50042 24932
L50267 24977
" />
<path d="M49772 25134
L49817 25112
L49839 25067
L49839 24662
" />
<text x="52224.4" y="25944.9"
textLength="-8401.57" font-size="-629.921" lengthAdjust="spacingAndGlyphs"
text-anchor="middle" opacity="0">valetinbasel@gmail.com</text>
<path d="M56408 25607
L56296 25922
L56183 25607
" />
<path d="M55801 25922
L55801 25674
L55823 25629
L55868 25607
L55958 25607
L56003 25629
" />
<path d="M55801 25899
L55846 25922
L55958 25922
L56003 25899
L56026 25854
L56026 25809
L56003 25764
L55958 25742
L55846 25742
L55801 25719
" />
<path d="M55508 25922
L55553 25899
L55576 25854
L55576 25449
" />
<path d="M55149 25899
L55194 25922
L55284 25922
L55329 25899
L55351 25854
L55351 25674
L55329 25629
L55284 25607
L55194 25607
L55149 25629
L55126 25674
L55126 25719
L55351 25764
" />
<path d="M54991 25607
L54811 25607
" />
<path d="M54924 25449
L54924 25854
L54901 25899
L54856 25922
L54811 25922
" />
<path d="M54654 25922
L54654 25607
" />
<path d="M54654 25449
L54676 25472
L54654 25494
L54631 25472
L54654 25449
L54654 25494
" />
<path d="M54429 25607
L54429 25922
" />
<path d="M54429 25652
L54406 25629
L54361 25607
L54294 25607
L54249 25629
L54226 25674
L54226 25922
" />
<path d="M54001 25922
L54001 25449
" />
<path d="M54001 25629
L53956 25607
L53866 25607
L53821 25629
L53799 25652
L53776 25697
L53776 25832
L53799 25877
L53821 25899
L53866 25922
L53956 25922
L54001 25899
" />
<path d="M53371 25922
L53371 25674
L53394 25629
L53439 25607
L53529 25607
L53574 25629
" />
<path d="M53371 25899
L53416 25922
L53529 25922
L53574 25899
L53596 25854
L53596 25809
L53574 25764
L53529 25742
L53416 25742
L53371 25719
" />
<path d="M53169 25899
L53124 25922
L53034 25922
L52989 25899
L52966 25854
L52966 25832
L52989 25787
L53034 25764
L53101 25764
L53146 25742
L53169 25697
L53169 25674
L53146 25629
L53101 25607
L53034 25607
L52989 25629
" />
<path d="M52584 25899
L52629 25922
L52719 25922
L52764 25899
L52786 25854
L52786 25674
L52764 25629
L52719 25607
L52629 25607
L52584 25629
L52561 25674
L52561 25719
L52786 25764
" />
<path d="M52291 25922
L52336 25899
L52359 25854
L52359 25449
" />
<path d="M51819 25697
L51841 25674
L51886 25652
L51931 25652
L51976 25674
L51999 25697
L52021 25742
L52021 25787
L51999 25832
L51976 25854
L51931 25877
L51886 25877
L51841 25854
L51819 25832
" />
<path d="M51819 25652
L51819 25832
L51796 25854
L51774 25854
L51729 25832
L51706 25787
L51706 25674
L51751 25607
L51819 25562
L51909 25539
L51999 25562
L52066 25607
L52111 25674
L52134 25764
L52111 25854
L52066 25922
L51999 25967
L51909 25989
L51819 25967
L51751 25922
" />
<path d="M51302 25607
L51302 25989
L51324 26034
L51347 26057
L51392 26079
L51459 26079
L51504 26057
" />
<path d="M51302 25899
L51347 25922
L51437 25922
L51482 25899
L51504 25877
L51526 25832
L51526 25697
L51504 25652
L51482 25629
L51437 25607
L51347 25607
L51302 25629
" />
<path d="M51077 25922
L51077 25607
" />
<path d="M51077 25652
L51054 25629
L51009 25607
L50942 25607
L50897 25629
L50874 25674
L50874 25922
" />
<path d="M50874 25674
L50852 25629
L50807 25607
L50739 25607
L50694 25629
L50672 25674
L50672 25922
" />
<path d="M50244 25922
L50244 25674
L50267 25629
L50312 25607
L50402 25607
L50447 25629
" />
<path d="M50244 25899
L50289 25922
L50402 25922
L50447 25899
L50469 25854
L50469 25809
L50447 25764
L50402 25742
L50289 25742
L50244 25719
" />
<path d="M50019 25922
L50019 25607
" />
<path d="M50019 25449
L50042 25472
L50019 25494
L49997 25472
L50019 25449
L50019 25494
" />
<path d="M49727 25922
L49772 25899
L49794 25854
L49794 25449
" />
<path d="M49547 25877
L49524 25899
L49547 25922
L49569 25899
L49547 25877
L49547 25922
" />
<path d="M49119 25899
L49164 25922
L49254 25922
L49299 25899
L49322 25877
L49344 25832
L49344 25697
L49322 25652
L49299 25629
L49254 25607
L49164 25607
L49119 25629
" />
<path d="M48849 25922
L48894 25899
L48917 25877
L48939 25832
L48939 25697
L48917 25652
L48894 25629
L48849 25607
L48782 25607
L48737 25629
L48714 25652
L48692 25697
L48692 25832
L48714 25877
L48737 25899
L48782 25922
L48849 25922
" />
<path d="M48489 25922
L48489 25607
" />
<path d="M48489 25652
L48467 25629
L48422 25607
L48354 25607
L48309 25629
L48287 25674
L48287 25922
" />
<path d="M48287 25674
L48264 25629
L48219 25607
L48152 25607
L48107 25629
L48084 25674
L48084 25922
" />
<g >
</g>
<g style="fill:#000000; fill-opacity:1.0; 
stroke:#000000; stroke-width:0; stroke-opacity:1; 
stroke-linecap:round; stroke-linejoin:round;">
<circle cx="80315" cy="19574.8" r="590.551" /> 
</g>
<g style="fill:#000000; fill-opacity:1.0; 
stroke:#000000; stroke-width:39.3701; stroke-opacity:1; 
stroke-linecap:round; stroke-linejoin:round;">
</g>
<g style="fill:#000000; fill-opacity:1.0; 
stroke:#000000; stroke-width:0; stroke-opacity:1; 
stroke-linecap:round; stroke-linejoin:round;">
<path style="fill:#000000; fill-opacity:1.0; 
stroke:#000000; stroke-width:0; stroke-opacity:1; 
stroke-linecap:round; stroke-linejoin:round;fill-rule:evenodd;"
d="M 80905.5,22165.4
79724.4,22165.4
79724.4,20984.3
80905.5,20984.3
Z" /> 
</g>
<g >
</g>
<g style="fill:#000000; fill-opacity:1.0; 
stroke:#000000; stroke-width:0; stroke-opacity:1; 
stroke-linecap:round; stroke-linejoin:round;">
<circle cx="50049.2" cy="17106.3" r="1102.36" /> 
</g>
<g style="fill:#000000; fill-opacity:1.0; 
stroke:#000000; stroke-width:39.3701; stroke-opacity:1; 
stroke-linecap:round; stroke-linejoin:round;">
</g>
<g >
</g>
<g style="fill:#000000; fill-opacity:1.0; 
stroke:#000000; stroke-width:39.3701; stroke-opacity:1; 
stroke-linecap:round; stroke-linejoin:round;">
</g>
<g style="fill:#000000; fill-opacity:1.0; 
stroke:#000000; stroke-width:0; stroke-opacity:1; 
stroke-linecap:round; stroke-linejoin:round;">
<circle cx="50068.9" cy="34055.1" r="1102.36" /> 
</g>
<g style="fill:#000000; fill-opacity:1.0; 
stroke:#000000; stroke-width:39.3701; stroke-opacity:1; 
stroke-linecap:round; stroke-linejoin:round;">
</g>
<g >
</g>
<g style="fill:#000000; fill-opacity:1.0; 
stroke:#000000; stroke-width:39.3701; stroke-opacity:1; 
stroke-linecap:round; stroke-linejoin:round;">
</g>
<g style="fill:#000000; fill-opacity:1.0; 
stroke:#000000; stroke-width:0; stroke-opacity:1; 
stroke-linecap:round; stroke-linejoin:round;">
<circle cx="75177.2" cy="17126" r="1102.36" /> 
</g>
<g style="fill:#000000; fill-opacity:1.0; 
stroke:#000000; stroke-width:39.3701; stroke-opacity:1; 
stroke-linecap:round; stroke-linejoin:round;">
</g>
<g >
</g>
<g style="fill:#000000; fill-opacity:1.0; 
stroke:#000000; stroke-width:39.3701; stroke-opacity:1; 
stroke-linecap:round; stroke-linejoin:round;">
</g>
<g style="fill:#000000; fill-opacity:1.0; 
stroke:#000000; stroke-width:0; stroke-opacity:1; 
stroke-linecap:round; stroke-linejoin:round;">
<circle cx="75167.3" cy="34074.8" r="1102.36" /> 
</g>
<g style="fill:#000000; fill-opacity:1.0; 
stroke:#000000; stroke-width:39.3701; stroke-opacity:1; 
stroke-linecap:round; stroke-linejoin:round;">
</g>
<g >
</g>
<g style="fill:#000000; fill-opacity:1.0; 
stroke:#000000; stroke-width:39.3701; stroke-opacity:1; 
stroke-linecap:round; stroke-linejoin:round;">
</g>
<g style="fill:#000000; fill-opacity:1.0; 
stroke:#000000; stroke-width:629.921; stroke-opacity:1; 
stroke-linecap:round; stroke-linejoin:round;">
</g>
<g style="fill:#000000; fill-opacity:0.0; 
stroke:#000000; stroke-width:629.921; stroke-opacity:1; 
stroke-linecap:round; stroke-linejoin:round;">
<path d="M53262 20787
L53262 20944
" />
</g>
<g style="fill:#000000; fill-opacity:0.0; 
stroke:#000000; stroke-width:0; stroke-opacity:1; 
stroke-linecap:round; stroke-linejoin:round;">
</g>
<g style="fill:#000000; fill-opacity:1.0; 
stroke:#000000; stroke-width:0; stroke-opacity:1; 
stroke-linecap:round; stroke-linejoin:round;">
<path style="fill:#000000; fill-opacity:1.0; 
stroke:#000000; stroke-width:0; stroke-opacity:1; 
stroke-linecap:round; stroke-linejoin:round;fill-rule:evenodd;"
d="M 53868.4,20472.4
54655.9,20472.4
54655.9,21259.8
53868.4,21259.8
Z" /> 
</g>
<g style="fill:#000000; fill-opacity:1.0; 
stroke:#000000; stroke-width:629.921; stroke-opacity:1; 
stroke-linecap:round; stroke-linejoin:round;">
</g>
<g style="fill:#000000; fill-opacity:0.0; 
stroke:#000000; stroke-width:629.921; stroke-opacity:1; 
stroke-linecap:round; stroke-linejoin:round;">
<path d="M52262 20787
L52262 20944
" />
<path d="M51262 20787
L51262 20944
" />
<path d="M50262 20787
L50262 20944
" />
<path d="M49262 20787
L49262 20944
" />
<path d="M48262 20787
L48262 20944
" />
<path d="M47262 20787
L47262 20944
" />
<path d="M47262 29787
L47262 29944
" />
<path d="M48262 29787
L48262 29944
" />
<path d="M49262 29787
L49262 29944
" />
<path d="M50262 29787
L50262 29944
" />
<path d="M51262 29787
L51262 29944
" />
<path d="M52262 29787
L52262 29944
" />
<path d="M53262 29787
L53262 29944
" />
<path d="M54262 29787
L54262 29944
" />
</g>
<g >
</g>
<g style="fill:#000000; fill-opacity:0.0; 
stroke:#000000; stroke-width:629.921; stroke-opacity:1; 
stroke-linecap:round; stroke-linejoin:round;">
</g>
<g style="fill:#000000; fill-opacity:0.0; 
stroke:#000000; stroke-width:0; stroke-opacity:1; 
stroke-linecap:round; stroke-linejoin:round;">
</g>
<g style="fill:#000000; fill-opacity:1.0; 
stroke:#000000; stroke-width:0; stroke-opacity:1; 
stroke-linecap:round; stroke-linejoin:round;">
<path style="fill:#000000; fill-opacity:1.0; 
stroke:#000000; stroke-width:0; stroke-opacity:1; 
stroke-linecap:round; stroke-linejoin:round;fill-rule:evenodd;"
d="M 57086.6,34005.9
56456.7,34005.9
56456.7,33376
57086.6,33376
Z" /> 
<circle cx="56771.7" cy="32706.7" r="314.961" /> 
</g>
<g style="fill:#000000; fill-opacity:1.0; 
stroke:#000000; stroke-width:39.3701; stroke-opacity:1; 
stroke-linecap:round; stroke-linejoin:round;">
</g>
<g >
</g>
<g style="fill:#000000; fill-opacity:1.0; 
stroke:#000000; stroke-width:39.3701; stroke-opacity:1; 
stroke-linecap:round; stroke-linejoin:round;">
</g>
<g style="fill:#000000; fill-opacity:1.0; 
stroke:#000000; stroke-width:0; stroke-opacity:1; 
stroke-linecap:round; stroke-linejoin:round;">
<circle cx="53198.8" cy="34055.1" r="314.961" /> 
</g>
<g style="fill:#000000; fill-opacity:1.0; 
stroke:#000000; stroke-width:39.3701; stroke-opacity:1; 
stroke-linecap:round; stroke-linejoin:round;">
</g>
<g style="fill:#000000; fill-opacity:1.0; 
stroke:#000000; stroke-width:0; stroke-opacity:1; 
stroke-linecap:round; stroke-linejoin:round;">
<path style="fill:#000000; fill-opacity:1.0; 
stroke:#000000; stroke-width:0; stroke-opacity:1; 
stroke-linecap:round; stroke-linejoin:round;fill-rule:evenodd;"
d="M 52883.9,32755.9
53513.8,32755.9
53513.8,33385.8
52883.9,33385.8
Z" /> 
</g>
<g >
</g>
<g style="fill:#000000; fill-opacity:1.0; 
stroke:#000000; stroke-width:0; stroke-opacity:1; 
stroke-linecap:round; stroke-linejoin:round;">
<circle cx="66220.5" cy="28976.4" r="314.961" /> 
</g>
<g style="fill:#000000; fill-opacity:1.0; 
stroke:#000000; stroke-width:39.3701; stroke-opacity:1; 
stroke-linecap:round; stroke-linejoin:round;">
</g>
<g style="fill:#000000; fill-opacity:1.0; 
stroke:#000000; stroke-width:0; stroke-opacity:1; 
stroke-linecap:round; stroke-linejoin:round;">
<circle cx="64252" cy="28976.4" r="314.961" /> 
</g>
<g style="fill:#000000; fill-opacity:1.0; 
stroke:#000000; stroke-width:39.3701; stroke-opacity:1; 
stroke-linecap:round; stroke-linejoin:round;">
</g>
<g >
</g>
<g style="fill:#000000; fill-opacity:1.0; 
stroke:#000000; stroke-width:39.3701; stroke-opacity:1; 
stroke-linecap:round; stroke-linejoin:round;">
</g>
<g style="fill:#000000; fill-opacity:1.0; 
stroke:#000000; stroke-width:708.661; stroke-opacity:1; 
stroke-linecap:round; stroke-linejoin:round;">
</g>
<g style="fill:#000000; fill-opacity:0.0; 
stroke:#000000; stroke-width:708.661; stroke-opacity:1; 
stroke-linecap:round; stroke-linejoin:round;">
<path d="M69212 28196
L69212 28196
" />
</g>
<g style="fill:#000000; fill-opacity:0.0; 
stroke:#000000; stroke-width:0; stroke-opacity:1; 
stroke-linecap:round; stroke-linejoin:round;">
</g>
<g style="fill:#000000; fill-opacity:1.0; 
stroke:#000000; stroke-width:0; stroke-opacity:1; 
stroke-linecap:round; stroke-linejoin:round;">
<path style="fill:#000000; fill-opacity:1.0; 
stroke:#000000; stroke-width:0; stroke-opacity:1; 
stroke-linecap:round; stroke-linejoin:round;fill-rule:evenodd;"
d="M 68858.3,24842.5
69566.9,24842.5
69566.9,25551.2
68858.3,25551.2
Z" /> 
</g>
<g >
</g>
<g style="fill:#000000; fill-opacity:1.0; 
stroke:#000000; stroke-width:0; stroke-opacity:1; 
stroke-linecap:round; stroke-linejoin:round;">
<path style="fill:#000000; fill-opacity:1.0; 
stroke:#000000; stroke-width:0; stroke-opacity:1; 
stroke-linecap:round; stroke-linejoin:round;fill-rule:evenodd;"
d="M 69763.8,29763.8
69763.8,30472.4
69055.1,30472.4
69055.1,29763.8
Z" /> 
<circle cx="68409.4" cy="30118.1" r="354.331" /> 
</g>
<g style="fill:#000000; fill-opacity:1.0; 
stroke:#000000; stroke-width:39.3701; stroke-opacity:1; 
stroke-linecap:round; stroke-linejoin:round;">
</g>
<g >
</g>
<g style="fill:#000000; fill-opacity:1.0; 
stroke:#000000; stroke-width:39.3701; stroke-opacity:1; 
stroke-linecap:round; stroke-linejoin:round;">
</g>
<g style="fill:#000000; fill-opacity:1.0; 
stroke:#000000; stroke-width:0; stroke-opacity:1; 
stroke-linecap:round; stroke-linejoin:round;">
<circle cx="68291.3" cy="23149.6" r="354.331" /> 
</g>
<g style="fill:#000000; fill-opacity:1.0; 
stroke:#000000; stroke-width:39.3701; stroke-opacity:1; 
stroke-linecap:round; stroke-linejoin:round;">
</g>
<g style="fill:#000000; fill-opacity:1.0; 
stroke:#000000; stroke-width:0; stroke-opacity:1; 
stroke-linecap:round; stroke-linejoin:round;">
<path style="fill:#000000; fill-opacity:1.0; 
stroke:#000000; stroke-width:0; stroke-opacity:1; 
stroke-linecap:round; stroke-linejoin:round;fill-rule:evenodd;"
d="M 69645.7,22795.3
69645.7,23503.9
68937,23503.9
68937,22795.3
Z" /> 
</g>
<g >
</g>
<g style="fill:#000000; fill-opacity:1.0; 
stroke:#000000; stroke-width:0; stroke-opacity:1; 
stroke-linecap:round; stroke-linejoin:round;">
<path style="fill:#000000; fill-opacity:1.0; 
stroke:#000000; stroke-width:0; stroke-opacity:1; 
stroke-linecap:round; stroke-linejoin:round;fill-rule:evenodd;"
d="M 68937,17874
69645.7,17874
69645.7,18582.7
68937,18582.7
Z" /> 
</g>
<g style="fill:#000000; fill-opacity:1.0; 
stroke:#000000; stroke-width:708.661; stroke-opacity:1; 
stroke-linecap:round; stroke-linejoin:round;">
</g>
<g style="fill:#000000; fill-opacity:0.0; 
stroke:#000000; stroke-width:708.661; stroke-opacity:1; 
stroke-linecap:round; stroke-linejoin:round;">
<path d="M69291 21228
L69291 21228
" />
</g>
<g >
</g>
<g style="fill:#000000; fill-opacity:0.0; 
stroke:#000000; stroke-width:708.661; stroke-opacity:1; 
stroke-linecap:round; stroke-linejoin:round;">
</g>
<g style="fill:#000000; fill-opacity:0.0; 
stroke:#000000; stroke-width:0; stroke-opacity:1; 
stroke-linecap:round; stroke-linejoin:round;">
</g>
<g style="fill:#000000; fill-opacity:1.0; 
stroke:#000000; stroke-width:0; stroke-opacity:1; 
stroke-linecap:round; stroke-linejoin:round;">
<path style="fill:#000000; fill-opacity:1.0; 
stroke:#000000; stroke-width:0; stroke-opacity:1; 
stroke-linecap:round; stroke-linejoin:round;fill-rule:evenodd;"
d="M 48149.6,34685
47440.9,34685
47440.9,33976.4
48149.6,33976.4
Z" /> 
</g>
<g style="fill:#000000; fill-opacity:1.0; 
stroke:#000000; stroke-width:708.661; stroke-opacity:1; 
stroke-linecap:round; stroke-linejoin:round;">
</g>
<g style="fill:#000000; fill-opacity:0.0; 
stroke:#000000; stroke-width:708.661; stroke-opacity:1; 
stroke-linecap:round; stroke-linejoin:round;">
<path d="M47795 31330
L47795 31330
" />
</g>
<g >
</g>
<g style="fill:#000000; fill-opacity:0.0; 
stroke:#000000; stroke-width:708.661; stroke-opacity:1; 
stroke-linecap:round; stroke-linejoin:round;">
</g>
<g style="fill:#000000; fill-opacity:0.0; 
stroke:#000000; stroke-width:0; stroke-opacity:1; 
stroke-linecap:round; stroke-linejoin:round;">
</g>
<g style="fill:#000000; fill-opacity:1.0; 
stroke:#000000; stroke-width:0; stroke-opacity:1; 
stroke-linecap:round; stroke-linejoin:round;">
<path style="fill:#000000; fill-opacity:1.0; 
stroke:#000000; stroke-width:0; stroke-opacity:1; 
stroke-linecap:round; stroke-linejoin:round;fill-rule:evenodd;"
d="M 71338.6,33986.2
71338.6,33277.6
72047.2,33277.6
72047.2,33986.2
Z" /> 
<circle cx="72692.9" cy="33631.9" r="354.331" /> 
</g>
<g style="fill:#000000; fill-opacity:1.0; 
stroke:#000000; stroke-width:39.3701; stroke-opacity:1; 
stroke-linecap:round; stroke-linejoin:round;">
</g>
<g >
</g>
<g style="fill:#000000; fill-opacity:1.0; 
stroke:#000000; stroke-width:39.3701; stroke-opacity:1; 
stroke-linecap:round; stroke-linejoin:round;">
</g>
<g style="fill:#000000; fill-opacity:1.0; 
stroke:#000000; stroke-width:0; stroke-opacity:1; 
stroke-linecap:round; stroke-linejoin:round;">
<path style="fill:#000000; fill-opacity:1.0; 
stroke:#000000; stroke-width:0; stroke-opacity:1; 
stroke-linecap:round; stroke-linejoin:round;fill-rule:evenodd;"
d="M 51082.7,31003.9
51752,31003.9
51752,31673.2
51082.7,31673.2
Z" /> 
</g>
<g style="fill:#000000; fill-opacity:1.0; 
stroke:#000000; stroke-width:669.291; stroke-opacity:1; 
stroke-linecap:round; stroke-linejoin:round;">
</g>
<g style="fill:#000000; fill-opacity:0.0; 
stroke:#000000; stroke-width:669.291; stroke-opacity:1; 
stroke-linecap:round; stroke-linejoin:round;">
<path d="M50417 31338
L50417 31338
" />
<path d="M49417 31338
L49417 31338
" />
</g>
<g >
</g>
<g style="fill:#000000; fill-opacity:0.0; 
stroke:#000000; stroke-width:669.291; stroke-opacity:1; 
stroke-linecap:round; stroke-linejoin:round;">
</g>
<g style="fill:#000000; fill-opacity:0.0; 
stroke:#000000; stroke-width:0; stroke-opacity:1; 
stroke-linecap:round; stroke-linejoin:round;">
</g>
<g style="fill:#000000; fill-opacity:1.0; 
stroke:#000000; stroke-width:0; stroke-opacity:1; 
stroke-linecap:round; stroke-linejoin:round;">
<path style="fill:#000000; fill-opacity:1.0; 
stroke:#000000; stroke-width:0; stroke-opacity:1; 
stroke-linecap:round; stroke-linejoin:round;fill-rule:evenodd;"
d="M 44685,31267.7
45866.1,31267.7
45866.1,32448.8
44685,32448.8
Z" /> 
<circle cx="45275.6" cy="33858.3" r="590.551" /> 
</g>
<g style="fill:#000000; fill-opacity:1.0; 
stroke:#000000; stroke-width:39.3701; stroke-opacity:1; 
stroke-linecap:round; stroke-linejoin:round;">
</g>
<g >
</g>
<g style="fill:#000000; fill-opacity:1.0; 
stroke:#000000; stroke-width:39.3701; stroke-opacity:1; 
stroke-linecap:round; stroke-linejoin:round;">
</g>
<g style="fill:#000000; fill-opacity:1.0; 
stroke:#000000; stroke-width:0; stroke-opacity:1; 
stroke-linecap:round; stroke-linejoin:round;">
<circle cx="80315" cy="23748" r="590.551" /> 
</g>
<g style="fill:#000000; fill-opacity:1.0; 
stroke:#000000; stroke-width:39.3701; stroke-opacity:1; 
stroke-linecap:round; stroke-linejoin:round;">
</g>
<g style="fill:#000000; fill-opacity:1.0; 
stroke:#000000; stroke-width:0; stroke-opacity:1; 
stroke-linecap:round; stroke-linejoin:round;">
<path style="fill:#000000; fill-opacity:1.0; 
stroke:#000000; stroke-width:0; stroke-opacity:1; 
stroke-linecap:round; stroke-linejoin:round;fill-rule:evenodd;"
d="M 80905.5,26338.6
79724.4,26338.6
79724.4,25157.5
80905.5,25157.5
Z" /> 
</g>
<g >
</g>
<g style="fill:#000000; fill-opacity:1.0; 
stroke:#000000; stroke-width:0; stroke-opacity:1; 
stroke-linecap:round; stroke-linejoin:round;">
<path style="fill:#000000; fill-opacity:1.0; 
stroke:#000000; stroke-width:0; stroke-opacity:1; 
stroke-linecap:round; stroke-linejoin:round;fill-rule:evenodd;"
d="M 80826.8,32748
79645.7,32748
79645.7,31566.9
80826.8,31566.9
Z" /> 
<circle cx="80236.2" cy="30157.5" r="590.551" /> 
</g>
<g style="fill:#000000; fill-opacity:1.0; 
stroke:#000000; stroke-width:39.3701; stroke-opacity:1; 
stroke-linecap:round; stroke-linejoin:round;">
</g>
<g >
</g>
<g style="fill:#000000; fill-opacity:1.0; 
stroke:#000000; stroke-width:39.3701; stroke-opacity:1; 
stroke-linecap:round; stroke-linejoin:round;">
</g>
<g style="fill:#000000; fill-opacity:1.0; 
stroke:#000000; stroke-width:0; stroke-opacity:1; 
stroke-linecap:round; stroke-linejoin:round;">
<path style="fill:#000000; fill-opacity:1.0; 
stroke:#000000; stroke-width:0; stroke-opacity:1; 
stroke-linecap:round; stroke-linejoin:round;fill-rule:evenodd;"
d="M 49350.4,18966.5
50019.7,18966.5
50019.7,19635.8
49350.4,19635.8
Z" /> 
</g>
<g style="fill:#000000; fill-opacity:1.0; 
stroke:#000000; stroke-width:669.291; stroke-opacity:1; 
stroke-linecap:round; stroke-linejoin:round;">
</g>
<g style="fill:#000000; fill-opacity:0.0; 
stroke:#000000; stroke-width:669.291; stroke-opacity:1; 
stroke-linecap:round; stroke-linejoin:round;">
<path d="M48685 19301
L48685 19301
" />
</g>
<g >
</g>
<g style="fill:#000000; fill-opacity:0.0; 
stroke:#000000; stroke-width:669.291; stroke-opacity:1; 
stroke-linecap:round; stroke-linejoin:round;">
<path d="M52362 18929
L52362 18929
" />
<path d="M52362 17929
L52362 17929
" />
</g>
<g style="fill:#000000; fill-opacity:0.0; 
stroke:#000000; stroke-width:0; stroke-opacity:1; 
stroke-linecap:round; stroke-linejoin:round;">
</g>
<g style="fill:#000000; fill-opacity:1.0; 
stroke:#000000; stroke-width:0; stroke-opacity:1; 
stroke-linecap:round; stroke-linejoin:round;">
<path style="fill:#000000; fill-opacity:1.0; 
stroke:#000000; stroke-width:0; stroke-opacity:1; 
stroke-linecap:round; stroke-linejoin:round;fill-rule:evenodd;"
d="M 52027.6,17263.8
52027.6,16594.5
52696.9,16594.5
52696.9,17263.8
Z" /> 
</g>
<g >
</g>
<g style="fill:#000000; fill-opacity:1.0; 
stroke:#000000; stroke-width:0; stroke-opacity:1; 
stroke-linecap:round; stroke-linejoin:round;">
</g>
<g style="fill:#000000; fill-opacity:1.0; 
stroke:#000000; stroke-width:669.291; stroke-opacity:1; 
stroke-linecap:round; stroke-linejoin:round;">
</g>
<g style="fill:#000000; fill-opacity:0.0; 
stroke:#000000; stroke-width:669.291; stroke-opacity:1; 
stroke-linecap:round; stroke-linejoin:round;">
<path d="M62212 17047
L62212 17047
" />
<path d="M61212 17047
L61212 17047
" />
<path d="M60212 17047
L60212 17047
" />
</g>
<g style="fill:#000000; fill-opacity:0.0; 
stroke:#000000; stroke-width:0; stroke-opacity:1; 
stroke-linecap:round; stroke-linejoin:round;">
</g>
<g style="fill:#000000; fill-opacity:1.0; 
stroke:#000000; stroke-width:0; stroke-opacity:1; 
stroke-linecap:round; stroke-linejoin:round;">
<path style="fill:#000000; fill-opacity:1.0; 
stroke:#000000; stroke-width:0; stroke-opacity:1; 
stroke-linecap:round; stroke-linejoin:round;fill-rule:evenodd;"
d="M 59547.2,17381.9
58878,17381.9
58878,16712.6
59547.2,16712.6
Z" /> 
</g>
<g >
</g>
<g style="fill:#000000; fill-opacity:1.0; 
stroke:#000000; stroke-width:0; stroke-opacity:1; 
stroke-linecap:round; stroke-linejoin:round;">
<path style="fill:#000000; fill-opacity:1.0; 
stroke:#000000; stroke-width:0; stroke-opacity:1; 
stroke-linecap:round; stroke-linejoin:round;fill-rule:evenodd;"
d="M 66838.6,16712.6
67507.9,16712.6
67507.9,17381.9
66838.6,17381.9
Z" /> 
</g>
<g style="fill:#000000; fill-opacity:1.0; 
stroke:#000000; stroke-width:669.291; stroke-opacity:1; 
stroke-linecap:round; stroke-linejoin:round;">
</g>
<g style="fill:#000000; fill-opacity:0.0; 
stroke:#000000; stroke-width:669.291; stroke-opacity:1; 
stroke-linecap:round; stroke-linejoin:round;">
<path d="M66173 17047
L66173 17047
" />
<path d="M65173 17047
L65173 17047
" />
<path d="M64173 17047
L64173 17047
" />
</g>
<g >
</g>
<g style="fill:#000000; fill-opacity:0.0; 
stroke:#000000; stroke-width:669.291; stroke-opacity:1; 
stroke-linecap:round; stroke-linejoin:round;">
</g>
<g style="fill:#000000; fill-opacity:1.0; 
stroke:#000000; stroke-width:0; stroke-opacity:1; 
stroke-linecap:round; stroke-linejoin:round;">
<circle cx="71948.8" cy="31043.3" r="492.126" /> 
</g>
<g style="fill:#000000; fill-opacity:1.0; 
stroke:#000000; stroke-width:39.3701; stroke-opacity:1; 
stroke-linecap:round; stroke-linejoin:round;">
</g>
<g style="fill:#000000; fill-opacity:1.0; 
stroke:#000000; stroke-width:0; stroke-opacity:1; 
stroke-linecap:round; stroke-linejoin:round;">
<circle cx="76752" cy="31043.3" r="590.551" /> 
</g>
<g style="fill:#000000; fill-opacity:1.0; 
stroke:#000000; stroke-width:39.3701; stroke-opacity:1; 
stroke-linecap:round; stroke-linejoin:round;">
</g>
<g style="fill:#000000; fill-opacity:1.0; 
stroke:#000000; stroke-width:0; stroke-opacity:1; 
stroke-linecap:round; stroke-linejoin:round;">
<circle cx="76771.7" cy="26299.2" r="590.551" /> 
</g>
<g style="fill:#000000; fill-opacity:1.0; 
stroke:#000000; stroke-width:39.3701; stroke-opacity:1; 
stroke-linecap:round; stroke-linejoin:round;">
</g>
<g style="fill:#000000; fill-opacity:1.0; 
stroke:#000000; stroke-width:0; stroke-opacity:1; 
stroke-linecap:round; stroke-linejoin:round;">
<circle cx="71948.8" cy="26318.9" r="492.126" /> 
</g>
<g style="fill:#000000; fill-opacity:1.0; 
stroke:#000000; stroke-width:39.3701; stroke-opacity:1; 
stroke-linecap:round; stroke-linejoin:round;">
</g>
<g style="fill:#000000; fill-opacity:1.0; 
stroke:#000000; stroke-width:0; stroke-opacity:1; 
stroke-linecap:round; stroke-linejoin:round;">
<circle cx="71181.1" cy="28661.4" r="590.551" /> 
</g>
<g style="fill:#000000; fill-opacity:1.0; 
stroke:#000000; stroke-width:39.3701; stroke-opacity:1; 
stroke-linecap:round; stroke-linejoin:round;">
</g>
<g >
</g>
<g style="fill:#000000; fill-opacity:1.0; 
stroke:#000000; stroke-width:39.3701; stroke-opacity:1; 
stroke-linecap:round; stroke-linejoin:round;">
</g>
<g style="fill:#000000; fill-opacity:1.0; 
stroke:#000000; stroke-width:0; stroke-opacity:1; 
stroke-linecap:round; stroke-linejoin:round;">
<circle cx="71181.1" cy="21574.8" r="590.551" /> 
</g>
<g style="fill:#000000; fill-opacity:1.0; 
stroke:#000000; stroke-width:39.3701; stroke-opacity:1; 
stroke-linecap:round; stroke-linejoin:round;">
</g>
<g style="fill:#000000; fill-opacity:1.0; 
stroke:#000000; stroke-width:0; stroke-opacity:1; 
stroke-linecap:round; stroke-linejoin:round;">
<circle cx="71948.8" cy="19232.3" r="492.126" /> 
</g>
<g style="fill:#000000; fill-opacity:1.0; 
stroke:#000000; stroke-width:39.3701; stroke-opacity:1; 
stroke-linecap:round; stroke-linejoin:round;">
</g>
<g style="fill:#000000; fill-opacity:1.0; 
stroke:#000000; stroke-width:0; stroke-opacity:1; 
stroke-linecap:round; stroke-linejoin:round;">
<circle cx="76771.7" cy="19212.6" r="590.551" /> 
</g>
<g style="fill:#000000; fill-opacity:1.0; 
stroke:#000000; stroke-width:39.3701; stroke-opacity:1; 
stroke-linecap:round; stroke-linejoin:round;">
</g>
<g style="fill:#000000; fill-opacity:1.0; 
stroke:#000000; stroke-width:0; stroke-opacity:1; 
stroke-linecap:round; stroke-linejoin:round;">
<circle cx="76752" cy="23956.7" r="590.551" /> 
</g>
<g style="fill:#000000; fill-opacity:1.0; 
stroke:#000000; stroke-width:39.3701; stroke-opacity:1; 
stroke-linecap:round; stroke-linejoin:round;">
</g>
<g style="fill:#000000; fill-opacity:1.0; 
stroke:#000000; stroke-width:0; stroke-opacity:1; 
stroke-linecap:round; stroke-linejoin:round;">
<circle cx="71948.8" cy="23956.7" r="492.126" /> 
</g>
<g style="fill:#000000; fill-opacity:1.0; 
stroke:#000000; stroke-width:39.3701; stroke-opacity:1; 
stroke-linecap:round; stroke-linejoin:round;">
</g>
<g >
</g>
<g style="fill:#000000; fill-opacity:1.0; 
stroke:#000000; stroke-width:39.3701; stroke-opacity:1; 
stroke-linecap:round; stroke-linejoin:round;">
</g>
<g style="fill:#000000; fill-opacity:1.0; 
stroke:#000000; stroke-width:0; stroke-opacity:1; 
stroke-linecap:round; stroke-linejoin:round;">
<circle cx="69980.3" cy="33297.2" r="275.591" /> 
</g>
<g style="fill:#000000; fill-opacity:1.0; 
stroke:#000000; stroke-width:39.3701; stroke-opacity:1; 
stroke-linecap:round; stroke-linejoin:round;">
</g>
<g style="fill:#000000; fill-opacity:1.0; 
stroke:#000000; stroke-width:551.181; stroke-opacity:1; 
stroke-linecap:round; stroke-linejoin:round;">
</g>
<g style="fill:#000000; fill-opacity:0.0; 
stroke:#000000; stroke-width:551.181; stroke-opacity:1; 
stroke-linecap:round; stroke-linejoin:round;">
<path d="M67980 33297
L67980 33297
" />
</g>
<g >
</g>
<g style="fill:#000000; fill-opacity:0.0; 
stroke:#000000; stroke-width:551.181; stroke-opacity:1; 
stroke-linecap:round; stroke-linejoin:round;">
</g>
<g style="fill:#000000; fill-opacity:0.0; 
stroke:#000000; stroke-width:0; stroke-opacity:1; 
stroke-linecap:round; stroke-linejoin:round;">
</g>
<g style="fill:#000000; fill-opacity:1.0; 
stroke:#000000; stroke-width:0; stroke-opacity:1; 
stroke-linecap:round; stroke-linejoin:round;">
<path style="fill:#000000; fill-opacity:1.0; 
stroke:#000000; stroke-width:0; stroke-opacity:1; 
stroke-linecap:round; stroke-linejoin:round;fill-rule:evenodd;"
d="M 58976.4,31042.3
59763.8,31042.3
59763.8,31792.3
58976.4,31792.3
Z" /> 
</g>
<g style="fill:#000000; fill-opacity:1.0; 
stroke:#000000; stroke-width:750; stroke-opacity:1; 
stroke-linecap:round; stroke-linejoin:round;">
</g>
<g style="fill:#000000; fill-opacity:0.0; 
stroke:#000000; stroke-width:750; stroke-opacity:1; 
stroke-linecap:round; stroke-linejoin:round;">
<path d="M59388 32417
L59351 32417
" />
<path d="M59388 33417
L59351 33417
" />
</g>
<g >
</g>
<g style="fill:#000000; fill-opacity:0.0; 
stroke:#000000; stroke-width:750; stroke-opacity:1; 
stroke-linecap:round; stroke-linejoin:round;">
</g>
<g style="fill:#000000; fill-opacity:0.0; 
stroke:#000000; stroke-width:551.181; stroke-opacity:1; 
stroke-linecap:round; stroke-linejoin:round;">
<path d="M67716 27748
L67716 27748
" />
</g>
<g style="fill:#000000; fill-opacity:1.0; 
stroke:#000000; stroke-width:0; stroke-opacity:1; 
stroke-linecap:round; stroke-linejoin:round;">
<circle cx="67716.5" cy="25748" r="275.591" /> 
</g>
<g style="fill:#000000; fill-opacity:1.0; 
stroke:#000000; stroke-width:39.3701; stroke-opacity:1; 
stroke-linecap:round; stroke-linejoin:round;">
</g>
<g >
</g>
<g style="fill:#000000; fill-opacity:1.0; 
stroke:#000000; stroke-width:39.3701; stroke-opacity:1; 
stroke-linecap:round; stroke-linejoin:round;">
</g>
<g style="fill:#000000; fill-opacity:1.0; 
stroke:#000000; stroke-width:0; stroke-opacity:1; 
stroke-linecap:round; stroke-linejoin:round;">
<circle cx="67716.5" cy="18425.2" r="275.591" /> 
</g>
<g style="fill:#000000; fill-opacity:1.0; 
stroke:#000000; stroke-width:39.3701; stroke-opacity:1; 
stroke-linecap:round; stroke-linejoin:round;">
</g>
<g style="fill:#000000; fill-opacity:1.0; 
stroke:#000000; stroke-width:551.181; stroke-opacity:1; 
stroke-linecap:round; stroke-linejoin:round;">
</g>
<g style="fill:#000000; fill-opacity:0.0; 
stroke:#000000; stroke-width:551.181; stroke-opacity:1; 
stroke-linecap:round; stroke-linejoin:round;">
<path d="M67716 20425
L67716 20425
" />
</g>
<g >
</g>
<g style="fill:#000000; fill-opacity:0.0; 
stroke:#000000; stroke-width:551.181; stroke-opacity:1; 
stroke-linecap:round; stroke-linejoin:round;">
</g>
<g style="fill:#000000; fill-opacity:1.0; 
stroke:#000000; stroke-width:0; stroke-opacity:1; 
stroke-linecap:round; stroke-linejoin:round;">
<circle cx="46889.8" cy="16476.4" r="433.071" /> 
</g>
<g style="fill:#000000; fill-opacity:1.0; 
stroke:#000000; stroke-width:39.3701; stroke-opacity:1; 
stroke-linecap:round; stroke-linejoin:round;">
</g>
<g style="fill:#000000; fill-opacity:1.0; 
stroke:#000000; stroke-width:0; stroke-opacity:1; 
stroke-linecap:round; stroke-linejoin:round;">
<circle cx="46889.8" cy="19232.3" r="433.071" /> 
</g>
<g style="fill:#000000; fill-opacity:1.0; 
stroke:#000000; stroke-width:39.3701; stroke-opacity:1; 
stroke-linecap:round; stroke-linejoin:round;">
</g>
<g style="fill:#000000; fill-opacity:1.0; 
stroke:#000000; stroke-width:0; stroke-opacity:1; 
stroke-linecap:round; stroke-linejoin:round;">
<circle cx="45905.5" cy="16968.5" r="334.646" /> 
</g>
<g style="fill:#000000; fill-opacity:1.0; 
stroke:#000000; stroke-width:39.3701; stroke-opacity:1; 
stroke-linecap:round; stroke-linejoin:round;">
</g>
<g style="fill:#000000; fill-opacity:1.0; 
stroke:#000000; stroke-width:0; stroke-opacity:1; 
stroke-linecap:round; stroke-linejoin:round;">
<circle cx="45905.5" cy="18740.2" r="334.646" /> 
</g>
<g style="fill:#000000; fill-opacity:1.0; 
stroke:#000000; stroke-width:39.3701; stroke-opacity:1; 
stroke-linecap:round; stroke-linejoin:round;">
</g>
<g >
</g>
<g style="fill:#000000; fill-opacity:1.0; 
stroke:#000000; stroke-width:39.3701; stroke-opacity:1; 
stroke-linecap:round; stroke-linejoin:round;">
</g>
<g style="fill:#000000; fill-opacity:1.0; 
stroke:#000000; stroke-width:0; stroke-opacity:1; 
stroke-linecap:round; stroke-linejoin:round;">
<path style="fill:#000000; fill-opacity:1.0; 
stroke:#000000; stroke-width:0; stroke-opacity:1; 
stroke-linecap:round; stroke-linejoin:round;fill-rule:evenodd;"
d="M 59055.1,26535.4
58425.2,26535.4
58425.2,25590.6
59055.1,25590.6
Z" /> 
</g>
<g style="fill:#000000; fill-opacity:1.0; 
stroke:#000000; stroke-width:629.921; stroke-opacity:1; 
stroke-linecap:round; stroke-linejoin:round;">
</g>
<g style="fill:#000000; fill-opacity:0.0; 
stroke:#000000; stroke-width:629.921; stroke-opacity:1; 
stroke-linecap:round; stroke-linejoin:round;">
<path d="M65740 23220
L65740 22905
" />
<path d="M59740 26220
L59740 25905
" />
<path d="M64740 23220
L64740 22905
" />
<path d="M60740 26220
L60740 25905
" />
<path d="M63740 23220
L63740 22905
" />
<path d="M61740 26220
L61740 25905
" />
<path d="M62740 23220
L62740 22905
" />
<path d="M62740 26220
L62740 25905
" />
<path d="M61740 23220
L61740 22905
" />
<path d="M63740 26220
L63740 25905
" />
<path d="M60740 23220
L60740 22905
" />
<path d="M64740 26220
L64740 25905
" />
<path d="M59740 23220
L59740 22905
" />
<path d="M65740 26220
L65740 25905
" />
<path d="M58740 23220
L58740 22905
" />
</g>
<g >
</g>
<g >
</g>
<g style="fill:#000000; fill-opacity:0.0; 
stroke:#000000; stroke-width:629.921; stroke-opacity:1; 
stroke-linecap:round; stroke-linejoin:round;">
</g>
<g style="fill:#000000; fill-opacity:0.0; 
stroke:#000000; stroke-width:334.646; stroke-opacity:1; 
stroke-linecap:round; stroke-linejoin:round;">
<path d="M53198 32421
L53198 33070
" />
<path d="M53740 31879
L53198 32421
" />
<path d="M58179 31879
L53740 31879
" />
<path d="M58641 31417
L58179 31879
" />
<path d="M59370 31417
L58641 31417
" />
<path d="M48996 32440
L52568 32440
" />
<path d="M47795 33641
L48996 32440
" />
<path d="M52568 32440
L53198 33070
" />
<path d="M47795 34330
L47795 33641
" />
<path d="M64251 28976
L64251 29685
" />
<path d="M64251 29685
L61519 32417
" />
<path d="M64251 28530
L64593 28188
" />
<path d="M64251 28976
L64251 28530
" />
<path d="M64593 28188
L65275 28188
" />
<path d="M65740 27724
L65740 26062
" />
<path d="M65275 28188
L65740 27724
" />
<path d="M55275 17874
L54330 16929
" />
<path d="M54330 16929
L52362 16929
" />
<path d="M45432 16968
L45000 17400
" />
<path d="M45905 16968
L45432 16968
" />
<path d="M45000 17400
L45000 29960
" />
<path d="M45000 29960
L44015 30944
" />
<path d="M44015 30944
L44015 33503
" />
<path d="M44370 33858
L45275 33858
" />
<path d="M44015 33503
L44370 33858
" />
<path d="M55275 18149
L55275 17874
" />
<path d="M56299 18149
L55275 18149
" />
<path d="M59212 17047
L57401 17047
" />
<path d="M57401 17047
L56299 18149
" />
<path d="M53644 34055
L54441 33257
" />
<path d="M53198 34055
L53644 34055
" />
<path d="M54441 33257
L54441 33235
" />
<path d="M54970 32706
L56771 32706
" />
<path d="M54441 33235
L54970 32706
" />
<path d="M59080 32706
L59370 32417
" />
<path d="M56771 32706
L59080 32706
" />
<path d="M51417 31338
L57775 31338
" />
<path d="M57775 31338
L58533 30580
" />
<path d="M58533 30580
L60423 30580
" />
<path d="M60856 31013
L60856 32421
" />
<path d="M60423 30580
L60856 31013
" />
<path d="M61519 32417
L60856 32421
" />
<path d="M60856 32421
L59370 32417
" />
<path d="M53198 34055
L53740 34596
" />
<path d="M66681 34596
L67980 33297
" />
<path d="M53740 34596
L66681 34596
" />
<path d="M50748 32007
L51417 31338
" />
<path d="M46110 33858
L47961 32007
" />
<path d="M45275 33858
L46110 33858
" />
<path d="M47961 32007
L50748 32007
" />
<path d="M46338 17401
L45905 16968
" />
<path d="M52362 16929
L50728 18562
" />
<path d="M47500 18562
L46338 17401
" />
<path d="M50728 18562
L47500 18562
" />
<path d="M55275 18661
L55275 18149
" />
<path d="M55275 21377
L55275 18661
" />
<path d="M53262 20866
L53262 21283
" />
<path d="M53750 21771
L54881 21771
" />
<path d="M53262 21283
L53750 21771
" />
<path d="M54881 21771
L55275 21377
" />
<path d="M52362 18929
L53496 18929
" />
<path d="M54262 19695
L54262 20866
" />
<path d="M53496 18929
L54262 19695
" />
<path d="M59370 33417
L61385 33417
" />
<path d="M61385 33417
L64488 30314
" />
<path d="M66220 30236
L66220 28976
" />
<path d="M66299 30314
L66220 30236
" />
<path d="M64488 30314
L66299 30314
" />
<path d="M66496 30118
L68409 30118
" />
<path d="M66299 30314
L66496 30118
" />
<path d="M66665 28976
L67059 28582
" />
<path d="M66220 28976
L66665 28976
" />
<path d="M67059 28582
L67480 28582
" />
<path d="M67716 28346
L67716 27748
" />
<path d="M67480 28582
L67716 28346
" />
<path d="M68291 22648
L67716 22073
" />
<path d="M68291 23149
L68291 22648
" />
<path d="M67716 22073
L67716 20425
" />
<path d="M68204 23062
L68291 23149
" />
<path d="M65740 23062
L68204 23062
" />
<path d="M69891 21523
L69891 20940
" />
<path d="M71968 22598
L70966 22598
" />
<path d="M69891 20940
L69376 20425
" />
<path d="M72992 26771
L72992 23622
" />
<path d="M72440 27322
L72992 26771
" />
<path d="M72598 31968
L72834 31732
" />
<path d="M69055 31968
L72598 31968
" />
<path d="M72834 31732
L72834 30787
" />
<path d="M68409 31322
L69055 31968
" />
<path d="M70966 22598
L69891 21523
" />
<path d="M68409 30118
L68409 31322
" />
<path d="M69376 20425
L68106 20425
" />
<path d="M72992 23622
L71968 22598
" />
<path d="M70157 28110
L70944 27322
" />
<path d="M68106 20425
L67716 20425
" />
<path d="M70944 27322
L72440 27322
" />
<path d="M72834 30787
L71653 29606
" />
<path d="M71653 29606
L70629 29606
" />
<path d="M70629 29606
L70157 29133
" />
<path d="M70157 29133
L70157 28110
" />
<path d="M52362 19803
L52716 20157
" />
<path d="M52362 18929
L52362 19803
" />
</g>
<g style="fill:#000000; fill-opacity:0.0; 
stroke:#000000; stroke-width:98.4252; stroke-opacity:1; 
stroke-linecap:round; stroke-linejoin:round;">
<path d="M52755 20157
L52755 21496
" />
</g>
<g style="fill:#000000; fill-opacity:0.0; 
stroke:#000000; stroke-width:334.646; stroke-opacity:1; 
stroke-linecap:round; stroke-linejoin:round;">
<path d="M67440 20149
L67440 20078
" />
<path d="M67716 20425
L67440 20149
" />
<path d="M67173 19811
L67173 17047
" />
<path d="M67440 20078
L67173 19811
" />
<path d="M60212 17047
L61078 16181
" />
<path d="M67173 16377
L67173 17047
" />
<path d="M66976 16181
L67173 16377
" />
<path d="M61078 16181
L66976 16181
" />
<path d="M57045 33417
L56771 33690
" />
<path d="M59370 33417
L57045 33417
" />
<path d="M72692 33130
L72598 33036
" />
<path d="M72598 33036
L72598 31968
" />
<path d="M72692 33631
L72692 33130
" />
<path d="M60212 17520
L60212 17047
" />
<path d="M57440 17913
L59819 17913
" />
<path d="M59819 17913
L60212 17520
" />
<path d="M52755 21712
L53425 22381
" />
<path d="M55866 19488
L57440 17913
" />
<path d="M55236 22381
L55866 21751
" />
<path d="M52755 21496
L52755 21712
" />
<path d="M53425 22381
L55236 22381
" />
<path d="M55866 21751
L55866 19488
" />
<path d="M47267 31858
L47795 31330
" />
<path d="M45275 31858
L47267 31858
" />
<path d="M70314 33631
L69980 33297
" />
<path d="M71692 33631
L70314 33631
" />
<path d="M54262 30594
L54262 29866
" />
<path d="M50573 30708
L54147 30708
" />
<path d="M54147 30708
L54262 30594
" />
<path d="M50417 30865
L50573 30708
" />
<path d="M50417 31338
L50417 30865
" />
<path d="M48262 30183
L49417 31338
" />
<path d="M48262 29866
L48262 30183
" />
</g>
<g style="fill:#000000; fill-opacity:0.0; 
stroke:#000000; stroke-width:787.402; stroke-opacity:1; 
stroke-linecap:round; stroke-linejoin:round;">
<path d="M80314 27125
L79478 27962
" />
<path d="M80314 25748
L80314 27125
" />
<path d="M79478 27962
L77322 27962
" />
<path d="M76751 28533
L76751 31043
" />
<path d="M77322 27962
L76751 28533
" />
<path d="M81150 19574
L82066 20491
" />
<path d="M80314 19574
L81150 19574
" />
<path d="M81651 32157
L80236 32157
" />
<path d="M82066 31742
L81651 32157
" />
<path d="M81150 23748
L81161 23759
" />
<path d="M80314 23748
L81150 23748
" />
<path d="M82066 20491
L82066 23759
" />
<path d="M81161 23759
L82066 23759
" />
<path d="M82066 23759
L82066 31742
" />
<path d="M78188 32204
L80236 30157
" />
<path d="M75559 32204
L78188 32204
" />
<path d="M71181 28661
L72016 28661
" />
<path d="M71181 21574
L73454 21574
" />
<path d="M73454 21574
L74488 22608
" />
<path d="M72016 28661
L73444 30068
" />
<path d="M74488 29025
L73444 30068
" />
<path d="M74488 22608
L74488 29025
" />
<path d="M73444 30068
L75559 32204
" />
</g>
<g style="fill:#000000; fill-opacity:0.0; 
stroke:#000000; stroke-width:334.646; stroke-opacity:1; 
stroke-linecap:round; stroke-linejoin:round;">
<path d="M69212 29921
L69409 30118
" />
<path d="M69212 28196
L69212 29921
" />
<path d="M71023 30118
L71948 31043
" />
<path d="M69409 30118
L71023 30118
" />
<path d="M66929 26929
L67007 27007
" />
<path d="M58740 23946
L59665 24872
" />
<path d="M58740 23062
L58740 23946
" />
<path d="M67007 27007
L68897 27007
" />
<path d="M59665 24872
L66446 24872
" />
<path d="M66446 24872
L66929 25354
" />
<path d="M69212 27322
L69212 28196
" />
<path d="M68897 27007
L69212 27322
" />
<path d="M66929 25354
L66929 26929
" />
<path d="M67716 25358
L67716 25748
" />
<path d="M67877 25196
L67716 25358
" />
<path d="M69212 25196
L67877 25196
" />
<path d="M69645 26318
L71948 26318
" />
<path d="M69212 25196
L69212 25885
" />
<path d="M69212 25885
L69645 26318
" />
<path d="M69291 23838
L69291 23149
" />
<path d="M69409 23956
L69291 23838
" />
<path d="M71948 23956
L69409 23956
" />
<path d="M69291 23149
L69291 21228
" />
<path d="M59740 23992
L59740 23062
" />
<path d="M59921 24173
L59740 23992
" />
<path d="M69409 23956
L66830 23956
" />
<path d="M66614 24173
L59921 24173
" />
<path d="M66830 23956
L66614 24173
" />
<path d="M69606 19232
L71252 19232
" />
<path d="M71252 19232
L71948 19232
" />
<path d="M69291 18917
L69606 19232
" />
<path d="M69291 18228
L69291 18917
" />
<path d="M67913 18228
L67716 18425
" />
<path d="M69291 18228
L67913 18228
" />
<path d="M49685 19301
L49665 19301
" />
<path d="M49665 19301
L48858 20108
" />
<path d="M48262 20137
L48262 20866
" />
<path d="M48291 20108
L48262 20137
" />
<path d="M48858 20108
L48291 20108
" />
<path d="M47262 20137
L47262 20866
" />
<path d="M48098 19301
L47262 20137
" />
<path d="M48685 19301
L48098 19301
" />
<path d="M52362 17929
L51262 19029
" />
<path d="M51262 20137
L51262 20866
" />
<path d="M51262 19029
L51262 20137
" />
<path d="M50262 21594
L50262 20866
" />
<path d="M62212 17639
L56446 23405
" />
<path d="M62212 17047
L62212 17639
" />
<path d="M56446 23405
L51574 23405
" />
<path d="M51574 23405
L50262 22092
" />
<path d="M50262 22092
L50262 21594
" />
<path d="M52125 22874
L50787 21535
" />
<path d="M55859 22874
L52125 22874
" />
<path d="M61212 17047
L61212 17520
" />
<path d="M61212 17520
L55859 22874
" />
</g>
<g style="fill:#000000; fill-opacity:0.0; 
stroke:#000000; stroke-width:98.4252; stroke-opacity:1; 
stroke-linecap:round; stroke-linejoin:round;">
<path d="M50757 21505
L50757 20285
" />
<path d="M50787 21535
L50757 21505
" />
<path d="M50757 20285
L50551 20078
" />
<path d="M49262 20374
L49262 20866
" />
<path d="M50551 20078
L49557 20078
" />
<path d="M49557 20078
L49262 20374
" />
</g>
<g style="fill:#000000; fill-opacity:0.0; 
stroke:#000000; stroke-width:334.646; stroke-opacity:1; 
stroke-linecap:round; stroke-linejoin:round;">
<path d="M66173 17047
L64952 18267
" />
<path d="M64952 18267
L64251 18267
" />
<path d="M64251 18267
L62740 19779
" />
<path d="M62740 19779
L62740 23062
" />
<path d="M65173 17047
L64503 17716
" />
<path d="M64503 17716
L63740 17716
" />
<path d="M61740 19716
L61740 23062
" />
<path d="M63740 17716
L61740 19716
" />
<path d="M64173 17047
L63425 17047
" />
<path d="M60740 19732
L60740 23062
" />
<path d="M63425 17047
L60740 19732
" />
</g>
<g style="fill:#000000; fill-opacity:0.0; 
stroke:#000000; stroke-width:787.402; stroke-opacity:1; 
stroke-linecap:round; stroke-linejoin:round;">
<path d="M78937 21574
L78907 21604
" />
<path d="M80314 21574
L78937 21574
" />
<path d="M78907 21604
L77214 21604
" />
<path d="M76751 22066
L76751 23956
" />
<path d="M77214 21604
L76751 22066
" />
</g>
<g style="fill:#000000; fill-opacity:0.0; 
stroke:#000000; stroke-width:334.646; stroke-opacity:1; 
stroke-linecap:round; stroke-linejoin:round;">
<path d="M47262 29866
L47262 23561
" />
<path d="M45905 22204
L45905 18740
" />
<path d="M47262 23561
L45905 22204
" />
<path d="M49262 29241
L49262 29866
" />
<path d="M52106 26397
L49262 29241
" />
<path d="M58740 26062
L58405 26397
" />
<path d="M58405 26397
L52106 26397
" />
<path d="M50262 29137
L50262 29866
" />
<path d="M52470 26929
L50262 29137
" />
<path d="M59740 26062
L59740 26220
" />
<path d="M59031 26929
L52470 26929
" />
<path d="M59740 26220
L59031 26929
" />
<path d="M52959 27440
L51262 29137
" />
<path d="M51262 29137
L51262 29866
" />
<path d="M60169 27440
L52959 27440
" />
<path d="M60740 26062
L60740 26870
" />
<path d="M60740 26870
L60169 27440
" />
<path d="M60647 27962
L61740 26870
" />
<path d="M53218 27962
L60647 27962
" />
<path d="M52262 29866
L52262 28918
" />
<path d="M61740 26870
L61740 26062
" />
<path d="M52262 28918
L53218 27962
" />
<path d="M62740 26870
L62740 26062
" />
<path d="M53602 28444
L61165 28444
" />
<path d="M61165 28444
L62740 26870
" />
<path d="M53262 29866
L53262 28785
" />
<path d="M53262 28785
L53602 28444
" />
</g>
<g >
</g>
<g style="fill:#000000; fill-opacity:0.0; 
stroke:#000000; stroke-width:334.646; stroke-opacity:1; 
stroke-linecap:round; stroke-linejoin:round;">
</g>
<g style="fill:#000000; fill-opacity:1.0; 
stroke:#000000; stroke-width:100; stroke-opacity:1; 
stroke-linecap:round; stroke-linejoin:round;">
<path style="fill:#000000; fill-opacity:1.0; 
stroke:#000000; stroke-width:100; stroke-opacity:1; 
stroke-linecap:round; stroke-linejoin:round;fill-rule:evenodd;"
d="M 46359.2,16040.9
46284.4,16152.8
46232.9,16277.1
46206.7,16409.1
46206.7,16464.4
46105.2,16416
45993.5,16387.7
45878.5,16381.6
45764.6,16398.2
45656,16436.6
45601.9,16465.6
45571.3,16563.6
45905.5,16897.8
45911.1,16892.2
45981.8,16962.9
45976.2,16968.5
46310.4,17302.7
46408.5,17272.1
46458,17168.2
46486.4,17056.5
46487.8,17029.3
46566.2,17081.7
46690.5,17133.2
46822.5,17159.4
46957,17159.4
47089,17133.2
47213.3,17081.7
47325.2,17007
47420.3,16911.8
47495.1,16799.9
47546.6,16675.6
47572.8,16543.7
47572.8,16409.1
47546.6,16277.1
47495.1,16152.8
47420.3,16040.9
47397.1,16017.7
49244.2,16017.7
49187.1,16055.9
48998.8,16244.2
48850.8,16465.7
48748.8,16711.8
48696.9,16973.1
48696.9,17239.5
48748.8,17500.8
48850.8,17746.9
48998.8,17968.4
49187.1,18156.7
49408.6,18304.7
49654.7,18406.7
49916,18458.7
50182.4,18458.7
50443.7,18406.7
50689.8,18304.7
50911.3,18156.7
51099.7,17968.4
51247.7,17746.9
51349.6,17500.8
51401.6,17239.5
51401.6,16973.1
51349.6,16711.8
51301,16594.5
51776.3,16594.5
51777.6,16816.6
51840.1,16879.1
52312.2,16879.1
52312.2,16407
52412.2,16407
52412.2,16879.1
52884.4,16879.1
52946.9,16816.6
52947.4,16712.6
58626.7,16712.6
58628,16934.7
58690.5,16997.2
59162.6,16997.2
59162.6,16525.1
59100.1,16462.6
58878,16461.4
58828.9,16466.2
58781.8,16480.5
58738.4,16503.7
58700.3,16535
58669.1,16573
58645.9,16616.5
58631.6,16663.6
58626.7,16712.6
52947.4,16712.6
52948.1,16594.5
52943.2,16545.5
52928.9,16498.4
52905.7,16454.9
52874.5,16416.9
52836.4,16385.6
52793,16362.4
52745.9,16348.1
52696.9,16343.3
52474.7,16344.5
52412.2,16407
52312.2,16407
52249.7,16344.5
52027.6,16343.3
51978.6,16348.1
51931.4,16362.4
51888,16385.6
51849.9,16416.9
51818.7,16454.9
51795.5,16498.4
51781.2,16545.5
51776.3,16594.5
51301,16594.5
51247.7,16465.7
51099.7,16244.2
50911.3,16055.9
50854.2,16017.7
60651.9,16017.7
60207.1,16462.6
60155,16462.6
60042.1,16485.1
59935.7,16529.1
59839.9,16593.1
59788,16645
59779.3,16616.5
59756.1,16573
59724.9,16535
59686.8,16503.7
59643.4,16480.5
59596.3,16466.2
59547.2,16461.4
59325.1,16462.6
59262.6,16525.1
59262.6,16997.2
59270.5,16997.2
59270.5,17097.2
59262.6,17097.2
59262.6,17105.1
59162.6,17105.1
59162.6,17097.2
58690.5,17097.2
58628,17159.7
58626.7,17381.9
58631.6,17430.9
58645.9,17478
58655.5,17496.1
57461.4,17496.1
57440.9,17494
57420.4,17496.1
57420.4,17496.1
57359.1,17502.1
57280.5,17526
57208,17564.7
57208,17564.7
57208,17564.7
57160.3,17603.8
57160.3,17603.8
57144.4,17616.9
57131.4,17632.8
55585.5,19178.6
55569.6,19191.7
55556.6,19207.6
55556.6,19207.6
55517.5,19255.2
55478.7,19327.7
55454.9,19406.4
55446.8,19488.2
55448.8,19508.7
55448.8,21579.1
55063.4,21964.6
53598.1,21964.6
53173.2,21539.7
53173.2,21475.6
53172.4,21466.7
53212.1,21444.8
53212.1,20916.1
53204.3,20916.1
53204.3,20816.1
53212.1,20816.1
53212.1,20287.4
53127.3,20240.8
53127.8,20239.3
53135.9,20157.5
53127.8,20075.7
53104,19997
53065.2,19924.5
53026.1,19876.9
52779.5,19630.3
52779.5,19346.5
53323.2,19346.5
53844.8,19868.1
53844.8,20223.6
53819.4,20226.1
53772.3,20240.4
53728.9,20263.6
53690.8,20294.8
53659.6,20332.9
53640.7,20368.3
53618.2,20346.2
53525.3,20285.2
53422.3,20243.5
53399.6,20239.4
53312.1,20287.4
53312.1,20816.1
53320,20816.1
53320,20916.1
53312.1,20916.1
53312.1,21444.8
53399.6,21492.9
53422.3,21488.8
53525.3,21447.1
53618.2,21386.1
53640.7,21364
53659.6,21399.4
53690.8,21437.5
53728.9,21468.7
53772.3,21491.9
53819.4,21506.2
53868.4,21511.1
54655.9,21511.1
54704.9,21506.2
54752,21491.9
54795.4,21468.7
54833.5,21437.5
54864.7,21399.4
54887.9,21356
54902.2,21308.9
54907.1,21259.8
54907.1,20472.4
54902.2,20423.4
54887.9,20376.3
54864.7,20332.9
54833.5,20294.8
54795.4,20263.6
54752,20240.4
54704.9,20226.1
54679.5,20223.6
54679.5,19715.7
54681.5,19695.2
54679.5,19674.7
54679.5,19674.7
54673.4,19613.4
54663.6,19581
54649.6,19534.7
54638.4,19513.8
54610.8,19462.2
54558.7,19398.7
54542.7,19385.6
53805.7,18648.5
53792.6,18632.6
53729,18580.5
53656.5,18541.7
53577.9,18517.8
53516.6,18511.8
53516.6,18511.8
53496.1,18509.8
53475.6,18511.8
52771.7,18511.8
52734.9,18475
52666.2,18429.1
52734.9,18383.3
52816.3,18301.8
52880.3,18206.1
52924.4,18099.7
52946.9,17986.7
52946.9,17871.6
52924.4,17758.6
52880.3,17652.2
52816.3,17556.4
52764.4,17504.5
52793,17495.9
52836.4,17472.7
52874.5,17441.4
52905.7,17403.3
52928.9,17359.9
52943.2,17312.8
52948.1,17263.8
52946.9,17041.6
52884.4,16979.1
52412.2,16979.1
52412.2,16987
52312.2,16987
52312.2,16979.1
51840.1,16979.1
51777.6,17041.6
51776.3,17263.8
51781.2,17312.8
51795.5,17359.9
51818.7,17403.3
51849.9,17441.4
51888,17472.7
51931.4,17495.9
51960,17504.5
51908.1,17556.4
51844.1,17652.2
51800,17758.6
51777.6,17871.6
51777.6,17923.6
50981.6,18719.6
50965.6,18732.7
50913.5,18796.2
50874.7,18868.7
50850.9,18947.4
50844.8,19008.7
50844.8,19008.7
50842.8,19029.2
50844.8,19049.7
50844.8,19949.2
50773.2,19877.6
50763.8,19866.1
50718.2,19828.8
50666.2,19801
50609.8,19783.9
50565.9,19779.5
50565.9,19779.5
50551.2,19778.1
50536.5,19779.5
50225.2,19779.5
50228.6,19775.4
50251.8,19732
50266.1,19684.8
50270.9,19635.8
50270.9,18966.5
50266.1,18917.5
50251.8,18870.4
50228.6,18827
50197.3,18788.9
50159.2,18757.7
50115.8,18734.4
50068.7,18720.2
50019.7,18715.3
49350.4,18715.3
49301.4,18720.2
49254.3,18734.4
49210.8,18757.7
49172.8,18788.9
49141.5,18827
49118.3,18870.4
49109.6,18899
49057.7,18847.1
48962,18783.1
48855.6,18739
48742.6,18716.5
48627.5,18716.5
48514.5,18739
48408.1,18783.1
48312.3,18847.1
48275.5,18883.9
48119.3,18883.9
48098.8,18881.8
48078.3,18883.9
48078.3,18883.9
48024.1,18889.2
48017,18889.9
47954.9,18908.7
47938.3,18913.8
47865.8,18952.5
47802.2,19004.7
47789.2,19020.6
47572.8,19236.9
47572.8,19165
47546.6,19033
47495.1,18908.7
47420.3,18796.9
47325.2,18701.7
47213.3,18627
47089,18575.5
46957,18549.2
46822.5,18549.2
46690.5,18575.5
46566.2,18627
46489.3,18678.3
46467.7,18569.6
46423.6,18463.2
46359.6,18367.5
46278.2,18286
46182.4,18222.1
46076,18178
45963.1,18155.5
45847.9,18155.5
45735,18178
45628.6,18222.1
45532.8,18286
45451.4,18367.5
45387.4,18463.2
45343.3,18569.6
45320.9,18682.6
45320.9,18797.7
45343.3,18910.7
45387.4,19017.1
45451.4,19112.8
45488.2,19149.6
45488.2,22184.2
45486.2,22204.7
45488.2,22225.2
45488.2,22225.2
45494.2,22286.5
45518.1,22365.2
45556.8,22437.7
45609,22501.2
45624.9,22514.3
46844.8,23734.2
46844.8,29405.4
46790.1,29472
46737.7,29570.2
46705.4,29676.6
46697.2,29759.6
46697.2,29972.6
46705.4,30055.6
46737.7,30162.1
46790.1,30260.3
46860.7,30346.3
46946.8,30416.9
47044.9,30469.4
47151.4,30501.7
47262.1,30512.6
47372.9,30501.7
47479.4,30469.4
47577.5,30416.9
47663.6,30346.3
47734.2,30260.3
47762.1,30207.9
47790.1,30260.3
47860.7,30346.3
47888,30368.7
47913.5,30416.4
47923.2,30428.2
47965.6,30479.9
47981.6,30493
48832.7,31344.1
48832.7,31396.2
48855.1,31509.1
48899.2,31615.5
48963.2,31711.3
49044.6,31792.7
49140.4,31856.7
49246.8,31900.8
49359.7,31923.2
49474.9,31923.2
49587.9,31900.8
49694.3,31856.7
49790,31792.7
49871.4,31711.3
49917.3,31642.6
49963.2,31711.3
50044.6,31792.7
50140.4,31856.7
50246.8,31900.8
50359.7,31923.2
50474.9,31923.2
50587.9,31900.8
50694.3,31856.7
50790,31792.7
50841.9,31740.8
50850.6,31769.4
50873.8,31812.8
50905,31850.9
50943.1,31882.1
50986.5,31905.3
51033.7,31919.6
51082.7,31924.4
51304.8,31923.2
51367.3,31860.7
51367.3,31388.6
51467.3,31388.6
51467.3,31860.7
51529.8,31923.2
51752,31924.4
51801,31919.6
51848.1,31905.3
51891.5,31882.1
51929.6,31850.9
51960.8,31812.8
51984.1,31769.4
51998.4,31722.2
52003.2,31673.2
52002,31451.1
51939.5,31388.6
51467.3,31388.6
51367.3,31388.6
51359.4,31388.6
51359.4,31288.6
51367.3,31288.6
51367.3,31280.7
51467.3,31280.7
51467.3,31288.6
51939.5,31288.6
52002,31226.1
52002.5,31126
54127.5,31126
54148,31128
54168.5,31126
54168.5,31126
54229.8,31119.9
54308.5,31096.1
54380.9,31057.3
54444.5,31005.2
54457.6,30989.3
54542.7,30904.1
54558.7,30891
54610.8,30827.5
54649.6,30755
54673.4,30676.3
54679.5,30615
54679.5,30615
54681.5,30594.5
54679.5,30574
54679.5,30326.9
54734.2,30260.3
54786.6,30162.1
54818.9,30055.6
54827.1,29972.6
54827.1,29759.6
54818.9,29676.7
54786.6,29570.2
54734.2,29472
54663.6,29386
54640.7,29367.2
63931.9,29367.2
63960,29463.3
64060.6,29510.9
64168.6,29537.9
64279.7,29543.4
64389.8,29527.1
64494.6,29489.6
64543.9,29463.3
64572.1,29367.2
64252,29047.1
63931.9,29367.2
54640.7,29367.2
54577.5,29315.4
54479.4,29262.9
54372.9,29230.6
54262.1,29219.7
54151.4,29230.6
54044.9,29262.9
53946.8,29315.4
53860.7,29386
53790.1,29472
53762.1,29524.4
53734.2,29472
53679.5,29405.4
53679.5,29004.1
63685,29004.1
63701.3,29114.2
63738.7,29219
63765.1,29268.3
63861.1,29296.5
64181.3,28976.4
64322.7,28976.4
64642.8,29296.5
64738.8,29268.3
64786.4,29167.7
64813.5,29059.8
64819,28948.6
64802.7,28838.5
64765.2,28733.7
64738.8,28684.4
64642.8,28656.3
64322.7,28976.4
64181.3,28976.4
63861.1,28656.3
63765.1,28684.4
63717.5,28785
63690.4,28893
63685,29004.1
53679.5,29004.1
53679.5,28958
53775.2,28862.2
61144.9,28862.2
61165.4,28864.2
61185.8,28862.2
61185.9,28862.2
61247.2,28856.2
61325.8,28832.3
61398.3,28793.6
61461.9,28741.4
61474.9,28725.5
61614.9,28585.6
63931.9,28585.6
64252,28905.7
64572.1,28585.6
64543.9,28489.5
64443.3,28441.9
64335.4,28414.8
64224.2,28409.4
64114.1,28425.7
64009.3,28463.1
63960,28489.5
63931.9,28585.6
61614.9,28585.6
63020.8,27179.7
63036.7,27166.6
63049.7,27150.7
63049.7,27150.7
63088.8,27103.1
63088.8,27103.1
63127.6,27030.6
63151.4,26951.9
63157.5,26890.6
63157.5,26890.6
63159.5,26870.1
63157.5,26849.6
63157.5,26602.5
63212.2,26535.9
63240.2,26483.5
63268.1,26535.9
63338.7,26621.9
63424.8,26692.5
63522.9,26745
63629.4,26777.3
63740.2,26788.2
63850.9,26777.3
63957.4,26745
64055.6,26692.5
64141.6,26621.9
64212.2,26535.9
64240.2,26483.5
64268.1,26535.9
64338.7,26621.9
64424.8,26692.5
64522.9,26745
64629.4,26777.3
64740.2,26788.2
64850.9,26777.3
64957.4,26745
65055.6,26692.5
65141.6,26621.9
65212.2,26535.9
65239.1,26485.5
65298.2,26575.9
65376,26655.3
65467.9,26718
65570.2,26761.6
65602.7,26768.5
65690.2,26720.4
65690.2,26113
65790.2,26113
65790.2,26720.4
65877.6,26768.5
65910.2,26761.6
66012.5,26718
66104.3,26655.3
66182.1,26575.9
66243,26482.9
66284.5,26379.7
66305.1,26270.5
66305.1,26113
65790.2,26113
65690.2,26113
65682.3,26113
65682.3,26013
65690.2,26013
65690.2,25405.5
65790.2,25405.5
65790.2,26013
66305.1,26013
66305.1,25855.5
66284.5,25746.3
66243,25643.1
66182.1,25550.1
66104.3,25470.7
66012.5,25408
65910.2,25364.4
65877.6,25357.5
65790.2,25405.5
65690.2,25405.5
65602.7,25357.5
65570.2,25364.4
65467.9,25408
65376,25470.7
65298.2,25550.1
65239.1,25640.4
65212.2,25590.1
65141.6,25504.1
65055.6,25433.5
64957.4,25381
64850.9,25348.7
64740.2,25337.8
64629.4,25348.7
64522.9,25381
64424.8,25433.5
64338.7,25504.1
64268.1,25590.1
64240.2,25642.5
64212.2,25590.1
64141.6,25504.1
64055.6,25433.5
63957.4,25381
63850.9,25348.7
63740.2,25337.8
63629.4,25348.7
63522.9,25381
63424.8,25433.5
63338.7,25504.1
63268.1,25590.1
63240.2,25642.5
63212.2,25590.1
63141.6,25504.1
63055.6,25433.5
62957.4,25381
62850.9,25348.7
62740.2,25337.8
62629.4,25348.7
62522.9,25381
62424.8,25433.5
62338.7,25504.1
62268.1,25590.1
62240.2,25642.5
62212.2,25590.1
62141.6,25504.1
62055.6,25433.5
61957.4,25381
61850.9,25348.7
61740.2,25337.8
61629.4,25348.7
61522.9,25381
61424.8,25433.5
61338.7,25504.1
61268.1,25590.1
61240.2,25642.5
61212.2,25590.1
61141.6,25504.1
61055.6,25433.5
60957.4,25381
60850.9,25348.7
60740.2,25337.8
60629.4,25348.7
60522.9,25381
60424.8,25433.5
60338.7,25504.1
60268.1,25590.1
60240.2,25642.5
60212.2,25590.1
60141.6,25504.1
60055.6,25433.5
59957.4,25381
59850.9,25348.7
59740.2,25337.8
59629.4,25348.7
59522.9,25381
59424.8,25433.5
59338.7,25504.1
59302.2,25548.6
59301.5,25541.5
59287.2,25494.4
59264,25451
59232.8,25412.9
59194.7,25381.7
59151.3,25358.5
59104.1,25344.2
59055.1,25339.3
58425.2,25339.3
58376.2,25344.2
58329.1,25358.5
58285.6,25381.7
58247.6,25412.9
58216.3,25451
58193.1,25494.4
58178.8,25541.5
58174,25590.6
58174,25980.3
56765.7,25980.3
56765.7,23676.8
60322.8,20119.7
60322.8,22523.5
60268.1,22590.1
60240.2,22642.5
60212.2,22590.1
60141.6,22504.1
60055.6,22433.5
59957.4,22381
59850.9,22348.7
59740.2,22337.8
59629.4,22348.7
59522.9,22381
59424.8,22433.5
59338.7,22504.1
59268.1,22590.1
59240.2,22642.5
59212.2,22590.1
59141.6,22504.1
59055.6,22433.5
58957.4,22381
58850.9,22348.7
58740.2,22337.8
58629.4,22348.7
58522.9,22381
58424.8,22433.5
58338.7,22504.1
58268.1,22590.1
58215.7,22688.3
58183.4,22794.8
58175.2,22877.8
58175.2,23248.2
58183.4,23331.2
58215.7,23437.7
58268.1,23535.9
58322.8,23602.5
58322.8,23926.4
58320.8,23946.9
58328.9,24028.7
58352.7,24107.3
58391.5,24179.8
58429.4,24226
58443.6,24243.4
58459.6,24256.4
59355.8,25152.6
59368.8,25168.6
59432.4,25220.7
59504.9,25259.5
59583.5,25283.3
59644.9,25289.4
59644.9,25289.4
59665.4,25291.4
59685.8,25289.4
66274,25289.4
66511.8,25527.2
66511.8,26908.6
66509.8,26929.1
66517.9,27010.9
66541.7,27089.6
66580.5,27162.1
66618.1,27208
66632.6,27225.7
66648.5,27238.7
66698.3,27288.5
66711.4,27304.4
66774.9,27356.5
66847.4,27395.3
66926.1,27419.2
66987.4,27425.2
66987.4,27425.2
67007.9,27427.2
67028.4,27425.2
67300.1,27425.2
67250.8,27499.1
67211.1,27594.7
67190.9,27696.3
67190.9,27799.8
67211.1,27901.3
67250.8,27997
67299.2,28069.5
67299.2,28165.4
67080.1,28165.4
67059.6,28163.3
67039.1,28165.4
67039.1,28165.4
66984.9,28170.7
66977.8,28171.4
66909.7,28192
66899.1,28195.3
66826.6,28234
66763.1,28286.2
66750,28302.1
66541,28511.1
66488.1,28475.7
66385.3,28433.1
66276.1,28411.4
66164.8,28411.4
66055.7,28433.1
65952.9,28475.7
65860.3,28537.5
65781.6,28616.2
65719.8,28708.8
65677.2,28811.6
65655.5,28920.7
65655.5,29032
65677.2,29141.2
65719.8,29244
65781.6,29336.5
65803.1,29358
65803.1,29897.6
64508.7,29897.6
64488.2,29895.6
64467.7,29897.6
64467.7,29897.6
64406.4,29903.7
64327.7,29927.5
64255.2,29966.3
64191.7,30018.4
64178.6,30034.4
61213,33000
59854.8,33000
59832.9,32973.2
59762.2,32915.3
59835.2,32854.1
59911.8,32758.6
59968.3,32650
59996.3,32564.2
59949.1,32467.3
59420.1,32467.3
59420.1,32475.2
59320.1,32475.2
59320.1,32467.3
58791.1,32467.3
58743.9,32564.2
58771.8,32650
58828.4,32758.6
58905,32854.1
58977.9,32915.3
58907.3,32973.2
58885.3,33000
57253.9,33000
57258.5,32998.6
57306.1,32898
57333.2,32790.1
57338.7,32678.9
57322.4,32568.8
57284.9,32464.1
57258.5,32414.8
57162.5,32386.6
56842.4,32706.7
56847.9,32712.3
56777.2,32783
56771.7,32777.4
56451.5,33097.5
56459.5,33124.8
56456.7,33124.8
56407.7,33129.6
56360.6,33143.9
56317.1,33167.1
56279.1,33198.4
56247.8,33236.4
56224.6,33279.9
56210.3,33327
56205.5,33376
56205.5,34005.9
56210.3,34054.9
56224.6,34102
56247.8,34145.5
56279.1,34183.5
56317.1,34214.8
56360.6,34238
56407.7,34252.3
56456.7,34257.1
57086.6,34257.1
57135.6,34252.3
57182.7,34238
57226.2,34214.8
57264.2,34183.5
57295.5,34145.5
57318.7,34102
57333,34054.9
57337.8,34005.9
57337.8,33834.6
58885.3,33834.6
58907.3,33861.4
59002.5,33939.5
59111,33997.5
59228.9,34033.3
59320.7,34042.3
59419.5,34042.3
59511.3,34033.3
59629.1,33997.5
59737.7,33939.5
59832.9,33861.4
59854.8,33834.6
61365.3,33834.6
61385.8,33836.7
61406.3,33834.6
61406.3,33834.6
61467.6,33828.6
61546.3,33804.7
61618.8,33766
61682.3,33713.8
61695.4,33697.9
61964.9,33428.5
67471.4,33428.5
67484.2,33470.9
67527.6,33564.3
67588.4,33647.5
67664.3,33717.2
67752.3,33770.8
67849.1,33806.2
67930.3,33758
67930.3,33347.2
68030.3,33347.2
68030.3,33758
68111.5,33806.2
68208.3,33770.8
68296.3,33717.2
68372.2,33647.5
68433,33564.3
68476.4,33470.9
68489.3,33428.5
68440.7,33347.2
68030.3,33347.2
67930.3,33347.2
67519.9,33347.2
67471.4,33428.5
61964.9,33428.5
63068.5,32324.8
64990.2,32324.8
64990.2,32509.8
65026.2,32691.2
65097,32862.1
65199.8,33015.9
65330.6,33146.7
65484.4,33249.4
65655.2,33320.2
65836.7,33356.3
66021.6,33356.3
66203,33320.2
66373.9,33249.4
66498.8,33166
67471.4,33166
67519.9,33247.2
67930.3,33247.2
67930.3,32836.5
68030.3,32836.5
68030.3,33247.2
68440.7,33247.2
68489.3,33166
68476.4,33123.6
68433,33030.2
68372.2,32947
68296.3,32877.3
68208.3,32823.7
68111.5,32788.3
68030.3,32836.5
67930.3,32836.5
67849.1,32788.3
67752.3,32823.7
67664.3,32877.3
67588.4,32947
67527.6,33030.2
67484.2,33123.6
67471.4,33166
66498.8,33166
66527.7,33146.7
66658.5,33015.9
66761.2,32862.1
66832,32691.2
66868.1,32509.8
66868.1,32324.8
66832,32143.4
66761.2,31972.6
66658.5,31818.8
66527.7,31688
66373.9,31585.2
66203,31514.4
66021.6,31478.3
65836.7,31478.3
65655.2,31514.4
65484.4,31585.2
65330.6,31688
65199.8,31818.8
65097,31972.6
65026.2,32143.4
64990.2,32324.8
63068.5,32324.8
64661,30732.3
66278.7,30732.3
66299.2,30734.3
66319.7,30732.3
66319.7,30732.3
66381,30726.2
66459.7,30702.4
66532.2,30663.6
66595.7,30611.5
66608.8,30595.6
66668.9,30535.4
67972.1,30535.4
67992.1,30555.4
67992.1,31302.3
67990.1,31322.8
67998.2,31404.6
68022,31483.3
68060.8,31555.8
68072.7,31570.3
68112.9,31619.4
68128.9,31632.4
68745.5,32249.1
68758.6,32265
68774.5,32278.1
68774.5,32278.1
68797.9,32297.2
68822.1,32317.2
68894.6,32355.9
68973.3,32379.8
69034.6,32385.8
69034.6,32385.8
69055.1,32387.8
69075.6,32385.8
72181.1,32385.8
72181.1,33015.8
72179.1,33036.3
72181.1,33056.8
72181.1,33056.8
72182,33066.1
72143.4,33045.5
72096.3,33031.2
72047.2,33026.3
71338.6,33026.3
71289.6,33031.2
71242.4,33045.5
71199,33068.7
71161,33099.9
71129.7,33138
71106.5,33181.4
71096.4,33214.6
70499.8,33214.6
70485.7,33143.9
70446.1,33048.3
70388.6,32962.2
70315.4,32889
70229.3,32831.5
70133.6,32791.9
70032.1,32771.7
69928.5,32771.7
69827,32791.9
69731.4,32831.5
69645.3,32889
69572.1,32962.2
69514.5,33048.3
69474.9,33143.9
69454.7,33245.5
69454.7,33349
69474.9,33450.6
69514.5,33546.2
69572.1,33632.3
69645.3,33705.5
69731.4,33763
69827,33802.6
69912.5,33819.6
70005.4,33912.5
70018.4,33928.4
70082,33980.6
70119.4,34000.5
70154.5,34019.3
70233.2,34043.2
70315,34051.2
70335.5,34049.2
71096.4,34049.2
71106.5,34082.4
71129.7,34125.8
71161,34163.9
71199,34195.1
71242.4,34218.3
71289.6,34232.6
71338.6,34237.4
72047.2,34237.4
72096.3,34232.6
72143.4,34218.3
72186.8,34195.1
72224.9,34163.9
72256.1,34125.8
72279.3,34082.4
72281.5,34075.1
72307.7,34101.3
72406.7,34167.4
72516.6,34213
72633.4,34236.2
72752.4,34236.2
72869.2,34213
72979.2,34167.4
73078.2,34101.3
73162.3,34017.1
73228.5,33918.1
73274,33808.2
73297.2,33691.4
73297.2,33572.4
73274,33455.6
73228.5,33345.6
73162.3,33246.7
73110.2,33194.6
73110.2,33151.3
73112.3,33130.8
73110.2,33110.3
73110.2,33110.3
73104.2,33049
73080.3,32970.3
73041.6,32897.8
73015.7,32866.3
73015.7,32141.4
73115.2,32041.9
73131.2,32028.8
73183.3,31965.3
73222.1,31892.8
73245.9,31814.1
73252,31752.8
73252,31752.8
73254,31732.3
73252,31711.8
73252,30807.9
73253.7,30790.7
75081,32636.3
75102.2,32662.1
75150,32701.3
75175.5,32722.4
75034.1,32722.4
74772.9,32774.4
74526.7,32876.4
74305.2,33024.4
74116.9,33212.7
73968.9,33434.2
73866.9,33680.3
73815,33941.6
73815,34208
73866.9,34469.3
73968.9,34715.4
74116.9,34936.9
74305.2,35125.3
74362.3,35163.4
50844.4,35163.4
50931,35105.6
51119.3,34917.2
51267.3,34695.7
51369.3,34449.6
51370,34445.9
52878.7,34445.9
52906.9,34542
53007.5,34589.6
53115.4,34616.7
53226.6,34622.1
53336.7,34605.8
53441.5,34568.3
53490.8,34542
53518.9,34445.9
53198.8,34125.8
52878.7,34445.9
51370,34445.9
51421.3,34188.3
51421.3,34082.9
52631.8,34082.9
52648.1,34193
52685.6,34297.8
52711.9,34347.1
52808,34375.2
53128.1,34055.1
53269.5,34055.1
53589.6,34375.2
53685.7,34347.1
53733.3,34246.5
53760.4,34138.5
53765.8,34027.4
53749.5,33917.3
53712,33812.5
53685.7,33763.2
53589.6,33735
53269.5,34055.1
53128.1,34055.1
52808,33735
52711.9,33763.2
52664.3,33863.8
52637.3,33971.7
52631.8,34082.9
51421.3,34082.9
51421.3,33921.9
51369.3,33660.6
51267.3,33414.5
51119.3,33193
50931,33004.7
50711.9,32858.3
52396,32858.3
52632.6,33094.9
52632.6,33385.8
52637.5,33434.8
52651.8,33482
52675,33525.4
52706.2,33563.5
52744.3,33594.7
52787.7,33617.9
52834.8,33632.2
52883.9,33637
52886.7,33637
52878.7,33664.3
53198.8,33984.4
53518.9,33664.3
53510.9,33637
53513.8,33637
53562.8,33632.2
53609.9,33617.9
53653.3,33594.7
53691.4,33563.5
53722.7,33525.4
53745.9,33482
53760.2,33434.8
53765,33385.8
53765,32755.9
53762.9,32734.5
56204.6,32734.5
56220.9,32844.5
56258.4,32949.3
56284.8,32998.6
56380.8,33026.8
56700.9,32706.7
56380.8,32386.6
56284.8,32414.8
56237.2,32515.4
56210.1,32623.3
56204.6,32734.5
53762.9,32734.5
53760.2,32706.9
53745.9,32659.8
53722.7,32616.3
53691.4,32578.3
53658.8,32551.5
53913,32297.2
56457,32297.2
56451.5,32315.9
56771.7,32636
57091.8,32315.9
57086.3,32297.2
58158.6,32297.2
58179.1,32299.3
58199.6,32297.2
58199.6,32297.2
58260.9,32291.2
58339.6,32267.3
58412.1,32228.6
58475.7,32176.4
58488.7,32160.5
58750,31899.2
58767.5,31931.9
58798.7,31970
58836.8,32001.2
58872.9,32020.5
58828.4,32076
58771.8,32184.6
58743.9,32270.5
58791.1,32367.3
59320.1,32367.3
59320.1,32359.4
59420.1,32359.4
59420.1,32367.3
59949.1,32367.3
59996.3,32270.5
59968.3,32184.6
59911.8,32076
59867.2,32020.5
59903.3,32001.2
59941.4,31970
59972.7,31931.9
59995.9,31888.5
60010.2,31841.3
60015,31792.3
60015,31042.3
60010.2,30993.3
59995.9,30946.2
59972.7,30902.8
59941.4,30864.7
59903.3,30833.5
59859.9,30810.2
59812.8,30795.9
59763.8,30791.1
58976.4,30791.1
58927.4,30795.9
58880.2,30810.2
58836.8,30833.5
58798.7,30864.7
58767.5,30902.8
58744.3,30946.2
58730,30993.3
58729.3,31000
58662.2,31000
58641.7,30998
58621.2,31000
58621.2,31000
58559.9,31006
58481.3,31029.9
58408.8,31068.7
58345.2,31120.8
58332.1,31136.7
58006.3,31462.6
53760.7,31462.6
53740.2,31460.6
53719.7,31462.6
53719.7,31462.6
53665.5,31467.9
53658.3,31468.6
53584,31491.2
53579.7,31492.5
53507.2,31531.3
53443.6,31583.4
53430.6,31599.3
52918.2,32111.7
52902.3,32124.7
52875.8,32157.1
52865.4,32144.4
52801.9,32092.3
52729.4,32053.5
52650.7,32029.7
52589.4,32023.6
52589.4,32023.6
52568.9,32021.6
52548.4,32023.6
49016.6,32023.6
48996.1,32021.6
48975.6,32023.6
48975.6,32023.6
48914.3,32029.7
48835.6,32053.5
48763.1,32092.3
48763.1,32092.3
48763.1,32092.3
48715.5,32131.4
48715.5,32131.4
48699.5,32144.4
48686.5,32160.3
47514.7,33332.1
47498.8,33345.2
47485.7,33361.1
47485.7,33361.1
47446.6,33408.8
47407.9,33481.3
47393,33530.2
47384,33559.9
47378,33621.2
47378,33621.2
47375.9,33641.7
47378,33662.2
47378,33734.2
47344.8,33744.3
47301.4,33767.5
47263.3,33798.7
47232.1,33836.8
47208.9,33880.2
47194.6,33927.4
47189.7,33976.4
47189.7,34685
47194.6,34734
47208.9,34781.2
47232.1,34824.6
47263.3,34862.7
47301.4,34893.9
47344.8,34917.1
47391.9,34931.4
47440.9,34936.2
48149.6,34936.2
48198.6,34931.4
48245.7,34917.1
48289.2,34893.9
48327.2,34862.7
48358.5,34824.6
48381.7,34781.2
48396,34734
48400.8,34685
48400.8,33976.4
48396,33927.4
48381.7,33880.2
48358.5,33836.8
48327.2,33798.7
48289.2,33767.5
48270,33757.2
49168.9,32858.3
49425.9,32858.3
49206.8,33004.7
49018.4,33193
48870.4,33414.5
48768.5,33660.6
48716.5,33921.9
48716.5,34188.3
48768.5,34449.6
48870.4,34695.7
49018.4,34917.2
49206.8,35105.6
49293.4,35163.4
43813,35163.4
43813,34445.5
44759,34445.5
44820.5,34569.8
44968,34644.9
45127.4,34689.8
45292.5,34702.7
45456.9,34683.2
45614.3,34632
45730.7,34569.8
45792.1,34445.5
45275.6,33929
44759,34445.5
43813,34445.5
43813,33875.1
44431.1,33875.1
44450.7,34039.5
44501.9,34197
44564.1,34313.4
44688.3,34374.8
45204.9,33858.3
45346.3,33858.3
45862.9,34374.8
45987.1,34313.4
46062.2,34165.8
46107.1,34006.5
46120,33841.4
46100.5,33677
46049.3,33519.5
45987.1,33403.1
45862.9,33341.7
45346.3,33858.3
45204.9,33858.3
44688.3,33341.7
44564.1,33403.1
44489,33550.7
44444.1,33710.1
44431.1,33875.1
43813,33875.1
43813,33271
44759,33271
45275.6,33787.6
45792.1,33271
45730.7,33146.8
45583.2,33071.6
45423.8,33026.8
45258.7,33013.8
45094.3,33033.3
44936.9,33084.6
44820.5,33146.8
44759,33271
43813,33271
43813,31267.7
44433.8,31267.7
44433.8,32448.8
44438.7,32497.8
44453,32545
44476.2,32588.4
44507.4,32626.5
44545.5,32657.7
44588.9,32680.9
44636,32695.2
44685,32700
45866.1,32700
45915.2,32695.2
45962.3,32680.9
46005.7,32657.7
46043.8,32626.5
46075,32588.4
46098.2,32545
46112.5,32497.8
46117.4,32448.8
46117.4,32275.6
47247.2,32275.6
47267.7,32277.6
47288.2,32275.6
47288.2,32275.6
47349.5,32269.6
47428.2,32245.7
47500.7,32206.9
47564.2,32154.8
47577.3,32138.9
47781.1,31935
47854.8,31935
47971.6,31911.8
48081.5,31866.3
48180.5,31800.1
48264.7,31715.9
48330.8,31617
48376.4,31507
48399.6,31390.2
48399.6,31271.2
48376.4,31154.4
48330.8,31044.5
48264.7,30945.5
48180.5,30861.3
48081.5,30795.2
47971.6,30749.6
47854.8,30726.4
47735.8,30726.4
47619,30749.6
47509,30795.2
47410,30861.3
47325.9,30945.5
47259.7,31044.5
47214.2,31154.4
47190.9,31271.2
47190.9,31344.9
47094.9,31440.9
46117.4,31440.9
46117.4,31267.7
46112.5,31218.7
46098.2,31171.6
46075,31128.2
46043.8,31090.1
46005.7,31058.8
45962.3,31035.6
45915.2,31021.3
45866.1,31016.5
44685,31016.5
44636,31021.3
44588.9,31035.6
44545.5,31058.8
44507.4,31090.1
44476.2,31128.2
44453,31171.6
44438.7,31218.7
44433.8,31267.7
43813,31267.7
43813,17373.4
45571.3,17373.4
45601.9,17471.4
45705.9,17521
45817.5,17549.3
45932.5,17555.4
46046.5,17538.8
46155,17500.4
46209.1,17471.4
46239.7,17373.4
45905.5,17039.2
45571.3,17373.4
43813,17373.4
43813,16995.5
45318.7,16995.5
45335.2,17109.5
45373.7,17218
45402.6,17272.1
45500.6,17302.7
45834.8,16968.5
45500.6,16634.3
45402.6,16664.9
45353,16768.9
45324.7,16880.5
45318.7,16995.5
43813,16995.5
43813,16017.7
46382.4,16017.7
Z" /> 
</g>
</g> 
</svg>
