G04 #@! TF.GenerationSoftware,KiCad,Pcbnew,5.1.5-1.fc31*
G04 #@! TF.CreationDate,2020-02-07T15:13:23-03:00*
G04 #@! TF.ProjectId,lacerar_wemos,6c616365-7261-4725-9f77-656d6f732e6b,rev?*
G04 #@! TF.SameCoordinates,Original*
G04 #@! TF.FileFunction,Legend,Top*
G04 #@! TF.FilePolarity,Positive*
%FSLAX46Y46*%
G04 Gerber Fmt 4.6, Leading zero omitted, Abs format (unit mm)*
G04 Created by KiCad (PCBNEW 5.1.5-1.fc31) date 2020-02-07 15:13:23*
%MOMM*%
%LPD*%
G04 APERTURE LIST*
%ADD10C,0.120000*%
%ADD11C,0.150000*%
G04 APERTURE END LIST*
D10*
X207810000Y-57340000D02*
X207810000Y-47180000D01*
X200190000Y-57340000D02*
X207810000Y-57340000D01*
X200190000Y-47180000D02*
X200190000Y-57340000D01*
X207810000Y-47180000D02*
X200190000Y-47180000D01*
X206540000Y-47180000D02*
X206540000Y-57340000D01*
X111705860Y-54040000D02*
X111705860Y-77360000D01*
X118605860Y-51500000D02*
X144035860Y-51500000D01*
X111705860Y-77360000D02*
X144035860Y-77360000D01*
X146165860Y-75240000D02*
X146165860Y-53630000D01*
D11*
G36*
X138460860Y-50460000D02*
G01*
X137190860Y-50460000D01*
X137825860Y-51095000D01*
X138460860Y-50460000D01*
G37*
X138460860Y-50460000D02*
X137190860Y-50460000D01*
X137825860Y-51095000D01*
X138460860Y-50460000D01*
D10*
X118605860Y-51500000D02*
X118605860Y-54040000D01*
X118605860Y-54040000D02*
X111705860Y-54040000D01*
X144035860Y-51500000D02*
G75*
G02X146165860Y-53630000I0J-2130000D01*
G01*
X146165860Y-75230000D02*
G75*
G02X144035860Y-77360000I-2130000J0D01*
G01*
X148320000Y-84325000D02*
G75*
G03X148320000Y-84325000I-4120000J0D01*
G01*
X140120000Y-84325000D02*
X148280000Y-84325000D01*
X140120000Y-84285000D02*
X148280000Y-84285000D01*
X140120000Y-84245000D02*
X148280000Y-84245000D01*
X140121000Y-84205000D02*
X148279000Y-84205000D01*
X140123000Y-84165000D02*
X148277000Y-84165000D01*
X140124000Y-84125000D02*
X148276000Y-84125000D01*
X140126000Y-84085000D02*
X143160000Y-84085000D01*
X145240000Y-84085000D02*
X148274000Y-84085000D01*
X140129000Y-84045000D02*
X143160000Y-84045000D01*
X145240000Y-84045000D02*
X148271000Y-84045000D01*
X140132000Y-84005000D02*
X143160000Y-84005000D01*
X145240000Y-84005000D02*
X148268000Y-84005000D01*
X140135000Y-83965000D02*
X143160000Y-83965000D01*
X145240000Y-83965000D02*
X148265000Y-83965000D01*
X140139000Y-83925000D02*
X143160000Y-83925000D01*
X145240000Y-83925000D02*
X148261000Y-83925000D01*
X140143000Y-83885000D02*
X143160000Y-83885000D01*
X145240000Y-83885000D02*
X148257000Y-83885000D01*
X140148000Y-83845000D02*
X143160000Y-83845000D01*
X145240000Y-83845000D02*
X148252000Y-83845000D01*
X140152000Y-83805000D02*
X143160000Y-83805000D01*
X145240000Y-83805000D02*
X148248000Y-83805000D01*
X140158000Y-83765000D02*
X143160000Y-83765000D01*
X145240000Y-83765000D02*
X148242000Y-83765000D01*
X140163000Y-83725000D02*
X143160000Y-83725000D01*
X145240000Y-83725000D02*
X148237000Y-83725000D01*
X140170000Y-83685000D02*
X143160000Y-83685000D01*
X145240000Y-83685000D02*
X148230000Y-83685000D01*
X140176000Y-83645000D02*
X143160000Y-83645000D01*
X145240000Y-83645000D02*
X148224000Y-83645000D01*
X140183000Y-83604000D02*
X143160000Y-83604000D01*
X145240000Y-83604000D02*
X148217000Y-83604000D01*
X140190000Y-83564000D02*
X143160000Y-83564000D01*
X145240000Y-83564000D02*
X148210000Y-83564000D01*
X140198000Y-83524000D02*
X143160000Y-83524000D01*
X145240000Y-83524000D02*
X148202000Y-83524000D01*
X140206000Y-83484000D02*
X143160000Y-83484000D01*
X145240000Y-83484000D02*
X148194000Y-83484000D01*
X140215000Y-83444000D02*
X143160000Y-83444000D01*
X145240000Y-83444000D02*
X148185000Y-83444000D01*
X140224000Y-83404000D02*
X143160000Y-83404000D01*
X145240000Y-83404000D02*
X148176000Y-83404000D01*
X140233000Y-83364000D02*
X143160000Y-83364000D01*
X145240000Y-83364000D02*
X148167000Y-83364000D01*
X140243000Y-83324000D02*
X143160000Y-83324000D01*
X145240000Y-83324000D02*
X148157000Y-83324000D01*
X140253000Y-83284000D02*
X143160000Y-83284000D01*
X145240000Y-83284000D02*
X148147000Y-83284000D01*
X140264000Y-83244000D02*
X143160000Y-83244000D01*
X145240000Y-83244000D02*
X148136000Y-83244000D01*
X140275000Y-83204000D02*
X143160000Y-83204000D01*
X145240000Y-83204000D02*
X148125000Y-83204000D01*
X140286000Y-83164000D02*
X143160000Y-83164000D01*
X145240000Y-83164000D02*
X148114000Y-83164000D01*
X140298000Y-83124000D02*
X143160000Y-83124000D01*
X145240000Y-83124000D02*
X148102000Y-83124000D01*
X140311000Y-83084000D02*
X143160000Y-83084000D01*
X145240000Y-83084000D02*
X148089000Y-83084000D01*
X140323000Y-83044000D02*
X143160000Y-83044000D01*
X145240000Y-83044000D02*
X148077000Y-83044000D01*
X140337000Y-83004000D02*
X143160000Y-83004000D01*
X145240000Y-83004000D02*
X148063000Y-83004000D01*
X140350000Y-82964000D02*
X143160000Y-82964000D01*
X145240000Y-82964000D02*
X148050000Y-82964000D01*
X140365000Y-82924000D02*
X143160000Y-82924000D01*
X145240000Y-82924000D02*
X148035000Y-82924000D01*
X140379000Y-82884000D02*
X143160000Y-82884000D01*
X145240000Y-82884000D02*
X148021000Y-82884000D01*
X140395000Y-82844000D02*
X143160000Y-82844000D01*
X145240000Y-82844000D02*
X148005000Y-82844000D01*
X140410000Y-82804000D02*
X143160000Y-82804000D01*
X145240000Y-82804000D02*
X147990000Y-82804000D01*
X140426000Y-82764000D02*
X143160000Y-82764000D01*
X145240000Y-82764000D02*
X147974000Y-82764000D01*
X140443000Y-82724000D02*
X143160000Y-82724000D01*
X145240000Y-82724000D02*
X147957000Y-82724000D01*
X140460000Y-82684000D02*
X143160000Y-82684000D01*
X145240000Y-82684000D02*
X147940000Y-82684000D01*
X140478000Y-82644000D02*
X143160000Y-82644000D01*
X145240000Y-82644000D02*
X147922000Y-82644000D01*
X140496000Y-82604000D02*
X143160000Y-82604000D01*
X145240000Y-82604000D02*
X147904000Y-82604000D01*
X140514000Y-82564000D02*
X143160000Y-82564000D01*
X145240000Y-82564000D02*
X147886000Y-82564000D01*
X140534000Y-82524000D02*
X143160000Y-82524000D01*
X145240000Y-82524000D02*
X147866000Y-82524000D01*
X140553000Y-82484000D02*
X143160000Y-82484000D01*
X145240000Y-82484000D02*
X147847000Y-82484000D01*
X140573000Y-82444000D02*
X143160000Y-82444000D01*
X145240000Y-82444000D02*
X147827000Y-82444000D01*
X140594000Y-82404000D02*
X143160000Y-82404000D01*
X145240000Y-82404000D02*
X147806000Y-82404000D01*
X140616000Y-82364000D02*
X143160000Y-82364000D01*
X145240000Y-82364000D02*
X147784000Y-82364000D01*
X140638000Y-82324000D02*
X143160000Y-82324000D01*
X145240000Y-82324000D02*
X147762000Y-82324000D01*
X140660000Y-82284000D02*
X143160000Y-82284000D01*
X145240000Y-82284000D02*
X147740000Y-82284000D01*
X140683000Y-82244000D02*
X143160000Y-82244000D01*
X145240000Y-82244000D02*
X147717000Y-82244000D01*
X140707000Y-82204000D02*
X143160000Y-82204000D01*
X145240000Y-82204000D02*
X147693000Y-82204000D01*
X140731000Y-82164000D02*
X143160000Y-82164000D01*
X145240000Y-82164000D02*
X147669000Y-82164000D01*
X140756000Y-82124000D02*
X143160000Y-82124000D01*
X145240000Y-82124000D02*
X147644000Y-82124000D01*
X140782000Y-82084000D02*
X143160000Y-82084000D01*
X145240000Y-82084000D02*
X147618000Y-82084000D01*
X140808000Y-82044000D02*
X143160000Y-82044000D01*
X145240000Y-82044000D02*
X147592000Y-82044000D01*
X140835000Y-82004000D02*
X147565000Y-82004000D01*
X140862000Y-81964000D02*
X147538000Y-81964000D01*
X140891000Y-81924000D02*
X147509000Y-81924000D01*
X140920000Y-81884000D02*
X147480000Y-81884000D01*
X140950000Y-81844000D02*
X147450000Y-81844000D01*
X140980000Y-81804000D02*
X147420000Y-81804000D01*
X141011000Y-81764000D02*
X147389000Y-81764000D01*
X141044000Y-81724000D02*
X147356000Y-81724000D01*
X141076000Y-81684000D02*
X147324000Y-81684000D01*
X141110000Y-81644000D02*
X147290000Y-81644000D01*
X141145000Y-81604000D02*
X147255000Y-81604000D01*
X141181000Y-81564000D02*
X147219000Y-81564000D01*
X141217000Y-81524000D02*
X147183000Y-81524000D01*
X141255000Y-81484000D02*
X147145000Y-81484000D01*
X141293000Y-81444000D02*
X147107000Y-81444000D01*
X141333000Y-81404000D02*
X147067000Y-81404000D01*
X141374000Y-81364000D02*
X147026000Y-81364000D01*
X141416000Y-81324000D02*
X146984000Y-81324000D01*
X141459000Y-81284000D02*
X146941000Y-81284000D01*
X141503000Y-81244000D02*
X146897000Y-81244000D01*
X141549000Y-81204000D02*
X146851000Y-81204000D01*
X141596000Y-81164000D02*
X146804000Y-81164000D01*
X141644000Y-81124000D02*
X146756000Y-81124000D01*
X141695000Y-81084000D02*
X146705000Y-81084000D01*
X141746000Y-81044000D02*
X146654000Y-81044000D01*
X141800000Y-81004000D02*
X146600000Y-81004000D01*
X141855000Y-80964000D02*
X146545000Y-80964000D01*
X141913000Y-80924000D02*
X146487000Y-80924000D01*
X141972000Y-80884000D02*
X146428000Y-80884000D01*
X142034000Y-80844000D02*
X146366000Y-80844000D01*
X142098000Y-80804000D02*
X146302000Y-80804000D01*
X142166000Y-80764000D02*
X146234000Y-80764000D01*
X142236000Y-80724000D02*
X146164000Y-80724000D01*
X142310000Y-80684000D02*
X146090000Y-80684000D01*
X142387000Y-80644000D02*
X146013000Y-80644000D01*
X142469000Y-80604000D02*
X145931000Y-80604000D01*
X142555000Y-80564000D02*
X145845000Y-80564000D01*
X142648000Y-80524000D02*
X145752000Y-80524000D01*
X142747000Y-80484000D02*
X145653000Y-80484000D01*
X142854000Y-80444000D02*
X145546000Y-80444000D01*
X142971000Y-80404000D02*
X145429000Y-80404000D01*
X143102000Y-80364000D02*
X145298000Y-80364000D01*
X143252000Y-80324000D02*
X145148000Y-80324000D01*
X143432000Y-80284000D02*
X144968000Y-80284000D01*
X143667000Y-80244000D02*
X144733000Y-80244000D01*
X141885000Y-88734698D02*
X141885000Y-87934698D01*
X141485000Y-88334698D02*
X142285000Y-88334698D01*
X137840000Y-81240302D02*
X137040000Y-81240302D01*
X137440000Y-80840302D02*
X137440000Y-81640302D01*
X135658000Y-89331000D02*
X134592000Y-89331000D01*
X135893000Y-89291000D02*
X134357000Y-89291000D01*
X136073000Y-89251000D02*
X134177000Y-89251000D01*
X136223000Y-89211000D02*
X134027000Y-89211000D01*
X136354000Y-89171000D02*
X133896000Y-89171000D01*
X136471000Y-89131000D02*
X133779000Y-89131000D01*
X136578000Y-89091000D02*
X133672000Y-89091000D01*
X136677000Y-89051000D02*
X133573000Y-89051000D01*
X136770000Y-89011000D02*
X133480000Y-89011000D01*
X136856000Y-88971000D02*
X133394000Y-88971000D01*
X136938000Y-88931000D02*
X133312000Y-88931000D01*
X137015000Y-88891000D02*
X133235000Y-88891000D01*
X137089000Y-88851000D02*
X133161000Y-88851000D01*
X137159000Y-88811000D02*
X133091000Y-88811000D01*
X137227000Y-88771000D02*
X133023000Y-88771000D01*
X137291000Y-88731000D02*
X132959000Y-88731000D01*
X137353000Y-88691000D02*
X132897000Y-88691000D01*
X137412000Y-88651000D02*
X132838000Y-88651000D01*
X137470000Y-88611000D02*
X132780000Y-88611000D01*
X137525000Y-88571000D02*
X132725000Y-88571000D01*
X137579000Y-88531000D02*
X132671000Y-88531000D01*
X137630000Y-88491000D02*
X132620000Y-88491000D01*
X137681000Y-88451000D02*
X132569000Y-88451000D01*
X137729000Y-88411000D02*
X132521000Y-88411000D01*
X137776000Y-88371000D02*
X132474000Y-88371000D01*
X137822000Y-88331000D02*
X132428000Y-88331000D01*
X137866000Y-88291000D02*
X132384000Y-88291000D01*
X137909000Y-88251000D02*
X132341000Y-88251000D01*
X137951000Y-88211000D02*
X132299000Y-88211000D01*
X137992000Y-88171000D02*
X132258000Y-88171000D01*
X138032000Y-88131000D02*
X132218000Y-88131000D01*
X138070000Y-88091000D02*
X132180000Y-88091000D01*
X138108000Y-88051000D02*
X132142000Y-88051000D01*
X138144000Y-88011000D02*
X132106000Y-88011000D01*
X138180000Y-87971000D02*
X132070000Y-87971000D01*
X138215000Y-87931000D02*
X132035000Y-87931000D01*
X138249000Y-87891000D02*
X132001000Y-87891000D01*
X138281000Y-87851000D02*
X131969000Y-87851000D01*
X138314000Y-87811000D02*
X131936000Y-87811000D01*
X138345000Y-87771000D02*
X131905000Y-87771000D01*
X138375000Y-87731000D02*
X131875000Y-87731000D01*
X138405000Y-87691000D02*
X131845000Y-87691000D01*
X138434000Y-87651000D02*
X131816000Y-87651000D01*
X138463000Y-87611000D02*
X131787000Y-87611000D01*
X138490000Y-87571000D02*
X131760000Y-87571000D01*
X134085000Y-87531000D02*
X131733000Y-87531000D01*
X138517000Y-87531000D02*
X136165000Y-87531000D01*
X134085000Y-87491000D02*
X131707000Y-87491000D01*
X138543000Y-87491000D02*
X136165000Y-87491000D01*
X134085000Y-87451000D02*
X131681000Y-87451000D01*
X138569000Y-87451000D02*
X136165000Y-87451000D01*
X134085000Y-87411000D02*
X131656000Y-87411000D01*
X138594000Y-87411000D02*
X136165000Y-87411000D01*
X134085000Y-87371000D02*
X131632000Y-87371000D01*
X138618000Y-87371000D02*
X136165000Y-87371000D01*
X134085000Y-87331000D02*
X131608000Y-87331000D01*
X138642000Y-87331000D02*
X136165000Y-87331000D01*
X134085000Y-87291000D02*
X131585000Y-87291000D01*
X138665000Y-87291000D02*
X136165000Y-87291000D01*
X134085000Y-87251000D02*
X131563000Y-87251000D01*
X138687000Y-87251000D02*
X136165000Y-87251000D01*
X134085000Y-87211000D02*
X131541000Y-87211000D01*
X138709000Y-87211000D02*
X136165000Y-87211000D01*
X134085000Y-87171000D02*
X131519000Y-87171000D01*
X138731000Y-87171000D02*
X136165000Y-87171000D01*
X134085000Y-87131000D02*
X131498000Y-87131000D01*
X138752000Y-87131000D02*
X136165000Y-87131000D01*
X134085000Y-87091000D02*
X131478000Y-87091000D01*
X138772000Y-87091000D02*
X136165000Y-87091000D01*
X134085000Y-87051000D02*
X131459000Y-87051000D01*
X138791000Y-87051000D02*
X136165000Y-87051000D01*
X134085000Y-87011000D02*
X131439000Y-87011000D01*
X138811000Y-87011000D02*
X136165000Y-87011000D01*
X134085000Y-86971000D02*
X131421000Y-86971000D01*
X138829000Y-86971000D02*
X136165000Y-86971000D01*
X134085000Y-86931000D02*
X131403000Y-86931000D01*
X138847000Y-86931000D02*
X136165000Y-86931000D01*
X134085000Y-86891000D02*
X131385000Y-86891000D01*
X138865000Y-86891000D02*
X136165000Y-86891000D01*
X134085000Y-86851000D02*
X131368000Y-86851000D01*
X138882000Y-86851000D02*
X136165000Y-86851000D01*
X134085000Y-86811000D02*
X131351000Y-86811000D01*
X138899000Y-86811000D02*
X136165000Y-86811000D01*
X134085000Y-86771000D02*
X131335000Y-86771000D01*
X138915000Y-86771000D02*
X136165000Y-86771000D01*
X134085000Y-86731000D02*
X131320000Y-86731000D01*
X138930000Y-86731000D02*
X136165000Y-86731000D01*
X134085000Y-86691000D02*
X131304000Y-86691000D01*
X138946000Y-86691000D02*
X136165000Y-86691000D01*
X134085000Y-86651000D02*
X131290000Y-86651000D01*
X138960000Y-86651000D02*
X136165000Y-86651000D01*
X134085000Y-86611000D02*
X131275000Y-86611000D01*
X138975000Y-86611000D02*
X136165000Y-86611000D01*
X134085000Y-86571000D02*
X131262000Y-86571000D01*
X138988000Y-86571000D02*
X136165000Y-86571000D01*
X134085000Y-86531000D02*
X131248000Y-86531000D01*
X139002000Y-86531000D02*
X136165000Y-86531000D01*
X134085000Y-86491000D02*
X131236000Y-86491000D01*
X139014000Y-86491000D02*
X136165000Y-86491000D01*
X134085000Y-86451000D02*
X131223000Y-86451000D01*
X139027000Y-86451000D02*
X136165000Y-86451000D01*
X134085000Y-86411000D02*
X131211000Y-86411000D01*
X139039000Y-86411000D02*
X136165000Y-86411000D01*
X134085000Y-86371000D02*
X131200000Y-86371000D01*
X139050000Y-86371000D02*
X136165000Y-86371000D01*
X134085000Y-86331000D02*
X131189000Y-86331000D01*
X139061000Y-86331000D02*
X136165000Y-86331000D01*
X134085000Y-86291000D02*
X131178000Y-86291000D01*
X139072000Y-86291000D02*
X136165000Y-86291000D01*
X134085000Y-86251000D02*
X131168000Y-86251000D01*
X139082000Y-86251000D02*
X136165000Y-86251000D01*
X134085000Y-86211000D02*
X131158000Y-86211000D01*
X139092000Y-86211000D02*
X136165000Y-86211000D01*
X134085000Y-86171000D02*
X131149000Y-86171000D01*
X139101000Y-86171000D02*
X136165000Y-86171000D01*
X134085000Y-86131000D02*
X131140000Y-86131000D01*
X139110000Y-86131000D02*
X136165000Y-86131000D01*
X134085000Y-86091000D02*
X131131000Y-86091000D01*
X139119000Y-86091000D02*
X136165000Y-86091000D01*
X134085000Y-86051000D02*
X131123000Y-86051000D01*
X139127000Y-86051000D02*
X136165000Y-86051000D01*
X134085000Y-86011000D02*
X131115000Y-86011000D01*
X139135000Y-86011000D02*
X136165000Y-86011000D01*
X134085000Y-85971000D02*
X131108000Y-85971000D01*
X139142000Y-85971000D02*
X136165000Y-85971000D01*
X134085000Y-85930000D02*
X131101000Y-85930000D01*
X139149000Y-85930000D02*
X136165000Y-85930000D01*
X134085000Y-85890000D02*
X131095000Y-85890000D01*
X139155000Y-85890000D02*
X136165000Y-85890000D01*
X134085000Y-85850000D02*
X131088000Y-85850000D01*
X139162000Y-85850000D02*
X136165000Y-85850000D01*
X134085000Y-85810000D02*
X131083000Y-85810000D01*
X139167000Y-85810000D02*
X136165000Y-85810000D01*
X134085000Y-85770000D02*
X131077000Y-85770000D01*
X139173000Y-85770000D02*
X136165000Y-85770000D01*
X134085000Y-85730000D02*
X131073000Y-85730000D01*
X139177000Y-85730000D02*
X136165000Y-85730000D01*
X134085000Y-85690000D02*
X131068000Y-85690000D01*
X139182000Y-85690000D02*
X136165000Y-85690000D01*
X134085000Y-85650000D02*
X131064000Y-85650000D01*
X139186000Y-85650000D02*
X136165000Y-85650000D01*
X134085000Y-85610000D02*
X131060000Y-85610000D01*
X139190000Y-85610000D02*
X136165000Y-85610000D01*
X134085000Y-85570000D02*
X131057000Y-85570000D01*
X139193000Y-85570000D02*
X136165000Y-85570000D01*
X134085000Y-85530000D02*
X131054000Y-85530000D01*
X139196000Y-85530000D02*
X136165000Y-85530000D01*
X134085000Y-85490000D02*
X131051000Y-85490000D01*
X139199000Y-85490000D02*
X136165000Y-85490000D01*
X139201000Y-85450000D02*
X131049000Y-85450000D01*
X139202000Y-85410000D02*
X131048000Y-85410000D01*
X139204000Y-85370000D02*
X131046000Y-85370000D01*
X139205000Y-85330000D02*
X131045000Y-85330000D01*
X139205000Y-85290000D02*
X131045000Y-85290000D01*
X139205000Y-85250000D02*
X131045000Y-85250000D01*
X139245000Y-85250000D02*
G75*
G03X139245000Y-85250000I-4120000J0D01*
G01*
X169320000Y-74720000D02*
X162080000Y-74720000D01*
X169320000Y-72480000D02*
X162080000Y-72480000D01*
X169320000Y-74720000D02*
X169320000Y-72480000D01*
X162080000Y-74720000D02*
X162080000Y-72480000D01*
X177270000Y-65870000D02*
X174330000Y-65870000D01*
X177270000Y-66110000D02*
X174330000Y-66110000D01*
X177270000Y-65990000D02*
X174330000Y-65990000D01*
X174330000Y-70530000D02*
X174660000Y-70530000D01*
X174330000Y-65090000D02*
X174330000Y-70530000D01*
X174660000Y-65090000D02*
X174330000Y-65090000D01*
X177270000Y-70530000D02*
X176940000Y-70530000D01*
X177270000Y-65090000D02*
X177270000Y-70530000D01*
X176940000Y-65090000D02*
X177270000Y-65090000D01*
X172040000Y-76499538D02*
G75*
G03X177590000Y-78044830I2990000J-462D01*
G01*
X172040000Y-76500462D02*
G75*
G02X177590000Y-74955170I2990000J462D01*
G01*
X177530000Y-76500000D02*
G75*
G03X177530000Y-76500000I-2500000J0D01*
G01*
X177590000Y-78045000D02*
X177590000Y-74955000D01*
X177290000Y-60345000D02*
X177290000Y-57255000D01*
X177230000Y-58800000D02*
G75*
G03X177230000Y-58800000I-2500000J0D01*
G01*
X171740000Y-58800462D02*
G75*
G02X177290000Y-57255170I2990000J462D01*
G01*
X171740000Y-58799538D02*
G75*
G03X177290000Y-60344830I2990000J-462D01*
G01*
X177140000Y-47390000D02*
X177470000Y-47390000D01*
X177470000Y-47390000D02*
X177470000Y-52830000D01*
X177470000Y-52830000D02*
X177140000Y-52830000D01*
X174860000Y-47390000D02*
X174530000Y-47390000D01*
X174530000Y-47390000D02*
X174530000Y-52830000D01*
X174530000Y-52830000D02*
X174860000Y-52830000D01*
X177470000Y-48290000D02*
X174530000Y-48290000D01*
X177470000Y-48410000D02*
X174530000Y-48410000D01*
X177470000Y-48170000D02*
X174530000Y-48170000D01*
X120260000Y-86110000D02*
X119930000Y-86110000D01*
X119930000Y-86110000D02*
X119930000Y-80670000D01*
X119930000Y-80670000D02*
X120260000Y-80670000D01*
X122540000Y-86110000D02*
X122870000Y-86110000D01*
X122870000Y-86110000D02*
X122870000Y-80670000D01*
X122870000Y-80670000D02*
X122540000Y-80670000D01*
X119930000Y-85210000D02*
X122870000Y-85210000D01*
X119930000Y-85090000D02*
X122870000Y-85090000D01*
X119930000Y-85330000D02*
X122870000Y-85330000D01*
X186360000Y-85425462D02*
G75*
G03X180810000Y-83880170I-2990000J462D01*
G01*
X186360000Y-85424538D02*
G75*
G02X180810000Y-86969830I-2990000J-462D01*
G01*
X185870000Y-85425000D02*
G75*
G03X185870000Y-85425000I-2500000J0D01*
G01*
X180810000Y-83880000D02*
X180810000Y-86970000D01*
X124190000Y-78270000D02*
X124190000Y-80930000D01*
X129330000Y-78270000D02*
X124190000Y-78270000D01*
X129330000Y-80930000D02*
X124190000Y-80930000D01*
X129330000Y-78270000D02*
X129330000Y-80930000D01*
X130600000Y-78270000D02*
X131930000Y-78270000D01*
X131930000Y-78270000D02*
X131930000Y-79600000D01*
X112460000Y-88540000D02*
X112460000Y-78380000D01*
X111190000Y-88540000D02*
X118810000Y-88540000D01*
X118810000Y-88540000D02*
X118810000Y-78380000D01*
X118810000Y-78380000D02*
X111190000Y-78380000D01*
X111190000Y-78380000D02*
X111190000Y-88540000D01*
X207810000Y-67940000D02*
X207810000Y-57780000D01*
X200190000Y-67940000D02*
X207810000Y-67940000D01*
X200190000Y-57780000D02*
X200190000Y-67940000D01*
X207810000Y-57780000D02*
X200190000Y-57780000D01*
X206540000Y-57780000D02*
X206540000Y-67940000D01*
X206340000Y-74060000D02*
X206340000Y-84220000D01*
X207610000Y-74060000D02*
X199990000Y-74060000D01*
X199990000Y-74060000D02*
X199990000Y-84220000D01*
X199990000Y-84220000D02*
X207610000Y-84220000D01*
X207610000Y-84220000D02*
X207610000Y-74060000D01*
X122330000Y-47695000D02*
X122330000Y-50355000D01*
X124930000Y-47695000D02*
X122330000Y-47695000D01*
X124930000Y-50355000D02*
X122330000Y-50355000D01*
X124930000Y-47695000D02*
X124930000Y-50355000D01*
X126200000Y-47695000D02*
X127530000Y-47695000D01*
X127530000Y-47695000D02*
X127530000Y-49025000D01*
X131670000Y-41670000D02*
X133000000Y-41670000D01*
X131670000Y-43000000D02*
X131670000Y-41670000D01*
X131670000Y-44270000D02*
X134330000Y-44270000D01*
X134330000Y-44270000D02*
X134330000Y-49410000D01*
X131670000Y-44270000D02*
X131670000Y-49410000D01*
X131670000Y-49410000D02*
X134330000Y-49410000D01*
X149070000Y-44630000D02*
X149070000Y-43300000D01*
X150400000Y-44630000D02*
X149070000Y-44630000D01*
X151670000Y-44630000D02*
X151670000Y-41970000D01*
X151670000Y-41970000D02*
X159350000Y-41970000D01*
X151670000Y-44630000D02*
X159350000Y-44630000D01*
X159350000Y-44630000D02*
X159350000Y-41970000D01*
X161670000Y-41970000D02*
X161670000Y-44630000D01*
X169350000Y-41970000D02*
X161670000Y-41970000D01*
X169350000Y-44630000D02*
X161670000Y-44630000D01*
X169350000Y-41970000D02*
X169350000Y-44630000D01*
X170620000Y-41970000D02*
X171950000Y-41970000D01*
X171950000Y-41970000D02*
X171950000Y-43300000D01*
X179400000Y-74000000D02*
X179400000Y-80600000D01*
X179400000Y-65000000D02*
X179400000Y-71600000D01*
X179400000Y-65000000D02*
X199200000Y-65000000D01*
X199200000Y-65000000D02*
X199200000Y-80600000D01*
X199200000Y-80600000D02*
X179400000Y-80600000D01*
X194950000Y-77000000D02*
X194950000Y-74550000D01*
X194950000Y-68600000D02*
X194950000Y-71100000D01*
X184350000Y-78850000D02*
X186850000Y-78850000D01*
X183450000Y-72850000D02*
X182650000Y-72850000D01*
X186850000Y-66850000D02*
X184350000Y-66850000D01*
X190250000Y-72850000D02*
X191750000Y-72850000D01*
X191750000Y-72850000D02*
X196350000Y-70350000D01*
X190250000Y-76450000D02*
X183450000Y-76450000D01*
X190250000Y-72850000D02*
X190250000Y-76450000D01*
X183450000Y-72850000D02*
X183450000Y-76450000D01*
X186850000Y-66850000D02*
X186850000Y-71050000D01*
X186850000Y-74650000D02*
X186850000Y-78850000D01*
X188850000Y-74650000D02*
X184850000Y-71050000D01*
X184850000Y-74650000D02*
X184850000Y-71050000D01*
X184850000Y-71050000D02*
X188850000Y-71050000D01*
X188850000Y-71050000D02*
X188850000Y-74650000D01*
X188850000Y-74650000D02*
X184850000Y-74650000D01*
X188850000Y-56650000D02*
X184850000Y-56650000D01*
X188850000Y-53050000D02*
X188850000Y-56650000D01*
X184850000Y-53050000D02*
X188850000Y-53050000D01*
X184850000Y-56650000D02*
X184850000Y-53050000D01*
X188850000Y-56650000D02*
X184850000Y-53050000D01*
X186850000Y-56650000D02*
X186850000Y-60850000D01*
X186850000Y-48850000D02*
X186850000Y-53050000D01*
X183450000Y-54850000D02*
X183450000Y-58450000D01*
X190250000Y-54850000D02*
X190250000Y-58450000D01*
X190250000Y-58450000D02*
X183450000Y-58450000D01*
X191750000Y-54850000D02*
X196350000Y-52350000D01*
X190250000Y-54850000D02*
X191750000Y-54850000D01*
X186850000Y-48850000D02*
X184350000Y-48850000D01*
X183450000Y-54850000D02*
X182650000Y-54850000D01*
X184350000Y-60850000D02*
X186850000Y-60850000D01*
X194950000Y-50600000D02*
X194950000Y-53100000D01*
X194950000Y-59000000D02*
X194950000Y-56550000D01*
X199200000Y-62600000D02*
X179400000Y-62600000D01*
X199200000Y-47000000D02*
X199200000Y-62600000D01*
X179400000Y-47000000D02*
X199200000Y-47000000D01*
X179400000Y-47000000D02*
X179400000Y-53600000D01*
X179400000Y-56000000D02*
X179400000Y-62600000D01*
X177130000Y-85495000D02*
X173290000Y-85495000D01*
X177130000Y-83655000D02*
X173290000Y-83655000D01*
X154490000Y-77220000D02*
X154490000Y-87460000D01*
X170380000Y-77220000D02*
X170380000Y-87460000D01*
X170380000Y-77220000D02*
X154490000Y-77220000D01*
X170380000Y-87460000D02*
X154490000Y-87460000D01*
X154490000Y-79800000D02*
X151950000Y-79800000D01*
X154490000Y-82340000D02*
X151950000Y-82340000D01*
X154490000Y-84880000D02*
X151950000Y-84880000D01*
X171080000Y-66020000D02*
X171080000Y-69860000D01*
X172920000Y-66020000D02*
X172920000Y-69860000D01*
X172920000Y-47420000D02*
X172920000Y-51260000D01*
X171080000Y-47420000D02*
X171080000Y-51260000D01*
X120720000Y-42370000D02*
X120370000Y-42370000D01*
X120720000Y-41480000D02*
X120720000Y-42370000D01*
X120420000Y-41480000D02*
X120720000Y-41480000D01*
X117780000Y-41480000D02*
X113930000Y-41480000D01*
X113930000Y-41480000D02*
X113930000Y-49220000D01*
X113930000Y-49220000D02*
X117780000Y-49220000D01*
X118170000Y-47840000D02*
X118170000Y-42860000D01*
X120720000Y-48330000D02*
X120720000Y-49220000D01*
X120720000Y-48330000D02*
X120370000Y-48330000D01*
X120420000Y-49220000D02*
X120720000Y-49220000D01*
X147870000Y-61390000D02*
G75*
G02X147870000Y-63390000I0J-1000000D01*
G01*
X147870000Y-63390000D02*
X147870000Y-64640000D01*
X147870000Y-64640000D02*
X168310000Y-64640000D01*
X168310000Y-64640000D02*
X168310000Y-60140000D01*
X168310000Y-60140000D02*
X147870000Y-60140000D01*
X147870000Y-60140000D02*
X147870000Y-61390000D01*
X147810000Y-67640000D02*
X168370000Y-67640000D01*
X168370000Y-67640000D02*
X168370000Y-57140000D01*
X168370000Y-57140000D02*
X147810000Y-57140000D01*
X147810000Y-57140000D02*
X147810000Y-67640000D01*
D11*
X200752380Y-46483333D02*
X201466666Y-46483333D01*
X201609523Y-46530952D01*
X201704761Y-46626190D01*
X201752380Y-46769047D01*
X201752380Y-46864285D01*
X201752380Y-45959523D02*
X201752380Y-45769047D01*
X201704761Y-45673809D01*
X201657142Y-45626190D01*
X201514285Y-45530952D01*
X201323809Y-45483333D01*
X200942857Y-45483333D01*
X200847619Y-45530952D01*
X200800000Y-45578571D01*
X200752380Y-45673809D01*
X200752380Y-45864285D01*
X200800000Y-45959523D01*
X200847619Y-46007142D01*
X200942857Y-46054761D01*
X201180952Y-46054761D01*
X201276190Y-46007142D01*
X201323809Y-45959523D01*
X201371428Y-45864285D01*
X201371428Y-45673809D01*
X201323809Y-45578571D01*
X201276190Y-45530952D01*
X201180952Y-45483333D01*
X122702380Y-45130952D02*
X122702380Y-44511904D01*
X123083333Y-44845238D01*
X123083333Y-44702380D01*
X123130952Y-44607142D01*
X123178571Y-44559523D01*
X123273809Y-44511904D01*
X123511904Y-44511904D01*
X123607142Y-44559523D01*
X123654761Y-44607142D01*
X123702380Y-44702380D01*
X123702380Y-44988095D01*
X123654761Y-45083333D01*
X123607142Y-45130952D01*
X123607142Y-44083333D02*
X123654761Y-44035714D01*
X123702380Y-44083333D01*
X123654761Y-44130952D01*
X123607142Y-44083333D01*
X123702380Y-44083333D01*
X122797619Y-43654761D02*
X122750000Y-43607142D01*
X122702380Y-43511904D01*
X122702380Y-43273809D01*
X122750000Y-43178571D01*
X122797619Y-43130952D01*
X122892857Y-43083333D01*
X122988095Y-43083333D01*
X123130952Y-43130952D01*
X123702380Y-43702380D01*
X123702380Y-43083333D01*
X123702380Y-42654761D02*
X123035714Y-42654761D01*
X123130952Y-42654761D02*
X123083333Y-42607142D01*
X123035714Y-42511904D01*
X123035714Y-42369047D01*
X123083333Y-42273809D01*
X123178571Y-42226190D01*
X123702380Y-42226190D01*
X123178571Y-42226190D02*
X123083333Y-42178571D01*
X123035714Y-42083333D01*
X123035714Y-41940476D01*
X123083333Y-41845238D01*
X123178571Y-41797619D01*
X123702380Y-41797619D01*
X123702380Y-41321428D02*
X123035714Y-41321428D01*
X123130952Y-41321428D02*
X123083333Y-41273809D01*
X123035714Y-41178571D01*
X123035714Y-41035714D01*
X123083333Y-40940476D01*
X123178571Y-40892857D01*
X123702380Y-40892857D01*
X123178571Y-40892857D02*
X123083333Y-40845238D01*
X123035714Y-40750000D01*
X123035714Y-40607142D01*
X123083333Y-40511904D01*
X123178571Y-40464285D01*
X123702380Y-40464285D01*
X127669047Y-88952380D02*
X128288095Y-88952380D01*
X127954761Y-89333333D01*
X128097619Y-89333333D01*
X128192857Y-89380952D01*
X128240476Y-89428571D01*
X128288095Y-89523809D01*
X128288095Y-89761904D01*
X128240476Y-89857142D01*
X128192857Y-89904761D01*
X128097619Y-89952380D01*
X127811904Y-89952380D01*
X127716666Y-89904761D01*
X127669047Y-89857142D01*
X128716666Y-89857142D02*
X128764285Y-89904761D01*
X128716666Y-89952380D01*
X128669047Y-89904761D01*
X128716666Y-89857142D01*
X128716666Y-89952380D01*
X129145238Y-89047619D02*
X129192857Y-89000000D01*
X129288095Y-88952380D01*
X129526190Y-88952380D01*
X129621428Y-89000000D01*
X129669047Y-89047619D01*
X129716666Y-89142857D01*
X129716666Y-89238095D01*
X129669047Y-89380952D01*
X129097619Y-89952380D01*
X129716666Y-89952380D01*
X130145238Y-89952380D02*
X130145238Y-89285714D01*
X130145238Y-89380952D02*
X130192857Y-89333333D01*
X130288095Y-89285714D01*
X130430952Y-89285714D01*
X130526190Y-89333333D01*
X130573809Y-89428571D01*
X130573809Y-89952380D01*
X130573809Y-89428571D02*
X130621428Y-89333333D01*
X130716666Y-89285714D01*
X130859523Y-89285714D01*
X130954761Y-89333333D01*
X131002380Y-89428571D01*
X131002380Y-89952380D01*
X131478571Y-89952380D02*
X131478571Y-89285714D01*
X131478571Y-89380952D02*
X131526190Y-89333333D01*
X131621428Y-89285714D01*
X131764285Y-89285714D01*
X131859523Y-89333333D01*
X131907142Y-89428571D01*
X131907142Y-89952380D01*
X131907142Y-89428571D02*
X131954761Y-89333333D01*
X132050000Y-89285714D01*
X132192857Y-89285714D01*
X132288095Y-89333333D01*
X132335714Y-89428571D01*
X132335714Y-89952380D01*
X193569047Y-40452380D02*
X194188095Y-40452380D01*
X193854761Y-40833333D01*
X193997619Y-40833333D01*
X194092857Y-40880952D01*
X194140476Y-40928571D01*
X194188095Y-41023809D01*
X194188095Y-41261904D01*
X194140476Y-41357142D01*
X194092857Y-41404761D01*
X193997619Y-41452380D01*
X193711904Y-41452380D01*
X193616666Y-41404761D01*
X193569047Y-41357142D01*
X194616666Y-41357142D02*
X194664285Y-41404761D01*
X194616666Y-41452380D01*
X194569047Y-41404761D01*
X194616666Y-41357142D01*
X194616666Y-41452380D01*
X195045238Y-40547619D02*
X195092857Y-40500000D01*
X195188095Y-40452380D01*
X195426190Y-40452380D01*
X195521428Y-40500000D01*
X195569047Y-40547619D01*
X195616666Y-40642857D01*
X195616666Y-40738095D01*
X195569047Y-40880952D01*
X194997619Y-41452380D01*
X195616666Y-41452380D01*
X196045238Y-41452380D02*
X196045238Y-40785714D01*
X196045238Y-40880952D02*
X196092857Y-40833333D01*
X196188095Y-40785714D01*
X196330952Y-40785714D01*
X196426190Y-40833333D01*
X196473809Y-40928571D01*
X196473809Y-41452380D01*
X196473809Y-40928571D02*
X196521428Y-40833333D01*
X196616666Y-40785714D01*
X196759523Y-40785714D01*
X196854761Y-40833333D01*
X196902380Y-40928571D01*
X196902380Y-41452380D01*
X197378571Y-41452380D02*
X197378571Y-40785714D01*
X197378571Y-40880952D02*
X197426190Y-40833333D01*
X197521428Y-40785714D01*
X197664285Y-40785714D01*
X197759523Y-40833333D01*
X197807142Y-40928571D01*
X197807142Y-41452380D01*
X197807142Y-40928571D02*
X197854761Y-40833333D01*
X197950000Y-40785714D01*
X198092857Y-40785714D01*
X198188095Y-40833333D01*
X198235714Y-40928571D01*
X198235714Y-41452380D01*
X188544047Y-82202380D02*
X189163095Y-82202380D01*
X188829761Y-82583333D01*
X188972619Y-82583333D01*
X189067857Y-82630952D01*
X189115476Y-82678571D01*
X189163095Y-82773809D01*
X189163095Y-83011904D01*
X189115476Y-83107142D01*
X189067857Y-83154761D01*
X188972619Y-83202380D01*
X188686904Y-83202380D01*
X188591666Y-83154761D01*
X188544047Y-83107142D01*
X189591666Y-83107142D02*
X189639285Y-83154761D01*
X189591666Y-83202380D01*
X189544047Y-83154761D01*
X189591666Y-83107142D01*
X189591666Y-83202380D01*
X190020238Y-82297619D02*
X190067857Y-82250000D01*
X190163095Y-82202380D01*
X190401190Y-82202380D01*
X190496428Y-82250000D01*
X190544047Y-82297619D01*
X190591666Y-82392857D01*
X190591666Y-82488095D01*
X190544047Y-82630952D01*
X189972619Y-83202380D01*
X190591666Y-83202380D01*
X191020238Y-83202380D02*
X191020238Y-82535714D01*
X191020238Y-82630952D02*
X191067857Y-82583333D01*
X191163095Y-82535714D01*
X191305952Y-82535714D01*
X191401190Y-82583333D01*
X191448809Y-82678571D01*
X191448809Y-83202380D01*
X191448809Y-82678571D02*
X191496428Y-82583333D01*
X191591666Y-82535714D01*
X191734523Y-82535714D01*
X191829761Y-82583333D01*
X191877380Y-82678571D01*
X191877380Y-83202380D01*
X192353571Y-83202380D02*
X192353571Y-82535714D01*
X192353571Y-82630952D02*
X192401190Y-82583333D01*
X192496428Y-82535714D01*
X192639285Y-82535714D01*
X192734523Y-82583333D01*
X192782142Y-82678571D01*
X192782142Y-83202380D01*
X192782142Y-82678571D02*
X192829761Y-82583333D01*
X192925000Y-82535714D01*
X193067857Y-82535714D01*
X193163095Y-82583333D01*
X193210714Y-82678571D01*
X193210714Y-83202380D01*
X112902380Y-74236904D02*
X113711904Y-74236904D01*
X113807142Y-74189285D01*
X113854761Y-74141666D01*
X113902380Y-74046428D01*
X113902380Y-73855952D01*
X113854761Y-73760714D01*
X113807142Y-73713095D01*
X113711904Y-73665476D01*
X112902380Y-73665476D01*
X113902380Y-72665476D02*
X113902380Y-73236904D01*
X113902380Y-72951190D02*
X112902380Y-72951190D01*
X113045238Y-73046428D01*
X113140476Y-73141666D01*
X113188095Y-73236904D01*
X145133333Y-89557142D02*
X145085714Y-89604761D01*
X144942857Y-89652380D01*
X144847619Y-89652380D01*
X144704761Y-89604761D01*
X144609523Y-89509523D01*
X144561904Y-89414285D01*
X144514285Y-89223809D01*
X144514285Y-89080952D01*
X144561904Y-88890476D01*
X144609523Y-88795238D01*
X144704761Y-88700000D01*
X144847619Y-88652380D01*
X144942857Y-88652380D01*
X145085714Y-88700000D01*
X145133333Y-88747619D01*
X145514285Y-88747619D02*
X145561904Y-88700000D01*
X145657142Y-88652380D01*
X145895238Y-88652380D01*
X145990476Y-88700000D01*
X146038095Y-88747619D01*
X146085714Y-88842857D01*
X146085714Y-88938095D01*
X146038095Y-89080952D01*
X145466666Y-89652380D01*
X146085714Y-89652380D01*
X138908333Y-81432142D02*
X138860714Y-81479761D01*
X138717857Y-81527380D01*
X138622619Y-81527380D01*
X138479761Y-81479761D01*
X138384523Y-81384523D01*
X138336904Y-81289285D01*
X138289285Y-81098809D01*
X138289285Y-80955952D01*
X138336904Y-80765476D01*
X138384523Y-80670238D01*
X138479761Y-80575000D01*
X138622619Y-80527380D01*
X138717857Y-80527380D01*
X138860714Y-80575000D01*
X138908333Y-80622619D01*
X139860714Y-81527380D02*
X139289285Y-81527380D01*
X139575000Y-81527380D02*
X139575000Y-80527380D01*
X139479761Y-80670238D01*
X139384523Y-80765476D01*
X139289285Y-80813095D01*
X165533333Y-76207142D02*
X165485714Y-76254761D01*
X165342857Y-76302380D01*
X165247619Y-76302380D01*
X165104761Y-76254761D01*
X165009523Y-76159523D01*
X164961904Y-76064285D01*
X164914285Y-75873809D01*
X164914285Y-75730952D01*
X164961904Y-75540476D01*
X165009523Y-75445238D01*
X165104761Y-75350000D01*
X165247619Y-75302380D01*
X165342857Y-75302380D01*
X165485714Y-75350000D01*
X165533333Y-75397619D01*
X165866666Y-75302380D02*
X166485714Y-75302380D01*
X166152380Y-75683333D01*
X166295238Y-75683333D01*
X166390476Y-75730952D01*
X166438095Y-75778571D01*
X166485714Y-75873809D01*
X166485714Y-76111904D01*
X166438095Y-76207142D01*
X166390476Y-76254761D01*
X166295238Y-76302380D01*
X166009523Y-76302380D01*
X165914285Y-76254761D01*
X165866666Y-76207142D01*
X178627380Y-71763095D02*
X177627380Y-71763095D01*
X177627380Y-71525000D01*
X177675000Y-71382142D01*
X177770238Y-71286904D01*
X177865476Y-71239285D01*
X178055952Y-71191666D01*
X178198809Y-71191666D01*
X178389285Y-71239285D01*
X178484523Y-71286904D01*
X178579761Y-71382142D01*
X178627380Y-71525000D01*
X178627380Y-71763095D01*
X178627380Y-70239285D02*
X178627380Y-70810714D01*
X178627380Y-70525000D02*
X177627380Y-70525000D01*
X177770238Y-70620238D01*
X177865476Y-70715476D01*
X177913095Y-70810714D01*
X176252380Y-69986904D02*
X175252380Y-69986904D01*
X176252380Y-69415476D02*
X175680952Y-69844047D01*
X175252380Y-69415476D02*
X175823809Y-69986904D01*
X174291904Y-78695760D02*
X174291904Y-77695760D01*
X174530000Y-77695760D01*
X174672857Y-77743380D01*
X174768095Y-77838618D01*
X174815714Y-77933856D01*
X174863333Y-78124332D01*
X174863333Y-78267189D01*
X174815714Y-78457665D01*
X174768095Y-78552903D01*
X174672857Y-78648141D01*
X174530000Y-78695760D01*
X174291904Y-78695760D01*
X175244285Y-77790999D02*
X175291904Y-77743380D01*
X175387142Y-77695760D01*
X175625238Y-77695760D01*
X175720476Y-77743380D01*
X175768095Y-77790999D01*
X175815714Y-77886237D01*
X175815714Y-77981475D01*
X175768095Y-78124332D01*
X175196666Y-78695760D01*
X175815714Y-78695760D01*
X177086904Y-56402380D02*
X177086904Y-55402380D01*
X177325000Y-55402380D01*
X177467857Y-55450000D01*
X177563095Y-55545238D01*
X177610714Y-55640476D01*
X177658333Y-55830952D01*
X177658333Y-55973809D01*
X177610714Y-56164285D01*
X177563095Y-56259523D01*
X177467857Y-56354761D01*
X177325000Y-56402380D01*
X177086904Y-56402380D01*
X177991666Y-55402380D02*
X178610714Y-55402380D01*
X178277380Y-55783333D01*
X178420238Y-55783333D01*
X178515476Y-55830952D01*
X178563095Y-55878571D01*
X178610714Y-55973809D01*
X178610714Y-56211904D01*
X178563095Y-56307142D01*
X178515476Y-56354761D01*
X178420238Y-56402380D01*
X178134523Y-56402380D01*
X178039285Y-56354761D01*
X177991666Y-56307142D01*
X178802380Y-48438095D02*
X177802380Y-48438095D01*
X177802380Y-48200000D01*
X177850000Y-48057142D01*
X177945238Y-47961904D01*
X178040476Y-47914285D01*
X178230952Y-47866666D01*
X178373809Y-47866666D01*
X178564285Y-47914285D01*
X178659523Y-47961904D01*
X178754761Y-48057142D01*
X178802380Y-48200000D01*
X178802380Y-48438095D01*
X178135714Y-47009523D02*
X178802380Y-47009523D01*
X177754761Y-47247619D02*
X178469047Y-47485714D01*
X178469047Y-46866666D01*
X175688095Y-50077380D02*
X175688095Y-49077380D01*
X176259523Y-50077380D02*
X175830952Y-49505952D01*
X176259523Y-49077380D02*
X175688095Y-49648809D01*
X123186904Y-83727380D02*
X123186904Y-82727380D01*
X123425000Y-82727380D01*
X123567857Y-82775000D01*
X123663095Y-82870238D01*
X123710714Y-82965476D01*
X123758333Y-83155952D01*
X123758333Y-83298809D01*
X123710714Y-83489285D01*
X123663095Y-83584523D01*
X123567857Y-83679761D01*
X123425000Y-83727380D01*
X123186904Y-83727380D01*
X124663095Y-82727380D02*
X124186904Y-82727380D01*
X124139285Y-83203571D01*
X124186904Y-83155952D01*
X124282142Y-83108333D01*
X124520238Y-83108333D01*
X124615476Y-83155952D01*
X124663095Y-83203571D01*
X124710714Y-83298809D01*
X124710714Y-83536904D01*
X124663095Y-83632142D01*
X124615476Y-83679761D01*
X124520238Y-83727380D01*
X124282142Y-83727380D01*
X124186904Y-83679761D01*
X124139285Y-83632142D01*
X122202380Y-84111904D02*
X121202380Y-84111904D01*
X122202380Y-83540476D02*
X121630952Y-83969047D01*
X121202380Y-83540476D02*
X121773809Y-84111904D01*
X179461904Y-82452380D02*
X179461904Y-81452380D01*
X179700000Y-81452380D01*
X179842857Y-81500000D01*
X179938095Y-81595238D01*
X179985714Y-81690476D01*
X180033333Y-81880952D01*
X180033333Y-82023809D01*
X179985714Y-82214285D01*
X179938095Y-82309523D01*
X179842857Y-82404761D01*
X179700000Y-82452380D01*
X179461904Y-82452380D01*
X180890476Y-81452380D02*
X180700000Y-81452380D01*
X180604761Y-81500000D01*
X180557142Y-81547619D01*
X180461904Y-81690476D01*
X180414285Y-81880952D01*
X180414285Y-82261904D01*
X180461904Y-82357142D01*
X180509523Y-82404761D01*
X180604761Y-82452380D01*
X180795238Y-82452380D01*
X180890476Y-82404761D01*
X180938095Y-82357142D01*
X180985714Y-82261904D01*
X180985714Y-82023809D01*
X180938095Y-81928571D01*
X180890476Y-81880952D01*
X180795238Y-81833333D01*
X180604761Y-81833333D01*
X180509523Y-81880952D01*
X180461904Y-81928571D01*
X180414285Y-82023809D01*
X132941666Y-79102380D02*
X132941666Y-79816666D01*
X132894047Y-79959523D01*
X132798809Y-80054761D01*
X132655952Y-80102380D01*
X132560714Y-80102380D01*
X133941666Y-80102380D02*
X133370238Y-80102380D01*
X133655952Y-80102380D02*
X133655952Y-79102380D01*
X133560714Y-79245238D01*
X133465476Y-79340476D01*
X133370238Y-79388095D01*
X111966666Y-88852380D02*
X111966666Y-89566666D01*
X111919047Y-89709523D01*
X111823809Y-89804761D01*
X111680952Y-89852380D01*
X111585714Y-89852380D01*
X112395238Y-88947619D02*
X112442857Y-88900000D01*
X112538095Y-88852380D01*
X112776190Y-88852380D01*
X112871428Y-88900000D01*
X112919047Y-88947619D01*
X112966666Y-89042857D01*
X112966666Y-89138095D01*
X112919047Y-89280952D01*
X112347619Y-89852380D01*
X112966666Y-89852380D01*
X200352380Y-69408333D02*
X201066666Y-69408333D01*
X201209523Y-69455952D01*
X201304761Y-69551190D01*
X201352380Y-69694047D01*
X201352380Y-69789285D01*
X200352380Y-69027380D02*
X200352380Y-68408333D01*
X200733333Y-68741666D01*
X200733333Y-68598809D01*
X200780952Y-68503571D01*
X200828571Y-68455952D01*
X200923809Y-68408333D01*
X201161904Y-68408333D01*
X201257142Y-68455952D01*
X201304761Y-68503571D01*
X201352380Y-68598809D01*
X201352380Y-68884523D01*
X201304761Y-68979761D01*
X201257142Y-69027380D01*
X199952380Y-85558333D02*
X200666666Y-85558333D01*
X200809523Y-85605952D01*
X200904761Y-85701190D01*
X200952380Y-85844047D01*
X200952380Y-85939285D01*
X200285714Y-84653571D02*
X200952380Y-84653571D01*
X199904761Y-84891666D02*
X200619047Y-85129761D01*
X200619047Y-84510714D01*
X128341666Y-48577380D02*
X128341666Y-49291666D01*
X128294047Y-49434523D01*
X128198809Y-49529761D01*
X128055952Y-49577380D01*
X127960714Y-49577380D01*
X129294047Y-48577380D02*
X128817857Y-48577380D01*
X128770238Y-49053571D01*
X128817857Y-49005952D01*
X128913095Y-48958333D01*
X129151190Y-48958333D01*
X129246428Y-49005952D01*
X129294047Y-49053571D01*
X129341666Y-49148809D01*
X129341666Y-49386904D01*
X129294047Y-49482142D01*
X129246428Y-49529761D01*
X129151190Y-49577380D01*
X128913095Y-49577380D01*
X128817857Y-49529761D01*
X128770238Y-49482142D01*
X130466666Y-41602380D02*
X130466666Y-42316666D01*
X130419047Y-42459523D01*
X130323809Y-42554761D01*
X130180952Y-42602380D01*
X130085714Y-42602380D01*
X131371428Y-41602380D02*
X131180952Y-41602380D01*
X131085714Y-41650000D01*
X131038095Y-41697619D01*
X130942857Y-41840476D01*
X130895238Y-42030952D01*
X130895238Y-42411904D01*
X130942857Y-42507142D01*
X130990476Y-42554761D01*
X131085714Y-42602380D01*
X131276190Y-42602380D01*
X131371428Y-42554761D01*
X131419047Y-42507142D01*
X131466666Y-42411904D01*
X131466666Y-42173809D01*
X131419047Y-42078571D01*
X131371428Y-42030952D01*
X131276190Y-41983333D01*
X131085714Y-41983333D01*
X130990476Y-42030952D01*
X130942857Y-42078571D01*
X130895238Y-42173809D01*
X147316666Y-42502380D02*
X147316666Y-43216666D01*
X147269047Y-43359523D01*
X147173809Y-43454761D01*
X147030952Y-43502380D01*
X146935714Y-43502380D01*
X147697619Y-42502380D02*
X148364285Y-42502380D01*
X147935714Y-43502380D01*
X172991666Y-42302380D02*
X172991666Y-43016666D01*
X172944047Y-43159523D01*
X172848809Y-43254761D01*
X172705952Y-43302380D01*
X172610714Y-43302380D01*
X173610714Y-42730952D02*
X173515476Y-42683333D01*
X173467857Y-42635714D01*
X173420238Y-42540476D01*
X173420238Y-42492857D01*
X173467857Y-42397619D01*
X173515476Y-42350000D01*
X173610714Y-42302380D01*
X173801190Y-42302380D01*
X173896428Y-42350000D01*
X173944047Y-42397619D01*
X173991666Y-42492857D01*
X173991666Y-42540476D01*
X173944047Y-42635714D01*
X173896428Y-42683333D01*
X173801190Y-42730952D01*
X173610714Y-42730952D01*
X173515476Y-42778571D01*
X173467857Y-42826190D01*
X173420238Y-42921428D01*
X173420238Y-43111904D01*
X173467857Y-43207142D01*
X173515476Y-43254761D01*
X173610714Y-43302380D01*
X173801190Y-43302380D01*
X173896428Y-43254761D01*
X173944047Y-43207142D01*
X173991666Y-43111904D01*
X173991666Y-42921428D01*
X173944047Y-42826190D01*
X173896428Y-42778571D01*
X173801190Y-42730952D01*
X196461904Y-81927380D02*
X196461904Y-80927380D01*
X197033333Y-81927380D02*
X196604761Y-81355952D01*
X197033333Y-80927380D02*
X196461904Y-81498809D01*
X197985714Y-81927380D02*
X197414285Y-81927380D01*
X197700000Y-81927380D02*
X197700000Y-80927380D01*
X197604761Y-81070238D01*
X197509523Y-81165476D01*
X197414285Y-81213095D01*
X185186904Y-46602380D02*
X185186904Y-45602380D01*
X185758333Y-46602380D02*
X185329761Y-46030952D01*
X185758333Y-45602380D02*
X185186904Y-46173809D01*
X186139285Y-45697619D02*
X186186904Y-45650000D01*
X186282142Y-45602380D01*
X186520238Y-45602380D01*
X186615476Y-45650000D01*
X186663095Y-45697619D01*
X186710714Y-45792857D01*
X186710714Y-45888095D01*
X186663095Y-46030952D01*
X186091666Y-46602380D01*
X186710714Y-46602380D01*
X177133333Y-83252380D02*
X176800000Y-82776190D01*
X176561904Y-83252380D02*
X176561904Y-82252380D01*
X176942857Y-82252380D01*
X177038095Y-82300000D01*
X177085714Y-82347619D01*
X177133333Y-82442857D01*
X177133333Y-82585714D01*
X177085714Y-82680952D01*
X177038095Y-82728571D01*
X176942857Y-82776190D01*
X176561904Y-82776190D01*
X178085714Y-83252380D02*
X177514285Y-83252380D01*
X177800000Y-83252380D02*
X177800000Y-82252380D01*
X177704761Y-82395238D01*
X177609523Y-82490476D01*
X177514285Y-82538095D01*
X170832380Y-83101904D02*
X171641904Y-83101904D01*
X171737142Y-83054285D01*
X171784761Y-83006666D01*
X171832380Y-82911428D01*
X171832380Y-82720952D01*
X171784761Y-82625714D01*
X171737142Y-82578095D01*
X171641904Y-82530476D01*
X170832380Y-82530476D01*
X170832380Y-82149523D02*
X170832380Y-81530476D01*
X171213333Y-81863809D01*
X171213333Y-81720952D01*
X171260952Y-81625714D01*
X171308571Y-81578095D01*
X171403809Y-81530476D01*
X171641904Y-81530476D01*
X171737142Y-81578095D01*
X171784761Y-81625714D01*
X171832380Y-81720952D01*
X171832380Y-82006666D01*
X171784761Y-82101904D01*
X171737142Y-82149523D01*
X172252380Y-63566666D02*
X171776190Y-63900000D01*
X172252380Y-64138095D02*
X171252380Y-64138095D01*
X171252380Y-63757142D01*
X171300000Y-63661904D01*
X171347619Y-63614285D01*
X171442857Y-63566666D01*
X171585714Y-63566666D01*
X171680952Y-63614285D01*
X171728571Y-63661904D01*
X171776190Y-63757142D01*
X171776190Y-64138095D01*
X171347619Y-63185714D02*
X171300000Y-63138095D01*
X171252380Y-63042857D01*
X171252380Y-62804761D01*
X171300000Y-62709523D01*
X171347619Y-62661904D01*
X171442857Y-62614285D01*
X171538095Y-62614285D01*
X171680952Y-62661904D01*
X172252380Y-63233333D01*
X172252380Y-62614285D01*
X170352380Y-49816666D02*
X169876190Y-50150000D01*
X170352380Y-50388095D02*
X169352380Y-50388095D01*
X169352380Y-50007142D01*
X169400000Y-49911904D01*
X169447619Y-49864285D01*
X169542857Y-49816666D01*
X169685714Y-49816666D01*
X169780952Y-49864285D01*
X169828571Y-49911904D01*
X169876190Y-50007142D01*
X169876190Y-50388095D01*
X169352380Y-49483333D02*
X169352380Y-48864285D01*
X169733333Y-49197619D01*
X169733333Y-49054761D01*
X169780952Y-48959523D01*
X169828571Y-48911904D01*
X169923809Y-48864285D01*
X170161904Y-48864285D01*
X170257142Y-48911904D01*
X170304761Y-48959523D01*
X170352380Y-49054761D01*
X170352380Y-49340476D01*
X170304761Y-49435714D01*
X170257142Y-49483333D01*
X119552380Y-46802380D02*
X119076190Y-47135714D01*
X119552380Y-47373809D02*
X118552380Y-47373809D01*
X118552380Y-46992857D01*
X118600000Y-46897619D01*
X118647619Y-46850000D01*
X118742857Y-46802380D01*
X118885714Y-46802380D01*
X118980952Y-46850000D01*
X119028571Y-46897619D01*
X119076190Y-46992857D01*
X119076190Y-47373809D01*
X119028571Y-46373809D02*
X119028571Y-46040476D01*
X119552380Y-45897619D02*
X119552380Y-46373809D01*
X118552380Y-46373809D01*
X118552380Y-45897619D01*
X119504761Y-45516666D02*
X119552380Y-45373809D01*
X119552380Y-45135714D01*
X119504761Y-45040476D01*
X119457142Y-44992857D01*
X119361904Y-44945238D01*
X119266666Y-44945238D01*
X119171428Y-44992857D01*
X119123809Y-45040476D01*
X119076190Y-45135714D01*
X119028571Y-45326190D01*
X118980952Y-45421428D01*
X118933333Y-45469047D01*
X118838095Y-45516666D01*
X118742857Y-45516666D01*
X118647619Y-45469047D01*
X118600000Y-45421428D01*
X118552380Y-45326190D01*
X118552380Y-45088095D01*
X118600000Y-44945238D01*
X119028571Y-44516666D02*
X119028571Y-44183333D01*
X119552380Y-44040476D02*
X119552380Y-44516666D01*
X118552380Y-44516666D01*
X118552380Y-44040476D01*
X118552380Y-43754761D02*
X118552380Y-43183333D01*
X119552380Y-43469047D02*
X118552380Y-43469047D01*
X146322380Y-63151904D02*
X147131904Y-63151904D01*
X147227142Y-63104285D01*
X147274761Y-63056666D01*
X147322380Y-62961428D01*
X147322380Y-62770952D01*
X147274761Y-62675714D01*
X147227142Y-62628095D01*
X147131904Y-62580476D01*
X146322380Y-62580476D01*
X146417619Y-62151904D02*
X146370000Y-62104285D01*
X146322380Y-62009047D01*
X146322380Y-61770952D01*
X146370000Y-61675714D01*
X146417619Y-61628095D01*
X146512857Y-61580476D01*
X146608095Y-61580476D01*
X146750952Y-61628095D01*
X147322380Y-62199523D01*
X147322380Y-61580476D01*
M02*
