M48
; DRILL file {KiCad 5.1.5-1.fc31} date vie 07 feb 2020 15:13:32 -03
; FORMAT={-:-/ absolute / inch / decimal}
; #@! TF.CreationDate,2020-02-07T15:13:32-03:00
; #@! TF.GenerationSoftware,Kicad,Pcbnew,5.1.5-1.fc31
; #@! TF.FileFunction,NonPlated,1,2,NPTH
FMAT,2
INCH
T1C0.1378
%
G90
G05
T1
X6.5929Y-3.2417
T0
M30
