G04 #@! TF.GenerationSoftware,KiCad,Pcbnew,5.1.5-1.fc31*
G04 #@! TF.CreationDate,2020-04-25T20:35:05-03:00*
G04 #@! TF.ProjectId,lacerar_wemos,6c616365-7261-4725-9f77-656d6f732e6b,rev?*
G04 #@! TF.SameCoordinates,Original*
G04 #@! TF.FileFunction,Copper,L1,Top*
G04 #@! TF.FilePolarity,Positive*
%FSLAX46Y46*%
G04 Gerber Fmt 4.6, Leading zero omitted, Abs format (unit mm)*
G04 Created by KiCad (PCBNEW 5.1.5-1.fc31) date 2020-04-25 20:35:05*
%MOMM*%
%LPD*%
G04 APERTURE LIST*
%ADD10C,1.400000*%
%ADD11O,1.400000X1.400000*%
%ADD12C,3.000000*%
%ADD13R,3.000000X3.000000*%
%ADD14O,1.800000X1.800000*%
%ADD15R,1.800000X1.800000*%
%ADD16C,2.500000*%
%ADD17O,1.700000X1.700000*%
%ADD18R,1.700000X1.700000*%
%ADD19C,1.800000*%
%ADD20C,1.600000*%
%ADD21R,1.600000X1.600000*%
%ADD22R,2.000000X1.905000*%
%ADD23O,2.000000X1.905000*%
%ADD24R,1.600000X2.400000*%
%ADD25O,1.600000X2.400000*%
%ADD26O,1.600000X2.000000*%
%ADD27R,2.000000X2.000000*%
%ADD28C,2.000000*%
%ADD29C,0.850000*%
G04 APERTURE END LIST*
D10*
X171958000Y-56388000D03*
D11*
X171958000Y-51308000D03*
D12*
X203962000Y-80518000D03*
D13*
X203962000Y-85598000D03*
D14*
X175966000Y-74913000D03*
D15*
X175966000Y-67293000D03*
D12*
X180594000Y-64008000D03*
D16*
X182544000Y-58058000D03*
D12*
X194794000Y-58008000D03*
X194744000Y-70058000D03*
D16*
X182544000Y-70058000D03*
D17*
X149620000Y-85950000D03*
X152160000Y-85950000D03*
X154700000Y-85950000D03*
D18*
X157240000Y-85950000D03*
X135420000Y-79920000D03*
D17*
X137960000Y-79920000D03*
D15*
X176036000Y-49348000D03*
D14*
X176036000Y-56968000D03*
D15*
X203962000Y-43688000D03*
D19*
X206502000Y-43688000D03*
D15*
X176466000Y-79793000D03*
D19*
X173926000Y-79793000D03*
D12*
X203962000Y-70104000D03*
D13*
X203962000Y-75184000D03*
D19*
X173626000Y-62093000D03*
D15*
X176166000Y-62093000D03*
D20*
X191770000Y-43942000D03*
X196770000Y-43942000D03*
D16*
X182544000Y-86568000D03*
D12*
X194744000Y-86568000D03*
X194794000Y-74518000D03*
D16*
X182544000Y-74568000D03*
D12*
X180594000Y-80518000D03*
D21*
X191516000Y-51562000D03*
D20*
X194016000Y-51562000D03*
D22*
X127254000Y-42926000D03*
D23*
X127254000Y-45466000D03*
X127254000Y-48006000D03*
D13*
X203962000Y-55880000D03*
D12*
X203962000Y-50800000D03*
D15*
X122936000Y-41402000D03*
D14*
X122936000Y-49022000D03*
D18*
X164592000Y-86106000D03*
D17*
X167132000Y-86106000D03*
X169672000Y-86106000D03*
X172212000Y-86106000D03*
D20*
X185380000Y-46482000D03*
D21*
X182880000Y-46482000D03*
D24*
X166420000Y-67230000D03*
D25*
X148640000Y-74850000D03*
X163880000Y-67230000D03*
X151180000Y-74850000D03*
X161340000Y-67230000D03*
X153720000Y-74850000D03*
X158800000Y-67230000D03*
X156260000Y-74850000D03*
X156260000Y-67230000D03*
X158800000Y-74850000D03*
X153720000Y-67230000D03*
X161340000Y-74850000D03*
X151180000Y-67230000D03*
X163880000Y-74850000D03*
X148640000Y-67230000D03*
X166420000Y-74850000D03*
D13*
X116586000Y-42926000D03*
D12*
X116586000Y-48006000D03*
D18*
X171958000Y-43434000D03*
D17*
X174498000Y-43434000D03*
X177038000Y-43434000D03*
D10*
X201676000Y-46736000D03*
D11*
X196596000Y-46736000D03*
X171958000Y-69342000D03*
D10*
X171958000Y-74422000D03*
D17*
X129794000Y-80010000D03*
X127254000Y-80010000D03*
D18*
X124714000Y-80010000D03*
D26*
X134785000Y-52850000D03*
D27*
X137325000Y-52850000D03*
D26*
X132245000Y-52850000D03*
X129705000Y-52850000D03*
X127165000Y-52850000D03*
X124625000Y-52850000D03*
X122085000Y-52850000D03*
X119545000Y-52850000D03*
X119545000Y-75710000D03*
X122085000Y-75710000D03*
X124625000Y-75710000D03*
X127165000Y-75710000D03*
X129705000Y-75710000D03*
X132245000Y-75710000D03*
X134785000Y-75710000D03*
X137325000Y-75710000D03*
D28*
X166878000Y-42998000D03*
X166878000Y-47498000D03*
X160378000Y-42998000D03*
X160378000Y-47498000D03*
X124720000Y-82940000D03*
X124614990Y-86915010D03*
X124720000Y-82940000D03*
X124614990Y-86915010D03*
D29*
X124720000Y-86810000D02*
X124614990Y-86915010D01*
X124720000Y-82940000D02*
X124720000Y-86810000D01*
M02*
