M48
; DRILL file {KiCad 5.1.5-1.fc31} date sáb 25 abr 2020 20:28:54 -03
; FORMAT={-:-/ absolute / metric / decimal}
; #@! TF.CreationDate,2020-04-25T20:28:54-03:00
; #@! TF.GenerationSoftware,Kicad,Pcbnew,5.1.5-1.fc31
FMAT,2
METRIC
T1C0.500
T2C0.700
T3C0.800
T4C0.900
T5C1.000
T6C1.100
T7C1.300
T8C1.520
T9C2.100
T10C3.500
%
G90
G05
T1
X124.615Y-86.915
X124.615Y-86.915
X124.72Y-82.94
X124.72Y-82.94
T2
X171.958Y-51.308
X171.958Y-56.388
X171.958Y-69.342
X171.958Y-74.422
X196.596Y-46.736
X201.676Y-46.736
T3
X191.516Y-51.562
X194.016Y-51.562
X182.88Y-46.482
X185.38Y-46.482
X148.64Y-67.23
X148.64Y-74.85
X151.18Y-67.23
X151.18Y-74.85
X153.72Y-67.23
X153.72Y-74.85
X156.26Y-67.23
X156.26Y-74.85
X158.8Y-67.23
X158.8Y-74.85
X161.34Y-67.23
X161.34Y-74.85
X163.88Y-67.23
X163.88Y-74.85
X166.42Y-67.23
X166.42Y-74.85
X191.77Y-43.942
X196.77Y-43.942
T4
X173.926Y-79.793
X176.466Y-79.793
X122.936Y-41.402
X122.936Y-49.022
X173.626Y-62.093
X176.166Y-62.093
X175.966Y-67.293
X175.966Y-74.913
X203.962Y-43.688
X206.502Y-43.688
X176.036Y-49.348
X176.036Y-56.968
T5
X149.62Y-85.95
X152.16Y-85.95
X154.7Y-85.95
X157.24Y-85.95
X182.544Y-58.058
X182.544Y-70.058
X135.42Y-79.92
X137.96Y-79.92
X124.714Y-80.01
X127.254Y-80.01
X129.794Y-80.01
X182.544Y-74.568
X182.544Y-86.568
X164.592Y-86.106
X167.132Y-86.106
X169.672Y-86.106
X172.212Y-86.106
X119.545Y-52.85
X119.545Y-75.71
X122.085Y-52.85
X122.085Y-75.71
X124.625Y-52.85
X124.625Y-75.71
X127.165Y-52.85
X127.165Y-75.71
X129.705Y-52.85
X129.705Y-75.71
X132.245Y-52.85
X132.245Y-75.71
X134.785Y-52.85
X134.785Y-75.71
X137.325Y-52.85
X137.325Y-75.71
X171.958Y-43.434
X174.498Y-43.434
X177.038Y-43.434
T6
X127.254Y-42.926
X127.254Y-45.466
X127.254Y-48.006
X160.378Y-42.998
X160.378Y-47.498
X166.878Y-42.998
X166.878Y-47.498
T7
X180.594Y-64.008
X194.744Y-70.058
X194.794Y-58.008
X180.594Y-80.518
X194.744Y-86.568
X194.794Y-74.518
T8
X203.962Y-50.8
X203.962Y-55.88
X203.962Y-80.518
X203.962Y-85.598
X203.962Y-70.104
X203.962Y-75.184
X116.586Y-42.926
X116.586Y-48.006
T9
X166.14Y-60.16
X153.33Y-79.73
X117.31Y-85.02
X117.14Y-60.19
X203.59Y-63.06
T10
X143.914Y-45.466
T0
M30
