digraph "classes" {
charset="utf-8"
rankdir=BT
"0" [label="{ANALOGICO|\l|leer()\l}", shape="record"];
"1" [label="{ARDUINO|Rele_1\lRele_2\lRele_3\lRele_4\l|}", shape="record"];
"2" [label="{BASE_HARDWARE|\l|cerrar()\liniciar(puerto)\lpuerto(arg1)\l}", shape="record"];
"3" [label="{CDC|\l|cerrar()\lenviar(cadena_caracter)\liniciar()\lpuerto(arg1)\l}", shape="record"];
"4" [label="{CDC|\l|cerrar()\lenviar(cadena_caracter)\liniciar()\lpuerto(arg1)\l}", shape="record"];
"5" [label="{ESP12F|Analogico\lHumedad\lRele_1\lRele_2\ltemperatura\l|}", shape="record"];
"6" [label="{HTML|\l|cerrar()\lenviar(arg1)\liniciar()\lparseador_tabla(arg)\lpuerto(arg)\l}", shape="record"];
"7" [label="{HUMEDAD|\l|leer()\l}", shape="record"];
"8" [label="{LCD|\l|borrar()\lescribir(arg1)\l}", shape="record"];
"9" [label="{PARSER|\l|recibir(arg1)\l}", shape="record"];
"10" [label="{PIC18F4550|Analogico_1\lRele_1\lRele_2\lRele_3\lRele_4\llcd\l|}", shape="record"];
"11" [label="{RELE|\l|conmutar()\lestado()\loff()\lon()\l}", shape="record"];
"12" [label="{ROBOT|hardware : NoneType\l|}", shape="record"];
"13" [label="{TEMPERATURA|\l|leer()\l}", shape="record"];
"1" -> "2" [arrowhead="empty", arrowtail="none"];
"5" -> "2" [arrowhead="empty", arrowtail="none"];
"10" -> "2" [arrowhead="empty", arrowtail="none"];
"0" -> "5" [arrowhead="diamond", arrowtail="none", fontcolor="green", label="Analogico", style="solid"];
"0" -> "10" [arrowhead="diamond", arrowtail="none", fontcolor="green", label="Analogico_1", style="solid"];
"1" -> "12" [arrowhead="diamond", arrowtail="none", fontcolor="green", label="hardware", style="solid"];
"3" -> "2" [arrowhead="diamond", arrowtail="none", fontcolor="green", label="__comunicacion", style="solid"];
"4" -> "2" [arrowhead="diamond", arrowtail="none", fontcolor="green", label="__comunicacion", style="solid"];
"5" -> "12" [arrowhead="diamond", arrowtail="none", fontcolor="green", label="hardware", style="solid"];
"6" -> "2" [arrowhead="diamond", arrowtail="none", fontcolor="green", label="__comunicacion", style="solid"];
"7" -> "5" [arrowhead="diamond", arrowtail="none", fontcolor="green", label="Humedad", style="solid"];
"8" -> "10" [arrowhead="diamond", arrowtail="none", fontcolor="green", label="lcd", style="solid"];
"10" -> "12" [arrowhead="diamond", arrowtail="none", fontcolor="green", label="hardware", style="solid"];
"11" -> "1" [arrowhead="diamond", arrowtail="none", fontcolor="green", label="Rele_1", style="solid"];
"11" -> "1" [arrowhead="diamond", arrowtail="none", fontcolor="green", label="Rele_2", style="solid"];
"11" -> "1" [arrowhead="diamond", arrowtail="none", fontcolor="green", label="Rele_3", style="solid"];
"11" -> "1" [arrowhead="diamond", arrowtail="none", fontcolor="green", label="Rele_4", style="solid"];
"11" -> "5" [arrowhead="diamond", arrowtail="none", fontcolor="green", label="Rele_1", style="solid"];
"11" -> "5" [arrowhead="diamond", arrowtail="none", fontcolor="green", label="Rele_2", style="solid"];
"11" -> "10" [arrowhead="diamond", arrowtail="none", fontcolor="green", label="Rele_1", style="solid"];
"11" -> "10" [arrowhead="diamond", arrowtail="none", fontcolor="green", label="Rele_2", style="solid"];
"11" -> "10" [arrowhead="diamond", arrowtail="none", fontcolor="green", label="Rele_3", style="solid"];
"11" -> "10" [arrowhead="diamond", arrowtail="none", fontcolor="green", label="Rele_4", style="solid"];
"13" -> "5" [arrowhead="diamond", arrowtail="none", fontcolor="green", label="temperatura", style="solid"];
}
