\relax 
\providecommand\hyper@newdestlabel[2]{}
\@writefile{toc}{\contentsline {chapter}{\numberline {F}Anexo SATURAR}{397}{appendix.Alph6}\protected@file@percent }
\@writefile{lof}{\addvspace {10\p@ }}
\@writefile{lot}{\addvspace {10\p@ }}
\@writefile{lof}{\contentsline {figure}{\numberline {F.1}{\ignorespaces Grafico de modelo entidad relación (MER) de la base de datos de SATURAR\relax }}{397}{figure.caption.605}\protected@file@percent }
\newlabel{mer}{{F.1}{397}{Grafico de modelo entidad relación (MER) de la base de datos de SATURAR\relax }{figure.caption.605}{}}
\@setckpt{./anexos/anexo_saturar}{
\setcounter{page}{398}
\setcounter{equation}{0}
\setcounter{enumi}{7}
\setcounter{enumii}{0}
\setcounter{enumiii}{0}
\setcounter{enumiv}{0}
\setcounter{footnote}{0}
\setcounter{mpfootnote}{1}
\setcounter{part}{0}
\setcounter{chapter}{6}
\setcounter{section}{0}
\setcounter{subsection}{0}
\setcounter{subsubsection}{0}
\setcounter{paragraph}{0}
\setcounter{subparagraph}{0}
\setcounter{figure}{1}
\setcounter{table}{0}
\setcounter{float@type}{16}
\setcounter{Item}{29}
\setcounter{Hfootnote}{24}
\setcounter{Hy@AnnotLevel}{0}
\setcounter{bookmark@seq@number}{85}
\setcounter{BibCnt}{3}
\setcounter{NAT@ctr}{183}
\setcounter{lstnumber}{3}
\setcounter{tcbbreakpart}{1}
\setcounter{tcblayer}{0}
\setcounter{tcolorbox@number}{12}
\setcounter{caption@flags}{0}
\setcounter{continuedfloat}{0}
\setcounter{parentequation}{0}
\setcounter{FancyVerbLine}{1}
\setcounter{LT@tables}{0}
\setcounter{LT@chunks}{0}
\setcounter{section@level}{3}
\setcounter{maskedRefs}{0}
\setcounter{lstlisting}{0}
}
