\relax 
\providecommand\hyper@newdestlabel[2]{}
\@writefile{toc}{\contentsline {chapter}{\numberline {D}Reporte SATURAR}{255}{appendix.Alph4}\protected@file@percent }
\@writefile{lof}{\addvspace {10\p@ }}
\@writefile{lot}{\addvspace {10\p@ }}
\@writefile{toc}{\contentsline {subsection}{\numberline {D.0.1}Código ejercicios}{255}{subsection.Alph4.0.1}\protected@file@percent }
\newlabel{cuxf3digo-ejercicios}{{D.0.1}{255}{Código ejercicios}{subsection.Alph4.0.1}{}}
\@writefile{toc}{\contentsline {subsubsection}{ID: \textbf  {61}}{255}{section*.76}\protected@file@percent }
\newlabel{id-61}{{D.0.1}{255}{\texorpdfstring {ID: \textbf {61}}{ID: 61}}{section*.76}{}}
\@writefile{toc}{\contentsline {subsubsection}{Reporte}{255}{section*.77}\protected@file@percent }
\newlabel{reporte}{{D.0.1}{255}{Reporte}{section*.77}{}}
\@writefile{toc}{\contentsline {subsubsection}{Imagen:}{256}{section*.78}\protected@file@percent }
\newlabel{imagen}{{D.0.1}{256}{Imagen:}{section*.78}{}}
\@writefile{toc}{\contentsline {subsubsection}{Transcripción:}{256}{section*.79}\protected@file@percent }
\newlabel{transcripciuxf3n}{{D.0.1}{256}{Transcripción:}{section*.79}{}}
\@writefile{toc}{\contentsline {subsubsection}{Memo}{256}{section*.80}\protected@file@percent }
\newlabel{memo}{{D.0.1}{256}{Memo}{section*.80}{}}
\@writefile{toc}{\contentsline {subsubsection}{Reporte}{256}{section*.81}\protected@file@percent }
\newlabel{reporte-1}{{D.0.1}{256}{Reporte}{section*.81}{}}
\@writefile{toc}{\contentsline {subsubsection}{Imagen:}{257}{section*.82}\protected@file@percent }
\newlabel{imagen-1}{{D.0.1}{257}{Imagen:}{section*.82}{}}
\@writefile{toc}{\contentsline {subsubsection}{Transcripción:}{257}{section*.83}\protected@file@percent }
\newlabel{transcripciuxf3n-1}{{D.0.1}{257}{Transcripción:}{section*.83}{}}
\@writefile{toc}{\contentsline {subsubsection}{Memo}{257}{section*.84}\protected@file@percent }
\newlabel{memo-1}{{D.0.1}{257}{Memo}{section*.84}{}}
\@writefile{toc}{\contentsline {subsubsection}{Reporte}{257}{section*.85}\protected@file@percent }
\newlabel{reporte-2}{{D.0.1}{257}{Reporte}{section*.85}{}}
\@writefile{toc}{\contentsline {subsubsection}{Imagen:}{258}{section*.86}\protected@file@percent }
\newlabel{imagen-2}{{D.0.1}{258}{Imagen:}{section*.86}{}}
\@writefile{toc}{\contentsline {subsubsection}{Transcripción:}{258}{section*.87}\protected@file@percent }
\newlabel{transcripciuxf3n-2}{{D.0.1}{258}{Transcripción:}{section*.87}{}}
\@writefile{toc}{\contentsline {subsubsection}{Memo}{258}{section*.88}\protected@file@percent }
\newlabel{memo-2}{{D.0.1}{258}{Memo}{section*.88}{}}
\@writefile{toc}{\contentsline {subsubsection}{Reporte}{258}{section*.89}\protected@file@percent }
\newlabel{reporte-3}{{D.0.1}{258}{Reporte}{section*.89}{}}
\@writefile{toc}{\contentsline {subsubsection}{Imagen:}{259}{section*.90}\protected@file@percent }
\newlabel{imagen-3}{{D.0.1}{259}{Imagen:}{section*.90}{}}
\@writefile{toc}{\contentsline {subsubsection}{Transcripción:}{259}{section*.91}\protected@file@percent }
\newlabel{transcripciuxf3n-3}{{D.0.1}{259}{Transcripción:}{section*.91}{}}
\@writefile{toc}{\contentsline {subsubsection}{Memo}{259}{section*.92}\protected@file@percent }
\newlabel{memo-3}{{D.0.1}{259}{Memo}{section*.92}{}}
\@writefile{toc}{\contentsline {subsubsection}{Reporte}{259}{section*.93}\protected@file@percent }
\newlabel{reporte-4}{{D.0.1}{259}{Reporte}{section*.93}{}}
\@writefile{toc}{\contentsline {subsubsection}{Imagen:}{260}{section*.94}\protected@file@percent }
\newlabel{imagen-4}{{D.0.1}{260}{Imagen:}{section*.94}{}}
\@writefile{toc}{\contentsline {subsubsection}{Transcripción:}{260}{section*.95}\protected@file@percent }
\newlabel{transcripciuxf3n-4}{{D.0.1}{260}{Transcripción:}{section*.95}{}}
\@writefile{toc}{\contentsline {subsubsection}{Memo}{260}{section*.96}\protected@file@percent }
\newlabel{memo-4}{{D.0.1}{260}{Memo}{section*.96}{}}
\@writefile{toc}{\contentsline {subsubsection}{Reporte}{260}{section*.97}\protected@file@percent }
\newlabel{reporte-5}{{D.0.1}{260}{Reporte}{section*.97}{}}
\@writefile{toc}{\contentsline {subsubsection}{Imagen:}{261}{section*.98}\protected@file@percent }
\newlabel{imagen-5}{{D.0.1}{261}{Imagen:}{section*.98}{}}
\@writefile{toc}{\contentsline {subsubsection}{Transcripción:}{261}{section*.99}\protected@file@percent }
\newlabel{transcripciuxf3n-5}{{D.0.1}{261}{Transcripción:}{section*.99}{}}
\@writefile{toc}{\contentsline {subsubsection}{Memo}{261}{section*.100}\protected@file@percent }
\newlabel{memo-5}{{D.0.1}{261}{Memo}{section*.100}{}}
\@writefile{toc}{\contentsline {subsubsection}{Reporte}{261}{section*.101}\protected@file@percent }
\newlabel{reporte-6}{{D.0.1}{261}{Reporte}{section*.101}{}}
\@writefile{toc}{\contentsline {subsubsection}{Imagen:}{262}{section*.102}\protected@file@percent }
\newlabel{imagen-6}{{D.0.1}{262}{Imagen:}{section*.102}{}}
\@writefile{toc}{\contentsline {subsubsection}{Transcripción:}{262}{section*.103}\protected@file@percent }
\newlabel{transcripciuxf3n-6}{{D.0.1}{262}{Transcripción:}{section*.103}{}}
\@writefile{toc}{\contentsline {subsubsection}{Memo}{262}{section*.104}\protected@file@percent }
\newlabel{memo-6}{{D.0.1}{262}{Memo}{section*.104}{}}
\@writefile{toc}{\contentsline {subsubsection}{Reporte}{262}{section*.105}\protected@file@percent }
\newlabel{reporte-7}{{D.0.1}{262}{Reporte}{section*.105}{}}
\@writefile{toc}{\contentsline {subsubsection}{Imagen:}{263}{section*.106}\protected@file@percent }
\newlabel{imagen-7}{{D.0.1}{263}{Imagen:}{section*.106}{}}
\@writefile{toc}{\contentsline {subsubsection}{Transcripción:}{263}{section*.107}\protected@file@percent }
\newlabel{transcripciuxf3n-7}{{D.0.1}{263}{Transcripción:}{section*.107}{}}
\@writefile{toc}{\contentsline {subsubsection}{Memo}{263}{section*.108}\protected@file@percent }
\newlabel{memo-7}{{D.0.1}{263}{Memo}{section*.108}{}}
\@writefile{toc}{\contentsline {subsubsection}{Reporte}{263}{section*.109}\protected@file@percent }
\newlabel{reporte-8}{{D.0.1}{263}{Reporte}{section*.109}{}}
\@writefile{toc}{\contentsline {subsubsection}{Imagen:}{264}{section*.110}\protected@file@percent }
\newlabel{imagen-8}{{D.0.1}{264}{Imagen:}{section*.110}{}}
\@writefile{toc}{\contentsline {subsubsection}{Transcripción:}{264}{section*.111}\protected@file@percent }
\newlabel{transcripciuxf3n-8}{{D.0.1}{264}{Transcripción:}{section*.111}{}}
\@writefile{toc}{\contentsline {subsubsection}{Memo}{264}{section*.112}\protected@file@percent }
\newlabel{memo-8}{{D.0.1}{264}{Memo}{section*.112}{}}
\@writefile{toc}{\contentsline {subsubsection}{Reporte}{264}{section*.113}\protected@file@percent }
\newlabel{reporte-9}{{D.0.1}{264}{Reporte}{section*.113}{}}
\@writefile{toc}{\contentsline {subsubsection}{Imagen:}{265}{section*.114}\protected@file@percent }
\newlabel{imagen-9}{{D.0.1}{265}{Imagen:}{section*.114}{}}
\@writefile{toc}{\contentsline {subsubsection}{Transcripción:}{265}{section*.115}\protected@file@percent }
\newlabel{transcripciuxf3n-9}{{D.0.1}{265}{Transcripción:}{section*.115}{}}
\@writefile{toc}{\contentsline {subsubsection}{Memo}{265}{section*.116}\protected@file@percent }
\newlabel{memo-9}{{D.0.1}{265}{Memo}{section*.116}{}}
\@writefile{toc}{\contentsline {subsubsection}{Reporte}{265}{section*.117}\protected@file@percent }
\newlabel{reporte-10}{{D.0.1}{265}{Reporte}{section*.117}{}}
\@writefile{toc}{\contentsline {subsubsection}{Imagen:}{266}{section*.118}\protected@file@percent }
\newlabel{imagen-10}{{D.0.1}{266}{Imagen:}{section*.118}{}}
\@writefile{toc}{\contentsline {subsubsection}{Transcripción:}{266}{section*.119}\protected@file@percent }
\newlabel{transcripciuxf3n-10}{{D.0.1}{266}{Transcripción:}{section*.119}{}}
\@writefile{toc}{\contentsline {subsubsection}{Memo}{266}{section*.120}\protected@file@percent }
\newlabel{memo-10}{{D.0.1}{266}{Memo}{section*.120}{}}
\@writefile{toc}{\contentsline {subsubsection}{Reporte}{266}{section*.121}\protected@file@percent }
\newlabel{reporte-11}{{D.0.1}{266}{Reporte}{section*.121}{}}
\@writefile{toc}{\contentsline {subsubsection}{Imagen:}{267}{section*.122}\protected@file@percent }
\newlabel{imagen-11}{{D.0.1}{267}{Imagen:}{section*.122}{}}
\@writefile{toc}{\contentsline {subsubsection}{Transcripción:}{267}{section*.123}\protected@file@percent }
\newlabel{transcripciuxf3n-11}{{D.0.1}{267}{Transcripción:}{section*.123}{}}
\@writefile{toc}{\contentsline {subsubsection}{Memo}{267}{section*.124}\protected@file@percent }
\newlabel{memo-11}{{D.0.1}{267}{Memo}{section*.124}{}}
\@writefile{toc}{\contentsline {subsubsection}{Reporte}{267}{section*.125}\protected@file@percent }
\newlabel{reporte-12}{{D.0.1}{267}{Reporte}{section*.125}{}}
\@writefile{toc}{\contentsline {subsubsection}{Imagen:}{268}{section*.126}\protected@file@percent }
\newlabel{imagen-12}{{D.0.1}{268}{Imagen:}{section*.126}{}}
\@writefile{toc}{\contentsline {subsubsection}{Transcripción:}{268}{section*.127}\protected@file@percent }
\newlabel{transcripciuxf3n-12}{{D.0.1}{268}{Transcripción:}{section*.127}{}}
\@writefile{toc}{\contentsline {subsubsection}{Memo}{268}{section*.128}\protected@file@percent }
\newlabel{memo-12}{{D.0.1}{268}{Memo}{section*.128}{}}
\@writefile{toc}{\contentsline {subsubsection}{Reporte}{268}{section*.129}\protected@file@percent }
\newlabel{reporte-13}{{D.0.1}{268}{Reporte}{section*.129}{}}
\@writefile{toc}{\contentsline {subsubsection}{Imagen:}{269}{section*.130}\protected@file@percent }
\newlabel{imagen-13}{{D.0.1}{269}{Imagen:}{section*.130}{}}
\@writefile{toc}{\contentsline {subsubsection}{Transcripción:}{269}{section*.131}\protected@file@percent }
\newlabel{transcripciuxf3n-13}{{D.0.1}{269}{Transcripción:}{section*.131}{}}
\@writefile{toc}{\contentsline {subsubsection}{Memo}{269}{section*.132}\protected@file@percent }
\newlabel{memo-13}{{D.0.1}{269}{Memo}{section*.132}{}}
\@writefile{toc}{\contentsline {subsubsection}{Reporte}{269}{section*.133}\protected@file@percent }
\newlabel{reporte-14}{{D.0.1}{269}{Reporte}{section*.133}{}}
\@writefile{toc}{\contentsline {subsubsection}{Imagen:}{270}{section*.134}\protected@file@percent }
\newlabel{imagen-14}{{D.0.1}{270}{Imagen:}{section*.134}{}}
\@writefile{toc}{\contentsline {subsubsection}{Transcripción:}{270}{section*.135}\protected@file@percent }
\newlabel{transcripciuxf3n-14}{{D.0.1}{270}{Transcripción:}{section*.135}{}}
\@writefile{toc}{\contentsline {subsubsection}{Memo}{270}{section*.136}\protected@file@percent }
\newlabel{memo-14}{{D.0.1}{270}{Memo}{section*.136}{}}
\@writefile{toc}{\contentsline {subsubsection}{Reporte}{270}{section*.137}\protected@file@percent }
\newlabel{reporte-15}{{D.0.1}{270}{Reporte}{section*.137}{}}
\@writefile{toc}{\contentsline {subsubsection}{Imagen:}{271}{section*.138}\protected@file@percent }
\newlabel{imagen-15}{{D.0.1}{271}{Imagen:}{section*.138}{}}
\@writefile{toc}{\contentsline {subsubsection}{Transcripción:}{271}{section*.139}\protected@file@percent }
\newlabel{transcripciuxf3n-15}{{D.0.1}{271}{Transcripción:}{section*.139}{}}
\@writefile{toc}{\contentsline {subsubsection}{Memo}{271}{section*.140}\protected@file@percent }
\newlabel{memo-15}{{D.0.1}{271}{Memo}{section*.140}{}}
\@writefile{toc}{\contentsline {subsubsection}{Reporte}{271}{section*.141}\protected@file@percent }
\newlabel{reporte-16}{{D.0.1}{271}{Reporte}{section*.141}{}}
\@writefile{toc}{\contentsline {subsubsection}{Imagen:}{272}{section*.142}\protected@file@percent }
\newlabel{imagen-16}{{D.0.1}{272}{Imagen:}{section*.142}{}}
\@writefile{toc}{\contentsline {subsubsection}{Transcripción:}{272}{section*.143}\protected@file@percent }
\newlabel{transcripciuxf3n-16}{{D.0.1}{272}{Transcripción:}{section*.143}{}}
\@writefile{toc}{\contentsline {subsubsection}{Memo}{272}{section*.144}\protected@file@percent }
\newlabel{memo-16}{{D.0.1}{272}{Memo}{section*.144}{}}
\@writefile{toc}{\contentsline {subsubsection}{Reporte}{272}{section*.145}\protected@file@percent }
\newlabel{reporte-17}{{D.0.1}{272}{Reporte}{section*.145}{}}
\@writefile{toc}{\contentsline {subsubsection}{Imagen:}{273}{section*.146}\protected@file@percent }
\newlabel{imagen-17}{{D.0.1}{273}{Imagen:}{section*.146}{}}
\@writefile{toc}{\contentsline {subsubsection}{Transcripción:}{273}{section*.147}\protected@file@percent }
\newlabel{transcripciuxf3n-17}{{D.0.1}{273}{Transcripción:}{section*.147}{}}
\@writefile{toc}{\contentsline {subsubsection}{Memo}{273}{section*.148}\protected@file@percent }
\newlabel{memo-17}{{D.0.1}{273}{Memo}{section*.148}{}}
\@writefile{toc}{\contentsline {subsubsection}{Reporte}{273}{section*.149}\protected@file@percent }
\newlabel{reporte-18}{{D.0.1}{273}{Reporte}{section*.149}{}}
\@writefile{toc}{\contentsline {subsubsection}{Imagen:}{274}{section*.150}\protected@file@percent }
\newlabel{imagen-18}{{D.0.1}{274}{Imagen:}{section*.150}{}}
\@writefile{toc}{\contentsline {subsubsection}{Transcripción:}{274}{section*.151}\protected@file@percent }
\newlabel{transcripciuxf3n-18}{{D.0.1}{274}{Transcripción:}{section*.151}{}}
\@writefile{toc}{\contentsline {subsubsection}{Memo}{274}{section*.152}\protected@file@percent }
\newlabel{memo-18}{{D.0.1}{274}{Memo}{section*.152}{}}
\@writefile{toc}{\contentsline {subsubsection}{Reporte}{274}{section*.153}\protected@file@percent }
\newlabel{reporte-19}{{D.0.1}{274}{Reporte}{section*.153}{}}
\@writefile{toc}{\contentsline {subsubsection}{Imagen:}{275}{section*.154}\protected@file@percent }
\newlabel{imagen-19}{{D.0.1}{275}{Imagen:}{section*.154}{}}
\@writefile{toc}{\contentsline {subsubsection}{Transcripción:}{275}{section*.155}\protected@file@percent }
\newlabel{transcripciuxf3n-19}{{D.0.1}{275}{Transcripción:}{section*.155}{}}
\@writefile{toc}{\contentsline {subsubsection}{Memo}{275}{section*.156}\protected@file@percent }
\newlabel{memo-19}{{D.0.1}{275}{Memo}{section*.156}{}}
\@writefile{toc}{\contentsline {subsubsection}{Reporte}{275}{section*.157}\protected@file@percent }
\newlabel{reporte-20}{{D.0.1}{275}{Reporte}{section*.157}{}}
\@writefile{toc}{\contentsline {subsubsection}{Imagen:}{276}{section*.158}\protected@file@percent }
\newlabel{imagen-20}{{D.0.1}{276}{Imagen:}{section*.158}{}}
\@writefile{toc}{\contentsline {subsubsection}{Transcripción:}{276}{section*.159}\protected@file@percent }
\newlabel{transcripciuxf3n-20}{{D.0.1}{276}{Transcripción:}{section*.159}{}}
\@writefile{toc}{\contentsline {subsubsection}{Memo}{276}{section*.160}\protected@file@percent }
\newlabel{memo-20}{{D.0.1}{276}{Memo}{section*.160}{}}
\@writefile{toc}{\contentsline {subsubsection}{Reporte}{276}{section*.161}\protected@file@percent }
\newlabel{reporte-21}{{D.0.1}{276}{Reporte}{section*.161}{}}
\@writefile{toc}{\contentsline {subsubsection}{Imagen:}{277}{section*.162}\protected@file@percent }
\newlabel{imagen-21}{{D.0.1}{277}{Imagen:}{section*.162}{}}
\@writefile{toc}{\contentsline {subsubsection}{Transcripción:}{277}{section*.163}\protected@file@percent }
\newlabel{transcripciuxf3n-21}{{D.0.1}{277}{Transcripción:}{section*.163}{}}
\@writefile{toc}{\contentsline {subsubsection}{Memo}{277}{section*.164}\protected@file@percent }
\newlabel{memo-21}{{D.0.1}{277}{Memo}{section*.164}{}}
\@writefile{toc}{\contentsline {subsubsection}{Reporte}{277}{section*.165}\protected@file@percent }
\newlabel{reporte-22}{{D.0.1}{277}{Reporte}{section*.165}{}}
\@writefile{toc}{\contentsline {subsubsection}{Imagen:}{278}{section*.166}\protected@file@percent }
\newlabel{imagen-22}{{D.0.1}{278}{Imagen:}{section*.166}{}}
\@writefile{toc}{\contentsline {subsubsection}{Transcripción:}{278}{section*.167}\protected@file@percent }
\newlabel{transcripciuxf3n-22}{{D.0.1}{278}{Transcripción:}{section*.167}{}}
\@writefile{toc}{\contentsline {subsubsection}{Memo}{278}{section*.168}\protected@file@percent }
\newlabel{memo-22}{{D.0.1}{278}{Memo}{section*.168}{}}
\@writefile{toc}{\contentsline {subsubsection}{Reporte}{278}{section*.169}\protected@file@percent }
\newlabel{reporte-23}{{D.0.1}{278}{Reporte}{section*.169}{}}
\@writefile{toc}{\contentsline {subsubsection}{Imagen:}{279}{section*.170}\protected@file@percent }
\newlabel{imagen-23}{{D.0.1}{279}{Imagen:}{section*.170}{}}
\@writefile{toc}{\contentsline {subsubsection}{Transcripción:}{279}{section*.171}\protected@file@percent }
\newlabel{transcripciuxf3n-23}{{D.0.1}{279}{Transcripción:}{section*.171}{}}
\@writefile{toc}{\contentsline {subsubsection}{Memo}{279}{section*.172}\protected@file@percent }
\newlabel{memo-23}{{D.0.1}{279}{Memo}{section*.172}{}}
\@writefile{toc}{\contentsline {subsubsection}{Reporte}{279}{section*.173}\protected@file@percent }
\newlabel{reporte-24}{{D.0.1}{279}{Reporte}{section*.173}{}}
\@writefile{toc}{\contentsline {subsubsection}{Imagen:}{280}{section*.174}\protected@file@percent }
\newlabel{imagen-24}{{D.0.1}{280}{Imagen:}{section*.174}{}}
\@writefile{toc}{\contentsline {subsubsection}{Transcripción:}{280}{section*.175}\protected@file@percent }
\newlabel{transcripciuxf3n-24}{{D.0.1}{280}{Transcripción:}{section*.175}{}}
\@writefile{toc}{\contentsline {subsubsection}{Memo}{280}{section*.176}\protected@file@percent }
\newlabel{memo-24}{{D.0.1}{280}{Memo}{section*.176}{}}
\@writefile{toc}{\contentsline {subsubsection}{Reporte}{280}{section*.177}\protected@file@percent }
\newlabel{reporte-25}{{D.0.1}{280}{Reporte}{section*.177}{}}
\@writefile{toc}{\contentsline {subsubsection}{Imagen:}{281}{section*.178}\protected@file@percent }
\newlabel{imagen-25}{{D.0.1}{281}{Imagen:}{section*.178}{}}
\@writefile{toc}{\contentsline {subsubsection}{Transcripción:}{281}{section*.179}\protected@file@percent }
\newlabel{transcripciuxf3n-25}{{D.0.1}{281}{Transcripción:}{section*.179}{}}
\@writefile{toc}{\contentsline {subsubsection}{Memo}{281}{section*.180}\protected@file@percent }
\newlabel{memo-25}{{D.0.1}{281}{Memo}{section*.180}{}}
\@writefile{toc}{\contentsline {subsubsection}{Reporte}{281}{section*.181}\protected@file@percent }
\newlabel{reporte-26}{{D.0.1}{281}{Reporte}{section*.181}{}}
\@writefile{toc}{\contentsline {subsubsection}{Imagen:}{282}{section*.182}\protected@file@percent }
\newlabel{imagen-26}{{D.0.1}{282}{Imagen:}{section*.182}{}}
\@writefile{toc}{\contentsline {subsubsection}{Transcripción:}{282}{section*.183}\protected@file@percent }
\newlabel{transcripciuxf3n-26}{{D.0.1}{282}{Transcripción:}{section*.183}{}}
\@writefile{toc}{\contentsline {subsubsection}{Memo}{282}{section*.184}\protected@file@percent }
\newlabel{memo-26}{{D.0.1}{282}{Memo}{section*.184}{}}
\@writefile{toc}{\contentsline {subsubsection}{Reporte}{282}{section*.185}\protected@file@percent }
\newlabel{reporte-27}{{D.0.1}{282}{Reporte}{section*.185}{}}
\@writefile{toc}{\contentsline {subsubsection}{Imagen:}{283}{section*.186}\protected@file@percent }
\newlabel{imagen-27}{{D.0.1}{283}{Imagen:}{section*.186}{}}
\@writefile{toc}{\contentsline {subsubsection}{Transcripción:}{283}{section*.187}\protected@file@percent }
\newlabel{transcripciuxf3n-27}{{D.0.1}{283}{Transcripción:}{section*.187}{}}
\@writefile{toc}{\contentsline {subsubsection}{Memo}{283}{section*.188}\protected@file@percent }
\newlabel{memo-27}{{D.0.1}{283}{Memo}{section*.188}{}}
\@writefile{toc}{\contentsline {subsubsection}{Reporte}{283}{section*.189}\protected@file@percent }
\newlabel{reporte-28}{{D.0.1}{283}{Reporte}{section*.189}{}}
\@writefile{toc}{\contentsline {subsubsection}{Imagen:}{284}{section*.190}\protected@file@percent }
\newlabel{imagen-28}{{D.0.1}{284}{Imagen:}{section*.190}{}}
\@writefile{toc}{\contentsline {subsubsection}{Transcripción:}{284}{section*.191}\protected@file@percent }
\newlabel{transcripciuxf3n-28}{{D.0.1}{284}{Transcripción:}{section*.191}{}}
\@writefile{toc}{\contentsline {subsubsection}{Memo}{284}{section*.192}\protected@file@percent }
\newlabel{memo-28}{{D.0.1}{284}{Memo}{section*.192}{}}
\@writefile{toc}{\contentsline {subsubsection}{Reporte}{284}{section*.193}\protected@file@percent }
\newlabel{reporte-29}{{D.0.1}{284}{Reporte}{section*.193}{}}
\@writefile{toc}{\contentsline {subsubsection}{Imagen:}{285}{section*.194}\protected@file@percent }
\newlabel{imagen-29}{{D.0.1}{285}{Imagen:}{section*.194}{}}
\@writefile{toc}{\contentsline {subsubsection}{Transcripción:}{285}{section*.195}\protected@file@percent }
\newlabel{transcripciuxf3n-29}{{D.0.1}{285}{Transcripción:}{section*.195}{}}
\@writefile{toc}{\contentsline {subsubsection}{Memo}{285}{section*.196}\protected@file@percent }
\newlabel{memo-29}{{D.0.1}{285}{Memo}{section*.196}{}}
\@writefile{toc}{\contentsline {subsubsection}{Reporte}{285}{section*.197}\protected@file@percent }
\newlabel{reporte-30}{{D.0.1}{285}{Reporte}{section*.197}{}}
\@writefile{toc}{\contentsline {subsubsection}{Imagen:}{286}{section*.198}\protected@file@percent }
\newlabel{imagen-30}{{D.0.1}{286}{Imagen:}{section*.198}{}}
\@writefile{toc}{\contentsline {subsubsection}{Transcripción:}{286}{section*.199}\protected@file@percent }
\newlabel{transcripciuxf3n-30}{{D.0.1}{286}{Transcripción:}{section*.199}{}}
\@writefile{toc}{\contentsline {subsubsection}{Memo}{286}{section*.200}\protected@file@percent }
\newlabel{memo-30}{{D.0.1}{286}{Memo}{section*.200}{}}
\@writefile{toc}{\contentsline {subsubsection}{Reporte}{286}{section*.201}\protected@file@percent }
\newlabel{reporte-31}{{D.0.1}{286}{Reporte}{section*.201}{}}
\@writefile{toc}{\contentsline {subsubsection}{Imagen:}{287}{section*.202}\protected@file@percent }
\newlabel{imagen-31}{{D.0.1}{287}{Imagen:}{section*.202}{}}
\@writefile{toc}{\contentsline {subsubsection}{Transcripción:}{287}{section*.203}\protected@file@percent }
\newlabel{transcripciuxf3n-31}{{D.0.1}{287}{Transcripción:}{section*.203}{}}
\@writefile{toc}{\contentsline {subsubsection}{Memo}{287}{section*.204}\protected@file@percent }
\newlabel{memo-31}{{D.0.1}{287}{Memo}{section*.204}{}}
\@writefile{toc}{\contentsline {subsubsection}{Reporte}{287}{section*.205}\protected@file@percent }
\newlabel{reporte-32}{{D.0.1}{287}{Reporte}{section*.205}{}}
\@writefile{toc}{\contentsline {subsubsection}{Imagen:}{288}{section*.206}\protected@file@percent }
\newlabel{imagen-32}{{D.0.1}{288}{Imagen:}{section*.206}{}}
\@writefile{toc}{\contentsline {subsubsection}{Transcripción:}{288}{section*.207}\protected@file@percent }
\newlabel{transcripciuxf3n-32}{{D.0.1}{288}{Transcripción:}{section*.207}{}}
\@writefile{toc}{\contentsline {subsubsection}{Memo}{288}{section*.208}\protected@file@percent }
\newlabel{memo-32}{{D.0.1}{288}{Memo}{section*.208}{}}
\@writefile{toc}{\contentsline {subsubsection}{Reporte}{288}{section*.209}\protected@file@percent }
\newlabel{reporte-33}{{D.0.1}{288}{Reporte}{section*.209}{}}
\@writefile{toc}{\contentsline {subsubsection}{Imagen:}{289}{section*.210}\protected@file@percent }
\newlabel{imagen-33}{{D.0.1}{289}{Imagen:}{section*.210}{}}
\@writefile{toc}{\contentsline {subsubsection}{Transcripción:}{289}{section*.211}\protected@file@percent }
\newlabel{transcripciuxf3n-33}{{D.0.1}{289}{Transcripción:}{section*.211}{}}
\@writefile{toc}{\contentsline {subsubsection}{Memo}{289}{section*.212}\protected@file@percent }
\newlabel{memo-33}{{D.0.1}{289}{Memo}{section*.212}{}}
\@writefile{toc}{\contentsline {subsubsection}{Reporte}{289}{section*.213}\protected@file@percent }
\newlabel{reporte-34}{{D.0.1}{289}{Reporte}{section*.213}{}}
\@writefile{toc}{\contentsline {subsubsection}{Imagen:}{290}{section*.214}\protected@file@percent }
\newlabel{imagen-34}{{D.0.1}{290}{Imagen:}{section*.214}{}}
\@writefile{toc}{\contentsline {subsubsection}{Transcripción:}{290}{section*.215}\protected@file@percent }
\newlabel{transcripciuxf3n-34}{{D.0.1}{290}{Transcripción:}{section*.215}{}}
\@writefile{toc}{\contentsline {subsubsection}{Memo}{290}{section*.216}\protected@file@percent }
\newlabel{memo-34}{{D.0.1}{290}{Memo}{section*.216}{}}
\@writefile{toc}{\contentsline {subsubsection}{Reporte}{290}{section*.217}\protected@file@percent }
\newlabel{reporte-35}{{D.0.1}{290}{Reporte}{section*.217}{}}
\@writefile{toc}{\contentsline {subsubsection}{Imagen:}{291}{section*.218}\protected@file@percent }
\newlabel{imagen-35}{{D.0.1}{291}{Imagen:}{section*.218}{}}
\@writefile{toc}{\contentsline {subsubsection}{Transcripción:}{291}{section*.219}\protected@file@percent }
\newlabel{transcripciuxf3n-35}{{D.0.1}{291}{Transcripción:}{section*.219}{}}
\@writefile{toc}{\contentsline {subsubsection}{Memo}{291}{section*.220}\protected@file@percent }
\newlabel{memo-35}{{D.0.1}{291}{Memo}{section*.220}{}}
\@writefile{toc}{\contentsline {subsubsection}{Reporte}{291}{section*.221}\protected@file@percent }
\newlabel{reporte-36}{{D.0.1}{291}{Reporte}{section*.221}{}}
\@writefile{toc}{\contentsline {subsubsection}{Imagen:}{292}{section*.222}\protected@file@percent }
\newlabel{imagen-36}{{D.0.1}{292}{Imagen:}{section*.222}{}}
\@writefile{toc}{\contentsline {subsubsection}{Transcripción:}{292}{section*.223}\protected@file@percent }
\newlabel{transcripciuxf3n-36}{{D.0.1}{292}{Transcripción:}{section*.223}{}}
\@writefile{toc}{\contentsline {subsubsection}{Memo}{292}{section*.224}\protected@file@percent }
\newlabel{memo-36}{{D.0.1}{292}{Memo}{section*.224}{}}
\@writefile{toc}{\contentsline {subsubsection}{Reporte}{292}{section*.225}\protected@file@percent }
\newlabel{reporte-37}{{D.0.1}{292}{Reporte}{section*.225}{}}
\@writefile{toc}{\contentsline {subsubsection}{Imagen:}{293}{section*.226}\protected@file@percent }
\newlabel{imagen-37}{{D.0.1}{293}{Imagen:}{section*.226}{}}
\@writefile{toc}{\contentsline {subsubsection}{Transcripción:}{293}{section*.227}\protected@file@percent }
\newlabel{transcripciuxf3n-37}{{D.0.1}{293}{Transcripción:}{section*.227}{}}
\@writefile{toc}{\contentsline {subsubsection}{Memo}{293}{section*.228}\protected@file@percent }
\newlabel{memo-37}{{D.0.1}{293}{Memo}{section*.228}{}}
\@writefile{toc}{\contentsline {subsubsection}{Reporte}{293}{section*.229}\protected@file@percent }
\newlabel{reporte-38}{{D.0.1}{293}{Reporte}{section*.229}{}}
\@writefile{toc}{\contentsline {subsubsection}{Imagen:}{294}{section*.230}\protected@file@percent }
\newlabel{imagen-38}{{D.0.1}{294}{Imagen:}{section*.230}{}}
\@writefile{toc}{\contentsline {subsubsection}{Transcripción:}{294}{section*.231}\protected@file@percent }
\newlabel{transcripciuxf3n-38}{{D.0.1}{294}{Transcripción:}{section*.231}{}}
\@writefile{toc}{\contentsline {subsubsection}{Memo}{294}{section*.232}\protected@file@percent }
\newlabel{memo-38}{{D.0.1}{294}{Memo}{section*.232}{}}
\@writefile{toc}{\contentsline {subsubsection}{Reporte}{294}{section*.233}\protected@file@percent }
\newlabel{reporte-39}{{D.0.1}{294}{Reporte}{section*.233}{}}
\@writefile{toc}{\contentsline {subsubsection}{Imagen:}{295}{section*.234}\protected@file@percent }
\newlabel{imagen-39}{{D.0.1}{295}{Imagen:}{section*.234}{}}
\@writefile{toc}{\contentsline {subsubsection}{Transcripción:}{295}{section*.235}\protected@file@percent }
\newlabel{transcripciuxf3n-39}{{D.0.1}{295}{Transcripción:}{section*.235}{}}
\@writefile{toc}{\contentsline {subsubsection}{Memo}{295}{section*.236}\protected@file@percent }
\newlabel{memo-39}{{D.0.1}{295}{Memo}{section*.236}{}}
\@writefile{toc}{\contentsline {subsubsection}{Reporte}{295}{section*.237}\protected@file@percent }
\newlabel{reporte-40}{{D.0.1}{295}{Reporte}{section*.237}{}}
\@writefile{toc}{\contentsline {subsubsection}{Imagen:}{296}{section*.238}\protected@file@percent }
\newlabel{imagen-40}{{D.0.1}{296}{Imagen:}{section*.238}{}}
\@writefile{toc}{\contentsline {subsubsection}{Transcripción:}{296}{section*.239}\protected@file@percent }
\newlabel{transcripciuxf3n-40}{{D.0.1}{296}{Transcripción:}{section*.239}{}}
\@writefile{toc}{\contentsline {subsubsection}{Memo}{296}{section*.240}\protected@file@percent }
\newlabel{memo-40}{{D.0.1}{296}{Memo}{section*.240}{}}
\@writefile{toc}{\contentsline {subsubsection}{Reporte}{296}{section*.241}\protected@file@percent }
\newlabel{reporte-41}{{D.0.1}{296}{Reporte}{section*.241}{}}
\@writefile{toc}{\contentsline {subsubsection}{Imagen:}{297}{section*.242}\protected@file@percent }
\newlabel{imagen-41}{{D.0.1}{297}{Imagen:}{section*.242}{}}
\@writefile{toc}{\contentsline {subsubsection}{Transcripción:}{297}{section*.243}\protected@file@percent }
\newlabel{transcripciuxf3n-41}{{D.0.1}{297}{Transcripción:}{section*.243}{}}
\@writefile{toc}{\contentsline {subsubsection}{Memo}{297}{section*.244}\protected@file@percent }
\newlabel{memo-41}{{D.0.1}{297}{Memo}{section*.244}{}}
\@writefile{toc}{\contentsline {subsubsection}{Reporte}{297}{section*.245}\protected@file@percent }
\newlabel{reporte-42}{{D.0.1}{297}{Reporte}{section*.245}{}}
\@writefile{toc}{\contentsline {subsubsection}{Imagen:}{298}{section*.246}\protected@file@percent }
\newlabel{imagen-42}{{D.0.1}{298}{Imagen:}{section*.246}{}}
\@writefile{toc}{\contentsline {subsubsection}{Transcripción:}{298}{section*.247}\protected@file@percent }
\newlabel{transcripciuxf3n-42}{{D.0.1}{298}{Transcripción:}{section*.247}{}}
\@writefile{toc}{\contentsline {subsubsection}{Memo}{298}{section*.248}\protected@file@percent }
\newlabel{memo-42}{{D.0.1}{298}{Memo}{section*.248}{}}
\@writefile{toc}{\contentsline {subsubsection}{Reporte}{298}{section*.249}\protected@file@percent }
\newlabel{reporte-43}{{D.0.1}{298}{Reporte}{section*.249}{}}
\@writefile{toc}{\contentsline {subsubsection}{Imagen:}{299}{section*.250}\protected@file@percent }
\newlabel{imagen-43}{{D.0.1}{299}{Imagen:}{section*.250}{}}
\@writefile{toc}{\contentsline {subsubsection}{Transcripción:}{299}{section*.251}\protected@file@percent }
\newlabel{transcripciuxf3n-43}{{D.0.1}{299}{Transcripción:}{section*.251}{}}
\@writefile{toc}{\contentsline {subsubsection}{Memo}{299}{section*.252}\protected@file@percent }
\newlabel{memo-43}{{D.0.1}{299}{Memo}{section*.252}{}}
\@writefile{toc}{\contentsline {subsubsection}{Reporte}{299}{section*.253}\protected@file@percent }
\newlabel{reporte-44}{{D.0.1}{299}{Reporte}{section*.253}{}}
\@writefile{toc}{\contentsline {subsubsection}{Imagen:}{300}{section*.254}\protected@file@percent }
\newlabel{imagen-44}{{D.0.1}{300}{Imagen:}{section*.254}{}}
\@writefile{toc}{\contentsline {subsubsection}{Transcripción:}{300}{section*.255}\protected@file@percent }
\newlabel{transcripciuxf3n-44}{{D.0.1}{300}{Transcripción:}{section*.255}{}}
\@writefile{toc}{\contentsline {subsubsection}{Memo}{300}{section*.256}\protected@file@percent }
\newlabel{memo-44}{{D.0.1}{300}{Memo}{section*.256}{}}
\@writefile{toc}{\contentsline {subsubsection}{Reporte}{300}{section*.257}\protected@file@percent }
\newlabel{reporte-45}{{D.0.1}{300}{Reporte}{section*.257}{}}
\@writefile{toc}{\contentsline {subsubsection}{Imagen:}{301}{section*.258}\protected@file@percent }
\newlabel{imagen-45}{{D.0.1}{301}{Imagen:}{section*.258}{}}
\@writefile{toc}{\contentsline {subsubsection}{Transcripción:}{301}{section*.259}\protected@file@percent }
\newlabel{transcripciuxf3n-45}{{D.0.1}{301}{Transcripción:}{section*.259}{}}
\@writefile{toc}{\contentsline {subsubsection}{Memo}{301}{section*.260}\protected@file@percent }
\newlabel{memo-45}{{D.0.1}{301}{Memo}{section*.260}{}}
\@writefile{toc}{\contentsline {subsubsection}{Reporte}{301}{section*.261}\protected@file@percent }
\newlabel{reporte-46}{{D.0.1}{301}{Reporte}{section*.261}{}}
\@writefile{toc}{\contentsline {subsubsection}{Imagen:}{302}{section*.262}\protected@file@percent }
\newlabel{imagen-46}{{D.0.1}{302}{Imagen:}{section*.262}{}}
\@writefile{toc}{\contentsline {subsubsection}{Transcripción:}{302}{section*.263}\protected@file@percent }
\newlabel{transcripciuxf3n-46}{{D.0.1}{302}{Transcripción:}{section*.263}{}}
\@writefile{toc}{\contentsline {subsubsection}{Memo}{302}{section*.264}\protected@file@percent }
\newlabel{memo-46}{{D.0.1}{302}{Memo}{section*.264}{}}
\@writefile{toc}{\contentsline {subsubsection}{Reporte}{302}{section*.265}\protected@file@percent }
\newlabel{reporte-47}{{D.0.1}{302}{Reporte}{section*.265}{}}
\@writefile{toc}{\contentsline {subsubsection}{Imagen:}{303}{section*.266}\protected@file@percent }
\newlabel{imagen-47}{{D.0.1}{303}{Imagen:}{section*.266}{}}
\@writefile{toc}{\contentsline {subsubsection}{Transcripción:}{303}{section*.267}\protected@file@percent }
\newlabel{transcripciuxf3n-47}{{D.0.1}{303}{Transcripción:}{section*.267}{}}
\@writefile{toc}{\contentsline {subsubsection}{Memo}{303}{section*.268}\protected@file@percent }
\newlabel{memo-47}{{D.0.1}{303}{Memo}{section*.268}{}}
\@writefile{toc}{\contentsline {subsubsection}{Reporte}{303}{section*.269}\protected@file@percent }
\newlabel{reporte-48}{{D.0.1}{303}{Reporte}{section*.269}{}}
\@writefile{toc}{\contentsline {subsubsection}{Imagen:}{304}{section*.270}\protected@file@percent }
\newlabel{imagen-48}{{D.0.1}{304}{Imagen:}{section*.270}{}}
\@writefile{toc}{\contentsline {subsubsection}{Transcripción:}{304}{section*.271}\protected@file@percent }
\newlabel{transcripciuxf3n-48}{{D.0.1}{304}{Transcripción:}{section*.271}{}}
\@writefile{toc}{\contentsline {subsubsection}{Memo}{304}{section*.272}\protected@file@percent }
\newlabel{memo-48}{{D.0.1}{304}{Memo}{section*.272}{}}
\@writefile{toc}{\contentsline {subsubsection}{Reporte}{304}{section*.273}\protected@file@percent }
\newlabel{reporte-49}{{D.0.1}{304}{Reporte}{section*.273}{}}
\@writefile{toc}{\contentsline {subsubsection}{Imagen:}{305}{section*.274}\protected@file@percent }
\newlabel{imagen-49}{{D.0.1}{305}{Imagen:}{section*.274}{}}
\@writefile{toc}{\contentsline {subsubsection}{Transcripción:}{305}{section*.275}\protected@file@percent }
\newlabel{transcripciuxf3n-49}{{D.0.1}{305}{Transcripción:}{section*.275}{}}
\@writefile{toc}{\contentsline {subsubsection}{Memo}{305}{section*.276}\protected@file@percent }
\newlabel{memo-49}{{D.0.1}{305}{Memo}{section*.276}{}}
\@writefile{toc}{\contentsline {subsubsection}{Reporte}{305}{section*.277}\protected@file@percent }
\newlabel{reporte-50}{{D.0.1}{305}{Reporte}{section*.277}{}}
\@writefile{toc}{\contentsline {subsubsection}{Imagen:}{306}{section*.278}\protected@file@percent }
\newlabel{imagen-50}{{D.0.1}{306}{Imagen:}{section*.278}{}}
\@writefile{toc}{\contentsline {subsubsection}{Transcripción:}{306}{section*.279}\protected@file@percent }
\newlabel{transcripciuxf3n-50}{{D.0.1}{306}{Transcripción:}{section*.279}{}}
\@writefile{toc}{\contentsline {subsubsection}{Memo}{306}{section*.280}\protected@file@percent }
\newlabel{memo-50}{{D.0.1}{306}{Memo}{section*.280}{}}
\@writefile{toc}{\contentsline {subsubsection}{Reporte}{306}{section*.281}\protected@file@percent }
\newlabel{reporte-51}{{D.0.1}{306}{Reporte}{section*.281}{}}
\@writefile{toc}{\contentsline {subsubsection}{Imagen:}{307}{section*.282}\protected@file@percent }
\newlabel{imagen-51}{{D.0.1}{307}{Imagen:}{section*.282}{}}
\@writefile{toc}{\contentsline {subsubsection}{Transcripción:}{307}{section*.283}\protected@file@percent }
\newlabel{transcripciuxf3n-51}{{D.0.1}{307}{Transcripción:}{section*.283}{}}
\@writefile{toc}{\contentsline {subsubsection}{Memo}{307}{section*.284}\protected@file@percent }
\newlabel{memo-51}{{D.0.1}{307}{Memo}{section*.284}{}}
\@writefile{toc}{\contentsline {subsubsection}{Reporte}{307}{section*.285}\protected@file@percent }
\newlabel{reporte-52}{{D.0.1}{307}{Reporte}{section*.285}{}}
\@writefile{toc}{\contentsline {subsubsection}{Imagen:}{308}{section*.286}\protected@file@percent }
\newlabel{imagen-52}{{D.0.1}{308}{Imagen:}{section*.286}{}}
\@writefile{toc}{\contentsline {subsubsection}{Transcripción:}{308}{section*.287}\protected@file@percent }
\newlabel{transcripciuxf3n-52}{{D.0.1}{308}{Transcripción:}{section*.287}{}}
\@writefile{toc}{\contentsline {subsubsection}{Memo}{308}{section*.288}\protected@file@percent }
\newlabel{memo-52}{{D.0.1}{308}{Memo}{section*.288}{}}
\@writefile{toc}{\contentsline {subsubsection}{Reporte}{308}{section*.289}\protected@file@percent }
\newlabel{reporte-53}{{D.0.1}{308}{Reporte}{section*.289}{}}
\@writefile{toc}{\contentsline {subsubsection}{Imagen:}{309}{section*.290}\protected@file@percent }
\newlabel{imagen-53}{{D.0.1}{309}{Imagen:}{section*.290}{}}
\@writefile{toc}{\contentsline {subsubsection}{Transcripción:}{309}{section*.291}\protected@file@percent }
\newlabel{transcripciuxf3n-53}{{D.0.1}{309}{Transcripción:}{section*.291}{}}
\@writefile{toc}{\contentsline {subsubsection}{Memo}{309}{section*.292}\protected@file@percent }
\newlabel{memo-53}{{D.0.1}{309}{Memo}{section*.292}{}}
\@writefile{toc}{\contentsline {subsubsection}{Reporte}{309}{section*.293}\protected@file@percent }
\newlabel{reporte-54}{{D.0.1}{309}{Reporte}{section*.293}{}}
\@writefile{toc}{\contentsline {subsubsection}{Imagen:}{310}{section*.294}\protected@file@percent }
\newlabel{imagen-54}{{D.0.1}{310}{Imagen:}{section*.294}{}}
\@writefile{toc}{\contentsline {subsubsection}{Transcripción:}{310}{section*.295}\protected@file@percent }
\newlabel{transcripciuxf3n-54}{{D.0.1}{310}{Transcripción:}{section*.295}{}}
\@writefile{toc}{\contentsline {subsubsection}{Memo}{310}{section*.296}\protected@file@percent }
\newlabel{memo-54}{{D.0.1}{310}{Memo}{section*.296}{}}
\@writefile{toc}{\contentsline {subsubsection}{Reporte}{310}{section*.297}\protected@file@percent }
\newlabel{reporte-55}{{D.0.1}{310}{Reporte}{section*.297}{}}
\@writefile{toc}{\contentsline {subsubsection}{Imagen:}{311}{section*.298}\protected@file@percent }
\newlabel{imagen-55}{{D.0.1}{311}{Imagen:}{section*.298}{}}
\@writefile{toc}{\contentsline {subsubsection}{Transcripción:}{311}{section*.299}\protected@file@percent }
\newlabel{transcripciuxf3n-55}{{D.0.1}{311}{Transcripción:}{section*.299}{}}
\@writefile{toc}{\contentsline {subsubsection}{Memo}{311}{section*.300}\protected@file@percent }
\newlabel{memo-55}{{D.0.1}{311}{Memo}{section*.300}{}}
\@writefile{toc}{\contentsline {subsubsection}{Reporte}{311}{section*.301}\protected@file@percent }
\newlabel{reporte-56}{{D.0.1}{311}{Reporte}{section*.301}{}}
\@writefile{toc}{\contentsline {subsubsection}{Imagen:}{312}{section*.302}\protected@file@percent }
\newlabel{imagen-56}{{D.0.1}{312}{Imagen:}{section*.302}{}}
\@writefile{toc}{\contentsline {subsubsection}{Transcripción:}{312}{section*.303}\protected@file@percent }
\newlabel{transcripciuxf3n-56}{{D.0.1}{312}{Transcripción:}{section*.303}{}}
\@writefile{toc}{\contentsline {subsubsection}{Memo}{312}{section*.304}\protected@file@percent }
\newlabel{memo-56}{{D.0.1}{312}{Memo}{section*.304}{}}
\@writefile{toc}{\contentsline {subsubsection}{Reporte}{312}{section*.305}\protected@file@percent }
\newlabel{reporte-57}{{D.0.1}{312}{Reporte}{section*.305}{}}
\@writefile{toc}{\contentsline {subsubsection}{Imagen:}{313}{section*.306}\protected@file@percent }
\newlabel{imagen-57}{{D.0.1}{313}{Imagen:}{section*.306}{}}
\@writefile{toc}{\contentsline {subsubsection}{Transcripción:}{313}{section*.307}\protected@file@percent }
\newlabel{transcripciuxf3n-57}{{D.0.1}{313}{Transcripción:}{section*.307}{}}
\@writefile{toc}{\contentsline {subsubsection}{Memo}{313}{section*.308}\protected@file@percent }
\newlabel{memo-57}{{D.0.1}{313}{Memo}{section*.308}{}}
\@writefile{toc}{\contentsline {subsubsection}{Reporte}{313}{section*.309}\protected@file@percent }
\newlabel{reporte-58}{{D.0.1}{313}{Reporte}{section*.309}{}}
\@writefile{toc}{\contentsline {subsubsection}{Imagen:}{314}{section*.310}\protected@file@percent }
\newlabel{imagen-58}{{D.0.1}{314}{Imagen:}{section*.310}{}}
\@writefile{toc}{\contentsline {subsubsection}{Transcripción:}{314}{section*.311}\protected@file@percent }
\newlabel{transcripciuxf3n-58}{{D.0.1}{314}{Transcripción:}{section*.311}{}}
\@writefile{toc}{\contentsline {subsubsection}{Memo}{314}{section*.312}\protected@file@percent }
\newlabel{memo-58}{{D.0.1}{314}{Memo}{section*.312}{}}
\@writefile{toc}{\contentsline {subsubsection}{Reporte}{314}{section*.313}\protected@file@percent }
\newlabel{reporte-59}{{D.0.1}{314}{Reporte}{section*.313}{}}
\@writefile{toc}{\contentsline {subsubsection}{Imagen:}{315}{section*.314}\protected@file@percent }
\newlabel{imagen-59}{{D.0.1}{315}{Imagen:}{section*.314}{}}
\@writefile{toc}{\contentsline {subsubsection}{Transcripción:}{315}{section*.315}\protected@file@percent }
\newlabel{transcripciuxf3n-59}{{D.0.1}{315}{Transcripción:}{section*.315}{}}
\@writefile{toc}{\contentsline {subsubsection}{Memo}{315}{section*.316}\protected@file@percent }
\newlabel{memo-59}{{D.0.1}{315}{Memo}{section*.316}{}}
\@writefile{toc}{\contentsline {subsubsection}{Reporte}{315}{section*.317}\protected@file@percent }
\newlabel{reporte-60}{{D.0.1}{315}{Reporte}{section*.317}{}}
\@writefile{toc}{\contentsline {subsubsection}{Imagen:}{316}{section*.318}\protected@file@percent }
\newlabel{imagen-60}{{D.0.1}{316}{Imagen:}{section*.318}{}}
\@writefile{toc}{\contentsline {subsubsection}{Transcripción:}{316}{section*.319}\protected@file@percent }
\newlabel{transcripciuxf3n-60}{{D.0.1}{316}{Transcripción:}{section*.319}{}}
\@writefile{toc}{\contentsline {subsubsection}{Memo}{316}{section*.320}\protected@file@percent }
\newlabel{memo-60}{{D.0.1}{316}{Memo}{section*.320}{}}
\@writefile{toc}{\contentsline {subsubsection}{Reporte}{316}{section*.321}\protected@file@percent }
\newlabel{reporte-61}{{D.0.1}{316}{Reporte}{section*.321}{}}
\@writefile{toc}{\contentsline {subsubsection}{Imagen:}{317}{section*.322}\protected@file@percent }
\newlabel{imagen-61}{{D.0.1}{317}{Imagen:}{section*.322}{}}
\@writefile{toc}{\contentsline {subsubsection}{Transcripción:}{317}{section*.323}\protected@file@percent }
\newlabel{transcripciuxf3n-61}{{D.0.1}{317}{Transcripción:}{section*.323}{}}
\@writefile{toc}{\contentsline {subsubsection}{Memo}{317}{section*.324}\protected@file@percent }
\newlabel{memo-61}{{D.0.1}{317}{Memo}{section*.324}{}}
\@writefile{toc}{\contentsline {subsubsection}{Reporte}{317}{section*.325}\protected@file@percent }
\newlabel{reporte-62}{{D.0.1}{317}{Reporte}{section*.325}{}}
\@writefile{toc}{\contentsline {subsubsection}{Imagen:}{318}{section*.326}\protected@file@percent }
\newlabel{imagen-62}{{D.0.1}{318}{Imagen:}{section*.326}{}}
\@writefile{toc}{\contentsline {subsubsection}{Transcripción:}{318}{section*.327}\protected@file@percent }
\newlabel{transcripciuxf3n-62}{{D.0.1}{318}{Transcripción:}{section*.327}{}}
\@writefile{toc}{\contentsline {subsubsection}{Memo}{318}{section*.328}\protected@file@percent }
\newlabel{memo-62}{{D.0.1}{318}{Memo}{section*.328}{}}
\@writefile{toc}{\contentsline {subsubsection}{Reporte}{318}{section*.329}\protected@file@percent }
\newlabel{reporte-63}{{D.0.1}{318}{Reporte}{section*.329}{}}
\@writefile{toc}{\contentsline {subsubsection}{Imagen:}{319}{section*.330}\protected@file@percent }
\newlabel{imagen-63}{{D.0.1}{319}{Imagen:}{section*.330}{}}
\@writefile{toc}{\contentsline {subsubsection}{Transcripción:}{319}{section*.331}\protected@file@percent }
\newlabel{transcripciuxf3n-63}{{D.0.1}{319}{Transcripción:}{section*.331}{}}
\@writefile{toc}{\contentsline {subsubsection}{Memo}{319}{section*.332}\protected@file@percent }
\newlabel{memo-63}{{D.0.1}{319}{Memo}{section*.332}{}}
\@writefile{toc}{\contentsline {subsubsection}{Reporte}{319}{section*.333}\protected@file@percent }
\newlabel{reporte-64}{{D.0.1}{319}{Reporte}{section*.333}{}}
\@writefile{toc}{\contentsline {subsubsection}{Imagen:}{320}{section*.334}\protected@file@percent }
\newlabel{imagen-64}{{D.0.1}{320}{Imagen:}{section*.334}{}}
\@writefile{toc}{\contentsline {subsubsection}{Transcripción:}{320}{section*.335}\protected@file@percent }
\newlabel{transcripciuxf3n-64}{{D.0.1}{320}{Transcripción:}{section*.335}{}}
\@writefile{toc}{\contentsline {subsubsection}{Memo}{320}{section*.336}\protected@file@percent }
\newlabel{memo-64}{{D.0.1}{320}{Memo}{section*.336}{}}
\@writefile{toc}{\contentsline {subsubsection}{Reporte}{320}{section*.337}\protected@file@percent }
\newlabel{reporte-65}{{D.0.1}{320}{Reporte}{section*.337}{}}
\@writefile{toc}{\contentsline {subsubsection}{Imagen:}{321}{section*.338}\protected@file@percent }
\newlabel{imagen-65}{{D.0.1}{321}{Imagen:}{section*.338}{}}
\@writefile{toc}{\contentsline {subsubsection}{Transcripción:}{321}{section*.339}\protected@file@percent }
\newlabel{transcripciuxf3n-65}{{D.0.1}{321}{Transcripción:}{section*.339}{}}
\@writefile{toc}{\contentsline {subsubsection}{Memo}{321}{section*.340}\protected@file@percent }
\newlabel{memo-65}{{D.0.1}{321}{Memo}{section*.340}{}}
\@writefile{toc}{\contentsline {subsubsection}{Reporte}{321}{section*.341}\protected@file@percent }
\newlabel{reporte-66}{{D.0.1}{321}{Reporte}{section*.341}{}}
\@writefile{toc}{\contentsline {subsubsection}{Imagen:}{322}{section*.342}\protected@file@percent }
\newlabel{imagen-66}{{D.0.1}{322}{Imagen:}{section*.342}{}}
\@writefile{toc}{\contentsline {subsubsection}{Transcripción:}{322}{section*.343}\protected@file@percent }
\newlabel{transcripciuxf3n-66}{{D.0.1}{322}{Transcripción:}{section*.343}{}}
\@writefile{toc}{\contentsline {subsubsection}{Memo}{322}{section*.344}\protected@file@percent }
\newlabel{memo-66}{{D.0.1}{322}{Memo}{section*.344}{}}
\@writefile{toc}{\contentsline {subsubsection}{Reporte}{322}{section*.345}\protected@file@percent }
\newlabel{reporte-67}{{D.0.1}{322}{Reporte}{section*.345}{}}
\@writefile{toc}{\contentsline {subsubsection}{Imagen:}{323}{section*.346}\protected@file@percent }
\newlabel{imagen-67}{{D.0.1}{323}{Imagen:}{section*.346}{}}
\@writefile{toc}{\contentsline {subsubsection}{Transcripción:}{323}{section*.347}\protected@file@percent }
\newlabel{transcripciuxf3n-67}{{D.0.1}{323}{Transcripción:}{section*.347}{}}
\@writefile{toc}{\contentsline {subsubsection}{Memo}{323}{section*.348}\protected@file@percent }
\newlabel{memo-67}{{D.0.1}{323}{Memo}{section*.348}{}}
\@writefile{toc}{\contentsline {subsubsection}{Reporte}{323}{section*.349}\protected@file@percent }
\newlabel{reporte-68}{{D.0.1}{323}{Reporte}{section*.349}{}}
\@writefile{toc}{\contentsline {subsubsection}{Imagen:}{324}{section*.350}\protected@file@percent }
\newlabel{imagen-68}{{D.0.1}{324}{Imagen:}{section*.350}{}}
\@writefile{toc}{\contentsline {subsubsection}{Transcripción:}{324}{section*.351}\protected@file@percent }
\newlabel{transcripciuxf3n-68}{{D.0.1}{324}{Transcripción:}{section*.351}{}}
\@writefile{toc}{\contentsline {subsubsection}{Memo}{324}{section*.352}\protected@file@percent }
\newlabel{memo-68}{{D.0.1}{324}{Memo}{section*.352}{}}
\@writefile{toc}{\contentsline {subsubsection}{Reporte}{324}{section*.353}\protected@file@percent }
\newlabel{reporte-69}{{D.0.1}{324}{Reporte}{section*.353}{}}
\@writefile{toc}{\contentsline {subsubsection}{Imagen:}{325}{section*.354}\protected@file@percent }
\newlabel{imagen-69}{{D.0.1}{325}{Imagen:}{section*.354}{}}
\@writefile{toc}{\contentsline {subsubsection}{Transcripción:}{325}{section*.355}\protected@file@percent }
\newlabel{transcripciuxf3n-69}{{D.0.1}{325}{Transcripción:}{section*.355}{}}
\@writefile{toc}{\contentsline {subsubsection}{Memo}{325}{section*.356}\protected@file@percent }
\newlabel{memo-69}{{D.0.1}{325}{Memo}{section*.356}{}}
\@writefile{toc}{\contentsline {subsubsection}{Reporte}{325}{section*.357}\protected@file@percent }
\newlabel{reporte-70}{{D.0.1}{325}{Reporte}{section*.357}{}}
\@writefile{toc}{\contentsline {subsubsection}{Imagen:}{326}{section*.358}\protected@file@percent }
\newlabel{imagen-70}{{D.0.1}{326}{Imagen:}{section*.358}{}}
\@writefile{toc}{\contentsline {subsubsection}{Transcripción:}{326}{section*.359}\protected@file@percent }
\newlabel{transcripciuxf3n-70}{{D.0.1}{326}{Transcripción:}{section*.359}{}}
\@writefile{toc}{\contentsline {subsubsection}{Memo}{326}{section*.360}\protected@file@percent }
\newlabel{memo-70}{{D.0.1}{326}{Memo}{section*.360}{}}
\@writefile{toc}{\contentsline {subsubsection}{Reporte}{326}{section*.361}\protected@file@percent }
\newlabel{reporte-71}{{D.0.1}{326}{Reporte}{section*.361}{}}
\@writefile{toc}{\contentsline {subsubsection}{Imagen:}{327}{section*.362}\protected@file@percent }
\newlabel{imagen-71}{{D.0.1}{327}{Imagen:}{section*.362}{}}
\@writefile{toc}{\contentsline {subsubsection}{Transcripción:}{327}{section*.363}\protected@file@percent }
\newlabel{transcripciuxf3n-71}{{D.0.1}{327}{Transcripción:}{section*.363}{}}
\@writefile{toc}{\contentsline {subsubsection}{Memo}{327}{section*.364}\protected@file@percent }
\newlabel{memo-71}{{D.0.1}{327}{Memo}{section*.364}{}}
\@writefile{toc}{\contentsline {subsubsection}{Reporte}{327}{section*.365}\protected@file@percent }
\newlabel{reporte-72}{{D.0.1}{327}{Reporte}{section*.365}{}}
\@writefile{toc}{\contentsline {subsubsection}{Imagen:}{328}{section*.366}\protected@file@percent }
\newlabel{imagen-72}{{D.0.1}{328}{Imagen:}{section*.366}{}}
\@writefile{toc}{\contentsline {subsubsection}{Transcripción:}{328}{section*.367}\protected@file@percent }
\newlabel{transcripciuxf3n-72}{{D.0.1}{328}{Transcripción:}{section*.367}{}}
\@writefile{toc}{\contentsline {subsubsection}{Memo}{328}{section*.368}\protected@file@percent }
\newlabel{memo-72}{{D.0.1}{328}{Memo}{section*.368}{}}
\@writefile{toc}{\contentsline {subsubsection}{Reporte}{328}{section*.369}\protected@file@percent }
\newlabel{reporte-73}{{D.0.1}{328}{Reporte}{section*.369}{}}
\@writefile{toc}{\contentsline {subsubsection}{Imagen:}{329}{section*.370}\protected@file@percent }
\newlabel{imagen-73}{{D.0.1}{329}{Imagen:}{section*.370}{}}
\@writefile{toc}{\contentsline {subsubsection}{Transcripción:}{329}{section*.371}\protected@file@percent }
\newlabel{transcripciuxf3n-73}{{D.0.1}{329}{Transcripción:}{section*.371}{}}
\@writefile{toc}{\contentsline {subsubsection}{Memo}{329}{section*.372}\protected@file@percent }
\newlabel{memo-73}{{D.0.1}{329}{Memo}{section*.372}{}}
\@writefile{toc}{\contentsline {subsubsection}{Reporte}{329}{section*.373}\protected@file@percent }
\newlabel{reporte-74}{{D.0.1}{329}{Reporte}{section*.373}{}}
\@writefile{toc}{\contentsline {subsubsection}{Imagen:}{330}{section*.374}\protected@file@percent }
\newlabel{imagen-74}{{D.0.1}{330}{Imagen:}{section*.374}{}}
\@writefile{toc}{\contentsline {subsubsection}{Transcripción:}{330}{section*.375}\protected@file@percent }
\newlabel{transcripciuxf3n-74}{{D.0.1}{330}{Transcripción:}{section*.375}{}}
\@writefile{toc}{\contentsline {subsubsection}{Memo}{330}{section*.376}\protected@file@percent }
\newlabel{memo-74}{{D.0.1}{330}{Memo}{section*.376}{}}
\@writefile{toc}{\contentsline {subsubsection}{Reporte}{330}{section*.377}\protected@file@percent }
\newlabel{reporte-75}{{D.0.1}{330}{Reporte}{section*.377}{}}
\@writefile{toc}{\contentsline {subsubsection}{Imagen:}{331}{section*.378}\protected@file@percent }
\newlabel{imagen-75}{{D.0.1}{331}{Imagen:}{section*.378}{}}
\@writefile{toc}{\contentsline {subsubsection}{Transcripción:}{331}{section*.379}\protected@file@percent }
\newlabel{transcripciuxf3n-75}{{D.0.1}{331}{Transcripción:}{section*.379}{}}
\@writefile{toc}{\contentsline {subsubsection}{Memo}{331}{section*.380}\protected@file@percent }
\newlabel{memo-75}{{D.0.1}{331}{Memo}{section*.380}{}}
\@writefile{toc}{\contentsline {subsubsection}{Reporte}{331}{section*.381}\protected@file@percent }
\newlabel{reporte-76}{{D.0.1}{331}{Reporte}{section*.381}{}}
\@writefile{toc}{\contentsline {subsubsection}{Imagen:}{332}{section*.382}\protected@file@percent }
\newlabel{imagen-76}{{D.0.1}{332}{Imagen:}{section*.382}{}}
\@writefile{toc}{\contentsline {subsubsection}{Transcripción:}{332}{section*.383}\protected@file@percent }
\newlabel{transcripciuxf3n-76}{{D.0.1}{332}{Transcripción:}{section*.383}{}}
\@writefile{toc}{\contentsline {subsubsection}{Memo}{332}{section*.384}\protected@file@percent }
\newlabel{memo-76}{{D.0.1}{332}{Memo}{section*.384}{}}
\@writefile{toc}{\contentsline {subsubsection}{Reporte}{332}{section*.385}\protected@file@percent }
\newlabel{reporte-77}{{D.0.1}{332}{Reporte}{section*.385}{}}
\@writefile{toc}{\contentsline {subsubsection}{Imagen:}{333}{section*.386}\protected@file@percent }
\newlabel{imagen-77}{{D.0.1}{333}{Imagen:}{section*.386}{}}
\@writefile{toc}{\contentsline {subsubsection}{Transcripción:}{333}{section*.387}\protected@file@percent }
\newlabel{transcripciuxf3n-77}{{D.0.1}{333}{Transcripción:}{section*.387}{}}
\@writefile{toc}{\contentsline {subsubsection}{Memo}{333}{section*.388}\protected@file@percent }
\newlabel{memo-77}{{D.0.1}{333}{Memo}{section*.388}{}}
\@writefile{toc}{\contentsline {subsubsection}{Reporte}{333}{section*.389}\protected@file@percent }
\newlabel{reporte-78}{{D.0.1}{333}{Reporte}{section*.389}{}}
\@writefile{toc}{\contentsline {subsubsection}{Imagen:}{334}{section*.390}\protected@file@percent }
\newlabel{imagen-78}{{D.0.1}{334}{Imagen:}{section*.390}{}}
\@writefile{toc}{\contentsline {subsubsection}{Transcripción:}{334}{section*.391}\protected@file@percent }
\newlabel{transcripciuxf3n-78}{{D.0.1}{334}{Transcripción:}{section*.391}{}}
\@writefile{toc}{\contentsline {subsubsection}{Memo}{334}{section*.392}\protected@file@percent }
\newlabel{memo-78}{{D.0.1}{334}{Memo}{section*.392}{}}
\@writefile{toc}{\contentsline {subsubsection}{Reporte}{334}{section*.393}\protected@file@percent }
\newlabel{reporte-79}{{D.0.1}{334}{Reporte}{section*.393}{}}
\@writefile{toc}{\contentsline {subsubsection}{Imagen:}{334}{section*.394}\protected@file@percent }
\newlabel{imagen-79}{{D.0.1}{334}{Imagen:}{section*.394}{}}
\@writefile{toc}{\contentsline {subsubsection}{Transcripción:}{335}{section*.395}\protected@file@percent }
\newlabel{transcripciuxf3n-79}{{D.0.1}{335}{Transcripción:}{section*.395}{}}
\@writefile{toc}{\contentsline {subsubsection}{Memo}{335}{section*.396}\protected@file@percent }
\newlabel{memo-79}{{D.0.1}{335}{Memo}{section*.396}{}}
\@writefile{toc}{\contentsline {subsubsection}{Reporte}{335}{section*.397}\protected@file@percent }
\newlabel{reporte-80}{{D.0.1}{335}{Reporte}{section*.397}{}}
\@writefile{toc}{\contentsline {subsubsection}{Imagen:}{335}{section*.398}\protected@file@percent }
\newlabel{imagen-80}{{D.0.1}{335}{Imagen:}{section*.398}{}}
\@writefile{toc}{\contentsline {subsubsection}{Transcripción:}{336}{section*.399}\protected@file@percent }
\newlabel{transcripciuxf3n-80}{{D.0.1}{336}{Transcripción:}{section*.399}{}}
\@writefile{toc}{\contentsline {subsubsection}{Memo}{336}{section*.400}\protected@file@percent }
\newlabel{memo-80}{{D.0.1}{336}{Memo}{section*.400}{}}
\@writefile{toc}{\contentsline {subsubsection}{Reporte}{336}{section*.401}\protected@file@percent }
\newlabel{reporte-81}{{D.0.1}{336}{Reporte}{section*.401}{}}
\@writefile{toc}{\contentsline {subsubsection}{Imagen:}{336}{section*.402}\protected@file@percent }
\newlabel{imagen-81}{{D.0.1}{336}{Imagen:}{section*.402}{}}
\@writefile{toc}{\contentsline {subsubsection}{Transcripción:}{337}{section*.403}\protected@file@percent }
\newlabel{transcripciuxf3n-81}{{D.0.1}{337}{Transcripción:}{section*.403}{}}
\@writefile{toc}{\contentsline {subsubsection}{Memo}{337}{section*.404}\protected@file@percent }
\newlabel{memo-81}{{D.0.1}{337}{Memo}{section*.404}{}}
\@writefile{toc}{\contentsline {subsubsection}{Reporte}{337}{section*.405}\protected@file@percent }
\newlabel{reporte-82}{{D.0.1}{337}{Reporte}{section*.405}{}}
\@writefile{toc}{\contentsline {subsubsection}{Imagen:}{337}{section*.406}\protected@file@percent }
\newlabel{imagen-82}{{D.0.1}{337}{Imagen:}{section*.406}{}}
\@writefile{toc}{\contentsline {subsubsection}{Transcripción:}{338}{section*.407}\protected@file@percent }
\newlabel{transcripciuxf3n-82}{{D.0.1}{338}{Transcripción:}{section*.407}{}}
\@writefile{toc}{\contentsline {subsubsection}{Memo}{338}{section*.408}\protected@file@percent }
\newlabel{memo-82}{{D.0.1}{338}{Memo}{section*.408}{}}
\@writefile{toc}{\contentsline {subsubsection}{Reporte}{338}{section*.409}\protected@file@percent }
\newlabel{reporte-83}{{D.0.1}{338}{Reporte}{section*.409}{}}
\@writefile{toc}{\contentsline {subsubsection}{Imagen:}{338}{section*.410}\protected@file@percent }
\newlabel{imagen-83}{{D.0.1}{338}{Imagen:}{section*.410}{}}
\@writefile{toc}{\contentsline {subsubsection}{Transcripción:}{339}{section*.411}\protected@file@percent }
\newlabel{transcripciuxf3n-83}{{D.0.1}{339}{Transcripción:}{section*.411}{}}
\@writefile{toc}{\contentsline {subsubsection}{Memo}{339}{section*.412}\protected@file@percent }
\newlabel{memo-83}{{D.0.1}{339}{Memo}{section*.412}{}}
\@writefile{toc}{\contentsline {subsubsection}{Reporte}{339}{section*.413}\protected@file@percent }
\newlabel{reporte-84}{{D.0.1}{339}{Reporte}{section*.413}{}}
\@writefile{toc}{\contentsline {subsubsection}{Imagen:}{339}{section*.414}\protected@file@percent }
\newlabel{imagen-84}{{D.0.1}{339}{Imagen:}{section*.414}{}}
\@writefile{toc}{\contentsline {subsubsection}{Transcripción:}{340}{section*.415}\protected@file@percent }
\newlabel{transcripciuxf3n-84}{{D.0.1}{340}{Transcripción:}{section*.415}{}}
\@writefile{toc}{\contentsline {subsubsection}{Memo}{340}{section*.416}\protected@file@percent }
\newlabel{memo-84}{{D.0.1}{340}{Memo}{section*.416}{}}
\@writefile{toc}{\contentsline {subsubsection}{Reporte}{340}{section*.417}\protected@file@percent }
\newlabel{reporte-85}{{D.0.1}{340}{Reporte}{section*.417}{}}
\@writefile{toc}{\contentsline {subsubsection}{Imagen:}{340}{section*.418}\protected@file@percent }
\newlabel{imagen-85}{{D.0.1}{340}{Imagen:}{section*.418}{}}
\@writefile{toc}{\contentsline {subsubsection}{Transcripción:}{341}{section*.419}\protected@file@percent }
\newlabel{transcripciuxf3n-85}{{D.0.1}{341}{Transcripción:}{section*.419}{}}
\@writefile{toc}{\contentsline {subsubsection}{Memo}{341}{section*.420}\protected@file@percent }
\newlabel{memo-85}{{D.0.1}{341}{Memo}{section*.420}{}}
\@writefile{toc}{\contentsline {subsubsection}{Reporte}{341}{section*.421}\protected@file@percent }
\newlabel{reporte-86}{{D.0.1}{341}{Reporte}{section*.421}{}}
\@writefile{toc}{\contentsline {subsubsection}{Imagen:}{341}{section*.422}\protected@file@percent }
\newlabel{imagen-86}{{D.0.1}{341}{Imagen:}{section*.422}{}}
\@writefile{toc}{\contentsline {subsubsection}{Transcripción:}{342}{section*.423}\protected@file@percent }
\newlabel{transcripciuxf3n-86}{{D.0.1}{342}{Transcripción:}{section*.423}{}}
\@writefile{toc}{\contentsline {subsubsection}{Memo}{342}{section*.424}\protected@file@percent }
\newlabel{memo-86}{{D.0.1}{342}{Memo}{section*.424}{}}
\@writefile{toc}{\contentsline {subsubsection}{Reporte}{342}{section*.425}\protected@file@percent }
\newlabel{reporte-87}{{D.0.1}{342}{Reporte}{section*.425}{}}
\@writefile{toc}{\contentsline {subsubsection}{Imagen:}{342}{section*.426}\protected@file@percent }
\newlabel{imagen-87}{{D.0.1}{342}{Imagen:}{section*.426}{}}
\@writefile{toc}{\contentsline {subsubsection}{Transcripción:}{343}{section*.427}\protected@file@percent }
\newlabel{transcripciuxf3n-87}{{D.0.1}{343}{Transcripción:}{section*.427}{}}
\@writefile{toc}{\contentsline {subsubsection}{Memo}{343}{section*.428}\protected@file@percent }
\newlabel{memo-87}{{D.0.1}{343}{Memo}{section*.428}{}}
\@writefile{toc}{\contentsline {subsubsection}{Reporte}{343}{section*.429}\protected@file@percent }
\newlabel{reporte-88}{{D.0.1}{343}{Reporte}{section*.429}{}}
\@writefile{toc}{\contentsline {subsubsection}{Imagen:}{343}{section*.430}\protected@file@percent }
\newlabel{imagen-88}{{D.0.1}{343}{Imagen:}{section*.430}{}}
\@writefile{toc}{\contentsline {subsubsection}{Transcripción:}{344}{section*.431}\protected@file@percent }
\newlabel{transcripciuxf3n-88}{{D.0.1}{344}{Transcripción:}{section*.431}{}}
\@writefile{toc}{\contentsline {subsubsection}{Memo}{344}{section*.432}\protected@file@percent }
\newlabel{memo-88}{{D.0.1}{344}{Memo}{section*.432}{}}
\@writefile{toc}{\contentsline {subsubsection}{Reporte}{344}{section*.433}\protected@file@percent }
\newlabel{reporte-89}{{D.0.1}{344}{Reporte}{section*.433}{}}
\@writefile{toc}{\contentsline {subsubsection}{Imagen:}{344}{section*.434}\protected@file@percent }
\newlabel{imagen-89}{{D.0.1}{344}{Imagen:}{section*.434}{}}
\@writefile{toc}{\contentsline {subsubsection}{Transcripción:}{345}{section*.435}\protected@file@percent }
\newlabel{transcripciuxf3n-89}{{D.0.1}{345}{Transcripción:}{section*.435}{}}
\@writefile{toc}{\contentsline {subsubsection}{Memo}{345}{section*.436}\protected@file@percent }
\newlabel{memo-89}{{D.0.1}{345}{Memo}{section*.436}{}}
\@writefile{toc}{\contentsline {subsubsection}{Reporte}{345}{section*.437}\protected@file@percent }
\newlabel{reporte-90}{{D.0.1}{345}{Reporte}{section*.437}{}}
\@writefile{toc}{\contentsline {subsubsection}{Imagen:}{345}{section*.438}\protected@file@percent }
\newlabel{imagen-90}{{D.0.1}{345}{Imagen:}{section*.438}{}}
\@writefile{toc}{\contentsline {subsubsection}{Transcripción:}{346}{section*.439}\protected@file@percent }
\newlabel{transcripciuxf3n-90}{{D.0.1}{346}{Transcripción:}{section*.439}{}}
\@writefile{toc}{\contentsline {subsubsection}{Memo}{346}{section*.440}\protected@file@percent }
\newlabel{memo-90}{{D.0.1}{346}{Memo}{section*.440}{}}
\@writefile{toc}{\contentsline {subsubsection}{Reporte}{346}{section*.441}\protected@file@percent }
\newlabel{reporte-91}{{D.0.1}{346}{Reporte}{section*.441}{}}
\@writefile{toc}{\contentsline {subsubsection}{Imagen:}{346}{section*.442}\protected@file@percent }
\newlabel{imagen-91}{{D.0.1}{346}{Imagen:}{section*.442}{}}
\@writefile{toc}{\contentsline {subsubsection}{Transcripción:}{347}{section*.443}\protected@file@percent }
\newlabel{transcripciuxf3n-91}{{D.0.1}{347}{Transcripción:}{section*.443}{}}
\@writefile{toc}{\contentsline {subsubsection}{Memo}{347}{section*.444}\protected@file@percent }
\newlabel{memo-91}{{D.0.1}{347}{Memo}{section*.444}{}}
\@writefile{toc}{\contentsline {subsubsection}{Reporte}{347}{section*.445}\protected@file@percent }
\newlabel{reporte-92}{{D.0.1}{347}{Reporte}{section*.445}{}}
\@writefile{toc}{\contentsline {subsubsection}{Imagen:}{347}{section*.446}\protected@file@percent }
\newlabel{imagen-92}{{D.0.1}{347}{Imagen:}{section*.446}{}}
\@writefile{toc}{\contentsline {subsubsection}{Transcripción:}{348}{section*.447}\protected@file@percent }
\newlabel{transcripciuxf3n-92}{{D.0.1}{348}{Transcripción:}{section*.447}{}}
\@writefile{toc}{\contentsline {subsubsection}{Memo}{348}{section*.448}\protected@file@percent }
\newlabel{memo-92}{{D.0.1}{348}{Memo}{section*.448}{}}
\@writefile{toc}{\contentsline {subsubsection}{Reporte}{348}{section*.449}\protected@file@percent }
\newlabel{reporte-93}{{D.0.1}{348}{Reporte}{section*.449}{}}
\@writefile{toc}{\contentsline {subsubsection}{Imagen:}{348}{section*.450}\protected@file@percent }
\newlabel{imagen-93}{{D.0.1}{348}{Imagen:}{section*.450}{}}
\@writefile{toc}{\contentsline {subsubsection}{Transcripción:}{349}{section*.451}\protected@file@percent }
\newlabel{transcripciuxf3n-93}{{D.0.1}{349}{Transcripción:}{section*.451}{}}
\@writefile{toc}{\contentsline {subsubsection}{Memo}{349}{section*.452}\protected@file@percent }
\newlabel{memo-93}{{D.0.1}{349}{Memo}{section*.452}{}}
\@writefile{toc}{\contentsline {subsubsection}{Reporte}{349}{section*.453}\protected@file@percent }
\newlabel{reporte-94}{{D.0.1}{349}{Reporte}{section*.453}{}}
\@writefile{toc}{\contentsline {subsubsection}{Imagen:}{350}{section*.454}\protected@file@percent }
\newlabel{imagen-94}{{D.0.1}{350}{Imagen:}{section*.454}{}}
\@writefile{toc}{\contentsline {subsubsection}{Transcripción:}{351}{section*.455}\protected@file@percent }
\newlabel{transcripciuxf3n-94}{{D.0.1}{351}{Transcripción:}{section*.455}{}}
\@writefile{toc}{\contentsline {subsubsection}{Memo}{351}{section*.456}\protected@file@percent }
\newlabel{memo-94}{{D.0.1}{351}{Memo}{section*.456}{}}
\@writefile{toc}{\contentsline {subsubsection}{Reporte}{351}{section*.457}\protected@file@percent }
\newlabel{reporte-95}{{D.0.1}{351}{Reporte}{section*.457}{}}
\@writefile{toc}{\contentsline {subsubsection}{Imagen:}{352}{section*.458}\protected@file@percent }
\newlabel{imagen-95}{{D.0.1}{352}{Imagen:}{section*.458}{}}
\@writefile{toc}{\contentsline {subsubsection}{Transcripción:}{353}{section*.459}\protected@file@percent }
\newlabel{transcripciuxf3n-95}{{D.0.1}{353}{Transcripción:}{section*.459}{}}
\@writefile{toc}{\contentsline {subsubsection}{Memo}{353}{section*.460}\protected@file@percent }
\newlabel{memo-95}{{D.0.1}{353}{Memo}{section*.460}{}}
\@writefile{toc}{\contentsline {subsubsection}{Reporte}{353}{section*.461}\protected@file@percent }
\newlabel{reporte-96}{{D.0.1}{353}{Reporte}{section*.461}{}}
\@writefile{toc}{\contentsline {subsubsection}{Imagen:}{353}{section*.462}\protected@file@percent }
\newlabel{imagen-96}{{D.0.1}{353}{Imagen:}{section*.462}{}}
\@writefile{toc}{\contentsline {subsubsection}{Transcripción:}{354}{section*.463}\protected@file@percent }
\newlabel{transcripciuxf3n-96}{{D.0.1}{354}{Transcripción:}{section*.463}{}}
\@writefile{toc}{\contentsline {subsubsection}{Memo}{354}{section*.464}\protected@file@percent }
\newlabel{memo-96}{{D.0.1}{354}{Memo}{section*.464}{}}
\@writefile{toc}{\contentsline {subsubsection}{Reporte}{354}{section*.465}\protected@file@percent }
\newlabel{reporte-97}{{D.0.1}{354}{Reporte}{section*.465}{}}
\@writefile{toc}{\contentsline {subsubsection}{Imagen:}{354}{section*.466}\protected@file@percent }
\newlabel{imagen-97}{{D.0.1}{354}{Imagen:}{section*.466}{}}
\@writefile{toc}{\contentsline {subsubsection}{Transcripción:}{355}{section*.467}\protected@file@percent }
\newlabel{transcripciuxf3n-97}{{D.0.1}{355}{Transcripción:}{section*.467}{}}
\@writefile{toc}{\contentsline {subsubsection}{Memo}{355}{section*.468}\protected@file@percent }
\newlabel{memo-97}{{D.0.1}{355}{Memo}{section*.468}{}}
\@writefile{toc}{\contentsline {subsubsection}{Reporte}{355}{section*.469}\protected@file@percent }
\newlabel{reporte-98}{{D.0.1}{355}{Reporte}{section*.469}{}}
\@writefile{toc}{\contentsline {subsubsection}{Imagen:}{355}{section*.470}\protected@file@percent }
\newlabel{imagen-98}{{D.0.1}{355}{Imagen:}{section*.470}{}}
\@writefile{toc}{\contentsline {subsubsection}{Transcripción:}{356}{section*.471}\protected@file@percent }
\newlabel{transcripciuxf3n-98}{{D.0.1}{356}{Transcripción:}{section*.471}{}}
\@writefile{toc}{\contentsline {subsubsection}{Memo}{356}{section*.472}\protected@file@percent }
\newlabel{memo-98}{{D.0.1}{356}{Memo}{section*.472}{}}
\@writefile{toc}{\contentsline {subsubsection}{Reporte}{356}{section*.473}\protected@file@percent }
\newlabel{reporte-99}{{D.0.1}{356}{Reporte}{section*.473}{}}
\@writefile{toc}{\contentsline {subsubsection}{Imagen:}{356}{section*.474}\protected@file@percent }
\newlabel{imagen-99}{{D.0.1}{356}{Imagen:}{section*.474}{}}
\@writefile{toc}{\contentsline {subsubsection}{Transcripción:}{357}{section*.475}\protected@file@percent }
\newlabel{transcripciuxf3n-99}{{D.0.1}{357}{Transcripción:}{section*.475}{}}
\@writefile{toc}{\contentsline {subsubsection}{Memo}{357}{section*.476}\protected@file@percent }
\newlabel{memo-99}{{D.0.1}{357}{Memo}{section*.476}{}}
\@writefile{toc}{\contentsline {subsubsection}{Reporte}{357}{section*.477}\protected@file@percent }
\newlabel{reporte-100}{{D.0.1}{357}{Reporte}{section*.477}{}}
\@writefile{toc}{\contentsline {subsubsection}{Imagen:}{357}{section*.478}\protected@file@percent }
\newlabel{imagen-100}{{D.0.1}{357}{Imagen:}{section*.478}{}}
\@writefile{toc}{\contentsline {subsubsection}{Transcripción:}{358}{section*.479}\protected@file@percent }
\newlabel{transcripciuxf3n-100}{{D.0.1}{358}{Transcripción:}{section*.479}{}}
\@writefile{toc}{\contentsline {subsubsection}{Memo}{358}{section*.480}\protected@file@percent }
\newlabel{memo-100}{{D.0.1}{358}{Memo}{section*.480}{}}
\@writefile{toc}{\contentsline {subsubsection}{Reporte}{358}{section*.481}\protected@file@percent }
\newlabel{reporte-101}{{D.0.1}{358}{Reporte}{section*.481}{}}
\@writefile{toc}{\contentsline {subsubsection}{Imagen:}{358}{section*.482}\protected@file@percent }
\newlabel{imagen-101}{{D.0.1}{358}{Imagen:}{section*.482}{}}
\@writefile{toc}{\contentsline {subsubsection}{Transcripción:}{359}{section*.483}\protected@file@percent }
\newlabel{transcripciuxf3n-101}{{D.0.1}{359}{Transcripción:}{section*.483}{}}
\@writefile{toc}{\contentsline {subsubsection}{Memo}{359}{section*.484}\protected@file@percent }
\newlabel{memo-101}{{D.0.1}{359}{Memo}{section*.484}{}}
\@writefile{toc}{\contentsline {subsubsection}{Reporte}{359}{section*.485}\protected@file@percent }
\newlabel{reporte-102}{{D.0.1}{359}{Reporte}{section*.485}{}}
\@writefile{toc}{\contentsline {subsubsection}{Imagen:}{359}{section*.486}\protected@file@percent }
\newlabel{imagen-102}{{D.0.1}{359}{Imagen:}{section*.486}{}}
\@writefile{toc}{\contentsline {subsubsection}{Transcripción:}{360}{section*.487}\protected@file@percent }
\newlabel{transcripciuxf3n-102}{{D.0.1}{360}{Transcripción:}{section*.487}{}}
\@writefile{toc}{\contentsline {subsubsection}{Memo}{360}{section*.488}\protected@file@percent }
\newlabel{memo-102}{{D.0.1}{360}{Memo}{section*.488}{}}
\@writefile{toc}{\contentsline {subsubsection}{Reporte}{360}{section*.489}\protected@file@percent }
\newlabel{reporte-103}{{D.0.1}{360}{Reporte}{section*.489}{}}
\@writefile{toc}{\contentsline {subsubsection}{Imagen:}{360}{section*.490}\protected@file@percent }
\newlabel{imagen-103}{{D.0.1}{360}{Imagen:}{section*.490}{}}
\@writefile{toc}{\contentsline {subsubsection}{Transcripción:}{361}{section*.491}\protected@file@percent }
\newlabel{transcripciuxf3n-103}{{D.0.1}{361}{Transcripción:}{section*.491}{}}
\@writefile{toc}{\contentsline {subsubsection}{Memo}{361}{section*.492}\protected@file@percent }
\newlabel{memo-103}{{D.0.1}{361}{Memo}{section*.492}{}}
\@writefile{toc}{\contentsline {subsubsection}{Reporte}{361}{section*.493}\protected@file@percent }
\newlabel{reporte-104}{{D.0.1}{361}{Reporte}{section*.493}{}}
\@writefile{toc}{\contentsline {subsubsection}{Imagen:}{361}{section*.494}\protected@file@percent }
\newlabel{imagen-104}{{D.0.1}{361}{Imagen:}{section*.494}{}}
\@writefile{toc}{\contentsline {subsubsection}{Transcripción:}{362}{section*.495}\protected@file@percent }
\newlabel{transcripciuxf3n-104}{{D.0.1}{362}{Transcripción:}{section*.495}{}}
\@writefile{toc}{\contentsline {subsubsection}{Memo}{362}{section*.496}\protected@file@percent }
\newlabel{memo-104}{{D.0.1}{362}{Memo}{section*.496}{}}
\@writefile{toc}{\contentsline {subsubsection}{Reporte}{362}{section*.497}\protected@file@percent }
\newlabel{reporte-105}{{D.0.1}{362}{Reporte}{section*.497}{}}
\@writefile{toc}{\contentsline {subsubsection}{Imagen:}{362}{section*.498}\protected@file@percent }
\newlabel{imagen-105}{{D.0.1}{362}{Imagen:}{section*.498}{}}
\@writefile{toc}{\contentsline {subsubsection}{Transcripción:}{363}{section*.499}\protected@file@percent }
\newlabel{transcripciuxf3n-105}{{D.0.1}{363}{Transcripción:}{section*.499}{}}
\@writefile{toc}{\contentsline {subsubsection}{Memo}{363}{section*.500}\protected@file@percent }
\newlabel{memo-105}{{D.0.1}{363}{Memo}{section*.500}{}}
\@writefile{toc}{\contentsline {subsubsection}{Reporte}{363}{section*.501}\protected@file@percent }
\newlabel{reporte-106}{{D.0.1}{363}{Reporte}{section*.501}{}}
\@writefile{toc}{\contentsline {subsubsection}{Imagen:}{363}{section*.502}\protected@file@percent }
\newlabel{imagen-106}{{D.0.1}{363}{Imagen:}{section*.502}{}}
\@writefile{toc}{\contentsline {subsubsection}{Transcripción:}{364}{section*.503}\protected@file@percent }
\newlabel{transcripciuxf3n-106}{{D.0.1}{364}{Transcripción:}{section*.503}{}}
\@writefile{toc}{\contentsline {subsubsection}{Memo}{364}{section*.504}\protected@file@percent }
\newlabel{memo-106}{{D.0.1}{364}{Memo}{section*.504}{}}
\@writefile{toc}{\contentsline {subsubsection}{Reporte}{364}{section*.505}\protected@file@percent }
\newlabel{reporte-107}{{D.0.1}{364}{Reporte}{section*.505}{}}
\@writefile{toc}{\contentsline {subsubsection}{Imagen:}{364}{section*.506}\protected@file@percent }
\newlabel{imagen-107}{{D.0.1}{364}{Imagen:}{section*.506}{}}
\@writefile{toc}{\contentsline {subsubsection}{Transcripción:}{365}{section*.507}\protected@file@percent }
\newlabel{transcripciuxf3n-107}{{D.0.1}{365}{Transcripción:}{section*.507}{}}
\@writefile{toc}{\contentsline {subsubsection}{Memo}{365}{section*.508}\protected@file@percent }
\newlabel{memo-107}{{D.0.1}{365}{Memo}{section*.508}{}}
\@writefile{toc}{\contentsline {subsubsection}{Reporte}{365}{section*.509}\protected@file@percent }
\newlabel{reporte-108}{{D.0.1}{365}{Reporte}{section*.509}{}}
\@writefile{toc}{\contentsline {subsubsection}{Imagen:}{365}{section*.510}\protected@file@percent }
\newlabel{imagen-108}{{D.0.1}{365}{Imagen:}{section*.510}{}}
\@writefile{toc}{\contentsline {subsubsection}{Transcripción:}{366}{section*.511}\protected@file@percent }
\newlabel{transcripciuxf3n-108}{{D.0.1}{366}{Transcripción:}{section*.511}{}}
\@writefile{toc}{\contentsline {subsubsection}{Memo}{366}{section*.512}\protected@file@percent }
\newlabel{memo-108}{{D.0.1}{366}{Memo}{section*.512}{}}
\@writefile{toc}{\contentsline {subsubsection}{Reporte}{366}{section*.513}\protected@file@percent }
\newlabel{reporte-109}{{D.0.1}{366}{Reporte}{section*.513}{}}
\@writefile{toc}{\contentsline {subsubsection}{Imagen:}{366}{section*.514}\protected@file@percent }
\newlabel{imagen-109}{{D.0.1}{366}{Imagen:}{section*.514}{}}
\@writefile{toc}{\contentsline {subsubsection}{Transcripción:}{367}{section*.515}\protected@file@percent }
\newlabel{transcripciuxf3n-109}{{D.0.1}{367}{Transcripción:}{section*.515}{}}
\@writefile{toc}{\contentsline {subsubsection}{Memo}{367}{section*.516}\protected@file@percent }
\newlabel{memo-109}{{D.0.1}{367}{Memo}{section*.516}{}}
\@writefile{toc}{\contentsline {subsubsection}{Reporte}{367}{section*.517}\protected@file@percent }
\newlabel{reporte-110}{{D.0.1}{367}{Reporte}{section*.517}{}}
\@writefile{toc}{\contentsline {subsubsection}{Imagen:}{367}{section*.518}\protected@file@percent }
\newlabel{imagen-110}{{D.0.1}{367}{Imagen:}{section*.518}{}}
\@writefile{toc}{\contentsline {subsubsection}{Transcripción:}{368}{section*.519}\protected@file@percent }
\newlabel{transcripciuxf3n-110}{{D.0.1}{368}{Transcripción:}{section*.519}{}}
\@writefile{toc}{\contentsline {subsubsection}{Memo}{368}{section*.520}\protected@file@percent }
\newlabel{memo-110}{{D.0.1}{368}{Memo}{section*.520}{}}
\@writefile{toc}{\contentsline {subsubsection}{Reporte}{368}{section*.521}\protected@file@percent }
\newlabel{reporte-111}{{D.0.1}{368}{Reporte}{section*.521}{}}
\@writefile{toc}{\contentsline {subsubsection}{Imagen:}{368}{section*.522}\protected@file@percent }
\newlabel{imagen-111}{{D.0.1}{368}{Imagen:}{section*.522}{}}
\@writefile{toc}{\contentsline {subsubsection}{Transcripción:}{369}{section*.523}\protected@file@percent }
\newlabel{transcripciuxf3n-111}{{D.0.1}{369}{Transcripción:}{section*.523}{}}
\@writefile{toc}{\contentsline {subsubsection}{Memo}{369}{section*.524}\protected@file@percent }
\newlabel{memo-111}{{D.0.1}{369}{Memo}{section*.524}{}}
\@writefile{toc}{\contentsline {subsubsection}{Reporte}{369}{section*.525}\protected@file@percent }
\newlabel{reporte-112}{{D.0.1}{369}{Reporte}{section*.525}{}}
\@writefile{toc}{\contentsline {subsubsection}{Imagen:}{369}{section*.526}\protected@file@percent }
\newlabel{imagen-112}{{D.0.1}{369}{Imagen:}{section*.526}{}}
\@writefile{toc}{\contentsline {subsubsection}{Transcripción:}{370}{section*.527}\protected@file@percent }
\newlabel{transcripciuxf3n-112}{{D.0.1}{370}{Transcripción:}{section*.527}{}}
\@writefile{toc}{\contentsline {subsubsection}{Memo}{370}{section*.528}\protected@file@percent }
\newlabel{memo-112}{{D.0.1}{370}{Memo}{section*.528}{}}
\@writefile{toc}{\contentsline {subsubsection}{Reporte}{370}{section*.529}\protected@file@percent }
\newlabel{reporte-113}{{D.0.1}{370}{Reporte}{section*.529}{}}
\@writefile{toc}{\contentsline {subsubsection}{Imagen:}{370}{section*.530}\protected@file@percent }
\newlabel{imagen-113}{{D.0.1}{370}{Imagen:}{section*.530}{}}
\@writefile{toc}{\contentsline {subsubsection}{Transcripción:}{371}{section*.531}\protected@file@percent }
\newlabel{transcripciuxf3n-113}{{D.0.1}{371}{Transcripción:}{section*.531}{}}
\@writefile{toc}{\contentsline {subsubsection}{Memo}{371}{section*.532}\protected@file@percent }
\newlabel{memo-113}{{D.0.1}{371}{Memo}{section*.532}{}}
\@writefile{toc}{\contentsline {subsubsection}{Reporte}{371}{section*.533}\protected@file@percent }
\newlabel{reporte-114}{{D.0.1}{371}{Reporte}{section*.533}{}}
\@writefile{toc}{\contentsline {subsubsection}{Imagen:}{371}{section*.534}\protected@file@percent }
\newlabel{imagen-114}{{D.0.1}{371}{Imagen:}{section*.534}{}}
\@writefile{toc}{\contentsline {subsubsection}{Transcripción:}{372}{section*.535}\protected@file@percent }
\newlabel{transcripciuxf3n-114}{{D.0.1}{372}{Transcripción:}{section*.535}{}}
\@writefile{toc}{\contentsline {subsubsection}{Memo}{372}{section*.536}\protected@file@percent }
\newlabel{memo-114}{{D.0.1}{372}{Memo}{section*.536}{}}
\@writefile{toc}{\contentsline {subsubsection}{Reporte}{372}{section*.537}\protected@file@percent }
\newlabel{reporte-115}{{D.0.1}{372}{Reporte}{section*.537}{}}
\@writefile{toc}{\contentsline {subsubsection}{Imagen:}{372}{section*.538}\protected@file@percent }
\newlabel{imagen-115}{{D.0.1}{372}{Imagen:}{section*.538}{}}
\@writefile{toc}{\contentsline {subsubsection}{Transcripción:}{373}{section*.539}\protected@file@percent }
\newlabel{transcripciuxf3n-115}{{D.0.1}{373}{Transcripción:}{section*.539}{}}
\@writefile{toc}{\contentsline {subsubsection}{Memo}{373}{section*.540}\protected@file@percent }
\newlabel{memo-115}{{D.0.1}{373}{Memo}{section*.540}{}}
\@writefile{toc}{\contentsline {subsubsection}{Reporte}{373}{section*.541}\protected@file@percent }
\newlabel{reporte-116}{{D.0.1}{373}{Reporte}{section*.541}{}}
\@writefile{toc}{\contentsline {subsubsection}{Imagen:}{373}{section*.542}\protected@file@percent }
\newlabel{imagen-116}{{D.0.1}{373}{Imagen:}{section*.542}{}}
\@writefile{toc}{\contentsline {subsubsection}{Transcripción:}{374}{section*.543}\protected@file@percent }
\newlabel{transcripciuxf3n-116}{{D.0.1}{374}{Transcripción:}{section*.543}{}}
\@writefile{toc}{\contentsline {subsubsection}{Memo}{374}{section*.544}\protected@file@percent }
\newlabel{memo-116}{{D.0.1}{374}{Memo}{section*.544}{}}
\@writefile{toc}{\contentsline {subsubsection}{Reporte}{374}{section*.545}\protected@file@percent }
\newlabel{reporte-117}{{D.0.1}{374}{Reporte}{section*.545}{}}
\@writefile{toc}{\contentsline {subsubsection}{Imagen:}{374}{section*.546}\protected@file@percent }
\newlabel{imagen-117}{{D.0.1}{374}{Imagen:}{section*.546}{}}
\@writefile{toc}{\contentsline {subsubsection}{Transcripción:}{375}{section*.547}\protected@file@percent }
\newlabel{transcripciuxf3n-117}{{D.0.1}{375}{Transcripción:}{section*.547}{}}
\@writefile{toc}{\contentsline {subsubsection}{Memo}{375}{section*.548}\protected@file@percent }
\newlabel{memo-117}{{D.0.1}{375}{Memo}{section*.548}{}}
\@writefile{toc}{\contentsline {subsubsection}{Reporte}{375}{section*.549}\protected@file@percent }
\newlabel{reporte-118}{{D.0.1}{375}{Reporte}{section*.549}{}}
\@writefile{toc}{\contentsline {subsubsection}{Imagen:}{375}{section*.550}\protected@file@percent }
\newlabel{imagen-118}{{D.0.1}{375}{Imagen:}{section*.550}{}}
\@writefile{toc}{\contentsline {subsubsection}{Transcripción:}{376}{section*.551}\protected@file@percent }
\newlabel{transcripciuxf3n-118}{{D.0.1}{376}{Transcripción:}{section*.551}{}}
\@writefile{toc}{\contentsline {subsubsection}{Memo}{376}{section*.552}\protected@file@percent }
\newlabel{memo-118}{{D.0.1}{376}{Memo}{section*.552}{}}
\@writefile{toc}{\contentsline {subsubsection}{Reporte}{376}{section*.553}\protected@file@percent }
\newlabel{reporte-119}{{D.0.1}{376}{Reporte}{section*.553}{}}
\@writefile{toc}{\contentsline {subsubsection}{Imagen:}{376}{section*.554}\protected@file@percent }
\newlabel{imagen-119}{{D.0.1}{376}{Imagen:}{section*.554}{}}
\@writefile{toc}{\contentsline {subsubsection}{Transcripción:}{377}{section*.555}\protected@file@percent }
\newlabel{transcripciuxf3n-119}{{D.0.1}{377}{Transcripción:}{section*.555}{}}
\@writefile{toc}{\contentsline {subsubsection}{Memo}{377}{section*.556}\protected@file@percent }
\newlabel{memo-119}{{D.0.1}{377}{Memo}{section*.556}{}}
\@writefile{toc}{\contentsline {subsubsection}{Reporte}{377}{section*.557}\protected@file@percent }
\newlabel{reporte-120}{{D.0.1}{377}{Reporte}{section*.557}{}}
\@writefile{toc}{\contentsline {subsubsection}{Imagen:}{377}{section*.558}\protected@file@percent }
\newlabel{imagen-120}{{D.0.1}{377}{Imagen:}{section*.558}{}}
\@writefile{toc}{\contentsline {subsubsection}{Transcripción:}{378}{section*.559}\protected@file@percent }
\newlabel{transcripciuxf3n-120}{{D.0.1}{378}{Transcripción:}{section*.559}{}}
\@writefile{toc}{\contentsline {subsubsection}{Memo}{378}{section*.560}\protected@file@percent }
\newlabel{memo-120}{{D.0.1}{378}{Memo}{section*.560}{}}
\@writefile{toc}{\contentsline {subsubsection}{Reporte}{378}{section*.561}\protected@file@percent }
\newlabel{reporte-121}{{D.0.1}{378}{Reporte}{section*.561}{}}
\@writefile{toc}{\contentsline {subsubsection}{Imagen:}{378}{section*.562}\protected@file@percent }
\newlabel{imagen-121}{{D.0.1}{378}{Imagen:}{section*.562}{}}
\@writefile{toc}{\contentsline {subsubsection}{Transcripción:}{379}{section*.563}\protected@file@percent }
\newlabel{transcripciuxf3n-121}{{D.0.1}{379}{Transcripción:}{section*.563}{}}
\@writefile{toc}{\contentsline {subsubsection}{Memo}{379}{section*.564}\protected@file@percent }
\newlabel{memo-121}{{D.0.1}{379}{Memo}{section*.564}{}}
\@writefile{toc}{\contentsline {subsubsection}{Reporte}{379}{section*.565}\protected@file@percent }
\newlabel{reporte-122}{{D.0.1}{379}{Reporte}{section*.565}{}}
\@writefile{toc}{\contentsline {subsubsection}{Imagen:}{379}{section*.566}\protected@file@percent }
\newlabel{imagen-122}{{D.0.1}{379}{Imagen:}{section*.566}{}}
\@writefile{toc}{\contentsline {subsubsection}{Transcripción:}{380}{section*.567}\protected@file@percent }
\newlabel{transcripciuxf3n-122}{{D.0.1}{380}{Transcripción:}{section*.567}{}}
\@writefile{toc}{\contentsline {subsubsection}{Memo}{380}{section*.568}\protected@file@percent }
\newlabel{memo-122}{{D.0.1}{380}{Memo}{section*.568}{}}
\@writefile{toc}{\contentsline {subsubsection}{Reporte}{380}{section*.569}\protected@file@percent }
\newlabel{reporte-123}{{D.0.1}{380}{Reporte}{section*.569}{}}
\@writefile{toc}{\contentsline {subsubsection}{Imagen:}{380}{section*.570}\protected@file@percent }
\newlabel{imagen-123}{{D.0.1}{380}{Imagen:}{section*.570}{}}
\@writefile{toc}{\contentsline {subsubsection}{Transcripción:}{381}{section*.571}\protected@file@percent }
\newlabel{transcripciuxf3n-123}{{D.0.1}{381}{Transcripción:}{section*.571}{}}
\@writefile{toc}{\contentsline {subsubsection}{Memo}{381}{section*.572}\protected@file@percent }
\newlabel{memo-123}{{D.0.1}{381}{Memo}{section*.572}{}}
\@writefile{toc}{\contentsline {subsubsection}{Reporte}{381}{section*.573}\protected@file@percent }
\newlabel{reporte-124}{{D.0.1}{381}{Reporte}{section*.573}{}}
\@writefile{toc}{\contentsline {subsubsection}{Imagen:}{381}{section*.574}\protected@file@percent }
\newlabel{imagen-124}{{D.0.1}{381}{Imagen:}{section*.574}{}}
\@writefile{toc}{\contentsline {subsubsection}{Transcripción:}{382}{section*.575}\protected@file@percent }
\newlabel{transcripciuxf3n-124}{{D.0.1}{382}{Transcripción:}{section*.575}{}}
\@writefile{toc}{\contentsline {subsubsection}{Memo}{382}{section*.576}\protected@file@percent }
\newlabel{memo-124}{{D.0.1}{382}{Memo}{section*.576}{}}
\@writefile{toc}{\contentsline {subsubsection}{Reporte}{382}{section*.577}\protected@file@percent }
\newlabel{reporte-125}{{D.0.1}{382}{Reporte}{section*.577}{}}
\@writefile{toc}{\contentsline {subsubsection}{Imagen:}{382}{section*.578}\protected@file@percent }
\newlabel{imagen-125}{{D.0.1}{382}{Imagen:}{section*.578}{}}
\@writefile{toc}{\contentsline {subsubsection}{Transcripción:}{383}{section*.579}\protected@file@percent }
\newlabel{transcripciuxf3n-125}{{D.0.1}{383}{Transcripción:}{section*.579}{}}
\@writefile{toc}{\contentsline {subsubsection}{Memo}{383}{section*.580}\protected@file@percent }
\newlabel{memo-125}{{D.0.1}{383}{Memo}{section*.580}{}}
\@writefile{toc}{\contentsline {subsubsection}{Reporte}{383}{section*.581}\protected@file@percent }
\newlabel{reporte-126}{{D.0.1}{383}{Reporte}{section*.581}{}}
\@writefile{toc}{\contentsline {subsubsection}{Imagen:}{383}{section*.582}\protected@file@percent }
\newlabel{imagen-126}{{D.0.1}{383}{Imagen:}{section*.582}{}}
\@writefile{toc}{\contentsline {subsubsection}{Transcripción:}{384}{section*.583}\protected@file@percent }
\newlabel{transcripciuxf3n-126}{{D.0.1}{384}{Transcripción:}{section*.583}{}}
\@writefile{toc}{\contentsline {subsubsection}{Memo}{384}{section*.584}\protected@file@percent }
\newlabel{memo-126}{{D.0.1}{384}{Memo}{section*.584}{}}
\@writefile{toc}{\contentsline {subsubsection}{Reporte}{384}{section*.585}\protected@file@percent }
\newlabel{reporte-127}{{D.0.1}{384}{Reporte}{section*.585}{}}
\@writefile{toc}{\contentsline {subsubsection}{Imagen:}{384}{section*.586}\protected@file@percent }
\newlabel{imagen-127}{{D.0.1}{384}{Imagen:}{section*.586}{}}
\@writefile{toc}{\contentsline {subsubsection}{Transcripción:}{385}{section*.587}\protected@file@percent }
\newlabel{transcripciuxf3n-127}{{D.0.1}{385}{Transcripción:}{section*.587}{}}
\@writefile{toc}{\contentsline {subsubsection}{Memo}{385}{section*.588}\protected@file@percent }
\newlabel{memo-127}{{D.0.1}{385}{Memo}{section*.588}{}}
\@writefile{toc}{\contentsline {subsubsection}{Reporte}{385}{section*.589}\protected@file@percent }
\newlabel{reporte-128}{{D.0.1}{385}{Reporte}{section*.589}{}}
\@writefile{toc}{\contentsline {subsubsection}{Imagen:}{385}{section*.590}\protected@file@percent }
\newlabel{imagen-128}{{D.0.1}{385}{Imagen:}{section*.590}{}}
\@writefile{toc}{\contentsline {subsubsection}{Transcripción:}{386}{section*.591}\protected@file@percent }
\newlabel{transcripciuxf3n-128}{{D.0.1}{386}{Transcripción:}{section*.591}{}}
\@writefile{toc}{\contentsline {subsubsection}{Memo}{386}{section*.592}\protected@file@percent }
\newlabel{memo-128}{{D.0.1}{386}{Memo}{section*.592}{}}
\@writefile{toc}{\contentsline {subsubsection}{Reporte}{386}{section*.593}\protected@file@percent }
\newlabel{reporte-129}{{D.0.1}{386}{Reporte}{section*.593}{}}
\@writefile{toc}{\contentsline {subsubsection}{Imagen:}{386}{section*.594}\protected@file@percent }
\newlabel{imagen-129}{{D.0.1}{386}{Imagen:}{section*.594}{}}
\@writefile{toc}{\contentsline {subsubsection}{Transcripción:}{387}{section*.595}\protected@file@percent }
\newlabel{transcripciuxf3n-129}{{D.0.1}{387}{Transcripción:}{section*.595}{}}
\@writefile{toc}{\contentsline {subsubsection}{Memo}{387}{section*.596}\protected@file@percent }
\newlabel{memo-129}{{D.0.1}{387}{Memo}{section*.596}{}}
\@writefile{toc}{\contentsline {subsubsection}{Reporte}{387}{section*.597}\protected@file@percent }
\newlabel{reporte-130}{{D.0.1}{387}{Reporte}{section*.597}{}}
\@writefile{toc}{\contentsline {subsubsection}{Imagen:}{387}{section*.598}\protected@file@percent }
\newlabel{imagen-130}{{D.0.1}{387}{Imagen:}{section*.598}{}}
\@writefile{toc}{\contentsline {subsubsection}{Transcripción:}{388}{section*.599}\protected@file@percent }
\newlabel{transcripciuxf3n-130}{{D.0.1}{388}{Transcripción:}{section*.599}{}}
\@writefile{toc}{\contentsline {subsubsection}{Memo}{388}{section*.600}\protected@file@percent }
\newlabel{memo-130}{{D.0.1}{388}{Memo}{section*.600}{}}
\@writefile{toc}{\contentsline {subsubsection}{Reporte}{388}{section*.601}\protected@file@percent }
\newlabel{reporte-131}{{D.0.1}{388}{Reporte}{section*.601}{}}
\@writefile{toc}{\contentsline {subsubsection}{Imagen:}{388}{section*.602}\protected@file@percent }
\newlabel{imagen-131}{{D.0.1}{388}{Imagen:}{section*.602}{}}
\@writefile{toc}{\contentsline {subsubsection}{Transcripción:}{389}{section*.603}\protected@file@percent }
\newlabel{transcripciuxf3n-131}{{D.0.1}{389}{Transcripción:}{section*.603}{}}
\@writefile{toc}{\contentsline {subsubsection}{Memo}{389}{section*.604}\protected@file@percent }
\newlabel{memo-131}{{D.0.1}{389}{Memo}{section*.604}{}}
\@setckpt{./anexos/anexo_ejercicios}{
\setcounter{page}{390}
\setcounter{equation}{0}
\setcounter{enumi}{7}
\setcounter{enumii}{0}
\setcounter{enumiii}{0}
\setcounter{enumiv}{0}
\setcounter{footnote}{0}
\setcounter{mpfootnote}{1}
\setcounter{part}{0}
\setcounter{chapter}{4}
\setcounter{section}{0}
\setcounter{subsection}{1}
\setcounter{subsubsection}{0}
\setcounter{paragraph}{0}
\setcounter{subparagraph}{0}
\setcounter{figure}{0}
\setcounter{table}{0}
\setcounter{float@type}{16}
\setcounter{Item}{29}
\setcounter{Hfootnote}{24}
\setcounter{Hy@AnnotLevel}{0}
\setcounter{bookmark@seq@number}{83}
\setcounter{BibCnt}{3}
\setcounter{NAT@ctr}{183}
\setcounter{lstnumber}{3}
\setcounter{tcbbreakpart}{1}
\setcounter{tcblayer}{0}
\setcounter{tcolorbox@number}{12}
\setcounter{caption@flags}{0}
\setcounter{continuedfloat}{0}
\setcounter{parentequation}{0}
\setcounter{FancyVerbLine}{1}
\setcounter{LT@tables}{0}
\setcounter{LT@chunks}{0}
\setcounter{section@level}{3}
\setcounter{maskedRefs}{0}
\setcounter{lstlisting}{0}
}
