<?xml version="1.0" standalone="no"?>
 <!DOCTYPE svg PUBLIC "-//W3C//DTD SVG 1.1//EN" 
 "http://www.w3.org/Graphics/SVG/1.1/DTD/svg11.dtd"> 
<svg xmlns="http://www.w3.org/2000/svg" version="1.1" 
    width="11.0693cm" height="6.24332cm" viewBox="0 0 43580 24580 ">
<title>SVG Picture created as lacerar_wemos-F_CrtYd.svg date 2020/02/07 15:30:14 </title>
  <desc>Picture generated by PCBNEW </desc>
<g style="fill:#000000; fill-opacity:1;stroke:#000000; stroke-opacity:1;
stroke-linecap:round; stroke-linejoin:round; "
 transform="translate(0 0) scale(1 1)">
</g>
<g style="fill:#000000; fill-opacity:0.0; 
stroke:#000000; stroke-width:-0.000393701; stroke-opacity:1; 
stroke-linecap:round; stroke-linejoin:round;">
</g>
<g style="fill:#C2C2C2; fill-opacity:0.0; 
stroke:#C2C2C2; stroke-width:-0.000393701; stroke-opacity:1; 
stroke-linecap:round; stroke-linejoin:round;">
</g>
<g style="fill:#C2C2C2; fill-opacity:0.0; 
stroke:#C2C2C2; stroke-width:19.685; stroke-opacity:1; 
stroke-linecap:round; stroke-linejoin:round;">
<path d="M42798 7506
L42798 11640
" />
<path d="M42798 7506
L39648 7506
" />
<path d="M39648 11640
L42798 11640
" />
<path d="M39648 11640
L39648 7506
" />
<circle cx="10958" cy="6105.31" r="1200.79" /> 
<circle cx="10977.7" cy="23054.1" r="1200.79" /> 
<circle cx="36086" cy="6125" r="1200.79" /> 
<circle cx="36076.1" cy="23073.8" r="1200.79" /> 
<path d="M18501 9227
L18501 19502
" />
<path d="M18481 19502
L4840 19502
" />
<path d="M4840 19502
L4840 9227
" />
<path d="M4840 9227
L18501 9227
" />
<circle cx="17680.4" cy="22197.8" r="1673.23" /> 
<circle cx="14107.6" cy="22562" r="1673.23" /> 
<path d="M27621 18467
L27621 17483
" />
<path d="M27621 17483
L24668 17483
" />
<path d="M24668 17483
L24668 18467
" />
<path d="M24668 18467
L27621 18467
" />
<path d="M30751 17648
L30751 13743
" />
<path d="M29491 17648
L30751 17648
" />
<path d="M29491 13743
L29491 17648
" />
<path d="M30751 13743
L29491 13743
" />
<path d="M31085 20396
L31085 17837
" />
<path d="M31085 17837
L28546 17837
" />
<path d="M28546 17837
L28546 20396
" />
<path d="M28546 20396
L31085 20396
" />
<path d="M28428 13428
L30967 13428
" />
<path d="M28428 10869
L28428 13428
" />
<path d="M30967 10869
L28428 10869
" />
<path d="M30967 13428
L30967 10869
" />
<path d="M30830 6774
L29570 6774
" />
<path d="M29570 6774
L29570 10680
" />
<path d="M29570 10680
L30830 10680
" />
<path d="M30830 10680
L30830 6774
" />
<path d="M8074 23782
L9333 23782
" />
<path d="M9333 23782
L9333 19876
" />
<path d="M9333 19876
L8074 19876
" />
<path d="M8074 19876
L8074 23782
" />
<path d="M31833 21351
L31833 23910
" />
<path d="M31833 23910
L34373 23910
" />
<path d="M34373 23910
L34373 21351
" />
<path d="M34373 21351
L31833 21351
" />
<path d="M13034 19628
L9629 19628
" />
<path d="M9629 19628
L9629 21046
" />
<path d="M9629 21046
L13034 21046
" />
<path d="M13034 21046
L13034 19628
" />
<path d="M7759 19790
L7759 23924
" />
<path d="M7759 19790
L4609 19790
" />
<path d="M4609 23924
L7759 23924
" />
<path d="M4609 23924
L4609 19790
" />
<path d="M42798 11680
L42798 15813
" />
<path d="M42798 11680
L39648 11680
" />
<path d="M39648 15813
L42798 15813
" />
<path d="M39648 15813
L39648 11680
" />
<path d="M39570 22223
L39570 18089
" />
<path d="M39570 22223
L42719 22223
" />
<path d="M42719 18089
L39570 18089
" />
<path d="M42719 18089
L42719 22223
" />
<path d="M11302 7591
L8881 7591
" />
<path d="M8881 7591
L8881 9008
" />
<path d="M8881 9008
L11302 9008
" />
<path d="M11302 9008
L11302 7591
" />
<path d="M13979 5219
L12562 5219
" />
<path d="M13979 8625
L13979 5219
" />
<path d="M12562 8625
L13979 8625
" />
<path d="M12562 5219
L12562 8625
" />
<path d="M19412 5337
L19412 6754
" />
<path d="M23822 5337
L19412 5337
" />
<path d="M23822 6754
L23822 5337
" />
<path d="M19412 6754
L23822 6754
" />
<path d="M28790 5337
L24381 5337
" />
<path d="M24381 5337
L24381 6754
" />
<path d="M24381 6754
L28790 6754
" />
<path d="M28790 6754
L28790 5337
" />
<path d="M39393 14530
L31479 14530
" />
<path d="M31479 20790
L31479 14530
" />
<path d="M39393 14530
L39393 20790
" />
<path d="M31479 20790
L39393 20790
" />
<path d="M31479 13703
L39393 13703
" />
<path d="M39393 7443
L39393 13703
" />
<path d="M31479 13703
L31479 7443
" />
<path d="M39393 7443
L31479 7443
" />
<path d="M31263 22709
L31263 21882
" />
<path d="M31263 21882
L28515 21882
" />
<path d="M28515 21882
L28515 22709
" />
<path d="M28515 22709
L31263 22709
" />
<path d="M28038 19349
L19786 19349
" />
<path d="M19786 19349
L19786 23483
" />
<path d="M19786 23483
L28038 23483
" />
<path d="M28038 23483
L28038 19349
" />
<path d="M29038 17121
L29038 14373
" />
<path d="M28211 17121
L29038 17121
" />
<path d="M28211 14373
L28211 17121
" />
<path d="M29038 14373
L28211 14373
" />
<path d="M29038 7050
L28211 7050
" />
<path d="M28211 7050
L28211 9798
" />
<path d="M28211 9798
L29038 9798
" />
<path d="M29038 9798
L29038 7050
" />
<path d="M8487 7660
L8487 8762
" />
<path d="M8487 8762
L7267 8762
" />
<path d="M7267 8762
L7267 8428
" />
<path d="M7267 8428
L5711 8428
" />
<path d="M8487 6006
L8487 4943
" />
<path d="M8487 4943
L7247 4943
" />
<path d="M7247 4943
L7247 5278
" />
<path d="M7247 5278
L5711 5278
" />
<path d="M7483 7699
L7483 6006
" />
<path d="M5711 5278
L5711 6105
" />
<path d="M5711 6105
L4412 6105
" />
<path d="M4412 6105
L4412 7601
" />
<path d="M4412 7601
L5711 7601
" />
<path d="M5711 7601
L5711 8428
" />
<path d="M8507 7699
L7483 7699
" />
<path d="M7483 6006
L8487 6006
" />
<path d="M19019 15672
L27286 15672
" />
<path d="M27286 15672
L27286 11459
" />
<path d="M27286 11459
L19019 11459
" />
<path d="M19019 11459
L19019 15672
" />
<g >
</g>
<g >
</g>
<g >
</g>
<g >
</g>
<g >
</g>
<g >
</g>
<g >
</g>
<g >
</g>
<g >
</g>
<g >
</g>
<g >
</g>
<g >
</g>
<g >
</g>
<g >
</g>
<g >
</g>
<g >
</g>
<g >
</g>
<g >
</g>
<g >
</g>
<g >
</g>
<g >
</g>
<g >
</g>
<g >
</g>
<g >
</g>
<g >
</g>
<g >
</g>
<g >
</g>
<g >
</g>
<g >
</g>
<g >
</g>
<g >
</g>
<g >
</g>
</g>
<g style="fill:#000000; fill-opacity:0.0; 
stroke:#000000; stroke-width:19.685; stroke-opacity:1; 
stroke-linecap:round; stroke-linejoin:round;">
</g>
<g style="fill:#C2C200; fill-opacity:0.0; 
stroke:#C2C200; stroke-width:19.685; stroke-opacity:1; 
stroke-linecap:round; stroke-linejoin:round;">
</g>
<g style="fill:#C2C200; fill-opacity:0.0; 
stroke:#C2C200; stroke-width:39.3701; stroke-opacity:1; 
stroke-linecap:round; stroke-linejoin:round;">
<path d="M43507 4747
L43507 24432
" />
<path d="M4452 4747
L43507 4747
" />
<path d="M4452 24432
L4452 4747
" />
<path d="M43507 24432
L4452 24432
" />
<g >
</g>
<g >
</g>
<g >
</g>
<g >
</g>
<g >
</g>
<g >
</g>
<g >
</g>
<g >
</g>
<g >
</g>
<g >
</g>
<g >
</g>
<g >
</g>
<g >
</g>
<g >
</g>
<g >
</g>
<g >
</g>
<g >
</g>
<g >
</g>
<g >
</g>
<g >
</g>
<g >
</g>
<g >
</g>
<g >
</g>
<g >
</g>
<g >
</g>
<g >
</g>
<g >
</g>
<g >
</g>
<g >
</g>
<g >
</g>
<g >
</g>
<g >
</g>
</g> 
</svg>
