<?xml version="1.0" encoding="UTF-8" standalone="no"?>
<svg
   xmlns:dc="http://purl.org/dc/elements/1.1/"
   xmlns:cc="http://creativecommons.org/ns#"
   xmlns:rdf="http://www.w3.org/1999/02/22-rdf-syntax-ns#"
   xmlns:svg="http://www.w3.org/2000/svg"
   xmlns="http://www.w3.org/2000/svg"
   xmlns:sodipodi="http://sodipodi.sourceforge.net/DTD/sodipodi-0.dtd"
   xmlns:inkscape="http://www.inkscape.org/namespaces/inkscape"
   sodipodi:docname="tapa_abajo.svg"
   inkscape:version="1.0beta2 (unknown)"
   id="svg2440"
   version="1.1"
   viewBox="0 0 106.6978 94.329041"
   height="94.329041mm"
   width="106.6978mm">
  <defs
     id="defs2434" />
  <sodipodi:namedview
     inkscape:window-maximized="1"
     inkscape:window-y="18"
     inkscape:window-x="0"
     inkscape:window-height="728"
     inkscape:window-width="1362"
     fit-margin-bottom="0"
     fit-margin-right="0"
     fit-margin-left="0"
     fit-margin-top="0"
     showgrid="false"
     inkscape:document-rotation="0"
     inkscape:current-layer="layer1"
     inkscape:document-units="mm"
     inkscape:cy="198.36067"
     inkscape:cx="152.39065"
     inkscape:zoom="0.98994949"
     inkscape:pageshadow="2"
     inkscape:pageopacity="0.0"
     borderopacity="1.0"
     bordercolor="#666666"
     pagecolor="#ffffff"
     id="base" />
  <metadata
     id="metadata2437">
    <rdf:RDF>
      <cc:Work
         rdf:about="">
        <dc:format>image/svg+xml</dc:format>
        <dc:type
           rdf:resource="http://purl.org/dc/dcmitype/StillImage" />
        <dc:title></dc:title>
      </cc:Work>
    </rdf:RDF>
  </metadata>
  <g
     transform="translate(-56.264193,-68.496191)"
     id="layer1"
     inkscape:groupmode="layer"
     inkscape:label="Capa 1">
    <path
       transform="matrix(0.26458333,0,0,0.26458333,56.264193,68.496191)"
       d="M 85.914062 0.53515625 C 75.835661 0.53515625 67.722656 9.3412903 67.722656 20.28125 L 67.722656 46.953125 L 0.53515625 46.953125 L 0.53515625 309.56641 L 67.722656 309.56641 L 67.722656 336.23828 C 67.722656 347.17827 75.835661 355.98438 85.914062 355.98438 C 95.992452 355.98438 104.10547 347.17827 104.10547 336.23828 L 104.10547 309.56641 L 299.16211 309.56641 L 299.16211 336.23828 C 299.16211 347.17827 307.27514 355.98438 317.35352 355.98438 C 327.43193 355.98438 335.54492 347.17827 335.54492 336.23828 L 335.54492 309.56641 L 402.73242 309.56641 L 402.73242 46.953125 L 335.54492 46.953125 L 335.54492 20.28125 C 335.54492 9.3412903 327.43193 0.53515625 317.35352 0.53515625 C 307.27514 0.53515625 299.16211 9.3412903 299.16211 20.28125 L 299.16211 46.953125 L 104.10547 46.953125 L 104.10547 20.28125 C 104.10547 9.3412903 95.992452 0.53515625 85.914062 0.53515625 z M 85.765625 10.759766 A 9.5620758 9.5620758 0 0 1 95.328125 20.322266 A 9.5620758 9.5620758 0 0 1 85.765625 29.882812 A 9.5620758 9.5620758 0 0 1 76.205078 20.322266 A 9.5620758 9.5620758 0 0 1 85.765625 10.759766 z M 317.5 12.726562 A 9.5620758 9.5620758 0 0 1 327.0625 22.289062 A 9.5620758 9.5620758 0 0 1 317.5 31.849609 A 9.5620758 9.5620758 0 0 1 307.93945 22.289062 A 9.5620758 9.5620758 0 0 1 317.5 12.726562 z M 374.73438 54.341797 A 9.5620758 9.5620758 0 0 1 384.29688 63.904297 A 9.5620758 9.5620758 0 0 1 374.73438 73.464844 A 9.5620758 9.5620758 0 0 1 365.17188 63.904297 A 9.5620758 9.5620758 0 0 1 374.73438 54.341797 z M 28.53125 55.435547 A 9.5620758 9.5620758 0 0 1 38.09375 64.998047 A 9.5620758 9.5620758 0 0 1 28.53125 74.560547 A 9.5620758 9.5620758 0 0 1 18.970703 64.998047 A 9.5620758 9.5620758 0 0 1 28.53125 55.435547 z M 225.76953 155.21875 C 228.37688 155.21875 230.49414 157.33601 230.49414 159.94336 C 230.49414 162.54976 228.37688 164.66797 225.76953 164.66797 C 223.16313 164.66797 221.04687 162.54976 221.04688 159.94336 C 221.04688 157.33601 223.16313 155.21875 225.76953 155.21875 z M 40.574219 155.33203 C 43.181579 155.33203 45.298828 157.4493 45.298828 160.05664 C 45.298828 162.66304 43.181579 164.78125 40.574219 164.78125 C 37.967819 164.78125 35.849609 162.66304 35.849609 160.05664 C 35.849609 157.4493 37.967819 155.33203 40.574219 155.33203 z M 367.31445 166.17969 C 369.9218 166.17969 372.03711 168.29695 372.03711 170.9043 C 372.03711 173.5107 369.9218 175.62891 367.31445 175.62891 C 364.70805 175.62891 362.58984 173.5107 362.58984 170.9043 C 362.58984 168.29695 364.70805 166.17969 367.31445 166.17969 z M 177.35547 229.18359 C 179.96281 229.18359 182.07812 231.30281 182.07812 233.91016 C 182.07812 236.51656 179.96281 238.63281 177.35547 238.63281 C 174.74907 238.63281 172.63086 236.51656 172.63086 233.91016 C 172.63086 231.30281 174.74907 229.18359 177.35547 229.18359 z M 41.216797 249.17773 C 43.824157 249.17773 45.939453 251.295 45.939453 253.90234 C 45.939453 256.50874 43.824157 258.62695 41.216797 258.62695 C 38.610397 258.62695 36.492188 256.50874 36.492188 253.90234 C 36.492188 251.295 38.610397 249.17773 41.216797 249.17773 z M 28.53125 281.05273 A 9.5620758 9.5620758 0 0 1 38.09375 290.61523 A 9.5620758 9.5620758 0 0 1 28.53125 300.17773 A 9.5620758 9.5620758 0 0 1 18.970703 290.61523 A 9.5620758 9.5620758 0 0 1 28.53125 281.05273 z M 374.73438 281.95898 A 9.5620758 9.5620758 0 0 1 384.29688 291.52148 A 9.5620758 9.5620758 0 0 1 374.73438 301.08203 A 9.5620758 9.5620758 0 0 1 365.17188 291.52148 A 9.5620758 9.5620758 0 0 1 374.73438 281.95898 z M 85.765625 324.66797 A 9.5620758 9.5620758 0 0 1 95.328125 334.23047 A 9.5620758 9.5620758 0 0 1 85.765625 343.79297 A 9.5620758 9.5620758 0 0 1 76.205078 334.23047 A 9.5620758 9.5620758 0 0 1 85.765625 324.66797 z M 317.5 326.63477 A 9.5620758 9.5620758 0 0 1 327.0625 336.19727 A 9.5620758 9.5620758 0 0 1 317.5 345.75977 A 9.5620758 9.5620758 0 0 1 307.93945 336.19727 A 9.5620758 9.5620758 0 0 1 317.5 326.63477 z "
       style="opacity:0.998;fill:#0000ff;fill-opacity:0.882112;stroke:#000000;stroke-width:0.999999;stroke-linecap:round;stroke-linejoin:round;stroke-miterlimit:4;stroke-dasharray:none;stroke-opacity:1"
       id="path27678-0" />
  </g>
</svg>
