<?xml version="1.0" encoding="UTF-8" standalone="no"?>
<svg
   id="svg2"
   sodipodi:docname="emulador.svg"
   inkscape:export-filename="U:\pics\pidgeon-without-envelope.png"
   viewBox="0 0 508.86668 508.86669"
   inkscape:export-xdpi="38.686176"
   version="1.1"
   inkscape:export-ydpi="38.686176"
   inkscape:version="1.1 (c68e22c387, 2021-05-23)"
   width="508.8667"
   height="508.8667"
   xmlns:inkscape="http://www.inkscape.org/namespaces/inkscape"
   xmlns:sodipodi="http://sodipodi.sourceforge.net/DTD/sodipodi-0.dtd"
   xmlns="http://www.w3.org/2000/svg"
   xmlns:svg="http://www.w3.org/2000/svg"
   xmlns:rdf="http://www.w3.org/1999/02/22-rdf-syntax-ns#"
   xmlns:cc="http://creativecommons.org/ns#"
   xmlns:dc="http://purl.org/dc/elements/1.1/">
  <defs
     id="defs35" />
  <sodipodi:namedview
     id="base"
     bordercolor="#666666"
     inkscape:pageshadow="2"
     inkscape:window-y="18"
     pagecolor="#ffffff"
     inkscape:window-height="728"
     inkscape:window-maximized="1"
     inkscape:zoom="0.7"
     inkscape:window-x="0"
     showgrid="false"
     borderopacity="1.0"
     inkscape:current-layer="layer1"
     inkscape:cx="244.28571"
     inkscape:cy="176.42857"
     showguides="true"
     inkscape:guide-bbox="true"
     inkscape:window-width="1362"
     inkscape:pageopacity="0.0"
     inkscape:document-units="px"
     inkscape:document-rotation="0"
     fit-margin-top="0"
     fit-margin-left="0"
     fit-margin-right="0"
     fit-margin-bottom="0"
     inkscape:pagecheckerboard="0" />
  <g
     id="layer1"
     inkscape:label="Layer 1"
     inkscape:groupmode="layer"
     transform="translate(-106.98886,-178.63858)">
    <circle
       r="254.43335"
       cy="433.07193"
       cx="361.42221"
       id="path859"
       style="opacity:1;fill:#008000;fill-opacity:1;stroke:none;stroke-width:0.786141;stroke-linejoin:round;stroke-miterlimit:4;stroke-dasharray:none;stroke-opacity:1" />
    <g
       transform="matrix(0.62121971,0,0,0.62121971,94.188497,259.73541)"
       id="g888">
      <path
         inkscape:export-xdpi="38.686176"
         inkscape:export-filename="U:\pics\squobit-1stattempt.png"
         sodipodi:nodetypes="cssc"
         inkscape:export-ydpi="38.686176"
         d="m 187.24,460.65 c -9.1726,-1.7599 -21.464,-4.5814 -36.305,-3.5713 -118.63,8.0745 51.889,47.588 61.5,19.376 4.0233,-11.81 -17.082,-17.003 -25.195,-15.805 z"
         style="fill:#b3b3b3"
         id="path3713"
         inkscape:connector-curvature="0" />
      <path
         inkscape:export-xdpi="38.686176"
         inkscape:export-filename="U:\pics\squobit-1stattempt.png"
         sodipodi:nodetypes="cssssssssc"
         inkscape:export-ydpi="38.686176"
         d="m 350.81,551.38 c 12.622,27.292 -22.009,18.347 -27.315,21.531 -8.9056,5.3441 24.579,2.483 30.047,4.1405 20.131,6.103 49.465,15.706 46.891,8.281 -0.8957,-2.5834 -30.911,-6.2939 -31.412,-9.9372 -1.0279,-7.4719 48.88,2.3762 45.07,-4.5546 -5.9275,-10.782 -38.26,4.9519 -46.436,-2.4843 -1.8536,-1.6859 18.645,-2.9168 16.389,-4.9686 -6.6287,-6.0288 -17.874,4.4465 -21.852,-0.41406 -1.2132,-1.4821 -5.9308,-26.454 -11.381,-11.593 z"
         style="fill:#ff5555"
         id="path3671-2"
         inkscape:connector-curvature="0" />
      <path
         inkscape:export-xdpi="38.686176"
         inkscape:export-filename="U:\pics\squobit-1stattempt.png"
         inkscape:export-ydpi="38.686176"
         d="m 294.79,532.43 c 34.345,28.284 46.467,33.335 52.528,28.284 6.0609,-5.0508 25.254,-8.0812 25.254,-8.0812 0,0 6.061,-17.173 -2.0203,-22.223 -8.0812,-5.0508 -72.731,0 -75.761,2.0203 z"
         style="fill:#999999"
         id="path3645-5"
         inkscape:connector-curvature="0" />
      <path
         inkscape:export-xdpi="38.686176"
         inkscape:export-filename="U:\pics\squobit-1stattempt.png"
         sodipodi:nodetypes="cccc"
         inkscape:export-ydpi="38.686176"
         d="m 453.72,487.26 c 9.9386,-11.773 17.987,-51.926 14.647,-59.094 -6.9275,9.6499 -48.486,75.293 -70.206,88.388 13.604,2.011 46.764,-20.936 55.558,-29.294 z"
         style="fill:#666666"
         id="path3628"
         inkscape:connector-curvature="0" />
      <path
         inkscape:export-xdpi="38.686176"
         inkscape:export-filename="U:\pics\squobit-1stattempt.png"
         sodipodi:nodetypes="csssssssssssssssssssc"
         inkscape:export-ydpi="38.686176"
         d="m 502.33,266.23 c -6.7857,11.071 -21.772,76.931 -20.936,96.87 0.75939,18.123 2.5451,28.481 0.22183,44.558 -5.4568,37.762 -12.168,50.664 -50.74,89.235 -16.288,16.288 -32.806,24.821 -48.817,32.23 -13.492,6.2433 -51.046,22.23 -95.332,17.944 -44.29,-4.28 -105.13,-11.17 -118.58,-12.85 -85.723,-10.73 -91.373,-32.54 -91.164,-32.73 8.7351,-8.3174 52.061,-16.849 79.32,-26.358 16.409,-5.7247 39.312,-10.568 29.163,-16.133 -9.7833,-5.3645 -49.403,-13.188 -35.888,-16.204 28.679,-6.4011 31.216,-7.9237 36.786,-10 21.868,-8.1522 19.736,-9.7694 38.44,-19.551 20.216,-10.573 15.132,-11.973 25.489,-16.52 32.763,-14.385 67.798,-57.024 107.86,-79.643 29.133,-16.45 50.897,-39.893 58.225,-50.837 3.8558,-5.7582 14.148,-18.603 16.061,-32.02 2.2654,-15.888 12.104,-31.756 31.429,-34.286 18.662,-2.4427 33.571,-1.1835 42.857,8.5714 8.473,8.9011 6.2189,17.156 5.7143,27.143 -1.1327,22.418 -2.2654,18.092 -10.112,30.592 z"
         style="fill:#b3b3b3"
         id="path3632"
         inkscape:connector-curvature="0" />
      <path
         inkscape:export-xdpi="38.686176"
         inkscape:export-filename="U:\pics\squobit-1stattempt.png"
         sodipodi:nodetypes="cscsssssc"
         inkscape:export-ydpi="38.686176"
         d="m 505.49,261.93 c 1.773,29.908 -22.515,83.413 -22.856,85.7 -3.9328,26.343 -70.321,-59.837 -119.44,-32.843 25.562,-16.45 37.851,-30.444 52.434,-47.092 4.5663,-5.2128 9.898,-13.665 15.347,-32.735 4.4089,-15.431 12.72,-31.135 31.786,-35.179 17.412,-3.6927 36.245,-0.79569 45.53,8.9592 8.473,8.9011 4.9742,18.018 4.4695,28.005 -1.1327,22.418 0.58124,12.684 -7.2654,25.184 z"
         style="fill:#6c5353"
         id="path3632-1-7"
         inkscape:connector-curvature="0" />
      <g
         inkscape:export-xdpi="38.686176"
         transform="matrix(1.1779,0,0,1.178,1125.4,-434.73)"
         inkscape:export-filename="U:\pics\squobit-1stattempt.png"
         inkscape:export-ydpi="38.686176"
         id="g3700">
        <ellipse
           style="fill:#ffffff;fill-rule:evenodd"
           id="path3640"
           cx="-556.78571"
           cy="568.07648"
           rx="10.357142"
           ry="8.9285717" />
        <ellipse
           transform="matrix(1.1454,0,0,1.1084,79.564,-62.406)"
           style="fill:#000000;fill-rule:evenodd"
           id="path3644"
           cx="-552.58929"
           cy="569.68359"
           rx="5.0892859"
           ry="5.1785712" />
        <ellipse
           style="fill:#ffffff;fill-rule:evenodd"
           id="path3648"
           cx="-557.05359"
           cy="566.38007"
           rx="5.0892859"
           ry="4.375" />
      </g>
      <g
         inkscape:export-xdpi="38.686176"
         transform="matrix(1.4742,0,0,1.1813,1268.7,-439.12)"
         inkscape:export-filename="U:\pics\squobit-1stattempt.png"
         inkscape:export-ydpi="38.686176"
         id="g3708">
        <ellipse
           transform="translate(0.35714)"
           style="fill:#ffffff;fill-rule:evenodd"
           id="path3642"
           cx="-514.82141"
           cy="569.86218"
           rx="3.75"
           ry="7.8571429" />
        <ellipse
           transform="matrix(0.9872,0,0,1.1321,-7.1267,-74.082)"
           style="fill:#000000;fill-rule:evenodd"
           id="path3646"
           cx="-514.73212"
           cy="570.30859"
           rx="2.2321429"
           ry="3.8392856" />
        <g
           transform="translate(0.71429,1.7857)"
           id="g3705">
          <ellipse
             style="fill:#ffffff;fill-rule:evenodd"
             id="path3652"
             cx="-514.46429"
             cy="568.3443"
             rx="1.7857143"
             ry="3.3035715" />
        </g>
      </g>
      <path
         inkscape:export-xdpi="38.686176"
         inkscape:export-filename="U:\pics\squobit-1stattempt.png"
         sodipodi:nodetypes="cssssc"
         inkscape:export-ydpi="38.686176"
         d="m 504.6,259.97 c -4.6501,3.8213 -22.981,0.17367 -22.981,-5.177 0,-0.4209 -0.50273,-0.3145 -0.12626,-0.12627 1.3196,0.6598 3.2711,0.68919 4.7982,1.1364 3.8805,1.1364 9.6765,0.35568 12.627,1.0102 1.8951,0.42037 4.493,1.8372 5.6821,3.1567 z"
         style="fill:#aa4400"
         id="path2846"
         inkscape:connector-curvature="0" />
      <path
         inkscape:export-xdpi="38.686176"
         inkscape:export-filename="U:\pics\squobit-1stattempt.png"
         sodipodi:nodetypes="csssc"
         inkscape:export-ydpi="38.686176"
         d="m 507.13,241.03 c -1.3205,-7.3707 -16.24,-7.7751 -19.824,-4.4194 -0.64108,0.60025 -3.4978,2.5574 -2.2728,3.1567 2.1732,1.0633 9.0845,-1.325 12.248,-1.389 3.9286,-0.0794 7.6273,1.9656 9.9753,2.7779"
         style="fill:#ffffff"
         id="path3624"
         inkscape:connector-curvature="0" />
      <path
         inkscape:export-xdpi="38.686176"
         inkscape:export-filename="U:\pics\squobit-1stattempt.png"
         sodipodi:nodetypes="cscc"
         inkscape:export-ydpi="38.686176"
         d="m 404.47,470.59 c -41.416,15.152 -85.863,37.376 -96.975,35.355 -11.112,-2.0203 -31.315,-10.102 -31.315,-10.102 28.435,24.424 117.82,21.531 128.29,-25.254 z"
         style="fill:#999999"
         id="path3643"
         inkscape:connector-curvature="0" />
      <path
         inkscape:export-xdpi="38.686176"
         inkscape:export-filename="U:\pics\squobit-1stattempt.png"
         sodipodi:nodetypes="cscsc"
         inkscape:export-ydpi="38.686176"
         d="m 254.46,540.29 c 26.264,24.749 36.367,29.63 44.952,28.284 8.9955,-1.4103 25.254,-8.0812 25.254,-8.0812 0,0 6.0609,-17.173 -2.0203,-22.223 -8.0812,-5.0508 -61.619,-2.5254 -68.185,2.0203 z"
         style="fill:#ececec"
         id="path3645"
         inkscape:connector-curvature="0" />
      <path
         inkscape:export-xdpi="38.686176"
         inkscape:export-filename="U:\pics\squobit-1stattempt.png"
         sodipodi:nodetypes="cssssssssc"
         inkscape:export-ydpi="38.686176"
         d="m 296.38,567.56 c 14.003,33.291 -24.418,22.38 -30.305,26.264 -9.8803,6.5189 27.269,3.0289 33.335,5.0508 22.334,7.4447 54.879,19.159 52.023,10.102 -0.99373,-3.1514 -34.294,-7.6775 -34.85,-12.122 -1.1404,-9.1145 54.23,2.8986 50.003,-5.5558 -6.5762,-13.152 -42.447,6.0405 -51.518,-3.0305 -2.0565,-2.0565 20.686,-3.558 18.183,-6.0609 -7.3541,-7.3541 -19.83,5.424 -24.244,-0.50508 -1.3459,-1.808 -6.5799,-32.269 -12.627,-14.142 z"
         style="fill:#ff8080"
         id="path3671"
         inkscape:connector-curvature="0" />
      <path
         inkscape:export-xdpi="38.686176"
         inkscape:export-filename="U:\pics\squobit-1stattempt.png"
         sodipodi:nodetypes="ccccccc"
         inkscape:export-ydpi="38.686176"
         d="m 505.36,260.4 c -6.1861,1.0497 -11.413,2.1504 -15.714,0 -2.0424,-0.3676 -6.1406,-1.9309 -7.3214,-3.5714 0,3.8055 6.8785,9.0213 9.2857,11.429 5.1456,3.4852 8.0805,7.6324 8.75,13.036 2.2424,0.0209 2.5755,-1.3153 3.9286,-5.1786 0.96303,-9.7027 1.7468,-9.8267 1.0714,-15.714 z"
         style="fill:#483737"
         id="path3695"
         inkscape:connector-curvature="0" />
      <path
         inkscape:export-xdpi="38.686176"
         inkscape:export-filename="U:\pics\squobit-1stattempt.png"
         sodipodi:nodetypes="ccsccccc"
         inkscape:export-ydpi="38.686176"
         d="m 366.25,313.08 c 41.475,-12.457 70.8,15.726 102.68,36.786 1.4825,0.74126 6.1656,4.013 9.8214,2.3214 0.18773,-0.0869 1.6659,1.0664 3.2143,-2.1428 -0.5224,3.7474 -0.099,9.0031 -0.53571,12.857 -1.4637,3.5399 -9.3979,0.61738 -17.857,-1.4286 -17.869,-5.1262 -31.87,-21.37 -46.964,-31.071 -15.047,-6.7011 -33.751,-16.554 -50.357,-17.321 z"
         style="fill:#c8b7b7"
         id="path3699"
         inkscape:connector-curvature="0" />
      <path
         inkscape:export-xdpi="38.686176"
         inkscape:export-filename="U:\pics\squobit-1stattempt.png"
         sodipodi:nodetypes="cssc"
         inkscape:export-ydpi="38.686176"
         d="m 288.3,497.86 c -38.455,13.73 -79.249,19.383 -122.23,12.122 -5.2585,-0.88842 -37.744,-6.9717 -34.345,-13.132 10.788,-19.555 135.69,-8.3086 156.57,1.0102 z"
         style="fill:#6c5353"
         id="path3701"
         inkscape:connector-curvature="0" />
      <path
         inkscape:export-xdpi="38.686176"
         inkscape:export-filename="U:\pics\squobit-1stattempt.png"
         sodipodi:nodetypes="csscssscssc"
         inkscape:export-ydpi="38.686176"
         d="m 279.25,497.19 c -96.429,-1.4286 -105.68,2.3162 -132.82,-7.6838 -27.143,-10 -18.571,-11.429 -0.71429,-15.714 17.857,-4.2857 35,-5.7143 35,-5.7143 0,0 -19.734,-1.5966 -18.571,-8.5714 0.71428,-4.2857 15.844,-11.252 24.582,-12.561 7.5613,-1.1327 -16.33,-8.6867 -14.293,-10.931 2.4028,-2.6479 46.472,-18.319 46.472,-18.319 0,0 -5.5769,1.1401 -8.1889,16.811 -2.7112,16.266 2.8552,24.685 12.684,35.296 9.6175,10.383 52.995,25.959 55.852,27.388 z"
         style="fill:#483737"
         id="path2842"
         inkscape:connector-curvature="0" />
      <path
         inkscape:export-xdpi="38.686176"
         inkscape:export-filename="U:\pics\squobit-1stattempt.png"
         sodipodi:nodetypes="ccccc"
         inkscape:export-ydpi="38.686176"
         d="m 399.29,477.36 c -34.304,33.095 -101.72,34.888 -142.27,15.469 -35.296,-13.987 -62.275,-32.979 -48.63,-71.862 47.594,-38.497 85.329,-65.49 143.04,-60.036 48.343,1.6834 76.774,79.5 47.857,116.43 z"
         style="fill:#cccccc"
         id="path2838"
         inkscape:connector-curvature="0" />
      <path
         inkscape:export-xdpi="38.686176"
         inkscape:export-filename="U:\pics\squobit-1stattempt.png"
         sodipodi:nodetypes="cccssscc"
         inkscape:export-ydpi="38.686176"
         d="m 490.71,237.5 c 10.466,-1.661 13.115,0.51762 20.077,6.8185 1.9205,3.3735 2.398,6.3637 2.9042,10.102 0.50508,5.0508 0.3788,8.3338 -2.9042,8.8388 -5.1396,0.79072 -3.5355,-3.5355 -9.5964,-5.8084 -4.8228,-1.8086 -7.0711,-0.25254 -12.879,-1.0102 -5.8084,-0.75762 -7.5762,-1.2627 -8.8388,-4.5457 -4.0652,-8.252 4.074,-12.001 11.238,-14.395 z"
         style="fill:#ff7f2a"
         id="path2844"
         inkscape:connector-curvature="0" />
      <path
         inkscape:export-xdpi="38.686176"
         inkscape:export-filename="U:\pics\squobit-1stattempt.png"
         sodipodi:nodetypes="csssc"
         inkscape:export-ydpi="38.686176"
         d="m 491.09,243.68 c -1.3645,-0.0627 -1.6244,0.67536 -1.894,1.2627 -1.2856,2.8008 6.4397,5.0105 6.4397,4.0406 0,-0.75424 -3.2259,-2.342 -3.6618,-2.7779 -0.16381,-0.16381 3.3072,-1.6872 -0.88388,-2.5254 z"
         style="fill:#aa4400"
         id="path2850"
         inkscape:connector-curvature="0" />
      <path
         inkscape:export-xdpi="38.686176"
         inkscape:export-filename="U:\pics\squobit-1stattempt.png"
         sodipodi:nodetypes="cscccc"
         inkscape:export-ydpi="38.686176"
         d="m 502.68,239.33 c 3.75,1.9643 6.0714,5 7.3214,9.1071 1.1509,3.7816 1.6071,10.179 1.6071,10.179 -2.6555,-5.2193 -5.2015,-10.927 -10.536,-13.75 -5.076,-2.538 -7.1428,-5 -7.1428,-5 0,0 3.0357,-1.9643 8.75,-0.53572 z"
         style="fill:#ffccaa"
         id="path3697"
         inkscape:connector-curvature="0" />
    </g>
    <path
       d="m 384.2261,195.58379 c -4.76429,1.16484 -9.10625,4.76428 -11.38074,9.31603 l -1.32218,2.64712 v 63.79063 63.79063 l 1.32218,2.64714 c 1.64239,3.38689 4.81674,6.564 8.20639,8.20638 l 2.64713,1.32218 19.21724,0.15735 19.16479,0.16009 v 30.43787 c 0,33.29755 -0.0524,32.61024 3.1219,35.30982 1.95982,1.58717 4.4993,2.22204 7.30653,1.69482 1.79972,-0.31743 5.92913,-4.23431 35.62724,-33.87998 l 33.60947,-33.61773 38.64426,-0.10484 38.64425,-0.15734 2.64714,-1.32218 c 3.38689,-1.64239 6.56399,-4.81673 8.20638,-8.20638 l 1.32218,-2.64714 V 271.33763 207.547 l -1.32218,-2.64713 c -1.63963,-3.3869 -4.81673,-6.56401 -8.20638,-8.20638 l -2.64714,-1.32219 -96.61064,-0.10495 c -53.14965,-0.002 -97.29797,0.10495 -98.19782,0.31744 z m 43.77843,55.95412 c 1.37739,0.42232 3.70432,1.90461 5.13416,3.17711 6.45911,5.82424 7.56875,15.14027 2.59469,22.28669 -5.98159,8.73361 -19.21724,9.47613 -26.25601,1.42985 -6.03403,-6.77656 -5.66416,-16.72745 0.79496,-23.13411 4.70908,-4.76705 10.79831,-6.08923 17.7322,-3.75954 z m 59.28857,0 c 3.38689,1.1124 7.46386,4.86917 9.26358,8.57627 1.26974,2.59468 1.48228,3.65188 1.42983,7.25132 0,5.13416 -1.32218,8.31127 -4.97682,11.96315 -3.4421,3.44211 -7.46387,4.86918 -12.70569,4.6042 -6.40666,-0.36989 -11.38073,-3.65189 -14.13551,-9.31604 -1.26974,-2.59468 -1.48228,-3.65188 -1.48228,-7.51631 0,-3.81197 0.21254,-4.86917 1.42983,-7.14642 1.37739,-2.69958 4.97683,-6.40667 7.35897,-7.72885 3.81474,-2.06471 8.94891,-2.3297 13.81809,-0.68732 z m 60.50863,0.42232 c 7.78129,3.59945 11.75336,13.12801 8.78604,21.01697 -1.42984,3.81197 -4.71184,7.51631 -8.20638,9.36846 -2.38215,1.26974 -3.28201,1.42985 -7.72886,1.42985 -4.60694,0 -5.29426,-0.16011 -7.88894,-1.58718 -3.22956,-1.79972 -5.82424,-4.55174 -7.51631,-8.15118 -1.64238,-3.3869 -1.69482,-9.846 -0.10495,-13.34054 1.26973,-2.85968 4.28675,-6.35147 6.7241,-7.88896 4.55451,-2.80446 10.90596,-3.12191 15.93524,-0.84742 z"
       id="path916"
       style="stroke-width:0.0276031" />
  </g>
  <metadata
     id="metadata32">
    <rdf:RDF>
      <cc:Work>
        <dc:format>image/svg+xml</dc:format>
        <dc:type
           rdf:resource="http://purl.org/dc/dcmitype/StillImage" />
        <cc:license
           rdf:resource="http://creativecommons.org/publicdomain/zero/1.0/" />
        <dc:publisher>
          <cc:Agent
             rdf:about="http://openclipart.org/">
            <dc:title>Openclipart</dc:title>
          </cc:Agent>
        </dc:publisher>
        <dc:date>2010-07-07T15:57:53</dc:date>
        <dc:description>A cartoon pigeon drawn in Inkscape</dc:description>
        <dc:source>https://openclipart.org/detail/71287/pigeon-by-wildchief</dc:source>
        <dc:creator>
          <cc:Agent>
            <dc:title>wildchief</dc:title>
          </cc:Agent>
        </dc:creator>
        <dc:subject>
          <rdf:Bag>
            <rdf:li>cartoon</rdf:li>
            <rdf:li>pigeon</rdf:li>
            <rdf:li>squab</rdf:li>
          </rdf:Bag>
        </dc:subject>
      </cc:Work>
      <cc:License
         rdf:about="http://creativecommons.org/publicdomain/zero/1.0/">
        <cc:permits
           rdf:resource="http://creativecommons.org/ns#Reproduction" />
        <cc:permits
           rdf:resource="http://creativecommons.org/ns#Distribution" />
        <cc:permits
           rdf:resource="http://creativecommons.org/ns#DerivativeWorks" />
      </cc:License>
    </rdf:RDF>
  </metadata>
</svg>
