%TF.GenerationSoftware,KiCad,Pcbnew,4.0.7*%
%TF.CreationDate,2019-09-16T14:18:56-03:00*%
%TF.ProjectId,pinguicaro,70696E6775696361726F2E6B69636164,rev?*%
%TF.FileFunction,Copper,L1,Top,Signal*%
%FSLAX46Y46*%
G04 Gerber Fmt 4.6, Leading zero omitted, Abs format (unit mm)*
G04 Created by KiCad (PCBNEW 4.0.7) date Mon Sep 16 14:18:56 2019*
%MOMM*%
%LPD*%
G01*
G04 APERTURE LIST*
%ADD10C,0.100000*%
%ADD11R,1.250000X1.000000*%
%ADD12R,3.500000X1.600000*%
%ADD13R,1.200000X1.200000*%
%ADD14R,0.500000X2.300000*%
%ADD15R,2.000000X2.500000*%
%ADD16R,2.750000X1.000000*%
%ADD17R,2.000000X0.600000*%
%ADD18R,1.700000X1.700000*%
%ADD19O,1.700000X1.700000*%
%ADD20C,0.600000*%
%ADD21C,0.250000*%
%ADD22C,0.254000*%
G04 APERTURE END LIST*
D10*
D11*
X159225000Y-81600000D03*
X159225000Y-83600000D03*
D12*
X162650000Y-84000000D03*
X168050000Y-84000000D03*
D13*
X161650000Y-92500000D03*
X159450000Y-92500000D03*
D14*
X162975000Y-118225000D03*
X163775000Y-118225000D03*
X164575000Y-118225000D03*
X165375000Y-118225000D03*
X166175000Y-118225000D03*
D15*
X160125000Y-118325000D03*
X160125000Y-123825000D03*
X169025000Y-118325000D03*
X169025000Y-123825000D03*
D16*
X156055000Y-86200000D03*
X150295000Y-86200000D03*
X150295000Y-82200000D03*
X156055000Y-82200000D03*
D17*
X154153952Y-94845000D03*
X154153952Y-96115000D03*
X154153952Y-97385000D03*
X154153952Y-98655000D03*
X154153952Y-99925000D03*
X154153952Y-101195000D03*
X154153952Y-102465000D03*
X154153952Y-103735000D03*
X154153952Y-105005000D03*
X154153952Y-106275000D03*
X154153952Y-107545000D03*
X154153952Y-108815000D03*
X154153952Y-110085000D03*
X154153952Y-111355000D03*
X163553952Y-111355000D03*
X163553952Y-110085000D03*
X163553952Y-108815000D03*
X163553952Y-107545000D03*
X163553952Y-106275000D03*
X163553952Y-105005000D03*
X163553952Y-103735000D03*
X163553952Y-102465000D03*
X163553952Y-101195000D03*
X163553952Y-99925000D03*
X163553952Y-98655000D03*
X163553952Y-97385000D03*
X163553952Y-96115000D03*
X163553952Y-94845000D03*
D18*
X154300000Y-118825000D03*
D19*
X151760000Y-118825000D03*
X149220000Y-118825000D03*
D18*
X168910000Y-91440000D03*
D19*
X168910000Y-93980000D03*
X168910000Y-96520000D03*
X168910000Y-99060000D03*
X168910000Y-101600000D03*
X168910000Y-104140000D03*
X168910000Y-106680000D03*
X168910000Y-109220000D03*
X168910000Y-111760000D03*
X168910000Y-114300000D03*
D18*
X148590000Y-91440000D03*
D19*
X148590000Y-93980000D03*
X148590000Y-96520000D03*
X148590000Y-99060000D03*
X148590000Y-101600000D03*
X148590000Y-104140000D03*
X148590000Y-106680000D03*
X148590000Y-109220000D03*
X148590000Y-111760000D03*
X148590000Y-114300000D03*
D20*
X152146000Y-103632000D03*
X160147000Y-115062000D03*
X161798000Y-119761000D03*
X165735000Y-120015000D03*
X163703000Y-82550000D03*
X166624000Y-82550000D03*
X158242000Y-102235000D03*
X154813000Y-84963000D03*
X151384000Y-84963000D03*
X161036000Y-104648000D03*
X152146000Y-104648000D03*
X155829000Y-108077000D03*
X159385000Y-111252000D03*
X165481000Y-107061000D03*
X157861000Y-92202000D03*
X153543000Y-113157000D03*
X160147000Y-94869000D03*
X162052000Y-118745000D03*
X164338000Y-116078000D03*
X162814000Y-114554000D03*
X155829000Y-97282000D03*
X154178000Y-90805000D03*
X151384000Y-83439000D03*
X154813000Y-83439000D03*
X153162000Y-93091000D03*
X165354000Y-93091000D03*
X165481000Y-94996000D03*
X165481000Y-96520000D03*
X165481000Y-99060000D03*
X165481000Y-100965000D03*
X165481000Y-102235000D03*
X152146000Y-96139000D03*
X152146000Y-97409000D03*
X152146000Y-99060000D03*
X152146000Y-101600000D03*
X152146000Y-106299000D03*
X152146000Y-107569000D03*
X152146000Y-109220000D03*
D21*
X170180000Y-109220000D02*
X169926000Y-109220000D01*
X170180000Y-114300000D02*
X169926000Y-114300000D01*
X160782000Y-76454000D02*
X160755000Y-76500000D01*
X160755000Y-76500000D02*
X160782000Y-76454000D01*
X154995000Y-80500000D02*
X154940000Y-80518000D01*
X154940000Y-80518000D02*
X154995000Y-80500000D01*
X152146000Y-103632000D02*
X151511000Y-104267000D01*
X151511000Y-104267000D02*
X151511000Y-105029000D01*
X151511000Y-105029000D02*
X151765000Y-105283000D01*
X151765000Y-105283000D02*
X152400000Y-105283000D01*
X152400000Y-105283000D02*
X152781000Y-105664000D01*
X152781000Y-105664000D02*
X153543000Y-105664000D01*
X153543000Y-105664000D02*
X154178000Y-106299000D01*
X154178000Y-106299000D02*
X154153952Y-106275000D01*
X160147000Y-115062000D02*
X160147000Y-118364000D01*
X160147000Y-118364000D02*
X160125000Y-118325000D01*
X160125000Y-118325000D02*
X160147000Y-118364000D01*
X160147000Y-118364000D02*
X160401000Y-118364000D01*
X160401000Y-118364000D02*
X161798000Y-119761000D01*
X165735000Y-120015000D02*
X166116000Y-119634000D01*
X166116000Y-119634000D02*
X166116000Y-118237000D01*
X166116000Y-118237000D02*
X166175000Y-118225000D01*
X169025000Y-118325000D02*
X169037000Y-118364000D01*
X169037000Y-118364000D02*
X169037000Y-123825000D01*
X169037000Y-123825000D02*
X169025000Y-123825000D01*
X160125000Y-118325000D02*
X160147000Y-118364000D01*
X160147000Y-118364000D02*
X160147000Y-123825000D01*
X160147000Y-123825000D02*
X160125000Y-123825000D01*
X166175000Y-118225000D02*
X166116000Y-118237000D01*
X166116000Y-118237000D02*
X168910000Y-118237000D01*
X168910000Y-118237000D02*
X169037000Y-118364000D01*
X169037000Y-118364000D02*
X169025000Y-118325000D01*
X156055000Y-86200000D02*
X156083000Y-86233000D01*
X156083000Y-86233000D02*
X158242000Y-84074000D01*
X158242000Y-84074000D02*
X158242000Y-82677000D01*
X158242000Y-82677000D02*
X159258000Y-81661000D01*
X159258000Y-81661000D02*
X159225000Y-81600000D01*
X159225000Y-81600000D02*
X159258000Y-81661000D01*
X159258000Y-81661000D02*
X162814000Y-81661000D01*
X162814000Y-81661000D02*
X163703000Y-82550000D01*
X166624000Y-82550000D02*
X168021000Y-83947000D01*
X168021000Y-83947000D02*
X168050000Y-84000000D01*
X158242000Y-102235000D02*
X156464000Y-100457000D01*
X156464000Y-100457000D02*
X156464000Y-96901000D01*
X156464000Y-96901000D02*
X156083000Y-96520000D01*
X156083000Y-96520000D02*
X156083000Y-86233000D01*
X156083000Y-86233000D02*
X156055000Y-86200000D01*
X156055000Y-86200000D02*
X156083000Y-86233000D01*
X156083000Y-86233000D02*
X154813000Y-84963000D01*
X151384000Y-84963000D02*
X150241000Y-86106000D01*
X150241000Y-86106000D02*
X150241000Y-86233000D01*
X150241000Y-86233000D02*
X150295000Y-86200000D01*
X161036000Y-104648000D02*
X161163000Y-104648000D01*
X161163000Y-104648000D02*
X162179000Y-105664000D01*
X162179000Y-105664000D02*
X162941000Y-105664000D01*
X162941000Y-105664000D02*
X163576000Y-106299000D01*
X163576000Y-106299000D02*
X163553952Y-106275000D01*
X152146000Y-104648000D02*
X152400000Y-104648000D01*
X152400000Y-104648000D02*
X152781000Y-104267000D01*
X152781000Y-104267000D02*
X153670000Y-104267000D01*
X153670000Y-104267000D02*
X154178000Y-103759000D01*
X154178000Y-103759000D02*
X154153952Y-103735000D01*
X155829000Y-108077000D02*
X155575000Y-107823000D01*
X155575000Y-107823000D02*
X155575000Y-105537000D01*
X155575000Y-105537000D02*
X154686000Y-105537000D01*
X154686000Y-105537000D02*
X154178000Y-105029000D01*
X154178000Y-105029000D02*
X154153952Y-105005000D01*
X151760000Y-118825000D02*
X151765000Y-118872000D01*
X151765000Y-118872000D02*
X159385000Y-111252000D01*
X165481000Y-107061000D02*
X164973000Y-106553000D01*
X164973000Y-106553000D02*
X164973000Y-105537000D01*
X164973000Y-105537000D02*
X164084000Y-105537000D01*
X164084000Y-105537000D02*
X163576000Y-105029000D01*
X163576000Y-105029000D02*
X163553952Y-105005000D01*
X161650000Y-92500000D02*
X161671000Y-92456000D01*
X161671000Y-92456000D02*
X162687000Y-91440000D01*
X162687000Y-91440000D02*
X162687000Y-83947000D01*
X162687000Y-83947000D02*
X162650000Y-84000000D01*
X162650000Y-84000000D02*
X162687000Y-83947000D01*
X162687000Y-83947000D02*
X159639000Y-83947000D01*
X159639000Y-83947000D02*
X159258000Y-83566000D01*
X159258000Y-83566000D02*
X159225000Y-83600000D01*
X163576000Y-105029000D02*
X163553952Y-105005000D01*
X163553952Y-105005000D02*
X163576000Y-105029000D01*
X163576000Y-105029000D02*
X162814000Y-105029000D01*
X162814000Y-105029000D02*
X161671000Y-103886000D01*
X161671000Y-103886000D02*
X161671000Y-92456000D01*
X161671000Y-92456000D02*
X161650000Y-92500000D01*
X161650000Y-92500000D02*
X161671000Y-92456000D01*
X161650000Y-92500000D02*
X161671000Y-92456000D01*
X161671000Y-92456000D02*
X161290000Y-92456000D01*
X161290000Y-92456000D02*
X160401000Y-91567000D01*
X160401000Y-91567000D02*
X158496000Y-91567000D01*
X158496000Y-91567000D02*
X157861000Y-92202000D01*
X154153952Y-111355000D02*
X154178000Y-111379000D01*
X154178000Y-111379000D02*
X153543000Y-112014000D01*
X153543000Y-112014000D02*
X153543000Y-113157000D01*
X159450000Y-92500000D02*
X159512000Y-92456000D01*
X159512000Y-92456000D02*
X160147000Y-93091000D01*
X160147000Y-93091000D02*
X160147000Y-94869000D01*
X163775000Y-118225000D02*
X163830000Y-118237000D01*
X163830000Y-118237000D02*
X163576000Y-117983000D01*
X163576000Y-117983000D02*
X163576000Y-111379000D01*
X163576000Y-111379000D02*
X163553952Y-111355000D01*
X163576000Y-111379000D02*
X163553952Y-111355000D01*
X162975000Y-118225000D02*
X162941000Y-118237000D01*
X162941000Y-118237000D02*
X162560000Y-118237000D01*
X162560000Y-118237000D02*
X162052000Y-118745000D01*
X164575000Y-118225000D02*
X164592000Y-118237000D01*
X164592000Y-118237000D02*
X164465000Y-118110000D01*
X164465000Y-118110000D02*
X164465000Y-116713000D01*
X164465000Y-116713000D02*
X164338000Y-116586000D01*
X164338000Y-116586000D02*
X164338000Y-116078000D01*
X162814000Y-114554000D02*
X162179000Y-113919000D01*
X162179000Y-113919000D02*
X162179000Y-110617000D01*
X162179000Y-110617000D02*
X163068000Y-110617000D01*
X163068000Y-110617000D02*
X163576000Y-110109000D01*
X163576000Y-110109000D02*
X163553952Y-110085000D01*
X163576000Y-110109000D02*
X163553952Y-110085000D01*
X155829000Y-97282000D02*
X155575000Y-97536000D01*
X155575000Y-97536000D02*
X155575000Y-100584000D01*
X155575000Y-100584000D02*
X154813000Y-100584000D01*
X154813000Y-100584000D02*
X154178000Y-101219000D01*
X154178000Y-101219000D02*
X154153952Y-101195000D01*
X156055000Y-82200000D02*
X156083000Y-82169000D01*
X156083000Y-82169000D02*
X155956000Y-82296000D01*
X155956000Y-82296000D02*
X155956000Y-83185000D01*
X155956000Y-83185000D02*
X155448000Y-83693000D01*
X155448000Y-83693000D02*
X155448000Y-83820000D01*
X155448000Y-83820000D02*
X155194000Y-84074000D01*
X155194000Y-84074000D02*
X154686000Y-84074000D01*
X154686000Y-84074000D02*
X154178000Y-84582000D01*
X154178000Y-84582000D02*
X154178000Y-90805000D01*
X150295000Y-82200000D02*
X150241000Y-82169000D01*
X150241000Y-82169000D02*
X151384000Y-83312000D01*
X151384000Y-83312000D02*
X151384000Y-83439000D01*
X154813000Y-83439000D02*
X156083000Y-82169000D01*
X156083000Y-82169000D02*
X156055000Y-82200000D01*
X153162000Y-93091000D02*
X154178000Y-94107000D01*
X154178000Y-94107000D02*
X154178000Y-94869000D01*
X154178000Y-94869000D02*
X154153952Y-94845000D01*
X148590000Y-111760000D02*
X149860000Y-113030000D01*
X149860000Y-113030000D02*
X149860000Y-115570000D01*
X149860000Y-115570000D02*
X149225000Y-116205000D01*
X149225000Y-116205000D02*
X149225000Y-118872000D01*
X149225000Y-118872000D02*
X149220000Y-118825000D01*
X163553952Y-94845000D02*
X163576000Y-94869000D01*
X163576000Y-94869000D02*
X165354000Y-93091000D01*
X163553952Y-94845000D02*
X163576000Y-94869000D01*
X165481000Y-94996000D02*
X164973000Y-95504000D01*
X164973000Y-95504000D02*
X164211000Y-95504000D01*
X164211000Y-95504000D02*
X163576000Y-96139000D01*
X163576000Y-96139000D02*
X163553952Y-96115000D01*
X163576000Y-96139000D02*
X163553952Y-96115000D01*
X163553952Y-97385000D02*
X163576000Y-97409000D01*
X163576000Y-97409000D02*
X164592000Y-97409000D01*
X164592000Y-97409000D02*
X165481000Y-96520000D01*
X163553952Y-97385000D02*
X163576000Y-97409000D01*
X165481000Y-99060000D02*
X163957000Y-99060000D01*
X163957000Y-99060000D02*
X163576000Y-98679000D01*
X163576000Y-98679000D02*
X163553952Y-98655000D01*
X163576000Y-98679000D02*
X163553952Y-98655000D01*
X165481000Y-100965000D02*
X164973000Y-100457000D01*
X164973000Y-100457000D02*
X164084000Y-100457000D01*
X164084000Y-100457000D02*
X163576000Y-99949000D01*
X163576000Y-99949000D02*
X163553952Y-99925000D01*
X163576000Y-99949000D02*
X163553952Y-99925000D01*
X165481000Y-102235000D02*
X164973000Y-101727000D01*
X164973000Y-101727000D02*
X164084000Y-101727000D01*
X164084000Y-101727000D02*
X163576000Y-101219000D01*
X163576000Y-101219000D02*
X163553952Y-101195000D01*
X163576000Y-101219000D02*
X163553952Y-101195000D01*
X168910000Y-106680000D02*
X168656000Y-106680000D01*
X168656000Y-106680000D02*
X164973000Y-102997000D01*
X164973000Y-102997000D02*
X164084000Y-102997000D01*
X164084000Y-102997000D02*
X163576000Y-102489000D01*
X163576000Y-102489000D02*
X163553952Y-102465000D01*
X163576000Y-102489000D02*
X163553952Y-102465000D01*
X168910000Y-109220000D02*
X166116000Y-106426000D01*
X166116000Y-106426000D02*
X166116000Y-105664000D01*
X166116000Y-105664000D02*
X164973000Y-104521000D01*
X164973000Y-104521000D02*
X164973000Y-104267000D01*
X164973000Y-104267000D02*
X164084000Y-104267000D01*
X164084000Y-104267000D02*
X163576000Y-103759000D01*
X163576000Y-103759000D02*
X163553952Y-103735000D01*
X163576000Y-103759000D02*
X163553952Y-103735000D01*
X168910000Y-111760000D02*
X168656000Y-111760000D01*
X168656000Y-111760000D02*
X164973000Y-108077000D01*
X164973000Y-108077000D02*
X164084000Y-108077000D01*
X164084000Y-108077000D02*
X163576000Y-107569000D01*
X163576000Y-107569000D02*
X163553952Y-107545000D01*
X163576000Y-107569000D02*
X163553952Y-107545000D01*
X168910000Y-114300000D02*
X164973000Y-110363000D01*
X164973000Y-110363000D02*
X164973000Y-109347000D01*
X164973000Y-109347000D02*
X164084000Y-109347000D01*
X164084000Y-109347000D02*
X163576000Y-108839000D01*
X163576000Y-108839000D02*
X163553952Y-108815000D01*
X163576000Y-108839000D02*
X163553952Y-108815000D01*
X148590000Y-91440000D02*
X148717000Y-91440000D01*
X148717000Y-91440000D02*
X152781000Y-95504000D01*
X152781000Y-95504000D02*
X153543000Y-95504000D01*
X153543000Y-95504000D02*
X154178000Y-96139000D01*
X154178000Y-96139000D02*
X154153952Y-96115000D01*
X154178000Y-96139000D02*
X154153952Y-96115000D01*
X152146000Y-96139000D02*
X152781000Y-96774000D01*
X152781000Y-96774000D02*
X153543000Y-96774000D01*
X153543000Y-96774000D02*
X154178000Y-97409000D01*
X154178000Y-97409000D02*
X154153952Y-97385000D01*
X154178000Y-97409000D02*
X154153952Y-97385000D01*
X152146000Y-97409000D02*
X152781000Y-98044000D01*
X152781000Y-98044000D02*
X153543000Y-98044000D01*
X153543000Y-98044000D02*
X154178000Y-98679000D01*
X154178000Y-98679000D02*
X154153952Y-98655000D01*
X154178000Y-98679000D02*
X154153952Y-98655000D01*
X154153952Y-99925000D02*
X154178000Y-99949000D01*
X154178000Y-99949000D02*
X153035000Y-99949000D01*
X153035000Y-99949000D02*
X152146000Y-99060000D01*
X154153952Y-99925000D02*
X154178000Y-99949000D01*
X152146000Y-101600000D02*
X152527000Y-101600000D01*
X152527000Y-101600000D02*
X152781000Y-101854000D01*
X152781000Y-101854000D02*
X153543000Y-101854000D01*
X153543000Y-101854000D02*
X154178000Y-102489000D01*
X154178000Y-102489000D02*
X154153952Y-102465000D01*
X154178000Y-102489000D02*
X154153952Y-102465000D01*
X152146000Y-106299000D02*
X152781000Y-106934000D01*
X152781000Y-106934000D02*
X153543000Y-106934000D01*
X153543000Y-106934000D02*
X154178000Y-107569000D01*
X154178000Y-107569000D02*
X154153952Y-107545000D01*
X154178000Y-107569000D02*
X154153952Y-107545000D01*
X152146000Y-107569000D02*
X152781000Y-108204000D01*
X152781000Y-108204000D02*
X153543000Y-108204000D01*
X153543000Y-108204000D02*
X154178000Y-108839000D01*
X154178000Y-108839000D02*
X154153952Y-108815000D01*
X154178000Y-108839000D02*
X154153952Y-108815000D01*
X154153952Y-110085000D02*
X154178000Y-110109000D01*
X154178000Y-110109000D02*
X153035000Y-110109000D01*
X153035000Y-110109000D02*
X152146000Y-109220000D01*
X154153952Y-110085000D02*
X154178000Y-110109000D01*
D22*
G36*
X154217698Y-80754390D02*
X154363143Y-81012808D01*
X154465267Y-81092965D01*
X154444683Y-81096838D01*
X154228559Y-81235910D01*
X154083569Y-81448110D01*
X154032560Y-81700000D01*
X154032560Y-82700000D01*
X154063757Y-82865799D01*
X154020808Y-82908673D01*
X153878162Y-83252201D01*
X153877838Y-83624167D01*
X153931400Y-83753798D01*
X153640599Y-84044599D01*
X153475852Y-84291161D01*
X153418000Y-84582000D01*
X153418000Y-90242537D01*
X153385808Y-90274673D01*
X153243162Y-90618201D01*
X153242838Y-90990167D01*
X153384883Y-91333943D01*
X153647673Y-91597192D01*
X153991201Y-91739838D01*
X154363167Y-91740162D01*
X154706943Y-91598117D01*
X154970192Y-91335327D01*
X155112838Y-90991799D01*
X155113162Y-90619833D01*
X154971117Y-90276057D01*
X154938000Y-90242882D01*
X154938000Y-87335000D01*
X155769250Y-87335000D01*
X155928000Y-87176250D01*
X155928000Y-86327000D01*
X156182000Y-86327000D01*
X156182000Y-87176250D01*
X156340750Y-87335000D01*
X157556309Y-87335000D01*
X157789698Y-87238327D01*
X157968327Y-87059699D01*
X158065000Y-86826310D01*
X158065000Y-86485750D01*
X157906250Y-86327000D01*
X156182000Y-86327000D01*
X155928000Y-86327000D01*
X155908000Y-86327000D01*
X155908000Y-86073000D01*
X155928000Y-86073000D01*
X155928000Y-85223750D01*
X156182000Y-85223750D01*
X156182000Y-86073000D01*
X157906250Y-86073000D01*
X158065000Y-85914250D01*
X158065000Y-85573690D01*
X157968327Y-85340301D01*
X157789698Y-85161673D01*
X157556309Y-85065000D01*
X156340750Y-85065000D01*
X156182000Y-85223750D01*
X155928000Y-85223750D01*
X155769250Y-85065000D01*
X154938000Y-85065000D01*
X154938000Y-84896802D01*
X155000802Y-84834000D01*
X155194000Y-84834000D01*
X155484839Y-84776148D01*
X155731401Y-84611401D01*
X155985401Y-84357401D01*
X156150148Y-84110840D01*
X156161368Y-84054434D01*
X156493401Y-83722401D01*
X156567608Y-83611342D01*
X156658148Y-83475839D01*
X156683688Y-83347440D01*
X157430000Y-83347440D01*
X157665317Y-83303162D01*
X157881441Y-83164090D01*
X157964071Y-83043157D01*
X157952560Y-83100000D01*
X157952560Y-84100000D01*
X157996838Y-84335317D01*
X158135910Y-84551441D01*
X158348110Y-84696431D01*
X158600000Y-84747440D01*
X159850000Y-84747440D01*
X160064920Y-84707000D01*
X160252560Y-84707000D01*
X160252560Y-84800000D01*
X160296838Y-85035317D01*
X160435910Y-85251441D01*
X160648110Y-85396431D01*
X160900000Y-85447440D01*
X161927000Y-85447440D01*
X161927000Y-91125198D01*
X161799638Y-91252560D01*
X161161362Y-91252560D01*
X160938401Y-91029599D01*
X160691839Y-90864852D01*
X160401000Y-90807000D01*
X158496000Y-90807000D01*
X158205161Y-90864852D01*
X157958599Y-91029599D01*
X157721320Y-91266878D01*
X157675833Y-91266838D01*
X157332057Y-91408883D01*
X157068808Y-91671673D01*
X156926162Y-92015201D01*
X156925838Y-92387167D01*
X157067883Y-92730943D01*
X157330673Y-92994192D01*
X157674201Y-93136838D01*
X158046167Y-93137162D01*
X158202560Y-93072542D01*
X158202560Y-93100000D01*
X158246838Y-93335317D01*
X158385910Y-93551441D01*
X158598110Y-93696431D01*
X158850000Y-93747440D01*
X159387000Y-93747440D01*
X159387000Y-94306537D01*
X159354808Y-94338673D01*
X159212162Y-94682201D01*
X159211838Y-95054167D01*
X159353883Y-95397943D01*
X159616673Y-95661192D01*
X159960201Y-95803838D01*
X160332167Y-95804162D01*
X160675943Y-95662117D01*
X160911000Y-95427470D01*
X160911000Y-103886000D01*
X160968852Y-104176839D01*
X161133599Y-104423401D01*
X161906512Y-105196314D01*
X161906512Y-105305000D01*
X161950790Y-105540317D01*
X162009130Y-105630980D01*
X161918952Y-105848690D01*
X161918952Y-105989250D01*
X162077702Y-106148000D01*
X163426952Y-106148000D01*
X163426952Y-106128000D01*
X163626816Y-106128000D01*
X163700952Y-106177536D01*
X163700952Y-106402000D01*
X163680952Y-106402000D01*
X163680952Y-106422000D01*
X163426952Y-106422000D01*
X163426952Y-106402000D01*
X162077702Y-106402000D01*
X161918952Y-106560750D01*
X161918952Y-106701310D01*
X162008758Y-106918122D01*
X161957521Y-106993110D01*
X161906512Y-107245000D01*
X161906512Y-107845000D01*
X161950790Y-108080317D01*
X162014630Y-108179528D01*
X161957521Y-108263110D01*
X161906512Y-108515000D01*
X161906512Y-109115000D01*
X161950790Y-109350317D01*
X162014630Y-109449528D01*
X161957521Y-109533110D01*
X161906512Y-109785000D01*
X161906512Y-109911202D01*
X161888161Y-109914852D01*
X161641599Y-110079599D01*
X161476852Y-110326161D01*
X161419000Y-110617000D01*
X161419000Y-113919000D01*
X161476852Y-114209839D01*
X161641599Y-114456401D01*
X161878878Y-114693680D01*
X161878838Y-114739167D01*
X162020883Y-115082943D01*
X162283673Y-115346192D01*
X162627201Y-115488838D01*
X162816000Y-115489002D01*
X162816000Y-116427560D01*
X162725000Y-116427560D01*
X162489683Y-116471838D01*
X162273559Y-116610910D01*
X162128569Y-116823110D01*
X162077560Y-117075000D01*
X162077560Y-117662875D01*
X162022599Y-117699599D01*
X161912320Y-117809878D01*
X161866833Y-117809838D01*
X161760000Y-117853980D01*
X161760000Y-116948691D01*
X161663327Y-116715302D01*
X161484699Y-116536673D01*
X161251310Y-116440000D01*
X160410750Y-116440000D01*
X160252000Y-116598750D01*
X160252000Y-118198000D01*
X160272000Y-118198000D01*
X160272000Y-118452000D01*
X160252000Y-118452000D01*
X160252000Y-120051250D01*
X160410750Y-120210000D01*
X161251310Y-120210000D01*
X161484699Y-120113327D01*
X161663327Y-119934698D01*
X161760000Y-119701309D01*
X161760000Y-119636155D01*
X161865201Y-119679838D01*
X162166743Y-119680101D01*
X162205191Y-119739851D01*
X162160127Y-119739812D01*
X161761200Y-119904646D01*
X161455718Y-120209595D01*
X161290189Y-120608233D01*
X161289812Y-121039873D01*
X161454646Y-121438800D01*
X161759595Y-121744282D01*
X162158233Y-121909811D01*
X162589873Y-121910188D01*
X162988800Y-121745354D01*
X163294282Y-121440405D01*
X163459811Y-121041767D01*
X163460188Y-120610127D01*
X163295354Y-120211200D01*
X163106923Y-120022440D01*
X163225000Y-120022440D01*
X163380507Y-119993179D01*
X163525000Y-120022440D01*
X164025000Y-120022440D01*
X164180507Y-119993179D01*
X164325000Y-120022440D01*
X164825000Y-120022440D01*
X164980507Y-119993179D01*
X165125000Y-120022440D01*
X165625000Y-120022440D01*
X165765086Y-119996081D01*
X165798690Y-120010000D01*
X165891250Y-120010000D01*
X166036384Y-119864866D01*
X166047998Y-119857393D01*
X166047998Y-120010000D01*
X166055662Y-120010000D01*
X165855718Y-120209595D01*
X165690189Y-120608233D01*
X165689812Y-121039873D01*
X165854646Y-121438800D01*
X166159595Y-121744282D01*
X166558233Y-121909811D01*
X166989873Y-121910188D01*
X167388800Y-121745354D01*
X167694282Y-121440405D01*
X167859811Y-121041767D01*
X167860188Y-120610127D01*
X167695354Y-120211200D01*
X167390405Y-119905718D01*
X166991767Y-119740189D01*
X166957866Y-119740159D01*
X166963327Y-119734698D01*
X167060000Y-119501309D01*
X167060000Y-118610750D01*
X167390000Y-118610750D01*
X167390000Y-119701309D01*
X167486673Y-119934698D01*
X167665301Y-120113327D01*
X167898690Y-120210000D01*
X168739250Y-120210000D01*
X168898000Y-120051250D01*
X168898000Y-118452000D01*
X169152000Y-118452000D01*
X169152000Y-120051250D01*
X169310750Y-120210000D01*
X170151310Y-120210000D01*
X170384699Y-120113327D01*
X170563327Y-119934698D01*
X170660000Y-119701309D01*
X170660000Y-118610750D01*
X170501250Y-118452000D01*
X169152000Y-118452000D01*
X168898000Y-118452000D01*
X167548750Y-118452000D01*
X167390000Y-118610750D01*
X167060000Y-118610750D01*
X167060000Y-118510750D01*
X166901250Y-118352000D01*
X166300000Y-118352000D01*
X166300000Y-118372000D01*
X166272440Y-118372000D01*
X166272440Y-117075000D01*
X166228162Y-116839683D01*
X166089090Y-116623559D01*
X166052781Y-116598750D01*
X166300000Y-116598750D01*
X166300000Y-118098000D01*
X166901250Y-118098000D01*
X167060000Y-117939250D01*
X167060000Y-116948691D01*
X167390000Y-116948691D01*
X167390000Y-118039250D01*
X167548750Y-118198000D01*
X168898000Y-118198000D01*
X168898000Y-116598750D01*
X169152000Y-116598750D01*
X169152000Y-118198000D01*
X170501250Y-118198000D01*
X170660000Y-118039250D01*
X170660000Y-116948691D01*
X170563327Y-116715302D01*
X170384699Y-116536673D01*
X170151310Y-116440000D01*
X169310750Y-116440000D01*
X169152000Y-116598750D01*
X168898000Y-116598750D01*
X168739250Y-116440000D01*
X167898690Y-116440000D01*
X167665301Y-116536673D01*
X167486673Y-116715302D01*
X167390000Y-116948691D01*
X167060000Y-116948691D01*
X166963327Y-116715302D01*
X166784699Y-116536673D01*
X166551310Y-116440000D01*
X166458750Y-116440000D01*
X166300000Y-116598750D01*
X166052781Y-116598750D01*
X166044001Y-116592751D01*
X165891250Y-116440000D01*
X165798690Y-116440000D01*
X165761829Y-116455268D01*
X165625000Y-116427560D01*
X165205253Y-116427560D01*
X165272838Y-116264799D01*
X165273162Y-115892833D01*
X165131117Y-115549057D01*
X164868327Y-115285808D01*
X164524799Y-115143162D01*
X164336000Y-115142998D01*
X164336000Y-112302440D01*
X164553952Y-112302440D01*
X164789269Y-112258162D01*
X165005393Y-112119090D01*
X165150383Y-111906890D01*
X165199507Y-111664309D01*
X167468790Y-113933592D01*
X167395907Y-114300000D01*
X167508946Y-114868285D01*
X167830853Y-115350054D01*
X168312622Y-115671961D01*
X168880907Y-115785000D01*
X168939093Y-115785000D01*
X169507378Y-115671961D01*
X169989147Y-115350054D01*
X170183407Y-115059322D01*
X170470839Y-115002148D01*
X170717401Y-114837401D01*
X170740000Y-114803579D01*
X170740000Y-126290000D01*
X146760000Y-126290000D01*
X146760000Y-124110750D01*
X158490000Y-124110750D01*
X158490000Y-125201309D01*
X158586673Y-125434698D01*
X158765301Y-125613327D01*
X158998690Y-125710000D01*
X159839250Y-125710000D01*
X159998000Y-125551250D01*
X159998000Y-123952000D01*
X160252000Y-123952000D01*
X160252000Y-125551250D01*
X160410750Y-125710000D01*
X161251310Y-125710000D01*
X161484699Y-125613327D01*
X161663327Y-125434698D01*
X161760000Y-125201309D01*
X161760000Y-124110750D01*
X167390000Y-124110750D01*
X167390000Y-125201309D01*
X167486673Y-125434698D01*
X167665301Y-125613327D01*
X167898690Y-125710000D01*
X168739250Y-125710000D01*
X168898000Y-125551250D01*
X168898000Y-123952000D01*
X169152000Y-123952000D01*
X169152000Y-125551250D01*
X169310750Y-125710000D01*
X170151310Y-125710000D01*
X170384699Y-125613327D01*
X170563327Y-125434698D01*
X170660000Y-125201309D01*
X170660000Y-124110750D01*
X170501250Y-123952000D01*
X169152000Y-123952000D01*
X168898000Y-123952000D01*
X167548750Y-123952000D01*
X167390000Y-124110750D01*
X161760000Y-124110750D01*
X161601250Y-123952000D01*
X160252000Y-123952000D01*
X159998000Y-123952000D01*
X158648750Y-123952000D01*
X158490000Y-124110750D01*
X146760000Y-124110750D01*
X146760000Y-122448691D01*
X158490000Y-122448691D01*
X158490000Y-123539250D01*
X158648750Y-123698000D01*
X159998000Y-123698000D01*
X159998000Y-122098750D01*
X160252000Y-122098750D01*
X160252000Y-123698000D01*
X161601250Y-123698000D01*
X161760000Y-123539250D01*
X161760000Y-122448691D01*
X167390000Y-122448691D01*
X167390000Y-123539250D01*
X167548750Y-123698000D01*
X168898000Y-123698000D01*
X168898000Y-122098750D01*
X169152000Y-122098750D01*
X169152000Y-123698000D01*
X170501250Y-123698000D01*
X170660000Y-123539250D01*
X170660000Y-122448691D01*
X170563327Y-122215302D01*
X170384699Y-122036673D01*
X170151310Y-121940000D01*
X169310750Y-121940000D01*
X169152000Y-122098750D01*
X168898000Y-122098750D01*
X168739250Y-121940000D01*
X167898690Y-121940000D01*
X167665301Y-122036673D01*
X167486673Y-122215302D01*
X167390000Y-122448691D01*
X161760000Y-122448691D01*
X161663327Y-122215302D01*
X161484699Y-122036673D01*
X161251310Y-121940000D01*
X160410750Y-121940000D01*
X160252000Y-122098750D01*
X159998000Y-122098750D01*
X159839250Y-121940000D01*
X158998690Y-121940000D01*
X158765301Y-122036673D01*
X158586673Y-122215302D01*
X158490000Y-122448691D01*
X146760000Y-122448691D01*
X146760000Y-114656890D01*
X147148524Y-114656890D01*
X147318355Y-115066924D01*
X147708642Y-115495183D01*
X148233108Y-115741486D01*
X148463000Y-115620819D01*
X148463000Y-114427000D01*
X147269845Y-114427000D01*
X147148524Y-114656890D01*
X146760000Y-114656890D01*
X146760000Y-93980000D01*
X147075907Y-93980000D01*
X147188946Y-94548285D01*
X147510853Y-95030054D01*
X147840026Y-95250000D01*
X147510853Y-95469946D01*
X147188946Y-95951715D01*
X147075907Y-96520000D01*
X147188946Y-97088285D01*
X147510853Y-97570054D01*
X147840026Y-97790000D01*
X147510853Y-98009946D01*
X147188946Y-98491715D01*
X147075907Y-99060000D01*
X147188946Y-99628285D01*
X147510853Y-100110054D01*
X147840026Y-100330000D01*
X147510853Y-100549946D01*
X147188946Y-101031715D01*
X147075907Y-101600000D01*
X147188946Y-102168285D01*
X147510853Y-102650054D01*
X147840026Y-102870000D01*
X147510853Y-103089946D01*
X147188946Y-103571715D01*
X147075907Y-104140000D01*
X147188946Y-104708285D01*
X147510853Y-105190054D01*
X147840026Y-105410000D01*
X147510853Y-105629946D01*
X147188946Y-106111715D01*
X147075907Y-106680000D01*
X147188946Y-107248285D01*
X147510853Y-107730054D01*
X147840026Y-107950000D01*
X147510853Y-108169946D01*
X147188946Y-108651715D01*
X147075907Y-109220000D01*
X147188946Y-109788285D01*
X147510853Y-110270054D01*
X147840026Y-110490000D01*
X147510853Y-110709946D01*
X147188946Y-111191715D01*
X147075907Y-111760000D01*
X147188946Y-112328285D01*
X147510853Y-112810054D01*
X147851553Y-113037702D01*
X147708642Y-113104817D01*
X147318355Y-113533076D01*
X147148524Y-113943110D01*
X147269845Y-114173000D01*
X148463000Y-114173000D01*
X148463000Y-114153000D01*
X148717000Y-114153000D01*
X148717000Y-114173000D01*
X148737000Y-114173000D01*
X148737000Y-114427000D01*
X148717000Y-114427000D01*
X148717000Y-115620819D01*
X148728397Y-115626801D01*
X148687599Y-115667599D01*
X148522852Y-115914161D01*
X148465000Y-116205000D01*
X148465000Y-117548705D01*
X148169946Y-117745853D01*
X147848039Y-118227622D01*
X147735000Y-118795907D01*
X147735000Y-118854093D01*
X147848039Y-119422378D01*
X148169946Y-119904147D01*
X148651715Y-120226054D01*
X149220000Y-120339093D01*
X149788285Y-120226054D01*
X150270054Y-119904147D01*
X150490000Y-119574974D01*
X150709946Y-119904147D01*
X151191715Y-120226054D01*
X151760000Y-120339093D01*
X152328285Y-120226054D01*
X152810054Y-119904147D01*
X152837850Y-119862548D01*
X152846838Y-119910317D01*
X152985910Y-120126441D01*
X153198110Y-120271431D01*
X153450000Y-120322440D01*
X155150000Y-120322440D01*
X155385317Y-120278162D01*
X155601441Y-120139090D01*
X155746431Y-119926890D01*
X155797440Y-119675000D01*
X155797440Y-118610750D01*
X158490000Y-118610750D01*
X158490000Y-119701309D01*
X158586673Y-119934698D01*
X158765301Y-120113327D01*
X158998690Y-120210000D01*
X159839250Y-120210000D01*
X159998000Y-120051250D01*
X159998000Y-118452000D01*
X158648750Y-118452000D01*
X158490000Y-118610750D01*
X155797440Y-118610750D01*
X155797440Y-117975000D01*
X155753162Y-117739683D01*
X155614090Y-117523559D01*
X155401890Y-117378569D01*
X155150000Y-117327560D01*
X154384242Y-117327560D01*
X154763111Y-116948691D01*
X158490000Y-116948691D01*
X158490000Y-118039250D01*
X158648750Y-118198000D01*
X159998000Y-118198000D01*
X159998000Y-116598750D01*
X159839250Y-116440000D01*
X158998690Y-116440000D01*
X158765301Y-116536673D01*
X158586673Y-116715302D01*
X158490000Y-116948691D01*
X154763111Y-116948691D01*
X159524680Y-112187122D01*
X159570167Y-112187162D01*
X159913943Y-112045117D01*
X160177192Y-111782327D01*
X160319838Y-111438799D01*
X160320162Y-111066833D01*
X160178117Y-110723057D01*
X159915327Y-110459808D01*
X159571799Y-110317162D01*
X159199833Y-110316838D01*
X158856057Y-110458883D01*
X158592808Y-110721673D01*
X158450162Y-111065201D01*
X158450121Y-111112077D01*
X152169781Y-117392417D01*
X151760000Y-117310907D01*
X151191715Y-117423946D01*
X150709946Y-117745853D01*
X150490000Y-118075026D01*
X150270054Y-117745853D01*
X149985000Y-117555386D01*
X149985000Y-116519802D01*
X150397401Y-116107401D01*
X150562148Y-115860839D01*
X150620000Y-115570000D01*
X150620000Y-113030000D01*
X150585889Y-112858514D01*
X150562148Y-112739160D01*
X150397401Y-112492599D01*
X150031210Y-112126408D01*
X150104093Y-111760000D01*
X149991054Y-111191715D01*
X149669147Y-110709946D01*
X149339974Y-110490000D01*
X149669147Y-110270054D01*
X149991054Y-109788285D01*
X150104093Y-109220000D01*
X149991054Y-108651715D01*
X149669147Y-108169946D01*
X149339974Y-107950000D01*
X149669147Y-107730054D01*
X149991054Y-107248285D01*
X150104093Y-106680000D01*
X149991054Y-106111715D01*
X149669147Y-105629946D01*
X149339974Y-105410000D01*
X149669147Y-105190054D01*
X149991054Y-104708285D01*
X150104093Y-104140000D01*
X149991054Y-103571715D01*
X149669147Y-103089946D01*
X149339974Y-102870000D01*
X149669147Y-102650054D01*
X149991054Y-102168285D01*
X150104093Y-101600000D01*
X149991054Y-101031715D01*
X149669147Y-100549946D01*
X149339974Y-100330000D01*
X149669147Y-100110054D01*
X149991054Y-99628285D01*
X150104093Y-99060000D01*
X149991054Y-98491715D01*
X149669147Y-98009946D01*
X149339974Y-97790000D01*
X149669147Y-97570054D01*
X149991054Y-97088285D01*
X150104093Y-96520000D01*
X149991054Y-95951715D01*
X149669147Y-95469946D01*
X149339974Y-95250000D01*
X149669147Y-95030054D01*
X149991054Y-94548285D01*
X150104093Y-93980000D01*
X150084699Y-93882501D01*
X151582539Y-95380341D01*
X151353808Y-95608673D01*
X151211162Y-95952201D01*
X151210838Y-96324167D01*
X151352883Y-96667943D01*
X151458710Y-96773954D01*
X151353808Y-96878673D01*
X151211162Y-97222201D01*
X151210838Y-97594167D01*
X151352883Y-97937943D01*
X151615673Y-98201192D01*
X151695659Y-98234405D01*
X151617057Y-98266883D01*
X151353808Y-98529673D01*
X151211162Y-98873201D01*
X151210838Y-99245167D01*
X151352883Y-99588943D01*
X151615673Y-99852192D01*
X151959201Y-99994838D01*
X152006077Y-99994879D01*
X152497599Y-100486401D01*
X152612252Y-100563009D01*
X152557521Y-100643110D01*
X152535971Y-100749527D01*
X152332799Y-100665162D01*
X151960833Y-100664838D01*
X151617057Y-100806883D01*
X151353808Y-101069673D01*
X151211162Y-101413201D01*
X151210838Y-101785167D01*
X151352883Y-102128943D01*
X151615673Y-102392192D01*
X151959201Y-102534838D01*
X152331167Y-102535162D01*
X152410002Y-102502588D01*
X152490160Y-102556148D01*
X152506512Y-102559401D01*
X152506512Y-102765000D01*
X152507389Y-102769658D01*
X152332799Y-102697162D01*
X151960833Y-102696838D01*
X151617057Y-102838883D01*
X151353808Y-103101673D01*
X151211162Y-103445201D01*
X151211121Y-103492077D01*
X150973599Y-103729599D01*
X150808852Y-103976161D01*
X150751000Y-104267000D01*
X150751000Y-105029000D01*
X150808852Y-105319839D01*
X150973599Y-105566401D01*
X151227599Y-105820401D01*
X151309582Y-105875180D01*
X151211162Y-106112201D01*
X151210838Y-106484167D01*
X151352883Y-106827943D01*
X151458710Y-106933954D01*
X151353808Y-107038673D01*
X151211162Y-107382201D01*
X151210838Y-107754167D01*
X151352883Y-108097943D01*
X151615673Y-108361192D01*
X151695659Y-108394405D01*
X151617057Y-108426883D01*
X151353808Y-108689673D01*
X151211162Y-109033201D01*
X151210838Y-109405167D01*
X151352883Y-109748943D01*
X151615673Y-110012192D01*
X151959201Y-110154838D01*
X152006077Y-110154879D01*
X152497599Y-110646401D01*
X152612252Y-110723009D01*
X152557521Y-110803110D01*
X152506512Y-111055000D01*
X152506512Y-111655000D01*
X152550790Y-111890317D01*
X152689862Y-112106441D01*
X152783000Y-112170079D01*
X152783000Y-112594537D01*
X152750808Y-112626673D01*
X152608162Y-112970201D01*
X152607838Y-113342167D01*
X152749883Y-113685943D01*
X153012673Y-113949192D01*
X153356201Y-114091838D01*
X153728167Y-114092162D01*
X154071943Y-113950117D01*
X154335192Y-113687327D01*
X154477838Y-113343799D01*
X154478162Y-112971833D01*
X154336117Y-112628057D01*
X154303000Y-112594882D01*
X154303000Y-112328802D01*
X154329362Y-112302440D01*
X155153952Y-112302440D01*
X155389269Y-112258162D01*
X155605393Y-112119090D01*
X155750383Y-111906890D01*
X155801392Y-111655000D01*
X155801392Y-111055000D01*
X155757114Y-110819683D01*
X155693274Y-110720472D01*
X155750383Y-110636890D01*
X155801392Y-110385000D01*
X155801392Y-109785000D01*
X155757114Y-109549683D01*
X155693274Y-109450472D01*
X155750383Y-109366890D01*
X155801392Y-109115000D01*
X155801392Y-109011977D01*
X156014167Y-109012162D01*
X156357943Y-108870117D01*
X156621192Y-108607327D01*
X156763838Y-108263799D01*
X156764162Y-107891833D01*
X156622117Y-107548057D01*
X156359327Y-107284808D01*
X156335000Y-107274706D01*
X156335000Y-105537000D01*
X156277148Y-105246161D01*
X156112401Y-104999599D01*
X155865839Y-104834852D01*
X155801392Y-104822033D01*
X155801392Y-104705000D01*
X155757114Y-104469683D01*
X155698774Y-104379020D01*
X155788952Y-104161310D01*
X155788952Y-104020750D01*
X155630202Y-103862000D01*
X154280952Y-103862000D01*
X154280952Y-103882000D01*
X154026952Y-103882000D01*
X154026952Y-103862000D01*
X154006952Y-103862000D01*
X154006952Y-103608000D01*
X154026952Y-103608000D01*
X154026952Y-103588000D01*
X154280952Y-103588000D01*
X154280952Y-103608000D01*
X155630202Y-103608000D01*
X155788952Y-103449250D01*
X155788952Y-103308690D01*
X155699146Y-103091878D01*
X155750383Y-103016890D01*
X155801392Y-102765000D01*
X155801392Y-102165000D01*
X155757114Y-101929683D01*
X155693274Y-101830472D01*
X155750383Y-101746890D01*
X155801392Y-101495000D01*
X155801392Y-101298967D01*
X155865839Y-101286148D01*
X156112401Y-101121401D01*
X156277148Y-100874839D01*
X156335000Y-100584000D01*
X156335000Y-98084597D01*
X156357943Y-98075117D01*
X156621192Y-97812327D01*
X156763838Y-97468799D01*
X156764162Y-97096833D01*
X156622117Y-96753057D01*
X156359327Y-96489808D01*
X156015799Y-96347162D01*
X155801392Y-96346975D01*
X155801392Y-95815000D01*
X155757114Y-95579683D01*
X155693274Y-95480472D01*
X155750383Y-95396890D01*
X155801392Y-95145000D01*
X155801392Y-94545000D01*
X155757114Y-94309683D01*
X155618042Y-94093559D01*
X155405842Y-93948569D01*
X155153952Y-93897560D01*
X154896339Y-93897560D01*
X154880148Y-93816161D01*
X154715401Y-93569599D01*
X154097122Y-92951320D01*
X154097162Y-92905833D01*
X153955117Y-92562057D01*
X153692327Y-92298808D01*
X153348799Y-92156162D01*
X152976833Y-92155838D01*
X152633057Y-92297883D01*
X152369808Y-92560673D01*
X152227162Y-92904201D01*
X152226838Y-93276167D01*
X152368883Y-93619943D01*
X152631673Y-93883192D01*
X152861480Y-93978617D01*
X152702511Y-94080910D01*
X152592995Y-94241193D01*
X150087440Y-91735638D01*
X150087440Y-90590000D01*
X150043162Y-90354683D01*
X149904090Y-90138559D01*
X149691890Y-89993569D01*
X149440000Y-89942560D01*
X147740000Y-89942560D01*
X147504683Y-89986838D01*
X147288559Y-90125910D01*
X147143569Y-90338110D01*
X147092560Y-90590000D01*
X147092560Y-92290000D01*
X147136838Y-92525317D01*
X147275910Y-92741441D01*
X147488110Y-92886431D01*
X147555541Y-92900086D01*
X147510853Y-92929946D01*
X147188946Y-93411715D01*
X147075907Y-93980000D01*
X146760000Y-93980000D01*
X146760000Y-86485750D01*
X148285000Y-86485750D01*
X148285000Y-86826310D01*
X148381673Y-87059699D01*
X148560302Y-87238327D01*
X148793691Y-87335000D01*
X150009250Y-87335000D01*
X150168000Y-87176250D01*
X150168000Y-86327000D01*
X150422000Y-86327000D01*
X150422000Y-87176250D01*
X150580750Y-87335000D01*
X151796309Y-87335000D01*
X152029698Y-87238327D01*
X152208327Y-87059699D01*
X152305000Y-86826310D01*
X152305000Y-86485750D01*
X152146250Y-86327000D01*
X150422000Y-86327000D01*
X150168000Y-86327000D01*
X148443750Y-86327000D01*
X148285000Y-86485750D01*
X146760000Y-86485750D01*
X146760000Y-85573690D01*
X148285000Y-85573690D01*
X148285000Y-85914250D01*
X148443750Y-86073000D01*
X150168000Y-86073000D01*
X150168000Y-85223750D01*
X150422000Y-85223750D01*
X150422000Y-86073000D01*
X152146250Y-86073000D01*
X152305000Y-85914250D01*
X152305000Y-85573690D01*
X152208327Y-85340301D01*
X152029698Y-85161673D01*
X151796309Y-85065000D01*
X150580750Y-85065000D01*
X150422000Y-85223750D01*
X150168000Y-85223750D01*
X150009250Y-85065000D01*
X148793691Y-85065000D01*
X148560302Y-85161673D01*
X148381673Y-85340301D01*
X148285000Y-85573690D01*
X146760000Y-85573690D01*
X146760000Y-81700000D01*
X148272560Y-81700000D01*
X148272560Y-82700000D01*
X148316838Y-82935317D01*
X148455910Y-83151441D01*
X148668110Y-83296431D01*
X148920000Y-83347440D01*
X150344638Y-83347440D01*
X150448988Y-83451790D01*
X150448838Y-83624167D01*
X150590883Y-83967943D01*
X150853673Y-84231192D01*
X151197201Y-84373838D01*
X151569167Y-84374162D01*
X151912943Y-84232117D01*
X152176192Y-83969327D01*
X152318838Y-83625799D01*
X152319162Y-83253833D01*
X152221545Y-83017582D01*
X152266431Y-82951890D01*
X152317440Y-82700000D01*
X152317440Y-81700000D01*
X152273162Y-81464683D01*
X152134090Y-81248559D01*
X151921890Y-81103569D01*
X151670000Y-81052560D01*
X148920000Y-81052560D01*
X148684683Y-81096838D01*
X148468559Y-81235910D01*
X148323569Y-81448110D01*
X148272560Y-81700000D01*
X146760000Y-81700000D01*
X146760000Y-80720000D01*
X154213554Y-80720000D01*
X154217698Y-80754390D01*
X154217698Y-80754390D01*
G37*
X154217698Y-80754390D02*
X154363143Y-81012808D01*
X154465267Y-81092965D01*
X154444683Y-81096838D01*
X154228559Y-81235910D01*
X154083569Y-81448110D01*
X154032560Y-81700000D01*
X154032560Y-82700000D01*
X154063757Y-82865799D01*
X154020808Y-82908673D01*
X153878162Y-83252201D01*
X153877838Y-83624167D01*
X153931400Y-83753798D01*
X153640599Y-84044599D01*
X153475852Y-84291161D01*
X153418000Y-84582000D01*
X153418000Y-90242537D01*
X153385808Y-90274673D01*
X153243162Y-90618201D01*
X153242838Y-90990167D01*
X153384883Y-91333943D01*
X153647673Y-91597192D01*
X153991201Y-91739838D01*
X154363167Y-91740162D01*
X154706943Y-91598117D01*
X154970192Y-91335327D01*
X155112838Y-90991799D01*
X155113162Y-90619833D01*
X154971117Y-90276057D01*
X154938000Y-90242882D01*
X154938000Y-87335000D01*
X155769250Y-87335000D01*
X155928000Y-87176250D01*
X155928000Y-86327000D01*
X156182000Y-86327000D01*
X156182000Y-87176250D01*
X156340750Y-87335000D01*
X157556309Y-87335000D01*
X157789698Y-87238327D01*
X157968327Y-87059699D01*
X158065000Y-86826310D01*
X158065000Y-86485750D01*
X157906250Y-86327000D01*
X156182000Y-86327000D01*
X155928000Y-86327000D01*
X155908000Y-86327000D01*
X155908000Y-86073000D01*
X155928000Y-86073000D01*
X155928000Y-85223750D01*
X156182000Y-85223750D01*
X156182000Y-86073000D01*
X157906250Y-86073000D01*
X158065000Y-85914250D01*
X158065000Y-85573690D01*
X157968327Y-85340301D01*
X157789698Y-85161673D01*
X157556309Y-85065000D01*
X156340750Y-85065000D01*
X156182000Y-85223750D01*
X155928000Y-85223750D01*
X155769250Y-85065000D01*
X154938000Y-85065000D01*
X154938000Y-84896802D01*
X155000802Y-84834000D01*
X155194000Y-84834000D01*
X155484839Y-84776148D01*
X155731401Y-84611401D01*
X155985401Y-84357401D01*
X156150148Y-84110840D01*
X156161368Y-84054434D01*
X156493401Y-83722401D01*
X156567608Y-83611342D01*
X156658148Y-83475839D01*
X156683688Y-83347440D01*
X157430000Y-83347440D01*
X157665317Y-83303162D01*
X157881441Y-83164090D01*
X157964071Y-83043157D01*
X157952560Y-83100000D01*
X157952560Y-84100000D01*
X157996838Y-84335317D01*
X158135910Y-84551441D01*
X158348110Y-84696431D01*
X158600000Y-84747440D01*
X159850000Y-84747440D01*
X160064920Y-84707000D01*
X160252560Y-84707000D01*
X160252560Y-84800000D01*
X160296838Y-85035317D01*
X160435910Y-85251441D01*
X160648110Y-85396431D01*
X160900000Y-85447440D01*
X161927000Y-85447440D01*
X161927000Y-91125198D01*
X161799638Y-91252560D01*
X161161362Y-91252560D01*
X160938401Y-91029599D01*
X160691839Y-90864852D01*
X160401000Y-90807000D01*
X158496000Y-90807000D01*
X158205161Y-90864852D01*
X157958599Y-91029599D01*
X157721320Y-91266878D01*
X157675833Y-91266838D01*
X157332057Y-91408883D01*
X157068808Y-91671673D01*
X156926162Y-92015201D01*
X156925838Y-92387167D01*
X157067883Y-92730943D01*
X157330673Y-92994192D01*
X157674201Y-93136838D01*
X158046167Y-93137162D01*
X158202560Y-93072542D01*
X158202560Y-93100000D01*
X158246838Y-93335317D01*
X158385910Y-93551441D01*
X158598110Y-93696431D01*
X158850000Y-93747440D01*
X159387000Y-93747440D01*
X159387000Y-94306537D01*
X159354808Y-94338673D01*
X159212162Y-94682201D01*
X159211838Y-95054167D01*
X159353883Y-95397943D01*
X159616673Y-95661192D01*
X159960201Y-95803838D01*
X160332167Y-95804162D01*
X160675943Y-95662117D01*
X160911000Y-95427470D01*
X160911000Y-103886000D01*
X160968852Y-104176839D01*
X161133599Y-104423401D01*
X161906512Y-105196314D01*
X161906512Y-105305000D01*
X161950790Y-105540317D01*
X162009130Y-105630980D01*
X161918952Y-105848690D01*
X161918952Y-105989250D01*
X162077702Y-106148000D01*
X163426952Y-106148000D01*
X163426952Y-106128000D01*
X163626816Y-106128000D01*
X163700952Y-106177536D01*
X163700952Y-106402000D01*
X163680952Y-106402000D01*
X163680952Y-106422000D01*
X163426952Y-106422000D01*
X163426952Y-106402000D01*
X162077702Y-106402000D01*
X161918952Y-106560750D01*
X161918952Y-106701310D01*
X162008758Y-106918122D01*
X161957521Y-106993110D01*
X161906512Y-107245000D01*
X161906512Y-107845000D01*
X161950790Y-108080317D01*
X162014630Y-108179528D01*
X161957521Y-108263110D01*
X161906512Y-108515000D01*
X161906512Y-109115000D01*
X161950790Y-109350317D01*
X162014630Y-109449528D01*
X161957521Y-109533110D01*
X161906512Y-109785000D01*
X161906512Y-109911202D01*
X161888161Y-109914852D01*
X161641599Y-110079599D01*
X161476852Y-110326161D01*
X161419000Y-110617000D01*
X161419000Y-113919000D01*
X161476852Y-114209839D01*
X161641599Y-114456401D01*
X161878878Y-114693680D01*
X161878838Y-114739167D01*
X162020883Y-115082943D01*
X162283673Y-115346192D01*
X162627201Y-115488838D01*
X162816000Y-115489002D01*
X162816000Y-116427560D01*
X162725000Y-116427560D01*
X162489683Y-116471838D01*
X162273559Y-116610910D01*
X162128569Y-116823110D01*
X162077560Y-117075000D01*
X162077560Y-117662875D01*
X162022599Y-117699599D01*
X161912320Y-117809878D01*
X161866833Y-117809838D01*
X161760000Y-117853980D01*
X161760000Y-116948691D01*
X161663327Y-116715302D01*
X161484699Y-116536673D01*
X161251310Y-116440000D01*
X160410750Y-116440000D01*
X160252000Y-116598750D01*
X160252000Y-118198000D01*
X160272000Y-118198000D01*
X160272000Y-118452000D01*
X160252000Y-118452000D01*
X160252000Y-120051250D01*
X160410750Y-120210000D01*
X161251310Y-120210000D01*
X161484699Y-120113327D01*
X161663327Y-119934698D01*
X161760000Y-119701309D01*
X161760000Y-119636155D01*
X161865201Y-119679838D01*
X162166743Y-119680101D01*
X162205191Y-119739851D01*
X162160127Y-119739812D01*
X161761200Y-119904646D01*
X161455718Y-120209595D01*
X161290189Y-120608233D01*
X161289812Y-121039873D01*
X161454646Y-121438800D01*
X161759595Y-121744282D01*
X162158233Y-121909811D01*
X162589873Y-121910188D01*
X162988800Y-121745354D01*
X163294282Y-121440405D01*
X163459811Y-121041767D01*
X163460188Y-120610127D01*
X163295354Y-120211200D01*
X163106923Y-120022440D01*
X163225000Y-120022440D01*
X163380507Y-119993179D01*
X163525000Y-120022440D01*
X164025000Y-120022440D01*
X164180507Y-119993179D01*
X164325000Y-120022440D01*
X164825000Y-120022440D01*
X164980507Y-119993179D01*
X165125000Y-120022440D01*
X165625000Y-120022440D01*
X165765086Y-119996081D01*
X165798690Y-120010000D01*
X165891250Y-120010000D01*
X166036384Y-119864866D01*
X166047998Y-119857393D01*
X166047998Y-120010000D01*
X166055662Y-120010000D01*
X165855718Y-120209595D01*
X165690189Y-120608233D01*
X165689812Y-121039873D01*
X165854646Y-121438800D01*
X166159595Y-121744282D01*
X166558233Y-121909811D01*
X166989873Y-121910188D01*
X167388800Y-121745354D01*
X167694282Y-121440405D01*
X167859811Y-121041767D01*
X167860188Y-120610127D01*
X167695354Y-120211200D01*
X167390405Y-119905718D01*
X166991767Y-119740189D01*
X166957866Y-119740159D01*
X166963327Y-119734698D01*
X167060000Y-119501309D01*
X167060000Y-118610750D01*
X167390000Y-118610750D01*
X167390000Y-119701309D01*
X167486673Y-119934698D01*
X167665301Y-120113327D01*
X167898690Y-120210000D01*
X168739250Y-120210000D01*
X168898000Y-120051250D01*
X168898000Y-118452000D01*
X169152000Y-118452000D01*
X169152000Y-120051250D01*
X169310750Y-120210000D01*
X170151310Y-120210000D01*
X170384699Y-120113327D01*
X170563327Y-119934698D01*
X170660000Y-119701309D01*
X170660000Y-118610750D01*
X170501250Y-118452000D01*
X169152000Y-118452000D01*
X168898000Y-118452000D01*
X167548750Y-118452000D01*
X167390000Y-118610750D01*
X167060000Y-118610750D01*
X167060000Y-118510750D01*
X166901250Y-118352000D01*
X166300000Y-118352000D01*
X166300000Y-118372000D01*
X166272440Y-118372000D01*
X166272440Y-117075000D01*
X166228162Y-116839683D01*
X166089090Y-116623559D01*
X166052781Y-116598750D01*
X166300000Y-116598750D01*
X166300000Y-118098000D01*
X166901250Y-118098000D01*
X167060000Y-117939250D01*
X167060000Y-116948691D01*
X167390000Y-116948691D01*
X167390000Y-118039250D01*
X167548750Y-118198000D01*
X168898000Y-118198000D01*
X168898000Y-116598750D01*
X169152000Y-116598750D01*
X169152000Y-118198000D01*
X170501250Y-118198000D01*
X170660000Y-118039250D01*
X170660000Y-116948691D01*
X170563327Y-116715302D01*
X170384699Y-116536673D01*
X170151310Y-116440000D01*
X169310750Y-116440000D01*
X169152000Y-116598750D01*
X168898000Y-116598750D01*
X168739250Y-116440000D01*
X167898690Y-116440000D01*
X167665301Y-116536673D01*
X167486673Y-116715302D01*
X167390000Y-116948691D01*
X167060000Y-116948691D01*
X166963327Y-116715302D01*
X166784699Y-116536673D01*
X166551310Y-116440000D01*
X166458750Y-116440000D01*
X166300000Y-116598750D01*
X166052781Y-116598750D01*
X166044001Y-116592751D01*
X165891250Y-116440000D01*
X165798690Y-116440000D01*
X165761829Y-116455268D01*
X165625000Y-116427560D01*
X165205253Y-116427560D01*
X165272838Y-116264799D01*
X165273162Y-115892833D01*
X165131117Y-115549057D01*
X164868327Y-115285808D01*
X164524799Y-115143162D01*
X164336000Y-115142998D01*
X164336000Y-112302440D01*
X164553952Y-112302440D01*
X164789269Y-112258162D01*
X165005393Y-112119090D01*
X165150383Y-111906890D01*
X165199507Y-111664309D01*
X167468790Y-113933592D01*
X167395907Y-114300000D01*
X167508946Y-114868285D01*
X167830853Y-115350054D01*
X168312622Y-115671961D01*
X168880907Y-115785000D01*
X168939093Y-115785000D01*
X169507378Y-115671961D01*
X169989147Y-115350054D01*
X170183407Y-115059322D01*
X170470839Y-115002148D01*
X170717401Y-114837401D01*
X170740000Y-114803579D01*
X170740000Y-126290000D01*
X146760000Y-126290000D01*
X146760000Y-124110750D01*
X158490000Y-124110750D01*
X158490000Y-125201309D01*
X158586673Y-125434698D01*
X158765301Y-125613327D01*
X158998690Y-125710000D01*
X159839250Y-125710000D01*
X159998000Y-125551250D01*
X159998000Y-123952000D01*
X160252000Y-123952000D01*
X160252000Y-125551250D01*
X160410750Y-125710000D01*
X161251310Y-125710000D01*
X161484699Y-125613327D01*
X161663327Y-125434698D01*
X161760000Y-125201309D01*
X161760000Y-124110750D01*
X167390000Y-124110750D01*
X167390000Y-125201309D01*
X167486673Y-125434698D01*
X167665301Y-125613327D01*
X167898690Y-125710000D01*
X168739250Y-125710000D01*
X168898000Y-125551250D01*
X168898000Y-123952000D01*
X169152000Y-123952000D01*
X169152000Y-125551250D01*
X169310750Y-125710000D01*
X170151310Y-125710000D01*
X170384699Y-125613327D01*
X170563327Y-125434698D01*
X170660000Y-125201309D01*
X170660000Y-124110750D01*
X170501250Y-123952000D01*
X169152000Y-123952000D01*
X168898000Y-123952000D01*
X167548750Y-123952000D01*
X167390000Y-124110750D01*
X161760000Y-124110750D01*
X161601250Y-123952000D01*
X160252000Y-123952000D01*
X159998000Y-123952000D01*
X158648750Y-123952000D01*
X158490000Y-124110750D01*
X146760000Y-124110750D01*
X146760000Y-122448691D01*
X158490000Y-122448691D01*
X158490000Y-123539250D01*
X158648750Y-123698000D01*
X159998000Y-123698000D01*
X159998000Y-122098750D01*
X160252000Y-122098750D01*
X160252000Y-123698000D01*
X161601250Y-123698000D01*
X161760000Y-123539250D01*
X161760000Y-122448691D01*
X167390000Y-122448691D01*
X167390000Y-123539250D01*
X167548750Y-123698000D01*
X168898000Y-123698000D01*
X168898000Y-122098750D01*
X169152000Y-122098750D01*
X169152000Y-123698000D01*
X170501250Y-123698000D01*
X170660000Y-123539250D01*
X170660000Y-122448691D01*
X170563327Y-122215302D01*
X170384699Y-122036673D01*
X170151310Y-121940000D01*
X169310750Y-121940000D01*
X169152000Y-122098750D01*
X168898000Y-122098750D01*
X168739250Y-121940000D01*
X167898690Y-121940000D01*
X167665301Y-122036673D01*
X167486673Y-122215302D01*
X167390000Y-122448691D01*
X161760000Y-122448691D01*
X161663327Y-122215302D01*
X161484699Y-122036673D01*
X161251310Y-121940000D01*
X160410750Y-121940000D01*
X160252000Y-122098750D01*
X159998000Y-122098750D01*
X159839250Y-121940000D01*
X158998690Y-121940000D01*
X158765301Y-122036673D01*
X158586673Y-122215302D01*
X158490000Y-122448691D01*
X146760000Y-122448691D01*
X146760000Y-114656890D01*
X147148524Y-114656890D01*
X147318355Y-115066924D01*
X147708642Y-115495183D01*
X148233108Y-115741486D01*
X148463000Y-115620819D01*
X148463000Y-114427000D01*
X147269845Y-114427000D01*
X147148524Y-114656890D01*
X146760000Y-114656890D01*
X146760000Y-93980000D01*
X147075907Y-93980000D01*
X147188946Y-94548285D01*
X147510853Y-95030054D01*
X147840026Y-95250000D01*
X147510853Y-95469946D01*
X147188946Y-95951715D01*
X147075907Y-96520000D01*
X147188946Y-97088285D01*
X147510853Y-97570054D01*
X147840026Y-97790000D01*
X147510853Y-98009946D01*
X147188946Y-98491715D01*
X147075907Y-99060000D01*
X147188946Y-99628285D01*
X147510853Y-100110054D01*
X147840026Y-100330000D01*
X147510853Y-100549946D01*
X147188946Y-101031715D01*
X147075907Y-101600000D01*
X147188946Y-102168285D01*
X147510853Y-102650054D01*
X147840026Y-102870000D01*
X147510853Y-103089946D01*
X147188946Y-103571715D01*
X147075907Y-104140000D01*
X147188946Y-104708285D01*
X147510853Y-105190054D01*
X147840026Y-105410000D01*
X147510853Y-105629946D01*
X147188946Y-106111715D01*
X147075907Y-106680000D01*
X147188946Y-107248285D01*
X147510853Y-107730054D01*
X147840026Y-107950000D01*
X147510853Y-108169946D01*
X147188946Y-108651715D01*
X147075907Y-109220000D01*
X147188946Y-109788285D01*
X147510853Y-110270054D01*
X147840026Y-110490000D01*
X147510853Y-110709946D01*
X147188946Y-111191715D01*
X147075907Y-111760000D01*
X147188946Y-112328285D01*
X147510853Y-112810054D01*
X147851553Y-113037702D01*
X147708642Y-113104817D01*
X147318355Y-113533076D01*
X147148524Y-113943110D01*
X147269845Y-114173000D01*
X148463000Y-114173000D01*
X148463000Y-114153000D01*
X148717000Y-114153000D01*
X148717000Y-114173000D01*
X148737000Y-114173000D01*
X148737000Y-114427000D01*
X148717000Y-114427000D01*
X148717000Y-115620819D01*
X148728397Y-115626801D01*
X148687599Y-115667599D01*
X148522852Y-115914161D01*
X148465000Y-116205000D01*
X148465000Y-117548705D01*
X148169946Y-117745853D01*
X147848039Y-118227622D01*
X147735000Y-118795907D01*
X147735000Y-118854093D01*
X147848039Y-119422378D01*
X148169946Y-119904147D01*
X148651715Y-120226054D01*
X149220000Y-120339093D01*
X149788285Y-120226054D01*
X150270054Y-119904147D01*
X150490000Y-119574974D01*
X150709946Y-119904147D01*
X151191715Y-120226054D01*
X151760000Y-120339093D01*
X152328285Y-120226054D01*
X152810054Y-119904147D01*
X152837850Y-119862548D01*
X152846838Y-119910317D01*
X152985910Y-120126441D01*
X153198110Y-120271431D01*
X153450000Y-120322440D01*
X155150000Y-120322440D01*
X155385317Y-120278162D01*
X155601441Y-120139090D01*
X155746431Y-119926890D01*
X155797440Y-119675000D01*
X155797440Y-118610750D01*
X158490000Y-118610750D01*
X158490000Y-119701309D01*
X158586673Y-119934698D01*
X158765301Y-120113327D01*
X158998690Y-120210000D01*
X159839250Y-120210000D01*
X159998000Y-120051250D01*
X159998000Y-118452000D01*
X158648750Y-118452000D01*
X158490000Y-118610750D01*
X155797440Y-118610750D01*
X155797440Y-117975000D01*
X155753162Y-117739683D01*
X155614090Y-117523559D01*
X155401890Y-117378569D01*
X155150000Y-117327560D01*
X154384242Y-117327560D01*
X154763111Y-116948691D01*
X158490000Y-116948691D01*
X158490000Y-118039250D01*
X158648750Y-118198000D01*
X159998000Y-118198000D01*
X159998000Y-116598750D01*
X159839250Y-116440000D01*
X158998690Y-116440000D01*
X158765301Y-116536673D01*
X158586673Y-116715302D01*
X158490000Y-116948691D01*
X154763111Y-116948691D01*
X159524680Y-112187122D01*
X159570167Y-112187162D01*
X159913943Y-112045117D01*
X160177192Y-111782327D01*
X160319838Y-111438799D01*
X160320162Y-111066833D01*
X160178117Y-110723057D01*
X159915327Y-110459808D01*
X159571799Y-110317162D01*
X159199833Y-110316838D01*
X158856057Y-110458883D01*
X158592808Y-110721673D01*
X158450162Y-111065201D01*
X158450121Y-111112077D01*
X152169781Y-117392417D01*
X151760000Y-117310907D01*
X151191715Y-117423946D01*
X150709946Y-117745853D01*
X150490000Y-118075026D01*
X150270054Y-117745853D01*
X149985000Y-117555386D01*
X149985000Y-116519802D01*
X150397401Y-116107401D01*
X150562148Y-115860839D01*
X150620000Y-115570000D01*
X150620000Y-113030000D01*
X150585889Y-112858514D01*
X150562148Y-112739160D01*
X150397401Y-112492599D01*
X150031210Y-112126408D01*
X150104093Y-111760000D01*
X149991054Y-111191715D01*
X149669147Y-110709946D01*
X149339974Y-110490000D01*
X149669147Y-110270054D01*
X149991054Y-109788285D01*
X150104093Y-109220000D01*
X149991054Y-108651715D01*
X149669147Y-108169946D01*
X149339974Y-107950000D01*
X149669147Y-107730054D01*
X149991054Y-107248285D01*
X150104093Y-106680000D01*
X149991054Y-106111715D01*
X149669147Y-105629946D01*
X149339974Y-105410000D01*
X149669147Y-105190054D01*
X149991054Y-104708285D01*
X150104093Y-104140000D01*
X149991054Y-103571715D01*
X149669147Y-103089946D01*
X149339974Y-102870000D01*
X149669147Y-102650054D01*
X149991054Y-102168285D01*
X150104093Y-101600000D01*
X149991054Y-101031715D01*
X149669147Y-100549946D01*
X149339974Y-100330000D01*
X149669147Y-100110054D01*
X149991054Y-99628285D01*
X150104093Y-99060000D01*
X149991054Y-98491715D01*
X149669147Y-98009946D01*
X149339974Y-97790000D01*
X149669147Y-97570054D01*
X149991054Y-97088285D01*
X150104093Y-96520000D01*
X149991054Y-95951715D01*
X149669147Y-95469946D01*
X149339974Y-95250000D01*
X149669147Y-95030054D01*
X149991054Y-94548285D01*
X150104093Y-93980000D01*
X150084699Y-93882501D01*
X151582539Y-95380341D01*
X151353808Y-95608673D01*
X151211162Y-95952201D01*
X151210838Y-96324167D01*
X151352883Y-96667943D01*
X151458710Y-96773954D01*
X151353808Y-96878673D01*
X151211162Y-97222201D01*
X151210838Y-97594167D01*
X151352883Y-97937943D01*
X151615673Y-98201192D01*
X151695659Y-98234405D01*
X151617057Y-98266883D01*
X151353808Y-98529673D01*
X151211162Y-98873201D01*
X151210838Y-99245167D01*
X151352883Y-99588943D01*
X151615673Y-99852192D01*
X151959201Y-99994838D01*
X152006077Y-99994879D01*
X152497599Y-100486401D01*
X152612252Y-100563009D01*
X152557521Y-100643110D01*
X152535971Y-100749527D01*
X152332799Y-100665162D01*
X151960833Y-100664838D01*
X151617057Y-100806883D01*
X151353808Y-101069673D01*
X151211162Y-101413201D01*
X151210838Y-101785167D01*
X151352883Y-102128943D01*
X151615673Y-102392192D01*
X151959201Y-102534838D01*
X152331167Y-102535162D01*
X152410002Y-102502588D01*
X152490160Y-102556148D01*
X152506512Y-102559401D01*
X152506512Y-102765000D01*
X152507389Y-102769658D01*
X152332799Y-102697162D01*
X151960833Y-102696838D01*
X151617057Y-102838883D01*
X151353808Y-103101673D01*
X151211162Y-103445201D01*
X151211121Y-103492077D01*
X150973599Y-103729599D01*
X150808852Y-103976161D01*
X150751000Y-104267000D01*
X150751000Y-105029000D01*
X150808852Y-105319839D01*
X150973599Y-105566401D01*
X151227599Y-105820401D01*
X151309582Y-105875180D01*
X151211162Y-106112201D01*
X151210838Y-106484167D01*
X151352883Y-106827943D01*
X151458710Y-106933954D01*
X151353808Y-107038673D01*
X151211162Y-107382201D01*
X151210838Y-107754167D01*
X151352883Y-108097943D01*
X151615673Y-108361192D01*
X151695659Y-108394405D01*
X151617057Y-108426883D01*
X151353808Y-108689673D01*
X151211162Y-109033201D01*
X151210838Y-109405167D01*
X151352883Y-109748943D01*
X151615673Y-110012192D01*
X151959201Y-110154838D01*
X152006077Y-110154879D01*
X152497599Y-110646401D01*
X152612252Y-110723009D01*
X152557521Y-110803110D01*
X152506512Y-111055000D01*
X152506512Y-111655000D01*
X152550790Y-111890317D01*
X152689862Y-112106441D01*
X152783000Y-112170079D01*
X152783000Y-112594537D01*
X152750808Y-112626673D01*
X152608162Y-112970201D01*
X152607838Y-113342167D01*
X152749883Y-113685943D01*
X153012673Y-113949192D01*
X153356201Y-114091838D01*
X153728167Y-114092162D01*
X154071943Y-113950117D01*
X154335192Y-113687327D01*
X154477838Y-113343799D01*
X154478162Y-112971833D01*
X154336117Y-112628057D01*
X154303000Y-112594882D01*
X154303000Y-112328802D01*
X154329362Y-112302440D01*
X155153952Y-112302440D01*
X155389269Y-112258162D01*
X155605393Y-112119090D01*
X155750383Y-111906890D01*
X155801392Y-111655000D01*
X155801392Y-111055000D01*
X155757114Y-110819683D01*
X155693274Y-110720472D01*
X155750383Y-110636890D01*
X155801392Y-110385000D01*
X155801392Y-109785000D01*
X155757114Y-109549683D01*
X155693274Y-109450472D01*
X155750383Y-109366890D01*
X155801392Y-109115000D01*
X155801392Y-109011977D01*
X156014167Y-109012162D01*
X156357943Y-108870117D01*
X156621192Y-108607327D01*
X156763838Y-108263799D01*
X156764162Y-107891833D01*
X156622117Y-107548057D01*
X156359327Y-107284808D01*
X156335000Y-107274706D01*
X156335000Y-105537000D01*
X156277148Y-105246161D01*
X156112401Y-104999599D01*
X155865839Y-104834852D01*
X155801392Y-104822033D01*
X155801392Y-104705000D01*
X155757114Y-104469683D01*
X155698774Y-104379020D01*
X155788952Y-104161310D01*
X155788952Y-104020750D01*
X155630202Y-103862000D01*
X154280952Y-103862000D01*
X154280952Y-103882000D01*
X154026952Y-103882000D01*
X154026952Y-103862000D01*
X154006952Y-103862000D01*
X154006952Y-103608000D01*
X154026952Y-103608000D01*
X154026952Y-103588000D01*
X154280952Y-103588000D01*
X154280952Y-103608000D01*
X155630202Y-103608000D01*
X155788952Y-103449250D01*
X155788952Y-103308690D01*
X155699146Y-103091878D01*
X155750383Y-103016890D01*
X155801392Y-102765000D01*
X155801392Y-102165000D01*
X155757114Y-101929683D01*
X155693274Y-101830472D01*
X155750383Y-101746890D01*
X155801392Y-101495000D01*
X155801392Y-101298967D01*
X155865839Y-101286148D01*
X156112401Y-101121401D01*
X156277148Y-100874839D01*
X156335000Y-100584000D01*
X156335000Y-98084597D01*
X156357943Y-98075117D01*
X156621192Y-97812327D01*
X156763838Y-97468799D01*
X156764162Y-97096833D01*
X156622117Y-96753057D01*
X156359327Y-96489808D01*
X156015799Y-96347162D01*
X155801392Y-96346975D01*
X155801392Y-95815000D01*
X155757114Y-95579683D01*
X155693274Y-95480472D01*
X155750383Y-95396890D01*
X155801392Y-95145000D01*
X155801392Y-94545000D01*
X155757114Y-94309683D01*
X155618042Y-94093559D01*
X155405842Y-93948569D01*
X155153952Y-93897560D01*
X154896339Y-93897560D01*
X154880148Y-93816161D01*
X154715401Y-93569599D01*
X154097122Y-92951320D01*
X154097162Y-92905833D01*
X153955117Y-92562057D01*
X153692327Y-92298808D01*
X153348799Y-92156162D01*
X152976833Y-92155838D01*
X152633057Y-92297883D01*
X152369808Y-92560673D01*
X152227162Y-92904201D01*
X152226838Y-93276167D01*
X152368883Y-93619943D01*
X152631673Y-93883192D01*
X152861480Y-93978617D01*
X152702511Y-94080910D01*
X152592995Y-94241193D01*
X150087440Y-91735638D01*
X150087440Y-90590000D01*
X150043162Y-90354683D01*
X149904090Y-90138559D01*
X149691890Y-89993569D01*
X149440000Y-89942560D01*
X147740000Y-89942560D01*
X147504683Y-89986838D01*
X147288559Y-90125910D01*
X147143569Y-90338110D01*
X147092560Y-90590000D01*
X147092560Y-92290000D01*
X147136838Y-92525317D01*
X147275910Y-92741441D01*
X147488110Y-92886431D01*
X147555541Y-92900086D01*
X147510853Y-92929946D01*
X147188946Y-93411715D01*
X147075907Y-93980000D01*
X146760000Y-93980000D01*
X146760000Y-86485750D01*
X148285000Y-86485750D01*
X148285000Y-86826310D01*
X148381673Y-87059699D01*
X148560302Y-87238327D01*
X148793691Y-87335000D01*
X150009250Y-87335000D01*
X150168000Y-87176250D01*
X150168000Y-86327000D01*
X150422000Y-86327000D01*
X150422000Y-87176250D01*
X150580750Y-87335000D01*
X151796309Y-87335000D01*
X152029698Y-87238327D01*
X152208327Y-87059699D01*
X152305000Y-86826310D01*
X152305000Y-86485750D01*
X152146250Y-86327000D01*
X150422000Y-86327000D01*
X150168000Y-86327000D01*
X148443750Y-86327000D01*
X148285000Y-86485750D01*
X146760000Y-86485750D01*
X146760000Y-85573690D01*
X148285000Y-85573690D01*
X148285000Y-85914250D01*
X148443750Y-86073000D01*
X150168000Y-86073000D01*
X150168000Y-85223750D01*
X150422000Y-85223750D01*
X150422000Y-86073000D01*
X152146250Y-86073000D01*
X152305000Y-85914250D01*
X152305000Y-85573690D01*
X152208327Y-85340301D01*
X152029698Y-85161673D01*
X151796309Y-85065000D01*
X150580750Y-85065000D01*
X150422000Y-85223750D01*
X150168000Y-85223750D01*
X150009250Y-85065000D01*
X148793691Y-85065000D01*
X148560302Y-85161673D01*
X148381673Y-85340301D01*
X148285000Y-85573690D01*
X146760000Y-85573690D01*
X146760000Y-81700000D01*
X148272560Y-81700000D01*
X148272560Y-82700000D01*
X148316838Y-82935317D01*
X148455910Y-83151441D01*
X148668110Y-83296431D01*
X148920000Y-83347440D01*
X150344638Y-83347440D01*
X150448988Y-83451790D01*
X150448838Y-83624167D01*
X150590883Y-83967943D01*
X150853673Y-84231192D01*
X151197201Y-84373838D01*
X151569167Y-84374162D01*
X151912943Y-84232117D01*
X152176192Y-83969327D01*
X152318838Y-83625799D01*
X152319162Y-83253833D01*
X152221545Y-83017582D01*
X152266431Y-82951890D01*
X152317440Y-82700000D01*
X152317440Y-81700000D01*
X152273162Y-81464683D01*
X152134090Y-81248559D01*
X151921890Y-81103569D01*
X151670000Y-81052560D01*
X148920000Y-81052560D01*
X148684683Y-81096838D01*
X148468559Y-81235910D01*
X148323569Y-81448110D01*
X148272560Y-81700000D01*
X146760000Y-81700000D01*
X146760000Y-80720000D01*
X154213554Y-80720000D01*
X154217698Y-80754390D01*
G36*
X170740000Y-108716421D02*
X170717401Y-108682599D01*
X170470839Y-108517852D01*
X170183407Y-108460678D01*
X169989147Y-108169946D01*
X169659974Y-107950000D01*
X169989147Y-107730054D01*
X170311054Y-107248285D01*
X170424093Y-106680000D01*
X170311054Y-106111715D01*
X169989147Y-105629946D01*
X169659974Y-105410000D01*
X169989147Y-105190054D01*
X170311054Y-104708285D01*
X170424093Y-104140000D01*
X170311054Y-103571715D01*
X169989147Y-103089946D01*
X169659974Y-102870000D01*
X169989147Y-102650054D01*
X170311054Y-102168285D01*
X170424093Y-101600000D01*
X170311054Y-101031715D01*
X169989147Y-100549946D01*
X169659974Y-100330000D01*
X169989147Y-100110054D01*
X170311054Y-99628285D01*
X170424093Y-99060000D01*
X170311054Y-98491715D01*
X169989147Y-98009946D01*
X169659974Y-97790000D01*
X169989147Y-97570054D01*
X170311054Y-97088285D01*
X170424093Y-96520000D01*
X170311054Y-95951715D01*
X169989147Y-95469946D01*
X169659974Y-95250000D01*
X169989147Y-95030054D01*
X170311054Y-94548285D01*
X170424093Y-93980000D01*
X170311054Y-93411715D01*
X169989147Y-92929946D01*
X169947548Y-92902150D01*
X169995317Y-92893162D01*
X170211441Y-92754090D01*
X170356431Y-92541890D01*
X170407440Y-92290000D01*
X170407440Y-90590000D01*
X170363162Y-90354683D01*
X170224090Y-90138559D01*
X170011890Y-89993569D01*
X169760000Y-89942560D01*
X168060000Y-89942560D01*
X167824683Y-89986838D01*
X167608559Y-90125910D01*
X167463569Y-90338110D01*
X167412560Y-90590000D01*
X167412560Y-92290000D01*
X167456838Y-92525317D01*
X167595910Y-92741441D01*
X167808110Y-92886431D01*
X167875541Y-92900086D01*
X167830853Y-92929946D01*
X167508946Y-93411715D01*
X167395907Y-93980000D01*
X167508946Y-94548285D01*
X167830853Y-95030054D01*
X168160026Y-95250000D01*
X167830853Y-95469946D01*
X167508946Y-95951715D01*
X167395907Y-96520000D01*
X167508946Y-97088285D01*
X167830853Y-97570054D01*
X168160026Y-97790000D01*
X167830853Y-98009946D01*
X167508946Y-98491715D01*
X167395907Y-99060000D01*
X167508946Y-99628285D01*
X167830853Y-100110054D01*
X168160026Y-100330000D01*
X167830853Y-100549946D01*
X167508946Y-101031715D01*
X167395907Y-101600000D01*
X167508946Y-102168285D01*
X167830853Y-102650054D01*
X168160026Y-102870000D01*
X167830853Y-103089946D01*
X167508946Y-103571715D01*
X167395907Y-104140000D01*
X167446835Y-104396033D01*
X166044461Y-102993659D01*
X166273192Y-102765327D01*
X166415838Y-102421799D01*
X166416162Y-102049833D01*
X166274117Y-101706057D01*
X166168290Y-101600046D01*
X166273192Y-101495327D01*
X166415838Y-101151799D01*
X166416162Y-100779833D01*
X166274117Y-100436057D01*
X166011327Y-100172808D01*
X165667799Y-100030162D01*
X165620923Y-100030121D01*
X165585894Y-99995092D01*
X165666167Y-99995162D01*
X166009943Y-99853117D01*
X166273192Y-99590327D01*
X166415838Y-99246799D01*
X166416162Y-98874833D01*
X166274117Y-98531057D01*
X166011327Y-98267808D01*
X165667799Y-98125162D01*
X165295833Y-98124838D01*
X165168021Y-98177649D01*
X165157114Y-98119683D01*
X165093274Y-98020472D01*
X165150383Y-97936890D01*
X165153296Y-97922506D01*
X165620680Y-97455122D01*
X165666167Y-97455162D01*
X166009943Y-97313117D01*
X166273192Y-97050327D01*
X166415838Y-96706799D01*
X166416162Y-96334833D01*
X166274117Y-95991057D01*
X166041291Y-95757824D01*
X166273192Y-95526327D01*
X166415838Y-95182799D01*
X166416162Y-94810833D01*
X166274117Y-94467057D01*
X166011327Y-94203808D01*
X165667799Y-94061162D01*
X165458822Y-94060980D01*
X165493680Y-94026122D01*
X165539167Y-94026162D01*
X165882943Y-93884117D01*
X166146192Y-93621327D01*
X166288838Y-93277799D01*
X166289162Y-92905833D01*
X166147117Y-92562057D01*
X165884327Y-92298808D01*
X165540799Y-92156162D01*
X165168833Y-92155838D01*
X164825057Y-92297883D01*
X164561808Y-92560673D01*
X164419162Y-92904201D01*
X164419121Y-92951077D01*
X163472638Y-93897560D01*
X162553952Y-93897560D01*
X162431000Y-93920695D01*
X162431000Y-93713382D01*
X162485317Y-93703162D01*
X162701441Y-93564090D01*
X162846431Y-93351890D01*
X162897440Y-93100000D01*
X162897440Y-92304362D01*
X163224401Y-91977401D01*
X163389148Y-91730839D01*
X163447000Y-91440000D01*
X163447000Y-85447440D01*
X164400000Y-85447440D01*
X164635317Y-85403162D01*
X164851441Y-85264090D01*
X164996431Y-85051890D01*
X165047440Y-84800000D01*
X165047440Y-84285750D01*
X165665000Y-84285750D01*
X165665000Y-84926310D01*
X165761673Y-85159699D01*
X165940302Y-85338327D01*
X166173691Y-85435000D01*
X167764250Y-85435000D01*
X167923000Y-85276250D01*
X167923000Y-84127000D01*
X168177000Y-84127000D01*
X168177000Y-85276250D01*
X168335750Y-85435000D01*
X169926309Y-85435000D01*
X170159698Y-85338327D01*
X170338327Y-85159699D01*
X170435000Y-84926310D01*
X170435000Y-84285750D01*
X170276250Y-84127000D01*
X168177000Y-84127000D01*
X167923000Y-84127000D01*
X165823750Y-84127000D01*
X165665000Y-84285750D01*
X165047440Y-84285750D01*
X165047440Y-83200000D01*
X165023674Y-83073690D01*
X165665000Y-83073690D01*
X165665000Y-83714250D01*
X165823750Y-83873000D01*
X167923000Y-83873000D01*
X167923000Y-82723750D01*
X168177000Y-82723750D01*
X168177000Y-83873000D01*
X170276250Y-83873000D01*
X170435000Y-83714250D01*
X170435000Y-83073690D01*
X170338327Y-82840301D01*
X170159698Y-82661673D01*
X169926309Y-82565000D01*
X168335750Y-82565000D01*
X168177000Y-82723750D01*
X167923000Y-82723750D01*
X167764250Y-82565000D01*
X166173691Y-82565000D01*
X165940302Y-82661673D01*
X165761673Y-82840301D01*
X165665000Y-83073690D01*
X165023674Y-83073690D01*
X165003162Y-82964683D01*
X164864090Y-82748559D01*
X164651890Y-82603569D01*
X164400000Y-82552560D01*
X160900000Y-82552560D01*
X160664683Y-82596838D01*
X160448559Y-82735910D01*
X160408255Y-82794896D01*
X160314090Y-82648559D01*
X160245994Y-82602031D01*
X160388327Y-82459698D01*
X160485000Y-82226309D01*
X160485000Y-81885750D01*
X160326250Y-81727000D01*
X159352000Y-81727000D01*
X159352000Y-81747000D01*
X159098000Y-81747000D01*
X159098000Y-81727000D01*
X159078000Y-81727000D01*
X159078000Y-81473000D01*
X159098000Y-81473000D01*
X159098000Y-81453000D01*
X159352000Y-81453000D01*
X159352000Y-81473000D01*
X160326250Y-81473000D01*
X160485000Y-81314250D01*
X160485000Y-80973691D01*
X160388327Y-80740302D01*
X160368025Y-80720000D01*
X170740000Y-80720000D01*
X170740000Y-108716421D01*
X170740000Y-108716421D01*
G37*
X170740000Y-108716421D02*
X170717401Y-108682599D01*
X170470839Y-108517852D01*
X170183407Y-108460678D01*
X169989147Y-108169946D01*
X169659974Y-107950000D01*
X169989147Y-107730054D01*
X170311054Y-107248285D01*
X170424093Y-106680000D01*
X170311054Y-106111715D01*
X169989147Y-105629946D01*
X169659974Y-105410000D01*
X169989147Y-105190054D01*
X170311054Y-104708285D01*
X170424093Y-104140000D01*
X170311054Y-103571715D01*
X169989147Y-103089946D01*
X169659974Y-102870000D01*
X169989147Y-102650054D01*
X170311054Y-102168285D01*
X170424093Y-101600000D01*
X170311054Y-101031715D01*
X169989147Y-100549946D01*
X169659974Y-100330000D01*
X169989147Y-100110054D01*
X170311054Y-99628285D01*
X170424093Y-99060000D01*
X170311054Y-98491715D01*
X169989147Y-98009946D01*
X169659974Y-97790000D01*
X169989147Y-97570054D01*
X170311054Y-97088285D01*
X170424093Y-96520000D01*
X170311054Y-95951715D01*
X169989147Y-95469946D01*
X169659974Y-95250000D01*
X169989147Y-95030054D01*
X170311054Y-94548285D01*
X170424093Y-93980000D01*
X170311054Y-93411715D01*
X169989147Y-92929946D01*
X169947548Y-92902150D01*
X169995317Y-92893162D01*
X170211441Y-92754090D01*
X170356431Y-92541890D01*
X170407440Y-92290000D01*
X170407440Y-90590000D01*
X170363162Y-90354683D01*
X170224090Y-90138559D01*
X170011890Y-89993569D01*
X169760000Y-89942560D01*
X168060000Y-89942560D01*
X167824683Y-89986838D01*
X167608559Y-90125910D01*
X167463569Y-90338110D01*
X167412560Y-90590000D01*
X167412560Y-92290000D01*
X167456838Y-92525317D01*
X167595910Y-92741441D01*
X167808110Y-92886431D01*
X167875541Y-92900086D01*
X167830853Y-92929946D01*
X167508946Y-93411715D01*
X167395907Y-93980000D01*
X167508946Y-94548285D01*
X167830853Y-95030054D01*
X168160026Y-95250000D01*
X167830853Y-95469946D01*
X167508946Y-95951715D01*
X167395907Y-96520000D01*
X167508946Y-97088285D01*
X167830853Y-97570054D01*
X168160026Y-97790000D01*
X167830853Y-98009946D01*
X167508946Y-98491715D01*
X167395907Y-99060000D01*
X167508946Y-99628285D01*
X167830853Y-100110054D01*
X168160026Y-100330000D01*
X167830853Y-100549946D01*
X167508946Y-101031715D01*
X167395907Y-101600000D01*
X167508946Y-102168285D01*
X167830853Y-102650054D01*
X168160026Y-102870000D01*
X167830853Y-103089946D01*
X167508946Y-103571715D01*
X167395907Y-104140000D01*
X167446835Y-104396033D01*
X166044461Y-102993659D01*
X166273192Y-102765327D01*
X166415838Y-102421799D01*
X166416162Y-102049833D01*
X166274117Y-101706057D01*
X166168290Y-101600046D01*
X166273192Y-101495327D01*
X166415838Y-101151799D01*
X166416162Y-100779833D01*
X166274117Y-100436057D01*
X166011327Y-100172808D01*
X165667799Y-100030162D01*
X165620923Y-100030121D01*
X165585894Y-99995092D01*
X165666167Y-99995162D01*
X166009943Y-99853117D01*
X166273192Y-99590327D01*
X166415838Y-99246799D01*
X166416162Y-98874833D01*
X166274117Y-98531057D01*
X166011327Y-98267808D01*
X165667799Y-98125162D01*
X165295833Y-98124838D01*
X165168021Y-98177649D01*
X165157114Y-98119683D01*
X165093274Y-98020472D01*
X165150383Y-97936890D01*
X165153296Y-97922506D01*
X165620680Y-97455122D01*
X165666167Y-97455162D01*
X166009943Y-97313117D01*
X166273192Y-97050327D01*
X166415838Y-96706799D01*
X166416162Y-96334833D01*
X166274117Y-95991057D01*
X166041291Y-95757824D01*
X166273192Y-95526327D01*
X166415838Y-95182799D01*
X166416162Y-94810833D01*
X166274117Y-94467057D01*
X166011327Y-94203808D01*
X165667799Y-94061162D01*
X165458822Y-94060980D01*
X165493680Y-94026122D01*
X165539167Y-94026162D01*
X165882943Y-93884117D01*
X166146192Y-93621327D01*
X166288838Y-93277799D01*
X166289162Y-92905833D01*
X166147117Y-92562057D01*
X165884327Y-92298808D01*
X165540799Y-92156162D01*
X165168833Y-92155838D01*
X164825057Y-92297883D01*
X164561808Y-92560673D01*
X164419162Y-92904201D01*
X164419121Y-92951077D01*
X163472638Y-93897560D01*
X162553952Y-93897560D01*
X162431000Y-93920695D01*
X162431000Y-93713382D01*
X162485317Y-93703162D01*
X162701441Y-93564090D01*
X162846431Y-93351890D01*
X162897440Y-93100000D01*
X162897440Y-92304362D01*
X163224401Y-91977401D01*
X163389148Y-91730839D01*
X163447000Y-91440000D01*
X163447000Y-85447440D01*
X164400000Y-85447440D01*
X164635317Y-85403162D01*
X164851441Y-85264090D01*
X164996431Y-85051890D01*
X165047440Y-84800000D01*
X165047440Y-84285750D01*
X165665000Y-84285750D01*
X165665000Y-84926310D01*
X165761673Y-85159699D01*
X165940302Y-85338327D01*
X166173691Y-85435000D01*
X167764250Y-85435000D01*
X167923000Y-85276250D01*
X167923000Y-84127000D01*
X168177000Y-84127000D01*
X168177000Y-85276250D01*
X168335750Y-85435000D01*
X169926309Y-85435000D01*
X170159698Y-85338327D01*
X170338327Y-85159699D01*
X170435000Y-84926310D01*
X170435000Y-84285750D01*
X170276250Y-84127000D01*
X168177000Y-84127000D01*
X167923000Y-84127000D01*
X165823750Y-84127000D01*
X165665000Y-84285750D01*
X165047440Y-84285750D01*
X165047440Y-83200000D01*
X165023674Y-83073690D01*
X165665000Y-83073690D01*
X165665000Y-83714250D01*
X165823750Y-83873000D01*
X167923000Y-83873000D01*
X167923000Y-82723750D01*
X168177000Y-82723750D01*
X168177000Y-83873000D01*
X170276250Y-83873000D01*
X170435000Y-83714250D01*
X170435000Y-83073690D01*
X170338327Y-82840301D01*
X170159698Y-82661673D01*
X169926309Y-82565000D01*
X168335750Y-82565000D01*
X168177000Y-82723750D01*
X167923000Y-82723750D01*
X167764250Y-82565000D01*
X166173691Y-82565000D01*
X165940302Y-82661673D01*
X165761673Y-82840301D01*
X165665000Y-83073690D01*
X165023674Y-83073690D01*
X165003162Y-82964683D01*
X164864090Y-82748559D01*
X164651890Y-82603569D01*
X164400000Y-82552560D01*
X160900000Y-82552560D01*
X160664683Y-82596838D01*
X160448559Y-82735910D01*
X160408255Y-82794896D01*
X160314090Y-82648559D01*
X160245994Y-82602031D01*
X160388327Y-82459698D01*
X160485000Y-82226309D01*
X160485000Y-81885750D01*
X160326250Y-81727000D01*
X159352000Y-81727000D01*
X159352000Y-81747000D01*
X159098000Y-81747000D01*
X159098000Y-81727000D01*
X159078000Y-81727000D01*
X159078000Y-81473000D01*
X159098000Y-81473000D01*
X159098000Y-81453000D01*
X159352000Y-81453000D01*
X159352000Y-81473000D01*
X160326250Y-81473000D01*
X160485000Y-81314250D01*
X160485000Y-80973691D01*
X160388327Y-80740302D01*
X160368025Y-80720000D01*
X170740000Y-80720000D01*
X170740000Y-108716421D01*
M02*
