\relax 
\providecommand\hyper@newdestlabel[2]{}
\providecommand\zref@newlabel[2]{}
\providecommand\babel@aux[2]{}
\@nameuse{bbl@beforestart}
\catcode `"\active 
\catcode `<\active 
\catcode `>\active 
\@nameuse{es@quoting}
\providecommand\HyperFirstAtBeginDocument{\AtBeginDocument}
\HyperFirstAtBeginDocument{\ifx\hyper@anchor\@undefined
\global\let\oldcontentsline\contentsline
\gdef\contentsline#1#2#3#4{\oldcontentsline{#1}{#2}{#3}}
\global\let\oldnewlabel\newlabel
\gdef\newlabel#1#2{\newlabelxx{#1}#2}
\gdef\newlabelxx#1#2#3#4#5#6{\oldnewlabel{#1}{{#2}{#3}}}
\AtEndDocument{\ifx\hyper@anchor\@undefined
\let\contentsline\oldcontentsline
\let\newlabel\oldnewlabel
\fi}
\fi}
\global\let\hyper@last\relax 
\gdef\HyperFirstAtBeginDocument#1{#1}
\providecommand*\HyPL@Entry[1]{}
\HyPL@Entry{0<</S/D>>}
\babel@aux{spanish}{}
\pgfsyspdfmark {pgfid2}{6773687}{48836679}
\pgfsyspdfmark {pgfid1}{6773687}{48836679}
\pgfsyspdfmark {pgfid4}{6773687}{48836679}
\pgfsyspdfmark {pgfid3}{6773687}{48836679}
\@writefile{toc}{\contentsline {chapter}{\numberline {1}Preámbulo}{5}{chapter.1}\protected@file@percent }
\@writefile{lof}{\addvspace {10\p@ }}
\@writefile{lot}{\addvspace {10\p@ }}
\pgfsyspdfmark {pgfid6}{5594039}{48836679}
\pgfsyspdfmark {pgfid5}{5594039}{48836679}
\@writefile{toc}{\contentsline {section}{\numberline {1.1}Notas y Advertencias}{5}{section.1.1}\protected@file@percent }
\@writefile{toc}{\contentsline {section}{\numberline {1.2}Cuadros de código fuente}{6}{section.1.2}\protected@file@percent }
\@writefile{toc}{\contentsline {chapter}{\numberline {2}Introducción}{7}{chapter.2}\protected@file@percent }
\@writefile{lof}{\addvspace {10\p@ }}
\@writefile{lot}{\addvspace {10\p@ }}
\pgfsyspdfmark {pgfid13}{5594039}{48836679}
\pgfsyspdfmark {pgfid12}{5594039}{48836679}
\@writefile{toc}{\contentsline {section}{\numberline {2.1}domótica}{7}{section.2.1}\protected@file@percent }
\@writefile{toc}{\contentsline {chapter}{\numberline {3}Sobre la secuencia didáctica}{9}{chapter.3}\protected@file@percent }
\@writefile{lof}{\addvspace {10\p@ }}
\@writefile{lot}{\addvspace {10\p@ }}
\pgfsyspdfmark {pgfid15}{5594039}{48836679}
\pgfsyspdfmark {pgfid14}{5594039}{48836679}
\@writefile{toc}{\contentsline {section}{\numberline {3.1}TORCAZ}{9}{section.3.1}\protected@file@percent }
\@writefile{toc}{\contentsline {chapter}{\numberline {4}preparar nuestro entorno de trabajo}{11}{chapter.4}\protected@file@percent }
\@writefile{lof}{\addvspace {10\p@ }}
\@writefile{lot}{\addvspace {10\p@ }}
\pgfsyspdfmark {pgfid18}{5594039}{48836679}
\pgfsyspdfmark {pgfid17}{5594039}{48836679}
\@writefile{toc}{\contentsline {subsection}{\numberline {4.0.1}Crear Token para nuestro BOT}{11}{subsection.4.0.1}\protected@file@percent }
\@writefile{lof}{\contentsline {figure}{\numberline {4.1}{\ignorespaces @BotFather}}{12}{figure.4.1}\protected@file@percent }
\newlabel{fig:BotFather}{{4.1}{12}{@BotFather}{figure.4.1}{}}
\@writefile{lof}{\contentsline {figure}{\numberline {4.2}{\ignorespaces La interfaz de usuario del \textbf  {BotFather} es básicamente un caht de telegram donde interactuamos con \textbf  {BotFather} mediante texto.}}{13}{figure.4.2}\protected@file@percent }
\newlabel{fig:BotFather}{{4.2}{13}{La interfaz de usuario del \textbf {BotFather} es básicamente un caht de telegram donde interactuamos con \textbf {BotFather} mediante texto}{figure.4.2}{}}
\@writefile{toc}{\contentsline {subsection}{\numberline {4.0.2}sobre ID y seguridad en TELEGRAM}{14}{subsection.4.0.2}\protected@file@percent }
\@writefile{toc}{\contentsline {chapter}{\numberline {5}BOT}{15}{chapter.5}\protected@file@percent }
\@writefile{lof}{\addvspace {10\p@ }}
\@writefile{lot}{\addvspace {10\p@ }}
\pgfsyspdfmark {pgfid22}{5594039}{48836679}
\pgfsyspdfmark {pgfid21}{5594039}{48836679}
\@writefile{toc}{\contentsline {subsection}{\numberline {5.0.1}Ejercicios}{15}{subsection.5.0.1}\protected@file@percent }
\@writefile{toc}{\contentsline {subsubsection}{Hola mundo}{15}{section*.2}\protected@file@percent }
\@writefile{toc}{\contentsline {subsubsection}{Ejercicio 0}{16}{section*.3}\protected@file@percent }
\@writefile{toc}{\contentsline {subsubsection}{Ejercicio 1}{16}{section*.4}\protected@file@percent }
\@writefile{toc}{\contentsline {subsubsection}{enviar imágenes}{16}{section*.5}\protected@file@percent }
\@writefile{toc}{\contentsline {subsubsection}{recibir texto}{17}{section*.6}\protected@file@percent }
\@writefile{toc}{\contentsline {subsection}{\numberline {5.0.2}actividades}{17}{subsection.5.0.2}\protected@file@percent }
\@writefile{toc}{\contentsline {chapter}{\numberline {6}domoticaro}{18}{chapter.6}\protected@file@percent }
\@writefile{lof}{\addvspace {10\p@ }}
\@writefile{lot}{\addvspace {10\p@ }}
\pgfsyspdfmark {pgfid29}{5594039}{48836679}
\pgfsyspdfmark {pgfid28}{5594039}{48836679}
\@writefile{toc}{\contentsline {section}{\numberline {6.1}WEMOS}{18}{section.6.1}\protected@file@percent }
\@writefile{toc}{\contentsline {section}{\numberline {6.2}Ejercicios}{18}{section.6.2}\protected@file@percent }
\@writefile{toc}{\contentsline {subsubsection}{conectar la placa a python}{18}{section*.7}\protected@file@percent }
\@writefile{toc}{\contentsline {subsubsection}{prender y apagar un rele}{19}{section*.8}\protected@file@percent }
\@writefile{toc}{\contentsline {subsubsection}{Leer el sensor de temperatura y humedad}{20}{section*.9}\protected@file@percent }
\@writefile{toc}{\contentsline {subsubsection}{leer un sensor analógico}{20}{section*.10}\protected@file@percent }
\@writefile{toc}{\contentsline {subsubsection}{funciones extras de los reles}{21}{section*.11}\protected@file@percent }
\@writefile{toc}{\contentsline {section}{\numberline {6.3}Actividades}{21}{section.6.3}\protected@file@percent }
\@writefile{toc}{\contentsline {chapter}{\numberline {7}proyectos integradores}{23}{chapter.7}\protected@file@percent }
\@writefile{lof}{\addvspace {10\p@ }}
\@writefile{lot}{\addvspace {10\p@ }}
\pgfsyspdfmark {pgfid37}{5594039}{48836679}
\pgfsyspdfmark {pgfid36}{5594039}{48836679}
\ttl@finishall
\gdef \@abspage@last{23}
