PWD /home/vbasel/Doctorado/Repositorios/gitlab/doctorado/doc/secuencias_didacticas
INPUT /usr/share/texlive/texmf-dist/web2c/texmf.cnf
INPUT /usr/share/texlive/texmf-dist/web2c/texmf.cnf
INPUT /home/vbasel/.texlive2019/texmf-var/web2c/pdftex/pdflatex.fmt
INPUT manual_domoticaro_1.tex
OUTPUT manual_domoticaro_1.log
