# Fdb version 3
["pdflatex"] 1600652321 "manual_domoticaro_1.tex" "manual_domoticaro_1.pdf" "manual_domoticaro_1" 1600652321
  "/home/vbasel/.texlive2019/texmf-var/web2c/pdftex/pdflatex.fmt" 1592835529 797358 67e682d2d3ba0cd597c7e63008dcf3f5 ""
  "/usr/share/texlive/texmf-dist/web2c/texmf.cnf" 1580905820 35594 9aef19174c178978f61d14961262af5d ""
  "manual_domoticaro_1.aux" 1600652316 8 a94a2480d3289e625eea47cd1b285758 ""
  "manual_domoticaro_1.tex" 1600652321 19946 bd6284116df34a4b6af5983057878cf8 ""
  (generated)
  "manual_domoticaro_1.pdf"
  "manual_domoticaro_1.log"
