\relax 
\providecommand\hyper@newdestlabel[2]{}
\providecommand\babel@aux[2]{}
\@nameuse{bbl@beforestart}
\catcode `"\active 
\catcode `<\active 
\catcode `>\active 
\@nameuse{es@quoting}
\providecommand\HyperFirstAtBeginDocument{\AtBeginDocument}
\HyperFirstAtBeginDocument{\ifx\hyper@anchor\@undefined
\global\let\oldcontentsline\contentsline
\gdef\contentsline#1#2#3#4{\oldcontentsline{#1}{#2}{#3}}
\global\let\oldnewlabel\newlabel
\gdef\newlabel#1#2{\newlabelxx{#1}#2}
\gdef\newlabelxx#1#2#3#4#5#6{\oldnewlabel{#1}{{#2}{#3}}}
\AtEndDocument{\ifx\hyper@anchor\@undefined
\let\contentsline\oldcontentsline
\let\newlabel\oldnewlabel
\fi}
\fi}
\global\let\hyper@last\relax 
\gdef\HyperFirstAtBeginDocument#1{#1}
\providecommand*\HyPL@Entry[1]{}
\bibstyle{apacite}
\@input{variables.aux}
\@input{titulo.aux}
\HyPL@Entry{0<</S/D>>}
\babel@aux{spanish}{}
\@input{dedicatoria.aux}
\@input{agradecimientos.aux}
\@input{epigrafe.aux}
\@input{./capitulos/introduccion.aux}
\HyPL@Entry{10<</S/D>>}
\@input{./capitulos/capitulo_01.aux}
\@input{./capitulos/capitulo_02.aux}
\@input{./capitulos/capitulo_03.aux}
\@input{./capitulos/capitulo_04.aux}
\@input{./capitulos/capitulo_05.aux}
\@input{./capitulos/capitulo_06.aux}
\@input{./capitulos/capitulo_07.aux}
\bibdata{biblioteca.bib}
\@writefile{toc}{\contentsline {section}{Referencias bibliográficas}{208}{section.7.4}\protected@file@percent }
\bibcite{acosta_ensenando_2019}{{1}{{\APACyear {2019}}}{{Acosta\ \BOthers {.}}}{{Acosta, Rojo,{}\ y{} Mart{\'\i }nez}}}
\bibcite{adell_software_2007}{{2}{{\APACyear {2007}}}{{Adell\ y{} Bernab{\'e}}}{{Adell\ y{} Bernab{\'e}}}}
\bibcite{akgun_bibliometric_2023}{{3}{{\APACyear {2023}}}{{Akg{\"u}n\ y{} Atici}}{{Akg{\"u}n\ y{} Atici}}}
\bibcite{alvarez_educacion_2011}{{4}{{\APACyear {2011}}}{{Alvarez}}{{Alvarez}}}
\bibcite{alvarez-gayou_como_2003}{{5}{{\APACyear {2003}}}{{{\'A}lvarez-Gayou}}{{{\'A}lvarez-Gayou}}}
\bibcite{angela_del_valle_aprendizaje_nodate}{{6}{{\APACyear {{\bibnodate {}}}}}{{{{\'A}ngela Del Valle}}}{{{{\'A}ngela Del Valle}}}}
\bibcite{armoni_scratch_2015}{{7}{{\APACyear {2015}}}{{Armoni\ \BOthers {.}}}{{Armoni, Meerbaum-Salant,{}\ y{} Ben-Ari}}}
\@writefile{toc}{\contentsline {chapter}{\numberline {8}Referencias}{209}{chapter.8}\protected@file@percent }
\@writefile{lof}{\addvspace {10\p@ }}
\@writefile{lot}{\addvspace {10\p@ }}
\bibcite{ayuso_actividades_2007}{{8}{{\APACyear {2007}}}{{Ayuso}}{{Ayuso}}}
\bibcite{baquero_vigotsky_1996-1}{{9}{{\APACyear {1996}}{\APACexlab {{\BCnt {1}}}}}{{Baquero}}{{Baquero}}}
\bibcite{baquero_vigotsky_1996}{{10}{{\APACyear {1996}}{\APACexlab {{\BCnt {2}}}}}{{Baquero}}{{Baquero}}}
\bibcite{baquero_experimento_2002}{{11}{{\APACyear {2002}}}{{Baquero}}{{Baquero}}}
\bibcite{baquero_en_1996}{{12}{{\APACyear {1996}}}{{Baquero\ y{} Terigi}}{{Baquero\ y{} Terigi}}}
\bibcite{barrera_lombana_use_2015}{{13}{{\APACyear {2015}}}{{{Barrera Lombana}}}{{{Barrera Lombana}}}}
\bibcite{barros_aplicaciones_2004}{{14}{{\APACyear {2004}}}{{Barros\ \BOthers {.}}}{{Barros, V{\'e}lez,{}\ y{} Verdejo}}}
\bibcite{basel_proyecto_2012}{{15}{{\APACyear {2012}}}{{Basel}}{{Basel}}}
\bibcite{basel_hardware_2020}{{16}{{\APACyear {2020}}}{{Basel}}{{Basel}}}
\bibcite{beatriz_busaniche_argentina_2010}{{17}{{\APACyear {2010}}}{{{Beatriz Busaniche}}}{{{Beatriz Busaniche}}}}
\bibcite{becker_datos_2019}{{18}{{\APACyear {2019}}}{{Becker}}{{Becker}}}
\bibcite{benavides_1_2016}{{19}{{\APACyear {2016}}}{{Benavides, Aguirre,{}\ \BOthers {.}}}{{Benavides, Aguirre, Otegui, Andrade,{}\ y{} Gonzalo}}}
\bibcite{benavides_robotica_2016}{{20}{{\APACyear {2016}}}{{Benavides, Otegui,{}\ \BOthers {.}}}{{Benavides, Otegui, Aguirre,{}\ y{} Andrade}}}
\bibcite{benotti_polite_2016}{{21}{{\APACyear {2016}}}{{Benotti\ y{} Blackburn}}{{Benotti\ y{} Blackburn}}}
\bibcite{benotti_despertando_2012}{{22}{{\APACyear {2012}}}{{Benotti\ \BOthers {.}}}{{Benotti, Echeveste,{}\ y{} Schapachnik}}}
\bibcite{benotti_unc++_2017}{{23}{{\APACyear {2017}}}{{Benotti\ \BOthers {.}}}{{Benotti, G{\'o}mez,{}\ y{} Mart{\'\i }nez}}}
\bibcite{bers_computational_2014}{{24}{{\APACyear {2014}}}{{Bers\ \BOthers {.}}}{{Bers, Flannery, Kazakoff,{}\ y{} Sullivan}}}
\bibcite{bordignon_soberanitecnologica_2015}{{25}{{\APACyear {2015}}}{{Bordignon}}{{Bordignon}}}
\bibcite{borras_gene_fundamentos_2015}{{26}{{\APACyear {2015}}}{{{Borr{\'a}s Gen{\'e}}}}{{{Borr{\'a}s Gen{\'e}}}}}
\bibcite{bossuet_computadora_1985}{{27}{{\APACyear {1985}}}{{Bossuet}}{{Bossuet}}}
\bibcite{botella_nicolas_investigacion-accion_2019}{{28}{{\APACyear {2019}}}{{{Botella Nicol{\'a}s}\ y{} {Ramos Ramos}}}{{{Botella Nicol{\'a}s}\ y{} {Ramos Ramos}}}}
\bibcite{boyle_second_2003}{{29}{{\APACyear {2003}}}{{Boyle}}{{Boyle}}}
\bibcite{cabra_torres_nativos_2009}{{30}{{\APACyear {2009}}}{{{Cabra Torres}\ y{} {Marciales Vivas}}}{{{Cabra Torres}\ y{} {Marciales Vivas}}}}
\bibcite{camacho_brecha_2005-1}{{31}{{\APACyear {2005}}}{{Camacho}}{{Camacho}}}
\bibcite{campbell_quasi-experimental_1968}{{32}{{\APACyear {1968}}}{{Campbell\ y{} Riecken}}{{Campbell\ y{} Riecken}}}
\bibcite{candon_mena_soberanitecnologica_2013}{{33}{{\APACyear {2013}}}{{{Cand{\'o}n Mena}}}{{{Cand{\'o}n Mena}}}}
\bibcite{carvajal_herramientas_2002}{{34}{{\APACyear {2002}}}{{Carvajal}}{{Carvajal}}}
\bibcite{cataldi_software_2008}{{35}{{\APACyear {2008}}}{{Cataldi\ y{} Lage}}{{Cataldi\ y{} Lage}}}
\bibcite{ceballos_soberanitecnologica_2020}{{36}{{\APACyear {2020}}}{{Ceballos\ \BOthers {.}}}{{Ceballos, Maisonnave,{}\ y{} Londo{\~n}o}}}
\bibcite{ceibal_plan_2014}{{37}{{\APACyear {2014}}}{{Ceibal}}{{Ceibal}}}
\bibcite{chandler_technological_1995}{{38}{{\APACyear {1995}}}{{Chandler}}{{Chandler}}}
\bibcite{chatterjee_python_2017}{{39}{{\APACyear {2017}}}{{Chatterjee\ y{} Krystyanczuk}}{{Chatterjee\ y{} Krystyanczuk}}}
\bibcite{chavarria_software_2011}{{40}{{\APACyear {2011}}}{{Chavarr{\'\i }a}}{{Chavarr{\'\i }a}}}
\bibcite{chiu_roles_2022}{{41}{{\APACyear {2022}}}{{Chiu\ \BOthers {.}}}{{Chiu, Hwang,{}\ y{} Tu}}}
\bibcite{clot_formacion_2000}{{42}{{\APACyear {2000}}}{{Clot}}{{Clot}}}
\bibcite{cole_cross-cultural_1988}{{43}{{\APACyear {1988}}}{{Cole}}{{Cole}}}
\bibcite{cole_enfoque_2001}{{44}{{\APACyear {2001}}}{{Cole\ y{} Engestr{\"o}m}}{{Cole\ y{} Engestr{\"o}m}}}
\bibcite{confrey_evolution_2006}{{45}{{\APACyear {2006}}}{{Confrey}}{{Confrey}}}
\bibcite{daly_studying_2000}{{46}{{\APACyear {2000}}}{{Daly}}{{Daly}}}
\bibcite{de_benito_crosetti_diseno_2006}{{47}{{\APACyear {2006}}}{{de Benito~Crosetti\ y{} Ib{\'a}{\~n}ez}}{{de Benito~Crosetti\ y{} Ib{\'a}{\~n}ez}}}
\bibcite{de_benito_crosetti_investigacion_2016}{{48}{{\APACyear {2016}}}{{de Benito~Crosetti\ y{} Ib{\'a}{\~n}ez}}{{de Benito~Crosetti\ y{} Ib{\'a}{\~n}ez}}}
\bibcite{de_la_colina_hacia_2004}{{49}{{\APACyear {2004}}}{{de~la Colina}}{{de~la Colina}}}
\bibcite{disessa_ontological_2004}{{50}{{\APACyear {2004}}}{{diSessa\ y{} Cobb}}{{diSessa\ y{} Cobb}}}
\bibcite{dominguez_domotica_2006}{{51}{{\APACyear {2006}}}{{Dom{\'\i }nguez\ y{} Vacas}}{{Dom{\'\i }nguez\ y{} Vacas}}}
\bibcite{echeveste_estudiar_2020}{{52}{{\APACyear {2020}}}{{Echeveste}}{{Echeveste}}}
\bibcite{eguia_experiencias_2017}{{53}{{\APACyear {2017}}}{{Eguia\ \BOthers {.}}}{{Eguia\ \BOthers {.}}}}
\bibcite{engestrom_aprendizaje_2001}{{54}{{\APACyear {2001}}}{{Engestr{\"o}m}}{{Engestr{\"o}m}}}
\bibcite{engestrom_communities_2007}{{55}{{\APACyear {2007}}}{{Engestr{\"o}m}}{{Engestr{\"o}m}}}
\bibcite{engestrom_learning_2015}{{56}{{\APACyear {2015}}}{{Engestr{\"o}m}}{{Engestr{\"o}m}}}
\bibcite{engestrom_aprendizaje_2016}{{57}{{\APACyear {2016}}}{{Engestr{\"o}m\ y{} Sannino}}{{Engestr{\"o}m\ y{} Sannino}}}
\bibcite{eric_s._raymond_catedral_1998}{{58}{{\APACyear {1998}}}{{{Eric S. Raymond}}}{{{Eric S. Raymond}}}}
\bibcite{estevez_viabilidad_2014}{{59}{{\APACyear {2014}}}{{Est{\'e}vez\ \BOthers {.}}}{{Est{\'e}vez, Rosa,{}\ y{} Fern{\'a}ndez}}}
\bibcite{fernandez_entrevistas_2010}{{60}{{\APACyear {2010}}}{{Fern{\'a}ndez\ y{} Clot}}{{Fern{\'a}ndez\ y{} Clot}}}
\bibcite{ferrero_aprendizaje_2017}{{61}{{\APACyear {2017}}}{{Ferrero}}{{Ferrero}}}
\bibcite{feurzeig_programming-languages_1970}{{62}{{\APACyear {1970}}}{{Feurzeig\ \BOthers {.}}}{{Feurzeig, Papert, Bloom, Grant,{}\ y{} Solomon}}}
\bibcite{fontdevila_estudio_2011}{{63}{{\APACyear {2011}}}{{Fontdevila}}{{Fontdevila}}}
\bibcite{freire_pedagogiautonomi:_2006}{{64}{{\APACyear {2006}}}{{Freire}}{{Freire}}}
\bibcite{freire_pedagogioprimido._2015}{{65}{{\APACyear {2015}}}{{Freire}}{{Freire}}}
\bibcite{freire_pedagogiesperanza:_2009}{{66}{{\APACyear {2009}}}{{Freire\ y{} Freire}}{{Freire\ y{} Freire}}}
\bibcite{freire_educacion_2008}{{67}{{\APACyear {2008}}}{{Freire\ y{} Ronzoni}}{{Freire\ y{} Ronzoni}}}
\bibcite{garay_retruco_2022}{{68}{{\APACyear {2022}}}{{Garay}}{{Garay}}}
\bibcite{garcia_fernandez_educacion_2022}{{69}{{\APACyear {2022}}}{{{Garc{\'\i }a Fern{\'a}ndez}\ y{} {Garc{\'\i }a Mar{\'\i }n}}}{{{Garc{\'\i }a Fern{\'a}ndez}\ y{} {Garc{\'\i }a Mar{\'\i }n}}}}
\bibcite{garcia_monsalvez_python_2017}{{70}{{\APACyear {2017}}}{{{Garc{\'\i }a Mons{\'a}lvez}}}{{{Garc{\'\i }a Mons{\'a}lvez}}}}
\bibcite{giannetti_representaciones_1994}{{71}{{\APACyear {1994}}}{{Giannetti}}{{Giannetti}}}
\bibcite{giro_lenguaje_2015}{{72}{{\APACyear {2015}}}{{Gir{\'o}}}{{Gir{\'o}}}}
\bibcite{gomez_constructivismo_2018}{{73}{{\APACyear {2018}}}{{O\BPBI  Y\BPBI  A.~G{\'o}mez\ y{} Ortiz}}{{O\BPBI  Y\BPBI  A.~G{\'o}mez\ y{} Ortiz}}}
\bibcite{gomez_lampara_2002}{{74}{{\APACyear {2002}}}{{R.~G{\'o}mez\ y{} Ospina}}{{R.~G{\'o}mez\ y{} Ospina}}}
\bibcite{gonzalez_hardware_2003}{{75}{{\APACyear {2003}}}{{I.~Gonz{\'a}lez\ \BOthers {.}}}{{I.~Gonz{\'a}lez, Gonz{\'a}lez,{}\ y{} G{\'o}mez-Arribas}}}
\bibcite{gonzalez_estudio_2013}{{76}{{\APACyear {2013}}}{{W\BPBI  O\BPBI  L.~Gonz{\'a}lez}}{{W\BPBI  O\BPBI  L.~Gonz{\'a}lez}}}
\bibcite{gonzalez-gomez_hardware_2005}{{77}{{\APACyear {2005}}}{{Gonz{\'a}lez-G{\'o}mez\ y{} Torres}}{{Gonz{\'a}lez-G{\'o}mez\ y{} Torres}}}
\bibcite{grune_diseno_2007}{{78}{{\APACyear {2007}}}{{Grune\ y{} {Catalina Gallego}}}{{Grune\ y{} {Catalina Gallego}}}}
\bibcite{guiltinan_creative_2009}{{79}{{\APACyear {2009}}}{{Guiltinan}}{{Guiltinan}}}
\bibcite{hache_soberanitecnologica_2014}{{80}{{\APACyear {2014}}}{{Hach{\'e}}}{{Hach{\'e}}}}
\bibcite{hajduk_needs_2017}{{81}{{\APACyear {2017}}}{{Hajduk\ \BOthers {.}}}{{Hajduk, Pilat, Olaru,{}\ y{} Vaga{\v s}}}}
\bibcite{hart_open_2003}{{82}{{\APACyear {2003}}}{{Hart}}{{Hart}}}
\bibcite{hassenfeld_if_2020}{{83}{{\APACyear {2020}}}{{Hassenfeld\ \BOthers {.}}}{{Hassenfeld, Govind, {De Ruiter},{}\ y{} Bers}}}
\bibcite{hess_bienes_2016}{{84}{{\APACyear {2016}}}{{Hess\ \BOthers {.}}}{{Hess, Ostrom,{}\ y{} P{\'e}rez}}}
\bibcite{himanen_etica_2015}{{85}{{\APACyear {2015}}}{{Himanen}}{{Himanen}}}
\bibcite{hovy_text_2020}{{86}{{\APACyear {2020}}}{{Hovy}}{{Hovy}}}
\bibcite{janarthanam_hands-chatbots_2017}{{87}{{\APACyear {2017}}}{{Janarthanam}}{{Janarthanam}}}
\bibcite{kraemer_one_2009}{{88}{{\APACyear {2009}}}{{Kraemer\ \BOthers {.}}}{{Kraemer, Dedrick,{}\ y{} Sharma}}}
\bibcite{larripa_teoriactividad_2008}{{89}{{\APACyear {2008}}}{{Larripa\ y{} Erausquin}}{{Larripa\ y{} Erausquin}}}
\bibcite{lee_firm-based_2003}{{90}{{\APACyear {2003}}}{{Lee\ y{} Cole}}{{Lee\ y{} Cole}}}
\bibcite{leiner_brief_2009}{{91}{{\APACyear {2009}}}{{Leiner\ \BOthers {.}}}{{Leiner\ \BOthers {.}}}}
\bibcite{lemos_teoria_2013}{{92}{{\APACyear {2013}}}{{Lemos\ \BOthers {.}}}{{Lemos, Pereira-Querol,{}\ y{} Almeida}}}
\bibcite{leontiev_actividad_1975}{{93}{{\APACyear {1975}}}{{Leontiev}}{{Leontiev}}}
\bibcite{letzen_robotica_2019}{{94}{{\APACyear {2019}}}{{Letzen\ \BOthers {.}}}{{Letzen, Basel, Massolo,{}\ y{} Ferrero}}}
\bibcite{lopez-belmonte_robotics_2021}{{95}{{\APACyear {2021}}}{{L{\'o}pez-Belmonte\ \BOthers {.}}}{{L{\'o}pez-Belmonte, Segura-Robles, Moreno-Guerrero,{}\ y{} Parra-Gonz{\'a}lez}}}
\bibcite{ludena_educacion_2019}{{96}{{\APACyear {2019}}}{{Lude{\~n}a}}{{Lude{\~n}a}}}
\bibcite{marin-marin_steam_2021}{{97}{{\APACyear {2021}}}{{Mar{\'\i }n-Mar{\'\i }n\ \BOthers {.}}}{{Mar{\'\i }n-Mar{\'\i }n, Moreno-Guerrero, D{\'u}o-Terr{\'o}n,{}\ y{} L{\'o}pez-Belmonte}}}
\bibcite{martin_contextos_2017}{{98}{{\APACyear {2017}}}{{Mart{\'\i }n}}{{Mart{\'\i }n}}}
\bibcite{mejia_tecnologi_2004}{{99}{{\APACyear {2004}}}{{Mej{\'\i }a}}{{Mej{\'\i }a}}}
\bibcite{mejia_educacion_2014}{{100}{{\APACyear {2014}}}{{Mej{\'\i }a}}{{Mej{\'\i }a}}}
\bibcite{moritz_value_2016}{{101}{{\APACyear {2016}}}{{Moritz\ \BOthers {.}}}{{Moritz, Redlich, Grames,{}\ y{} Wulfsberg}}}
\bibcite{negroponte_ser_1995}{{102}{{\APACyear {1995}}}{{Negroponte}}{{Negroponte}}}
\bibcite{ochoa_teorifundamentada_2013}{{103}{{\APACyear {2013}}}{{Ochoa}}{{Ochoa}}}
\bibcite{osborne_educational_2002}{{104}{{\APACyear {2002}}}{{Osborne\ y{} Yurcik}}{{Osborne\ y{} Yurcik}}}
\bibcite{paiva_automated_2022}{{105}{{\APACyear {2022}}}{{Paiva\ \BOthers {.}}}{{Paiva, Leal,{}\ y{} Figueira}}}
\bibcite{papert_evaluative_1976}{{106}{{\APACyear {1976}}}{{Papert}}{{Papert}}}
\bibcite{papert_mindstorms:_1980}{{107}{{\APACyear {1980}}}{{Papert}}{{Papert}}}
\bibcite{papert_desafio_1987-1}{{108}{{\APACyear {1987}}{\APACexlab {{\BCnt {1}}}}}{{Papert}}{{Papert}}}
\bibcite{papert_desafio_1987}{{109}{{\APACyear {1987}}{\APACexlab {{\BCnt {2}}}}}{{Papert}}{{Papert}}}
\bibcite{papert_twenty_1971}{{110}{{\APACyear {1971}}}{{Papert\ \BOthers {.}}}{{Papert, Solomon, Soloway,{}\ y{} Spohrer}}}
\bibcite{pavlov_reflejos_1997}{{111}{{\APACyear {1997}}}{{Pavlov}}{{Pavlov}}}
\bibcite{pearce_case_2012}{{112}{{\APACyear {2012}}}{{Pearce}}{{Pearce}}}
\bibcite{pinch_social_1984}{{113}{{\APACyear {1984}}}{{Pinch\ y{} Bijker}}{{Pinch\ y{} Bijker}}}
\bibcite{radford_sumision_2013}{{114}{{\APACyear {2013}}}{{Radford}}{{Radford}}}
\bibcite{radford_teoriobjetivacion_2014-1}{{115}{{\APACyear {2014}}{\APACexlab {{\BCnt {1}}}}}{{Radford}}{{Radford}}}
\bibcite{radford_teoriobjetivacion_2014}{{116}{{\APACyear {2014}}{\APACexlab {{\BCnt {2}}}}}{{Radford}}{{Radford}}}
\bibcite{radford_ensenanza-aprendizaje_2014}{{117}{{\APACyear {2014}}{\APACexlab {{\BCnt {3}}}}}{{Radford}}{{Radford}}}
\bibcite{radford_aprendizaje_2017}{{118}{{\APACyear {2017}}}{{Radford}}{{Radford}}}
\bibcite{radford_aspectos_2021}{{119}{{\APACyear {2021}}}{{Radford}}{{Radford}}}
\bibcite{radford_teoriobjetivacion_2023}{{120}{{\APACyear {2023}}{\APACexlab {{\BCnt {1}}}}}{{Radford}}{{Radford}}}
\bibcite{radford_politica_2023}{{121}{{\APACyear {2023}}{\APACexlab {{\BCnt {2}}}}}{{Radford}}{{Radford}}}
\bibcite{radford_que_2023}{{122}{{\APACyear {2023}}{\APACexlab {{\BCnt {3}}}}}{{Radford}}{{Radford}}}
\bibcite{radford_recorrido_2020}{{123}{{\APACyear {2020}}}{{Radford\ \BOthers {.}}}{{Radford, SCHUBRING,{}\ y{} SEEGER}}}
\bibcite{raletz_beginners_1984}{{124}{{\APACyear {1984}}}{{Raletz}}{{Raletz}}}
\bibcite{rapti_critical_2024}{{125}{{\APACyear {2024}}}{{Rapti\ y{} Sapounidis}}{{Rapti\ y{} Sapounidis}}}
\bibcite{realinho_low_2015}{{126}{{\APACyear {2015}}}{{Realinho}}{{Realinho}}}
\bibcite{reeves_enhancing_2000}{{127}{{\APACyear {2000}}}{{Reeves}}{{Reeves}}}
\bibcite{reggini_alas_1986}{{128}{{\APACyear {1986}}}{{Reggini}}{{Reggini}}}
\bibcite{reggini_computadoras_1988}{{129}{{\APACyear {1988}}}{{Reggini}}{{Reggini}}}
\bibcite{resnick_tortugas_2001}{{130}{{\APACyear {2001}}}{{Resnick}}{{Resnick}}}
\bibcite{resnick_legologolearning_1990}{{131}{{\APACyear {1990}}}{{Resnick\ y{} Ocko}}{{Resnick\ y{} Ocko}}}
\bibcite{resnick_lego_1988}{{132}{{\APACyear {1988}}}{{Resnick\ \BOthers {.}}}{{Resnick, Ocko,{}\ y{} Papert}}}
\bibcite{reyes_cortes_robotica:_2011}{{133}{{\APACyear {2011}}}{{{Reyes Cort{\'e}s}}}{{{Reyes Cort{\'e}s}}}}
\bibcite{rinaudo_estudios_2010}{{134}{{\APACyear {2010}}}{{Rinaudo\ y{} Donolo}}{{Rinaudo\ y{} Donolo}}}
\bibcite{riskin_pagina12_2014}{{135}{{\APACyear {2014}}}{{Riskin}}{{Riskin}}}
\bibcite{riviere_psicologivygotski_1984}{{136}{{\APACyear {1984}}}{{Rivi{\'e}re}}{{Rivi{\'e}re}}}
\bibcite{rockwell_experiencia_2009}{{137}{{\APACyear {2009}}}{{Rockwell}}{{Rockwell}}}
\bibcite{rosa_metodologipara_1996}{{138}{{\APACyear {1996}}}{{Rosa\ \BOthers {.}}}{{Rosa, Rivero, Mart{\'\i }nez,{}\ y{} Trejo}}}
\bibcite{ruso_concepto_2001}{{139}{{\APACyear {2001}}}{{Ruso}}{{Ruso}}}
\bibcite{sadosky_cc2016_2013}{{140}{{\APACyear {2013}}}{{Sadosky}}{{Sadosky}}}
\bibcite{saidel_definiendo_2017}{{141}{{\APACyear {2017}}}{{Saidel}}{{Saidel}}}
\bibcite{salazar_determinismo_2006}{{142}{{\APACyear {2006}}}{{Salazar}}{{Salazar}}}
\bibcite{sanchez_robotica_2012}{{143}{{\APACyear {2012}}}{{S{\'a}nchez\ y{} Guzm{\'a}n}}{{S{\'a}nchez\ y{} Guzm{\'a}n}}}
\bibcite{sandoval_casilimas_investigacion_1996}{{144}{{\APACyear {1996}}}{{{Sandoval Casilimas}}}{{{Sandoval Casilimas}}}}
\bibcite{sautu_manual_2005}{{145}{{\APACyear {2005}}}{{Sautu\ \BOthers {.}}}{{Sautu, Boniolo, Dalle,{}\ y{} Elbert}}}
\bibcite{saxe_construccionismo_2004}{{146}{{\APACyear {2004}}}{{Saxe\ y{} Murillo}}{{Saxe\ y{} Murillo}}}
\bibcite{schrock_education_2014}{{147}{{\APACyear {2014}}}{{Schrock}}{{Schrock}}}
\bibcite{seymour_papert_maquina_1995}{{148}{{\APACyear {1995}}}{{{Seymour Papert}}}{{{Seymour Papert}}}}
\bibcite{solomon_case_1976}{{149}{{\APACyear {1976}}}{{Solomon\ y{} Papert}}{{Solomon\ y{} Papert}}}
\bibcite{solorzano_gnulinux_2010}{{150}{{\APACyear {2010}}}{{Solorzano}}{{Solorzano}}}
\bibcite{stake_estudios_2013}{{151}{{\APACyear {2013}}}{{Stake}}{{Stake}}}
\bibcite{stallman_por_1999}{{152}{{\APACyear {1999}}}{{STALLMAN}}{{STALLMAN}}}
\bibcite{stallman_porque_2004}{{153}{{\APACyear {2004}}}{{R.~Stallman}}{{R.~Stallman}}}
\bibcite{stallman_software_2007}{{154}{{\APACyear {2007}}}{{R\BPBI  M.~Stallman}}{{R\BPBI  M.~Stallman}}}
\bibcite{strauss_grounded_1994}{{155}{{\APACyear {1994}}}{{Strauss\ y{} Corbin}}{{Strauss\ y{} Corbin}}}
\bibcite{strauss_grounded_1997}{{156}{{\APACyear {1997}}}{{Strauss\ y{} Corbin}}{{Strauss\ y{} Corbin}}}
\bibcite{su_systematic_2023}{{157}{{\APACyear {2023}}}{{Su\ y{} Yang}}{{Su\ y{} Yang}}}
\bibcite{sunkel_tecnologias_2012}{{158}{{\APACyear {2012}}}{{Sunkel\ \BOthers {.}}}{{Sunkel, Trucco,{}\ y{} CEPAL}}}
\bibcite{szkolnik_disputa_2019}{{159}{{\APACyear {2019}}}{{Szkolnik}}{{Szkolnik}}}
\bibcite{the_design-based_research_collective_design-based_2003}{{160}{{\APACyear {2003}}}{{{The Design-Based Research Collective}}}{{{The Design-Based Research Collective}}}}
\bibcite{thyer_quasi-experimental_2012}{{161}{{\APACyear {2012}}}{{Thyer}}{{Thyer}}}
\bibcite{turkle_epistemological_1992}{{162}{{\APACyear {1992}}}{{Turkle\ y{} Papert}}{{Turkle\ y{} Papert}}}
\bibcite{valderrama_teoriy_2004}{{163}{{\APACyear {2004}}}{{Valderrama}}{{Valderrama}}}
\bibcite{valdivia_construccionismo_2003}{{164}{{\APACyear {2003}}}{{Valdivia}}{{Valdivia}}}
\bibcite{van_baalen_extending_2016}{{165}{{\APACyear {2016}}}{{{Van Baalen}\ \BOthers {.}}}{{{Van Baalen}, van Fenema,{}\ y{} Loebbecke}}}
\bibcite{van_rossum_pep_2001}{{166}{{\APACyear {2001}}}{{van Rossum\ \BOthers {.}}}{{van Rossum, Warsaw,{}\ y{} Coghlan}}}
\bibcite{vega_pibot_2018}{{167}{{\APACyear {2018}}}{{Vega\ y{} Ca{\~n}as}}{{Vega\ y{} Ca{\~n}as}}}
\bibcite{venkatraman_construct_1986}{{168}{{\APACyear {1986}}}{{Venkatraman\ y{} Grant}}{{Venkatraman\ y{} Grant}}}
\bibcite{vidal_ledo_recursos_2013}{{169}{{\APACyear {2013}}}{{{Vidal Ledo}\ \BOthers {.}}}{{{Vidal Ledo}, {Alfonso S{\'a}nchez}, {Zacca Gonz{\'a}lez},{}\ y{} {Mart{\'\i }nez Hern{\'a}ndez}}}}
\bibcite{vogliotti_glosario_2012}{{170}{{\APACyear {2012}}}{{Vogliotti\ y{} Ju{\'a}rez}}{{Vogliotti\ y{} Ju{\'a}rez}}}
\bibcite{vygotski_desarrollo_1996}{{171}{{\APACyear {1996}}}{{Vygotski\ \BOthers {.}}}{{Vygotski, Cole,{}\ y{} Luriia}}}
\bibcite{vygotski_pensamiento_1995}{{172}{{\APACyear {1995}}}{{Vygotski\ \BOthers {.}}}{{Vygotski, Kozulin,{}\ y{} Abad{\'\i }a}}}
\bibcite{vygotskii_pensamiento_2007}{{173}{{\APACyear {2007}}}{{Vygotskii\ \BOthers {.}}}{{Vygotskii, Gonz{\'a}lez, Caruso,{}\ y{} Temporetti}}}
\bibcite{watt_basic_1984}{{174}{{\APACyear {1984}}}{{Watt\ y{} Mangada}}{{Watt\ y{} Mangada}}}
\bibcite{weintrop_block_2015}{{175}{{\APACyear {2015}}}{{Weintrop\ y{} Wilensky}}{{Weintrop\ y{} Wilensky}}}
\bibcite{weiss_hermeneutica_2017}{{176}{{\APACyear {2017}}}{{Weiss}}{{Weiss}}}
\bibcite{white_quasi-experimental_2014}{{177}{{\APACyear {2014}}}{{White\ y{} Sabarwal}}{{White\ y{} Sabarwal}}}
\bibcite{wilson_predictors_2023}{{178}{{\APACyear {2023}}}{{Wilson\ \BOthers {.}}}{{Wilson\ \BOthers {.}}}}
\bibcite{winocur_evaluacion_2012}{{179}{{\APACyear {2012}}}{{Winocur\ y{} {S{\'A}NCHEZ VILELA}}}{{Winocur\ y{} {S{\'A}NCHEZ VILELA}}}}
\bibcite{wolovick_ensenar_2016}{{180}{{\APACyear {2016}}}{{Wolovick\ y{} Mart{\'\i }nez}}{{Wolovick\ y{} Mart{\'\i }nez}}}
\bibcite{yehezkel_three_2001}{{181}{{\APACyear {2001}}}{{Yehezkel\ \BOthers {.}}}{{Yehezkel, Yurcik, Pearson,{}\ y{} Armstrong}}}
\bibcite{zabala_robotica_2007}{{182}{{\APACyear {2007}}}{{Zabala}}{{Zabala}}}
\bibcite{zapata-ros_analitica_2015}{{183}{{\APACyear {2015}}}{{Zapata-Ros}}{{Zapata-Ros}}}
\@input{./anexos/anexo_ivana.aux}
\@input{./anexos/anexo_lili.aux}
\@input{./anexos/anexo_jupyter_tesis/anexo_jupyter_tesis.aux}
\@input{./anexos/anexo_ejercicios.aux}
\@input{./anexos/anexo_kicad.aux}
\@input{./anexos/anexo_saturar.aux}
\gdef \@abspage@last{407}
