\BOOKMARK [0][-]{chapter.1}{\376\377\000C\000o\000n\000t\000e\000x\000t\000u\000a\000l\000i\000z\000a\000c\000i\000\363\000n\000\040\000d\000e\000l\000\040\000p\000r\000o\000b\000l\000e\000m\000a\000\040\000d\000e\000\040\000i\000n\000v\000e\000s\000t\000i\000g\000a\000c\000i\000\363\000n}{}% 1
\BOOKMARK [1][-]{section.1.1}{\376\377\000A\000n\000t\000e\000c\000e\000d\000e\000n\000t\000e\000s\000\040\000d\000e\000\040\000l\000a\000\040\000e\000n\000s\000e\000\361\000a\000n\000z\000a\000\040\000d\000e\000\040\000l\000a\000\040\000i\000n\000f\000o\000r\000m\000\341\000t\000i\000c\000a\000\040\000y\000\040\000r\000o\000b\000\363\000t\000i\000c\000a\000\040\000e\000n\000\040\000a\000r\000g\000e\000n\000t\000i\000n\000a}{chapter.1}% 2
\BOOKMARK [1][-]{section.1.2}{\376\377\000L\000e\000n\000g\000u\000a\000j\000e\000\040\000T\000.\000I\000.\000M\000.\000B\000.\000A\000.}{chapter.1}% 3
\BOOKMARK [1][-]{section.1.3}{\376\377\000P\000E\000C\000O\000S\000\040\000s\000i\000s\000t\000e\000m\000a\000s}{chapter.1}% 4
\BOOKMARK [1][-]{section.1.4}{\376\377\000L\000a\000\040\000d\000\351\000c\000a\000d\000a\000\040\000d\000e\000l\000\040\000n\000o\000v\000e\000n\000t\000a}{chapter.1}% 5
\BOOKMARK [1][-]{section.1.5}{\376\377\000L\000a\000\040\000i\000n\000c\000l\000u\000s\000i\000\363\000n\000\040\000d\000i\000g\000i\000t\000a\000l\000\040\000y\000\040\000e\000l\000\040\000c\000a\000m\000b\000i\000o\000\040\000d\000e\000\040\000p\000a\000r\000a\000d\000i\000g\000m\000a\000\040\000d\000e\000l\000\040\000a\000\361\000o\000\040\0002\0000\0000\0000}{chapter.1}% 6
\BOOKMARK [1][-]{section.1.6}{\376\377\000E\000l\000\040\000a\000d\000v\000e\000n\000i\000m\000i\000e\000n\000t\000o\000\040\000d\000e\000\040\000l\000o\000s\000\040\000N\000A\000P\000\040\000d\000e\000\040\000E\000d\000u\000c\000a\000c\000i\000\363\000n\000\040\000D\000i\000g\000i\000t\000a\000l\000,\000\040\000P\000r\000o\000g\000r\000a\000m\000a\000c\000i\000\363\000n\000\040\000y\000\040\000R\000o\000b\000\363\000t\000i\000c\000a}{chapter.1}% 7
\BOOKMARK [1][-]{section.1.7}{\376\377\000M\000i\000c\000r\000o\000c\000o\000n\000t\000r\000o\000l\000a\000d\000o\000r\000e\000s\000\040\000p\000a\000r\000a\000\040\000r\000o\000b\000\363\000t\000i\000c\000a\000\040\000e\000d\000u\000c\000a\000t\000i\000v\000a}{chapter.1}% 8
\BOOKMARK [1][-]{section.1.8}{\376\377\000E\000l\000\040\000c\000o\000n\000t\000e\000x\000t\000o\000\040\000i\000n\000t\000e\000r\000n\000a\000c\000i\000o\000n\000a\000l}{chapter.1}% 9
\BOOKMARK [0][-]{chapter.2}{\376\377\000d\000e\000c\000i\000s\000i\000o\000n\000e\000s\000\040\000t\000e\000\363\000r\000i\000c\000a\000s\000\040\000s\000o\000b\000r\000e\000\040\000e\000l\000\040\000a\000p\000r\000e\000n\000d\000i\000z\000a\000j\000e}{}% 10
\BOOKMARK [1][-]{section.2.1}{\376\377\000P\000r\000i\000m\000e\000r\000a\000\040\000g\000e\000n\000e\000r\000a\000c\000i\000\363\000n\000\040\000d\000e\000\040\000l\000a\000\040\000t\000e\000o\000r\000\355\000a\000\040\000C\000o\000n\000s\000t\000r\000u\000c\000t\000i\000v\000i\000s\000t\000a\000\040\000d\000e\000l\000\040\000a\000p\000r\000e\000n\000d\000i\000z\000a\000j\000e\000:\000\040\000l\000a\000\040\000t\000r\000a\000d\000i\000c\000i\000\363\000n\000\040\000s\000o\000c\000i\000o\000-\000h\000i\000s\000t\000\363\000r\000i\000c\000a}{chapter.2}% 11
\BOOKMARK [1][-]{section.2.2}{\376\377\000L\000o\000s\000\040\000p\000r\000o\000c\000e\000s\000o\000s\000\040\000p\000s\000i\000c\000o\000l\000\363\000g\000i\000c\000o\000s\000\040\000s\000u\000p\000e\000r\000i\000o\000r\000e\000s}{chapter.2}% 12
\BOOKMARK [1][-]{section.2.3}{\376\377\000S\000e\000g\000u\000n\000d\000a\000\040\000G\000e\000n\000e\000r\000a\000c\000i\000\363\000n\000:\000\040\000A\000.\000N\000.\000\040\000L\000e\000o\000n\000t\000i\000e\000v}{chapter.2}% 13
\BOOKMARK [1][-]{section.2.4}{\376\377\000T\000e\000r\000c\000e\000r\000a\000\040\000g\000e\000n\000e\000r\000a\000c\000i\000\363\000n\000:\000\040\000Y\000r\000j\000\366\000\040\000E\000n\000g\000e\000s\000t\000r\000\366\000m}{chapter.2}% 14
\BOOKMARK [1][-]{section.2.5}{\376\377\000E\000l\000\040\000a\000p\000r\000e\000n\000d\000i\000z\000a\000j\000e\000\040\000e\000x\000p\000a\000n\000s\000i\000v\000o}{chapter.2}% 15
\BOOKMARK [1][-]{section.2.6}{\376\377\000L\000a\000\040\000T\000e\000o\000r\000\355\000a\000\040\000d\000e\000\040\000l\000a\000\040\000o\000b\000j\000e\000t\000i\000v\000a\000c\000i\000\363\000n}{chapter.2}% 16
\BOOKMARK [1][-]{section.2.7}{\376\377\000K\000n\000o\000w\000i\000n\000g\000\040\000/\000\040\000b\000e\000c\000o\000m\000i\000n\000g}{chapter.2}% 17
\BOOKMARK [1][-]{section.2.8}{\376\377\000L\000a\000b\000o\000r\000\040\000c\000o\000n\000j\000u\000n\000t\000a}{chapter.2}% 18
\BOOKMARK [1][-]{section.2.9}{\376\377\000E\000l\000\040\000e\000s\000t\000u\000d\000i\000a\000n\000t\000e\000\040\000c\000o\000m\000o\000\040\000p\000r\000o\000p\000i\000e\000t\000a\000r\000i\000o\000\040\000p\000r\000i\000v\000a\000d\000o\000\040\000d\000e\000\040\000s\000u\000\040\000c\000o\000n\000o\000c\000i\000m\000i\000e\000n\000t\000o}{chapter.2}% 19
\BOOKMARK [1][-]{section.2.10}{\376\377\000R\000e\000f\000l\000e\000x\000i\000o\000n\000e\000s\000\040\000f\000i\000n\000a\000l\000e\000s\000\040\000s\000o\000b\000r\000e\000\040\000e\000l\000\040\000c\000a\000p\000\355\000t\000u\000l\000o}{chapter.2}% 20
\BOOKMARK [0][-]{chapter.3}{\376\377\000D\000e\000c\000i\000s\000i\000o\000n\000e\000s\000\040\000t\000e\000\363\000r\000i\000c\000a\000s\000\040\000s\000o\000b\000r\000e\000\040\000l\000a\000\040\000d\000i\000d\000\341\000c\000t\000i\000c\000a\000\040\000d\000e\000\040\000l\000a\000\040\000p\000r\000o\000g\000r\000a\000m\000a\000c\000i\000\363\000n}{}% 21
\BOOKMARK [1][-]{section.3.1}{\376\377\000I\000n\000t\000r\000o\000d\000u\000c\000c\000i\000\363\000n}{chapter.3}% 22
\BOOKMARK [1][-]{section.3.2}{\376\377\000E\000l\000\040\000l\000e\000n\000g\000u\000a\000j\000e\000\040\000L\000O\000G\000O}{chapter.3}% 23
\BOOKMARK [1][-]{section.3.3}{\376\377\000C\000o\000n\000s\000t\000r\000u\000c\000c\000i\000o\000n\000i\000s\000m\000o}{chapter.3}% 24
\BOOKMARK [1][-]{section.3.4}{\376\377\000L\000a\000\040\000i\000m\000p\000o\000r\000t\000a\000n\000c\000i\000a\000\040\000d\000e\000\040\000l\000a\000\040\000d\000e\000p\000u\000r\000a\000c\000i\000\363\000n}{chapter.3}% 25
\BOOKMARK [1][-]{section.3.5}{\376\377\000E\000l\000\040\000f\000e\000n\000\363\000m\000e\000n\000o\000\040\000Q\000W\000E\000R\000T\000Y}{chapter.3}% 26
\BOOKMARK [1][-]{section.3.6}{\376\377\000E\000l\000\040\000p\000r\000o\000b\000l\000e\000m\000a\000\040\000d\000e\000\040\000l\000o\000s\000\040\000b\000i\000e\000n\000e\000s\000\040\000c\000o\000m\000u\000n\000e\000s\000\040\000d\000e\000l\000\040\000c\000o\000n\000o\000c\000i\000m\000i\000e\000n\000t\000o}{chapter.3}% 27
\BOOKMARK [1][-]{section.3.7}{\376\377\000S\000o\000b\000e\000r\000a\000n\000\355\000a\000\040\000t\000e\000c\000n\000o\000l\000\363\000g\000i\000c\000a}{chapter.3}% 28
\BOOKMARK [1][-]{section.3.8}{\376\377\000E\000l\000\040\000s\000o\000f\000t\000w\000a\000r\000e\000\040\000l\000i\000b\000r\000e\000\040\000y\000\040\000e\000d\000u\000c\000a\000c\000i\000\363\000n}{chapter.3}% 29
\BOOKMARK [1][-]{section.3.9}{\376\377\000H\000a\000r\000d\000w\000a\000r\000e\000\040\000d\000e\000\040\000e\000s\000p\000e\000c\000i\000f\000i\000c\000a\000c\000i\000o\000n\000e\000s\000\040\000l\000i\000b\000r\000e\000s\000\040\000e\000n\000\040\000e\000d\000u\000c\000a\000c\000i\000\363\000n}{chapter.3}% 30
\BOOKMARK [1][-]{section.3.10}{\376\377\000R\000o\000b\000\363\000t\000i\000c\000a\000\040\000e\000d\000u\000c\000a\000t\000i\000v\000a}{chapter.3}% 31
\BOOKMARK [0][-]{chapter.4}{\376\377\000R\000e\000f\000l\000e\000x\000i\000o\000n\000e\000s\000\040\000m\000e\000t\000o\000d\000o\000l\000\363\000g\000i\000c\000a\000s}{}% 32
\BOOKMARK [1][-]{section.4.1}{\376\377\000L\000a\000\040\000i\000n\000v\000e\000s\000t\000i\000g\000a\000c\000i\000\363\000n\000\040\000c\000u\000a\000l\000i\000t\000a\000t\000i\000v\000a}{chapter.4}% 33
\BOOKMARK [1][-]{section.4.2}{\376\377\000E\000l\000\040\000e\000s\000t\000u\000d\000i\000o\000\040\000d\000e\000\040\000c\000a\000s\000o}{chapter.4}% 34
\BOOKMARK [1][-]{section.4.3}{\376\377\000E\000l\000\040\000l\000a\000b\000o\000r\000a\000t\000o\000r\000i\000o\000\040\000c\000u\000a\000s\000i\000\040\000e\000x\000p\000e\000r\000i\000m\000e\000n\000t\000a\000l}{chapter.4}% 35
\BOOKMARK [1][-]{section.4.4}{\376\377\000H\000e\000r\000r\000a\000m\000i\000e\000n\000t\000a\000s\000\040\000d\000e\000\040\000i\000n\000v\000e\000s\000t\000i\000g\000a\000c\000i\000\363\000n\000\040\000c\000u\000a\000l\000i\000t\000a\000t\000i\000v\000a}{chapter.4}% 36
\BOOKMARK [1][-]{section.4.5}{\376\377\000S\000o\000f\000t\000w\000a\000r\000e\000\040\000p\000a\000r\000a\000\040\000r\000e\000c\000o\000l\000e\000c\000c\000i\000\363\000n\000\040\000d\000e\000\040\000d\000a\000t\000o\000s\000\040\000\050\000T\000o\000r\000c\000a\000z\000\051}{chapter.4}% 37
\BOOKMARK [1][-]{section.4.6}{\376\377\000S\000o\000f\000t\000w\000a\000r\000e\000\040\000p\000a\000r\000a\000\040\000i\000n\000v\000e\000s\000t\000i\000g\000a\000c\000i\000\363\000n\000\040\000c\000u\000a\000l\000i\000t\000a\000t\000i\000v\000a\000\040\000\050\000S\000a\000t\000u\000r\000a\000r\000\051}{chapter.4}% 38
\BOOKMARK [1][-]{section.4.7}{\376\377\000L\000a\000\040\000e\000n\000t\000r\000e\000v\000i\000s\000t\000a\000\040\000d\000e\000\040\000a\000u\000t\000o\000\040\000c\000o\000n\000f\000r\000o\000n\000t\000a\000c\000i\000\363\000n}{chapter.4}% 39
\BOOKMARK [1][-]{section.4.8}{\376\377\000I\000n\000v\000e\000s\000t\000i\000g\000a\000c\000i\000\363\000n\000\040\000b\000a\000s\000a\000d\000a\000\040\000e\000n\000\040\000d\000i\000s\000e\000\361\000o}{chapter.4}% 40
\BOOKMARK [1][-]{section.4.9}{\376\377\000P\000r\000i\000m\000e\000r\000a\000\040\000f\000a\000s\000e\000:\000\040\000p\000r\000e\000p\000a\000r\000a\000c\000i\000\363\000n\000\040\000d\000e\000l\000\040\000d\000i\000s\000e\000\361\000o}{chapter.4}% 41
\BOOKMARK [1][-]{section.4.10}{\376\377\000S\000e\000g\000u\000n\000d\000a\000\040\000f\000a\000s\000e\000:\000\040\000i\000m\000p\000l\000e\000m\000e\000n\000t\000a\000c\000i\000\363\000n\000\040\000d\000e\000l\000\040\000d\000i\000s\000e\000\361\000o}{chapter.4}% 42
\BOOKMARK [1][-]{section.4.11}{\376\377\000T\000e\000r\000c\000e\000r\000a\000\040\000f\000a\000s\000e\000:\000\040\000a\000n\000\341\000l\000i\000s\000i\000s\000\040\000r\000e\000t\000r\000o\000s\000p\000e\000c\000t\000i\000v\000o}{chapter.4}% 43
\BOOKMARK [1][-]{section.4.12}{\376\377\000E\000l\000e\000c\000c\000i\000o\000n\000e\000s\000\040\000T\000\351\000c\000n\000i\000c\000a\000s}{chapter.4}% 44
\BOOKMARK [1][-]{section.4.13}{\376\377\000D\000o\000m\000\363\000t\000i\000c\000a\000\040\000E\000d\000u\000c\000a\000t\000i\000v\000a}{chapter.4}% 45
\BOOKMARK [1][-]{section.4.14}{\376\377\000H\000a\000r\000d\000w\000a\000r\000e}{chapter.4}% 46
\BOOKMARK [1][-]{section.4.15}{\376\377\000P\000C\000B}{chapter.4}% 47
\BOOKMARK [1][-]{section.4.16}{\376\377\000L\000e\000n\000g\000u\000a\000j\000e\000\040\000d\000e\000\040\000p\000r\000o\000g\000r\000a\000m\000a\000c\000i\000\363\000n}{chapter.4}% 48
\BOOKMARK [1][-]{section.4.17}{\376\377\000C\000h\000a\000t\000b\000o\000t\000s\000\040\000c\000o\000m\000p\000u\000t\000a\000c\000i\000o\000n\000a\000l\000e\000s}{chapter.4}% 49
\BOOKMARK [0][-]{chapter.5}{\376\377\000P\000r\000o\000c\000e\000s\000o\000s\000\040\000d\000e\000\040\000a\000p\000r\000e\000n\000d\000i\000z\000a\000j\000e\000\040\000c\000o\000n\000\040\000P\000y\000t\000h\000o\000n\000\040\000y\000\040\000d\000o\000m\000\363\000t\000i\000c\000a\000\040\000e\000n\000\040\000b\000i\000b\000l\000i\000o\000t\000e\000c\000a\000s\000\040\000p\000o\000p\000u\000l\000a\000r\000e\000s}{}% 50
\BOOKMARK [1][-]{section.5.1}{\376\377\000B\000i\000b\000l\000i\000o\000t\000e\000c\000a\000s\000\040\000p\000o\000p\000u\000l\000a\000r\000e\000s}{chapter.5}% 51
\BOOKMARK [1][-]{section.5.2}{\376\377\000A\000n\000a\000l\000i\000z\000a\000n\000d\000o\000\040\000l\000a\000\040\000a\000c\000t\000i\000v\000i\000d\000a\000d\000\040\000c\000o\000n\000\040\000d\000a\000t\000o\000s\000\040\000d\000e\000\040\000K\000e\000y\000l\000o\000g\000g\000i\000n\000g}{chapter.5}% 52
\BOOKMARK [1][-]{section.5.3}{\376\377\000C\000u\000r\000s\000o\000s\000\040\000d\000e\000\040\000p\000r\000o\000g\000r\000a\000m\000a\000c\000i\000\363\000n\000:\000\040\000D\000\355\000a\000\040\000u\000n\000o\000,\000\040\000P\000y\000t\000h\000o\000n\000-\000\040\000t\000u\000r\000t\000l\000e}{chapter.5}% 53
\BOOKMARK [1][-]{section.5.4}{\376\377\000D\000\355\000a\000\040\000d\000o\000s\000,\000\040\000c\000o\000n\000t\000r\000o\000l\000\040\000d\000e\000l\000\040\000h\000a\000r\000d\000w\000a\000r\000e}{chapter.5}% 54
\BOOKMARK [1][-]{section.5.5}{\376\377\000D\000\355\000a\000\040\000T\000r\000e\000s\000,\000\040\000c\000h\000a\000t\000b\000o\000t\000s\000\040\000y\000\040\000T\000e\000l\000e\000g\000r\000a\000m}{chapter.5}% 55
\BOOKMARK [1][-]{section.5.6}{\376\377\000D\000\355\000a\000\040\000C\000u\000a\000t\000r\000o\000,\000\040\000i\000n\000t\000e\000g\000r\000a\000n\000d\000o\000\040\000t\000o\000d\000o}{chapter.5}% 56
\BOOKMARK [1][-]{section.5.7}{\376\377\000R\000e\000f\000l\000e\000x\000i\000o\000n\000e\000s\000\040\000f\000i\000n\000a\000l\000e\000s}{chapter.5}% 57
\BOOKMARK [0][-]{chapter.6}{\376\377\000L\000a\000\040\000e\000x\000p\000e\000r\000i\000e\000n\000c\000i\000a\000\040\000d\000e\000\040\000f\000a\000b\000r\000i\000c\000a\000r\000\040\000P\000C\000B\000s\000\040\000c\000o\000n\000\040\000e\000s\000t\000u\000d\000i\000a\000n\000t\000e\000s\000\040\000d\000e\000\040\000e\000s\000c\000u\000e\000l\000a\000s\000\040\000s\000e\000c\000u\000n\000d\000a\000r\000i\000a\000s}{}% 58
\BOOKMARK [1][-]{section.6.1}{\376\377\000I\000n\000t\000r\000o\000d\000u\000c\000c\000i\000\363\000n}{chapter.6}% 59
\BOOKMARK [1][-]{section.6.2}{\376\377\000L\000a\000b\000o\000r\000a\000t\000o\000r\000i\000o\000\040\000c\000u\000a\000s\000i\000\040\000e\000x\000p\000e\000r\000i\000m\000e\000n\000t\000a\000l\000\040\000d\000e\000\040\000c\000o\000n\000s\000t\000r\000u\000c\000c\000i\000\363\000n}{chapter.6}% 60
\BOOKMARK [1][-]{section.6.3}{\376\377\000I\000n\000v\000e\000s\000t\000i\000g\000a\000c\000i\000\363\000n\000\040\000b\000a\000s\000a\000d\000a\000\040\000e\000n\000\040\000d\000i\000s\000e\000\361\000o\000\040\000e\000n\000\040\000l\000a\000\040\000e\000s\000c\000u\000e\000l\000a\000\040\000I\000P\000E\000M\000\040\0001\0003\0007}{chapter.6}% 61
\BOOKMARK [1][-]{section.6.4}{\376\377\000C\000a\000r\000a\000c\000t\000e\000r\000i\000z\000a\000c\000i\000\363\000n\000\040\000d\000e\000l\000\040\000e\000s\000t\000a\000b\000l\000e\000c\000i\000m\000i\000e\000n\000t\000o}{chapter.6}% 62
\BOOKMARK [1][-]{section.6.5}{\376\377\000P\000r\000e\000p\000a\000r\000a\000c\000i\000\363\000n\000\040\000d\000e\000l\000\040\000d\000i\000s\000e\000\361\000o}{chapter.6}% 63
\BOOKMARK [1][-]{section.6.6}{\376\377\000O\000b\000s\000e\000r\000v\000a\000c\000i\000\363\000n\000\040\000p\000a\000r\000t\000i\000c\000i\000p\000a\000n\000t\000e\000\040\000e\000n\000\040\000e\000l\000\040\000a\000u\000l\000a}{chapter.6}% 64
\BOOKMARK [1][-]{section.6.7}{\376\377\000I\000m\000p\000l\000e\000m\000e\000n\000t\000a\000c\000i\000\363\000n\000\040\000d\000e\000l\000\040\000d\000i\000s\000e\000\361\000o}{chapter.6}% 65
\BOOKMARK [1][-]{section.6.8}{\376\377\000F\000a\000b\000r\000i\000c\000a\000r\000\040\000e\000l\000\040\000p\000r\000o\000p\000i\000o\000\040\000h\000a\000r\000d\000w\000a\000r\000e}{chapter.6}% 66
\BOOKMARK [1][-]{section.6.9}{\376\377\000P\000r\000o\000y\000e\000c\000t\000o\000\040\000d\000e\000\040\000'\000c\000a\000s\000a\000\040\000i\000n\000t\000e\000l\000i\000g\000e\000n\000t\000e\000'}{chapter.6}% 67
\BOOKMARK [1][-]{section.6.10}{\376\377\000A\000n\000\341\000l\000i\000s\000i\000s\000\040\000r\000e\000t\000r\000o\000s\000p\000e\000c\000t\000i\000v\000o}{chapter.6}% 68
\BOOKMARK [1][-]{section.6.11}{\376\377\000C\000o\000m\000p\000l\000e\000j\000i\000d\000a\000d\000e\000s\000\040\000e\000n\000c\000o\000n\000t\000r\000a\000d\000a\000s\000\040\000e\000n\000\040\000e\000l\000\040\000t\000r\000a\000b\000a\000j\000o\000\040\000c\000o\000n\000\040\000d\000o\000m\000\363\000t\000i\000c\000a}{chapter.6}% 69
\BOOKMARK [1][-]{section.6.12}{\376\377\000R\000e\000f\000l\000e\000x\000i\000\363\000n\000e\000s\000\040\000f\000i\000n\000a\000l\000e\000s}{chapter.6}% 70
\BOOKMARK [0][-]{chapter.7}{\376\377\000C\000o\000n\000c\000l\000u\000s\000i\000o\000n\000e\000s}{}% 71
\BOOKMARK [1][-]{section.7.1}{\376\377\000E\000l\000\040\000c\000a\000r\000\341\000c\000t\000e\000r\000\040\000s\000o\000c\000i\000a\000l\000\040\000d\000e\000\040\000l\000a\000\040\000a\000c\000t\000i\000v\000i\000d\000a\000d\000\040\000d\000e\000\040\000p\000r\000o\000g\000r\000a\000m\000a\000r}{chapter.7}% 72
\BOOKMARK [1][-]{section.7.2}{\376\377\000L\000a\000\040\000e\000n\000s\000e\000\361\000a\000n\000z\000a\000\040\000c\000o\000m\000o\000\040\000u\000n\000\040\000q\000u\000e\000h\000a\000c\000e\000r\000\040\000p\000o\000l\000\355\000t\000i\000c\000o}{chapter.7}% 73
\BOOKMARK [1][-]{section.7.3}{\376\377\000L\000a\000\040\000n\000o\000\040\000n\000e\000u\000t\000r\000a\000l\000i\000d\000a\000d\000\040\000d\000e\000\040\000l\000a\000s\000\040\000t\000e\000c\000n\000o\000l\000o\000g\000\355\000a\000s}{chapter.7}% 74
\BOOKMARK [1][-]{section.7.4}{\376\377\000E\000l\000\040\000s\000o\000f\000t\000w\000a\000r\000e\000\040\000y\000\040\000h\000a\000r\000d\000w\000a\000r\000e\000\040\000l\000i\000b\000r\000e\000\040\000e\000n\000\040\000l\000a\000s\000\040\000e\000s\000c\000u\000e\000l\000a\000s}{chapter.7}% 75
\BOOKMARK [1][-]{section.7.4}{\376\377\000R\000e\000f\000e\000r\000e\000n\000c\000i\000a\000s\000\040\000b\000i\000b\000l\000i\000o\000g\000r\000\341\000f\000i\000c\000a\000s}{chapter.7}% 76
\BOOKMARK [0][-]{chapter.8}{\376\377\000R\000e\000f\000e\000r\000e\000n\000c\000i\000a\000s}{}% 77
\BOOKMARK [0][-]{appendix.Alph1}{\376\377\000E\000n\000t\000r\000e\000v\000i\000s\000t\000a\000\040\000I\000v\000a\000n\000a\000\040\000G\000u\000z\000m\000a\000n\000\040\000[\000E\0001\000]}{}% 78
\BOOKMARK [0][-]{appendix.Alph2}{\376\377\000E\000n\000t\000r\000e\000v\000i\000s\000t\000a\000\040\000L\000i\000l\000i\000a\000n\000a\000\040\000R\000o\000b\000l\000e\000d\000o\000[\000E\0002\000]}{}% 79
\BOOKMARK [0][-]{appendix.Alph3}{\376\377\000J\000u\000p\000y\000t\000e\000r}{}% 80
\BOOKMARK [1][-]{subsection.Alph3.0.1}{\376\377\000I\000n\000t\000r\000o\000d\000u\000c\000c\000i\000\363\000n}{appendix.Alph3}% 81
\BOOKMARK [0][-]{appendix.Alph4}{\376\377\000R\000e\000p\000o\000r\000t\000e\000\040\000S\000A\000T\000U\000R\000A\000R}{}% 82
\BOOKMARK [1][-]{subsection.Alph4.0.1}{\376\377\000C\000\363\000d\000i\000g\000o\000\040\000e\000j\000e\000r\000c\000i\000c\000i\000o\000s}{appendix.Alph4}% 83
\BOOKMARK [0][-]{appendix.Alph5}{\376\377\000A\000n\000e\000x\000o\000\040\000K\000I\000C\000A\000D}{}% 84
\BOOKMARK [0][-]{appendix.Alph6}{\376\377\000A\000n\000e\000x\000o\000\040\000S\000A\000T\000U\000R\000A\000R}{}% 85
