\relax 
\providecommand\hyper@newdestlabel[2]{}
\citation{becker_datos_2019}
\citation{sautu_manual_2005}
\citation{sautu_manual_2005}
\@writefile{toc}{\contentsline {chapter}{\numberline {4}Reflexiones metodológicas}{79}{chapter.4}\protected@file@percent }
\@writefile{lof}{\addvspace {10\p@ }}
\@writefile{lot}{\addvspace {10\p@ }}
\@writefile{toc}{\contentsline {section}{\numberline {4.1}La investigación cualitativa}{79}{section.4.1}\protected@file@percent }
\citation{sautu_manual_2005}
\citation{weiss_hermeneutica_2017}
\citation{sandoval_casilimas_investigacion_1996}
\citation{sandoval_casilimas_investigacion_1996}
\citation{ferrero_aprendizaje_2017}
\citation{vygotski_pensamiento_1995}
\citation{barros_aplicaciones_2004}
\citation{fernandez_entrevistas_2010}
\citation{rinaudo_estudios_2010}
\citation{stake_estudios_2013}
\@writefile{toc}{\contentsline {section}{\numberline {4.2}El estudio de caso}{81}{section.4.2}\protected@file@percent }
\citation{gonzalez_estudio_2013}
\citation{venkatraman_construct_1986}
\citation{alvarez-gayou_como_2003}
\citation{martin_contextos_2017}
\@writefile{toc}{\contentsline {section}{\numberline {4.3}El laboratorio cuasi experimental}{83}{section.4.3}\protected@file@percent }
\citation{echeveste_estudiar_2020}
\citation{campbell_quasi-experimental_1968,thyer_quasi-experimental_2012,white_quasi-experimental_2014}
\citation{rockwell_experiencia_2009}
\citation{becker_datos_2019}
\citation{ochoa_teorifundamentada_2013,strauss_grounded_1994,strauss_grounded_1997}
\@writefile{toc}{\contentsline {section}{\numberline {4.4}Herramientas de investigación cualitativa}{87}{section.4.4}\protected@file@percent }
\citation{zapata-ros_analitica_2015}
\@writefile{toc}{\contentsline {section}{\numberline {4.5}Software para recolección de datos (Torcaz)}{88}{section.4.5}\protected@file@percent }
\citation{fernandez_entrevistas_2010}
\citation{papert_mindstorms:_1980}
\citation{strauss_grounded_1997}
\@writefile{toc}{\contentsline {section}{\numberline {4.6}Software para investigación cualitativa (Saturar)}{92}{section.4.6}\protected@file@percent }
\@writefile{lof}{\contentsline {figure}{\numberline {4.1}{\ignorespaces Pantalla inicial del software SATURAR\relax }}{93}{figure.caption.19}\protected@file@percent }
\newlabel{saturar_01}{{4.1}{93}{Pantalla inicial del software SATURAR\relax }{figure.caption.19}{}}
\citation{weiss_hermeneutica_2017}
\citation{weiss_hermeneutica_2017}
\@writefile{lof}{\contentsline {figure}{\numberline {4.2}{\ignorespaces Herramienta de generación de nubes de palabras para el software SATURAR\relax }}{94}{figure.caption.20}\protected@file@percent }
\newlabel{saturar_02}{{4.2}{94}{Herramienta de generación de nubes de palabras para el software SATURAR\relax }{figure.caption.20}{}}
\citation{carvajal_herramientas_2002}
\citation{becker_datos_2019}
\citation{rockwell_experiencia_2009}
\citation{rockwell_experiencia_2009}
\citation{ferrero_aprendizaje_2017}
\citation{clot_formacion_2000,fernandez_entrevistas_2010,ferrero_aprendizaje_2017}
\citation{ferrero_aprendizaje_2017}
\citation{clot_formacion_2000}
\citation{fernandez_entrevistas_2010}
\citation{clot_formacion_2000}
\@writefile{toc}{\contentsline {section}{\numberline {4.7}La entrevista de auto confrontación}{96}{section.4.7}\protected@file@percent }
\citation{fernandez_entrevistas_2010}
\citation{de_benito_crosetti_diseno_2006}
\citation{the_design-based_research_collective_design-based_2003}
\citation{rinaudo_estudios_2010}
\citation{disessa_ontological_2004}
\citation{rinaudo_estudios_2010}
\citation{confrey_evolution_2006}
\@writefile{toc}{\contentsline {section}{\numberline {4.8}Investigación basada en diseño}{98}{section.4.8}\protected@file@percent }
\citation{reeves_enhancing_2000}
\citation{de_benito_crosetti_investigacion_2016}
\citation{rinaudo_estudios_2010}
\@writefile{lof}{\contentsline {figure}{\numberline {4.3}{\ignorespaces Iteraciones llevadas a cabo durante un proceso de investigación basada en diseño\relax }}{99}{figure.caption.21}\protected@file@percent }
\newlabel{ibd_01}{{4.3}{99}{Iteraciones llevadas a cabo durante un proceso de investigación basada en diseño\relax }{figure.caption.21}{}}
\citation{de_benito_crosetti_investigacion_2016}
\@writefile{toc}{\contentsline {section}{\numberline {4.9}Primera fase: preparación del diseño}{100}{section.4.9}\protected@file@percent }
\@writefile{toc}{\contentsline {section}{\numberline {4.10}Segunda fase: implementación del diseño}{101}{section.4.10}\protected@file@percent }
\@writefile{toc}{\contentsline {section}{\numberline {4.11}Tercera fase: análisis retrospectivo}{102}{section.4.11}\protected@file@percent }
\@writefile{toc}{\contentsline {section}{\numberline {4.12}Elecciones Técnicas}{102}{section.4.12}\protected@file@percent }
\citation{benavides_1_2016,benotti_polite_2016,vega_pibot_2018}
\citation{realinho_low_2015}
\citation{dominguez_domotica_2006}
\@writefile{toc}{\contentsline {section}{\numberline {4.13}Domótica Educativa}{103}{section.4.13}\protected@file@percent }
\citation{de_la_colina_hacia_2004}
\@writefile{toc}{\contentsline {section}{\numberline {4.14}Hardware}{105}{section.4.14}\protected@file@percent }
\citation{gonzalez_hardware_2003}
\citation{realinho_low_2015}
\@writefile{toc}{\contentsline {section}{\numberline {4.15}PCB}{108}{section.4.15}\protected@file@percent }
\@writefile{lof}{\contentsline {figure}{\numberline {4.4}{\ignorespaces Placa DOMOTICARO\relax }}{110}{figure.caption.23}\protected@file@percent }
\newlabel{domoticaro_01}{{4.4}{110}{Placa DOMOTICARO\relax }{figure.caption.23}{}}
\citation{acosta_ensenando_2019,estevez_viabilidad_2014}
\citation{benotti_unc++_2017}
\citation{basel_proyecto_2012,benavides_1_2016}
\@writefile{lof}{\contentsline {figure}{\numberline {4.5}{\ignorespaces Placa DOMOTICARO en formato kit para soldar\relax }}{113}{figure.caption.24}\protected@file@percent }
\newlabel{domoticaro_02}{{4.5}{113}{Placa DOMOTICARO en formato kit para soldar\relax }{figure.caption.24}{}}
\@writefile{toc}{\contentsline {section}{\numberline {4.16}Lenguaje de programación}{113}{section.4.16}\protected@file@percent }
\citation{chatterjee_python_2017,hovy_text_2020}
\citation{van_rossum_pep_2001}
\citation{acosta_ensenando_2019,estevez_viabilidad_2014,garcia_monsalvez_python_2017}
\@writefile{lof}{\contentsline {figure}{\numberline {4.6}{\ignorespaces Estadísticas de consultas en la página stackoverflow durante el año 2023\relax }}{114}{figure.caption.25}\protected@file@percent }
\newlabel{stackoverflow}{{4.6}{114}{Estadísticas de consultas en la página stackoverflow durante el año 2023\relax }{figure.caption.25}{}}
\citation{benotti_despertando_2012,janarthanam_hands-chatbots_2017}
\citation{benotti_despertando_2012}
\@writefile{toc}{\contentsline {section}{\numberline {4.17}Chatbots computacionales}{115}{section.4.17}\protected@file@percent }
\citation{barrera_lombana_use_2015}
\@writefile{lof}{\contentsline {figure}{\numberline {4.7}{\ignorespaces  Esquema de conexión para los chatbots computacionales con TELEGRAM\relax }}{117}{figure.caption.26}\protected@file@percent }
\newlabel{esquema_telegram01}{{4.7}{117}{Esquema de conexión para los chatbots computacionales con TELEGRAM\relax }{figure.caption.26}{}}
\@setckpt{./capitulos/capitulo_04}{
\setcounter{page}{119}
\setcounter{equation}{0}
\setcounter{enumi}{7}
\setcounter{enumii}{0}
\setcounter{enumiii}{0}
\setcounter{enumiv}{0}
\setcounter{footnote}{3}
\setcounter{mpfootnote}{1}
\setcounter{part}{0}
\setcounter{chapter}{4}
\setcounter{section}{17}
\setcounter{subsection}{0}
\setcounter{subsubsection}{0}
\setcounter{paragraph}{0}
\setcounter{subparagraph}{0}
\setcounter{figure}{7}
\setcounter{table}{0}
\setcounter{float@type}{16}
\setcounter{Item}{29}
\setcounter{Hfootnote}{20}
\setcounter{Hy@AnnotLevel}{0}
\setcounter{bookmark@seq@number}{49}
\setcounter{BibCnt}{2}
\setcounter{NAT@ctr}{0}
\setcounter{lstnumber}{14}
\setcounter{tcbbreakpart}{0}
\setcounter{tcblayer}{0}
\setcounter{tcolorbox@number}{0}
\setcounter{caption@flags}{0}
\setcounter{continuedfloat}{0}
\setcounter{parentequation}{0}
\setcounter{FancyVerbLine}{0}
\setcounter{LT@tables}{0}
\setcounter{LT@chunks}{0}
\setcounter{section@level}{1}
\setcounter{maskedRefs}{0}
\setcounter{lstlisting}{0}
}
