\relax 
\providecommand\hyper@newdestlabel[2]{}
\citation{riviere_psicologivygotski_1984}
\@writefile{toc}{\contentsline {chapter}{\numberline {2}decisiones teóricas sobre el aprendizaje}{31}{chapter.2}\protected@file@percent }
\@writefile{lof}{\addvspace {10\p@ }}
\@writefile{lot}{\addvspace {10\p@ }}
\citation{baquero_vigotsky_1996-1}
\citation{baquero_vigotsky_1996-1}
\citation{ferrero_aprendizaje_2017}
\citation{baquero_vigotsky_1996-1}
\citation{vygotskii_pensamiento_2007}
\@writefile{toc}{\contentsline {section}{\numberline {2.1}Primera generación de la teoría Constructivista del aprendizaje: la tradición socio-histórica}{32}{section.2.1}\protected@file@percent }
\citation{pavlov_reflejos_1997}
\citation{vygotski_desarrollo_1996}
\citation{baquero_vigotsky_1996}
\@writefile{toc}{\contentsline {section}{\numberline {2.2}Los procesos psicológicos superiores}{33}{section.2.2}\protected@file@percent }
\citation{baquero_vigotsky_1996}
\citation{ferrero_aprendizaje_2017}
\citation{baquero_vigotsky_1996}
\citation{ruso_concepto_2001}
\citation{ruso_concepto_2001}
\citation{engestrom_aprendizaje_2001}
\citation{leontiev_actividad_1975}
\citation{engestrom_aprendizaje_2001}
\citation{engestrom_aprendizaje_2016}
\@writefile{toc}{\contentsline {section}{\numberline {2.3}Segunda Generación: A.N. Leontiev}{35}{section.2.3}\protected@file@percent }
\citation{cole_enfoque_2001}
\citation{rosa_metodologipara_1996}
\@writefile{lof}{\contentsline {figure}{\numberline {2.1}{\ignorespaces triangulo de mediación instrumental\relax }}{36}{figure.caption.14}\protected@file@percent }
\newlabel{triangulo_01}{{2.1}{36}{triangulo de mediación instrumental\relax }{figure.caption.14}{}}
\citation{ferrero_aprendizaje_2017}
\citation{leontiev_actividad_1975}
\citation{ayuso_actividades_2007}
\citation{ferrero_aprendizaje_2017}
\citation{engestrom_aprendizaje_2001}
\@writefile{lof}{\contentsline {figure}{\numberline {2.2}{\ignorespaces Triangulo de mediación expandido\relax }}{38}{figure.caption.15}\protected@file@percent }
\newlabel{triangulo_02}{{2.2}{38}{Triangulo de mediación expandido\relax }{figure.caption.15}{}}
\@writefile{toc}{\contentsline {section}{\numberline {2.4}Tercera generación: Yrjö Engeström}{38}{section.2.4}\protected@file@percent }
\citation{larripa_teoriactividad_2008}
\citation{cole_cross-cultural_1988}
\citation{engestrom_aprendizaje_2001}
\citation{engestrom_communities_2007}
\citation{lee_firm-based_2003}
\citation{engestrom_learning_2015,lemos_teoria_2013}
\@writefile{toc}{\contentsline {section}{\numberline {2.5}El aprendizaje expansivo}{40}{section.2.5}\protected@file@percent }
\citation{engestrom_aprendizaje_2001}
\citation{engestrom_aprendizaje_2001}
\citation{ferrero_aprendizaje_2017}
\citation{engestrom_aprendizaje_2001}
\citation{engestrom_aprendizaje_2001}
\citation{larripa_teoriactividad_2008}
\citation{larripa_teoriactividad_2008}
\citation{adell_software_2007,chavarria_software_2011,letzen_robotica_2019}
\@writefile{lof}{\contentsline {figure}{\numberline {2.3}{\ignorespaces Matriz para el análisis del aprendizaje expansivo \citep  {engestrom_aprendizaje_2001}\relax }}{42}{figure.caption.16}\protected@file@percent }
\newlabel{matriz_eng}{{2.3}{42}{Matriz para el análisis del aprendizaje expansivo \citep {engestrom_aprendizaje_2001}\relax }{figure.caption.16}{}}
\@writefile{toc}{\contentsline {section}{\numberline {2.6}La Teoría de la objetivación}{42}{section.2.6}\protected@file@percent }
\citation{radford_ensenanza-aprendizaje_2014,radford_aprendizaje_2017}
\citation{radford_sumision_2013}
\citation{radford_aprendizaje_2017}
\citation{radford_teoriobjetivacion_2014-1,radford_aprendizaje_2017}
\citation{radford_ensenanza-aprendizaje_2014}
\citation{radford_ensenanza-aprendizaje_2014}
\@writefile{toc}{\contentsline {section}{\numberline {2.7}Knowing / becoming}{44}{section.2.7}\protected@file@percent }
\@writefile{lof}{\contentsline {figure}{\numberline {2.4}{\ignorespaces Representación grafica de la relación dialéctica entre el 'volviéndose' y el 'conociendo' \relax }}{44}{figure.caption.17}\protected@file@percent }
\newlabel{becoming}{{2.4}{44}{Representación grafica de la relación dialéctica entre el 'volviéndose' y el 'conociendo' \relax }{figure.caption.17}{}}
\citation{radford_recorrido_2020}
\citation{radford_ensenanza-aprendizaje_2014}
\citation{radford_aprendizaje_2017}
\citation{radford_teoriobjetivacion_2014-1}
\citation{radford_teoriobjetivacion_2014}
\@writefile{toc}{\contentsline {section}{\numberline {2.8}Labor conjunta}{46}{section.2.8}\protected@file@percent }
\citation{radford_aprendizaje_2017}
\citation{radford_teoriobjetivacion_2014}
\citation{radford_recorrido_2020}
\citation{radford_teoriobjetivacion_2014}
\citation{radford_aspectos_2021}
\@writefile{toc}{\contentsline {section}{\numberline {2.9}El estudiante como propietario privado de su conocimiento}{48}{section.2.9}\protected@file@percent }
\citation{radford_recorrido_2020}
\citation{freire_pedagogioprimido._2015}
\@writefile{toc}{\contentsline {section}{\numberline {2.10}Reflexiones finales sobre el capítulo}{49}{section.2.10}\protected@file@percent }
\citation{radford_sumision_2013,radford_ensenanza-aprendizaje_2014}
\citation{baquero_experimento_2002}
\@setckpt{./capitulos/capitulo_02}{
\setcounter{page}{51}
\setcounter{equation}{0}
\setcounter{enumi}{3}
\setcounter{enumii}{0}
\setcounter{enumiii}{0}
\setcounter{enumiv}{0}
\setcounter{footnote}{0}
\setcounter{mpfootnote}{0}
\setcounter{part}{0}
\setcounter{chapter}{2}
\setcounter{section}{10}
\setcounter{subsection}{0}
\setcounter{subsubsection}{0}
\setcounter{paragraph}{0}
\setcounter{subparagraph}{0}
\setcounter{figure}{4}
\setcounter{table}{0}
\setcounter{float@type}{16}
\setcounter{Item}{3}
\setcounter{Hfootnote}{9}
\setcounter{Hy@AnnotLevel}{0}
\setcounter{bookmark@seq@number}{20}
\setcounter{BibCnt}{3}
\setcounter{NAT@ctr}{0}
\setcounter{lstnumber}{1}
\setcounter{tcbbreakpart}{0}
\setcounter{tcblayer}{0}
\setcounter{tcolorbox@number}{0}
\setcounter{caption@flags}{0}
\setcounter{continuedfloat}{0}
\setcounter{parentequation}{0}
\setcounter{FancyVerbLine}{0}
\setcounter{LT@tables}{0}
\setcounter{LT@chunks}{0}
\setcounter{section@level}{1}
\setcounter{maskedRefs}{0}
\setcounter{lstlisting}{0}
}
