\relax 
\providecommand\hyper@newdestlabel[2]{}
\@writefile{toc}{\contentsline {chapter}{\numberline {7}Conclusiones}{199}{chapter.7}\protected@file@percent }
\@writefile{lof}{\addvspace {10\p@ }}
\@writefile{lot}{\addvspace {10\p@ }}
\citation{radford_teoriobjetivacion_2023}
\citation{engestrom_learning_2015}
\@writefile{toc}{\contentsline {section}{\numberline {7.1}El carácter social de la actividad de programar}{200}{section.7.1}\protected@file@percent }
\citation{freire_educacion_2008}
\citation{vogliotti_glosario_2012}
\citation{radford_politica_2023}
\citation{radford_ensenanza-aprendizaje_2014,radford_aspectos_2021}
\citation{radford_politica_2023}
\@writefile{toc}{\contentsline {section}{\numberline {7.2}La enseñanza como un quehacer político}{201}{section.7.2}\protected@file@percent }
\citation{bordignon_soberanitecnologica_2015}
\@writefile{toc}{\contentsline {section}{\numberline {7.3}La no neutralidad de las tecnologías}{202}{section.7.3}\protected@file@percent }
\citation{freire_pedagogioprimido._2015}
\citation{freire_pedagogioprimido._2015,freire_pedagogiesperanza:_2009,freire_educacion_2008}
\@writefile{toc}{\contentsline {section}{\numberline {7.4}El software y hardware libre en las escuelas}{203}{section.7.4}\protected@file@percent }
\citation{stallman_por_1999}
\citation{radford_teoriobjetivacion_2014}
\citation{cataldi_software_2008}
\citation{ludena_educacion_2019,schrock_education_2014}
\citation{wolovick_ensenar_2016}
\citation{papert_desafio_1987}
\@setckpt{./capitulos/capitulo_07}{
\setcounter{page}{208}
\setcounter{equation}{0}
\setcounter{enumi}{7}
\setcounter{enumii}{0}
\setcounter{enumiii}{0}
\setcounter{enumiv}{0}
\setcounter{footnote}{0}
\setcounter{mpfootnote}{1}
\setcounter{part}{0}
\setcounter{chapter}{7}
\setcounter{section}{4}
\setcounter{subsection}{0}
\setcounter{subsubsection}{0}
\setcounter{paragraph}{0}
\setcounter{subparagraph}{0}
\setcounter{figure}{0}
\setcounter{table}{0}
\setcounter{float@type}{16}
\setcounter{Item}{29}
\setcounter{Hfootnote}{24}
\setcounter{Hy@AnnotLevel}{0}
\setcounter{bookmark@seq@number}{75}
\setcounter{BibCnt}{2}
\setcounter{NAT@ctr}{0}
\setcounter{lstnumber}{3}
\setcounter{tcbbreakpart}{0}
\setcounter{tcblayer}{0}
\setcounter{tcolorbox@number}{0}
\setcounter{caption@flags}{0}
\setcounter{continuedfloat}{0}
\setcounter{parentequation}{0}
\setcounter{FancyVerbLine}{0}
\setcounter{LT@tables}{0}
\setcounter{LT@chunks}{0}
\setcounter{section@level}{1}
\setcounter{maskedRefs}{0}
\setcounter{lstlisting}{0}
}
