\relax 
\providecommand\hyper@newdestlabel[2]{}
\citation{radford_sumision_2013}
\@writefile{toc}{\contentsline {chapter}{\numberline {6}La experiencia de fabricar PCBs con estudiantes de escuelas secundarias}{167}{chapter.6}\protected@file@percent }
\@writefile{lof}{\addvspace {10\p@ }}
\@writefile{lot}{\addvspace {10\p@ }}
\@writefile{toc}{\contentsline {section}{\numberline {6.1}Introducción}{167}{section.6.1}\protected@file@percent }
\citation{papert_desafio_1987}
\citation{reggini_alas_1986}
\@writefile{toc}{\contentsline {section}{\numberline {6.2}Laboratorio cuasi experimental de construcción}{168}{section.6.2}\protected@file@percent }
\@writefile{lof}{\contentsline {figure}{\numberline {6.1}{\ignorespaces Estudiantes de la biblioteca Juana Manuela Gorriti en su primer día de clases, aprendieron los rudimentos de Python antes de empezar a soldar sus placas.\relax }}{169}{figure.caption.55}\protected@file@percent }
\newlabel{manu_00}{{6.1}{169}{Estudiantes de la biblioteca Juana Manuela Gorriti en su primer día de clases, aprendieron los rudimentos de Python antes de empezar a soldar sus placas.\relax }{figure.caption.55}{}}
\@writefile{lof}{\contentsline {figure}{\numberline {6.2}{\ignorespaces Soldando placas DOMOTICARO y probando los componentes.\relax }}{170}{figure.caption.56}\protected@file@percent }
\newlabel{manu_01}{{6.2}{170}{Soldando placas DOMOTICARO y probando los componentes.\relax }{figure.caption.56}{}}
\citation{basel_hardware_2020,basel_proyecto_2012,letzen_robotica_2019}
\@writefile{lof}{\contentsline {figure}{\numberline {6.3}{\ignorespaces Resistencia de 470 ohm quemada, que tuvo que se remplazada desoldando.\relax }}{171}{figure.caption.57}\protected@file@percent }
\newlabel{r_manu_01}{{6.3}{171}{Resistencia de 470 ohm quemada, que tuvo que se remplazada desoldando.\relax }{figure.caption.57}{}}
\@writefile{lof}{\contentsline {figure}{\numberline {6.4}{\ignorespaces Mala soldadura, con escoria, sin embargo la placa seguía funcionando.\relax }}{172}{figure.caption.58}\protected@file@percent }
\newlabel{r_manu_02}{{6.4}{172}{Mala soldadura, con escoria, sin embargo la placa seguía funcionando.\relax }{figure.caption.58}{}}
\@writefile{lof}{\contentsline {figure}{\numberline {6.5}{\ignorespaces Estudiante de la juana manuela gorrtti soldando los componentes de una placa de domótica.\relax }}{173}{figure.caption.59}\protected@file@percent }
\newlabel{r_manu_03}{{6.5}{173}{Estudiante de la juana manuela gorrtti soldando los componentes de una placa de domótica.\relax }{figure.caption.59}{}}
\citation{radford_que_2023}
\@writefile{toc}{\contentsline {section}{\numberline {6.3}Investigación basada en diseño en la escuela IPEM 137}{174}{section.6.3}\protected@file@percent }
\@writefile{toc}{\contentsline {section}{\numberline {6.4}Caracterización del establecimiento}{175}{section.6.4}\protected@file@percent }
\@writefile{lof}{\contentsline {figure}{\numberline {6.6}{\ignorespaces escuela IPEM 137, CAROLINA LUCERO DE FUNES.\relax }}{175}{figure.caption.60}\protected@file@percent }
\newlabel{impem_01}{{6.6}{175}{escuela IPEM 137, CAROLINA LUCERO DE FUNES.\relax }{figure.caption.60}{}}
\@writefile{toc}{\contentsline {section}{\numberline {6.5}Preparación del diseño}{177}{section.6.5}\protected@file@percent }
\@writefile{toc}{\contentsline {section}{\numberline {6.6}Observación participante en el aula}{177}{section.6.6}\protected@file@percent }
\@writefile{lof}{\contentsline {figure}{\numberline {6.7}{\ignorespaces Biblioteca de la escuela donde se llevo a cabo el primer día de capacitación.\relax }}{178}{figure.caption.61}\protected@file@percent }
\newlabel{impem_02}{{6.7}{178}{Biblioteca de la escuela donde se llevo a cabo el primer día de capacitación.\relax }{figure.caption.61}{}}
\@writefile{lof}{\contentsline {figure}{\numberline {6.8}{\ignorespaces La profesora Ivana Guzman escribiendo un ejercicio para que los estudiantes trabajen en python, usando la librería turtle.\relax }}{179}{figure.caption.62}\protected@file@percent }
\newlabel{impem_03}{{6.8}{179}{La profesora Ivana Guzman escribiendo un ejercicio para que los estudiantes trabajen en python, usando la librería turtle.\relax }{figure.caption.62}{}}
\@writefile{lof}{\contentsline {figure}{\numberline {6.9}{\ignorespaces Una de las soluciones propuestas por un grupo de estudiantes al ejercicio propuesto por la profesora Guzman.\relax }}{180}{figure.caption.63}\protected@file@percent }
\newlabel{impem_04}{{6.9}{180}{Una de las soluciones propuestas por un grupo de estudiantes al ejercicio propuesto por la profesora Guzman.\relax }{figure.caption.63}{}}
\@writefile{lof}{\contentsline {figure}{\numberline {6.10}{\ignorespaces El equipo de hardware que llevamos para las primeras jornadas de capacitación en la escuela.\relax }}{181}{figure.caption.64}\protected@file@percent }
\newlabel{impem_05}{{6.10}{181}{El equipo de hardware que llevamos para las primeras jornadas de capacitación en la escuela.\relax }{figure.caption.64}{}}
\@writefile{lof}{\contentsline {figure}{\numberline {6.11}{\ignorespaces El rack de internet de la escuela, podemos ver casi como si fueran estratos geologicos las capas de hardware que fueron instalando a lo largo del tiempo.\relax }}{182}{figure.caption.65}\protected@file@percent }
\newlabel{impem_06}{{6.11}{182}{El rack de internet de la escuela, podemos ver casi como si fueran estratos geologicos las capas de hardware que fueron instalando a lo largo del tiempo.\relax }{figure.caption.65}{}}
\@writefile{lof}{\contentsline {figure}{\numberline {6.12}{\ignorespaces Resolviendo la búsqueda del tesoro.\relax }}{183}{figure.caption.66}\protected@file@percent }
\newlabel{impem_07}{{6.12}{183}{Resolviendo la búsqueda del tesoro.\relax }{figure.caption.66}{}}
\@writefile{toc}{\contentsline {section}{\numberline {6.7}Implementación del diseño}{184}{section.6.7}\protected@file@percent }
\@writefile{toc}{\contentsline {section}{\numberline {6.8}Fabricar el propio hardware}{185}{section.6.8}\protected@file@percent }
\@writefile{lof}{\contentsline {figure}{\numberline {6.13}{\ignorespaces Los estudiantes soldando las placas.\relax }}{186}{figure.caption.67}\protected@file@percent }
\newlabel{impem_08}{{6.13}{186}{Los estudiantes soldando las placas.\relax }{figure.caption.67}{}}
\@writefile{lof}{\contentsline {figure}{\numberline {6.14}{\ignorespaces Código fuente escrito por estudiantes de la escuela CAROLINA LUCERO DE FUNES.\relax }}{187}{figure.caption.68}\protected@file@percent }
\newlabel{impem_09}{{6.14}{187}{Código fuente escrito por estudiantes de la escuela CAROLINA LUCERO DE FUNES.\relax }{figure.caption.68}{}}
\citation{radford_teoriobjetivacion_2023}
\@writefile{lof}{\contentsline {figure}{\numberline {6.15}{\ignorespaces El ingeniero Julio Rafael Comes enseñando a usar el soldador a los estudiantes de la escuela.\relax }}{188}{figure.caption.69}\protected@file@percent }
\newlabel{impem_10}{{6.15}{188}{El ingeniero Julio Rafael Comes enseñando a usar el soldador a los estudiantes de la escuela.\relax }{figure.caption.69}{}}
\@writefile{lof}{\contentsline {figure}{\numberline {6.16}{\ignorespaces Placa soldada por los estudiantes.\relax }}{189}{figure.caption.70}\protected@file@percent }
\newlabel{impem_11}{{6.16}{189}{Placa soldada por los estudiantes.\relax }{figure.caption.70}{}}
\@writefile{toc}{\contentsline {section}{\numberline {6.9}Proyecto de 'casa inteligente'}{190}{section.6.9}\protected@file@percent }
\@writefile{lof}{\contentsline {figure}{\numberline {6.17}{\ignorespaces La maqueta de casa inteligente.\relax }}{190}{figure.caption.71}\protected@file@percent }
\newlabel{impem_12}{{6.17}{190}{La maqueta de casa inteligente.\relax }{figure.caption.71}{}}
\@writefile{lof}{\contentsline {figure}{\numberline {6.18}{\ignorespaces Los estudiantes mostrando la maqueta de casa inteligente.\relax }}{191}{figure.caption.72}\protected@file@percent }
\newlabel{impem_13}{{6.18}{191}{Los estudiantes mostrando la maqueta de casa inteligente.\relax }{figure.caption.72}{}}
\@writefile{toc}{\contentsline {section}{\numberline {6.10}Análisis retrospectivo}{191}{section.6.10}\protected@file@percent }
\@writefile{lof}{\contentsline {figure}{\numberline {6.19}{\ignorespaces PCB DOMOTICARO producido localmente por la Pyme MundoLed.\relax }}{192}{figure.caption.73}\protected@file@percent }
\newlabel{placa_2}{{6.19}{192}{PCB DOMOTICARO producido localmente por la Pyme MundoLed.\relax }{figure.caption.73}{}}
\@writefile{toc}{\contentsline {section}{\numberline {6.11}Complejidades encontradas en el trabajo con domótica}{193}{section.6.11}\protected@file@percent }
\@writefile{lof}{\contentsline {figure}{\numberline {6.20}{\ignorespaces Placa soldada por los estudiantes que quedo en cortocircuito.\relax }}{194}{figure.caption.74}\protected@file@percent }
\newlabel{reporte_placa_3}{{6.20}{194}{Placa soldada por los estudiantes que quedo en cortocircuito.\relax }{figure.caption.74}{}}
\@writefile{lof}{\contentsline {figure}{\numberline {6.21}{\ignorespaces mucho estaño en el PCB, genera estos conos que pueden tocar a otros y generar corto circuitos.\relax }}{195}{figure.caption.75}\protected@file@percent }
\newlabel{reporte_placa_4}{{6.21}{195}{mucho estaño en el PCB, genera estos conos que pueden tocar a otros y generar corto circuitos.\relax }{figure.caption.75}{}}
\@writefile{toc}{\contentsline {section}{\numberline {6.12}Reflexiónes finales}{196}{section.6.12}\protected@file@percent }
\@setckpt{./capitulos/capitulo_06}{
\setcounter{page}{198}
\setcounter{equation}{0}
\setcounter{enumi}{7}
\setcounter{enumii}{0}
\setcounter{enumiii}{0}
\setcounter{enumiv}{0}
\setcounter{footnote}{2}
\setcounter{mpfootnote}{1}
\setcounter{part}{0}
\setcounter{chapter}{6}
\setcounter{section}{12}
\setcounter{subsection}{0}
\setcounter{subsubsection}{0}
\setcounter{paragraph}{0}
\setcounter{subparagraph}{0}
\setcounter{figure}{21}
\setcounter{table}{0}
\setcounter{float@type}{16}
\setcounter{Item}{29}
\setcounter{Hfootnote}{24}
\setcounter{Hy@AnnotLevel}{0}
\setcounter{bookmark@seq@number}{70}
\setcounter{BibCnt}{1}
\setcounter{NAT@ctr}{0}
\setcounter{lstnumber}{3}
\setcounter{tcbbreakpart}{0}
\setcounter{tcblayer}{0}
\setcounter{tcolorbox@number}{0}
\setcounter{caption@flags}{0}
\setcounter{continuedfloat}{0}
\setcounter{parentequation}{0}
\setcounter{FancyVerbLine}{0}
\setcounter{LT@tables}{0}
\setcounter{LT@chunks}{0}
\setcounter{section@level}{1}
\setcounter{maskedRefs}{0}
\setcounter{lstlisting}{0}
}
