\relax 
\providecommand\hyper@newdestlabel[2]{}
\citation{sadosky_cc2016_2013}
\citation{barrera_lombana_use_2015}
\citation{benavides_robotica_2016}
\citation{benotti_unc++_2017}
\@writefile{toc}{\contentsline {chapter}{\numberline {1}Contextualización del problema de investigación}{7}{chapter.1}\protected@file@percent }
\@writefile{lof}{\addvspace {10\p@ }}
\@writefile{lot}{\addvspace {10\p@ }}
\citation{weintrop_block_2015}
\citation{armoni_scratch_2015}
\citation{vidal_ledo_recursos_2013}
\citation{candon_mena_soberanitecnologica_2013}
\citation{hajduk_needs_2017}
\citation{eric_s._raymond_catedral_1998}
\@writefile{toc}{\contentsline {section}{\numberline {1.1}Antecedentes de la enseñanza de la informática y robótica en argentina}{9}{section.1.1}\protected@file@percent }
\citation{osborne_educational_2002}
\citation{yehezkel_three_2001}
\citation{feurzeig_programming-languages_1970}
\citation{papert_twenty_1971,solomon_case_1976,papert_evaluative_1976}
\citation{raletz_beginners_1984}
\citation{papert_mindstorms:_1980,watt_basic_1984}
\citation{resnick_lego_1988,resnick_legologolearning_1990,resnick_tortugas_2001}
\citation{reggini_alas_1986}
\citation{reggini_alas_1986,reggini_computadoras_1988}
\citation{papert_mindstorms:_1980}
\citation{garay_retruco_2022}
\@writefile{toc}{\contentsline {section}{\numberline {1.2}Lenguaje T.I.M.B.A.}{13}{section.1.2}\protected@file@percent }
\@writefile{toc}{\contentsline {section}{\numberline {1.3}PECOS sistemas}{14}{section.1.3}\protected@file@percent }
\@writefile{lof}{\contentsline {figure}{\numberline {1.1}{\ignorespaces  Computadora PECOS SISTEMAS fuente: \url  {https://homecomputer.com.ar/2022/05/10/pecos-una-historia-personal/}\relax }}{14}{figure.caption.6}\protected@file@percent }
\newlabel{fig:pecos01}{{1.1}{14}{Computadora PECOS SISTEMAS fuente: \url {https://homecomputer.com.ar/2022/05/10/pecos-una-historia-personal/}\relax }{figure.caption.6}{}}
\@writefile{toc}{\contentsline {section}{\numberline {1.4}La década del noventa}{15}{section.1.4}\protected@file@percent }
\citation{alvarez_educacion_2011}
\citation{leiner_brief_2009}
\citation{sadosky_cc2016_2013}
\@writefile{toc}{\contentsline {section}{\numberline {1.5}La inclusión digital y el cambio de paradigma del año 2000}{16}{section.1.5}\protected@file@percent }
\citation{camacho_brecha_2005-1}
\citation{kraemer_one_2009}
\citation{camacho_brecha_2005-1}
\citation{ceibal_plan_2014,winocur_evaluacion_2012}
\@writefile{lof}{\contentsline {figure}{\numberline {1.2}{\ignorespaces Linea de tiempo de planes nacionales de entrega de computadoras\relax }}{18}{figure.caption.7}\protected@file@percent }
\newlabel{fig:linea_tiempo}{{1.2}{18}{Linea de tiempo de planes nacionales de entrega de computadoras\relax }{figure.caption.7}{}}
\citation{fontdevila_estudio_2011}
\citation{szkolnik_disputa_2019}
\@writefile{lof}{\contentsline {figure}{\numberline {1.3}{\ignorespaces Tabla de ejes de implementación nivel primaria, presentada por el ministerio de educación\relax }}{22}{figure.caption.8}\protected@file@percent }
\newlabel{escuela_futuro_01}{{1.3}{22}{Tabla de ejes de implementación nivel primaria, presentada por el ministerio de educación\relax }{figure.caption.8}{}}
\@writefile{lof}{\contentsline {figure}{\numberline {1.4}{\ignorespaces Tabla de ejes de implementación nivel primaria, presentada por el ministerio de educación\relax }}{22}{figure.caption.9}\protected@file@percent }
\newlabel{escuela_futuro_02}{{1.4}{22}{Tabla de ejes de implementación nivel primaria, presentada por el ministerio de educación\relax }{figure.caption.9}{}}
\@writefile{toc}{\contentsline {section}{\numberline {1.6}El advenimiento de los NAP de Educación Digital, Programación y Robótica}{24}{section.1.6}\protected@file@percent }
\citation{gomez_lampara_2002}
\@writefile{lof}{\contentsline {figure}{\numberline {1.5}{\ignorespaces dossier de Escuelas del Futuro\relax }}{25}{figure.caption.10}\protected@file@percent }
\newlabel{escuela_futuro_03}{{1.5}{25}{dossier de Escuelas del Futuro\relax }{figure.caption.10}{}}
\@writefile{toc}{\contentsline {section}{\numberline {1.7}Microcontroladores para robótica educativa}{26}{section.1.7}\protected@file@percent }
\citation{akgun_bibliometric_2023}
\@writefile{toc}{\contentsline {section}{\numberline {1.8}El contexto internacional}{27}{section.1.8}\protected@file@percent }
\citation{marin-marin_steam_2021}
\citation{akgun_bibliometric_2023}
\@writefile{lof}{\contentsline {figure}{\numberline {1.6}{\ignorespaces Grafico de las publicaciones internacionales con respecto a la robótica educativa.\relax }}{28}{figure.caption.11}\protected@file@percent }
\newlabel{grafico_internacional}{{1.6}{28}{Grafico de las publicaciones internacionales con respecto a la robótica educativa.\relax }{figure.caption.11}{}}
\citation{lopez-belmonte_robotics_2021}
\@writefile{lof}{\contentsline {figure}{\numberline {1.7}{\ignorespaces Mapa de las publicaciones internacionales con respecto a la robótica educativa.\relax }}{29}{figure.caption.12}\protected@file@percent }
\newlabel{mapa_internacional}{{1.7}{29}{Mapa de las publicaciones internacionales con respecto a la robótica educativa.\relax }{figure.caption.12}{}}
\citation{bers_computational_2014,chiu_roles_2022,guiltinan_creative_2009,rapti_critical_2024,su_systematic_2023}
\citation{paiva_automated_2022,wilson_predictors_2023}
\@setckpt{./capitulos/capitulo_01}{
\setcounter{page}{31}
\setcounter{equation}{0}
\setcounter{enumi}{3}
\setcounter{enumii}{0}
\setcounter{enumiii}{0}
\setcounter{enumiv}{0}
\setcounter{footnote}{9}
\setcounter{mpfootnote}{0}
\setcounter{part}{0}
\setcounter{chapter}{1}
\setcounter{section}{8}
\setcounter{subsection}{0}
\setcounter{subsubsection}{0}
\setcounter{paragraph}{0}
\setcounter{subparagraph}{0}
\setcounter{figure}{7}
\setcounter{table}{0}
\setcounter{float@type}{16}
\setcounter{Item}{3}
\setcounter{Hfootnote}{9}
\setcounter{Hy@AnnotLevel}{0}
\setcounter{bookmark@seq@number}{9}
\setcounter{BibCnt}{0}
\setcounter{NAT@ctr}{0}
\setcounter{lstnumber}{1}
\setcounter{tcbbreakpart}{0}
\setcounter{tcblayer}{0}
\setcounter{tcolorbox@number}{0}
\setcounter{caption@flags}{0}
\setcounter{continuedfloat}{0}
\setcounter{parentequation}{0}
\setcounter{FancyVerbLine}{0}
\setcounter{LT@tables}{0}
\setcounter{LT@chunks}{0}
\setcounter{section@level}{1}
\setcounter{maskedRefs}{0}
\setcounter{lstlisting}{0}
}
