\relax 
\providecommand\hyper@newdestlabel[2]{}
\@writefile{toc}{\contentsline {chapter}{\numberline {5}Procesos de aprendizaje con Python y domótica en bibliotecas populares}{119}{chapter.5}\protected@file@percent }
\@writefile{lof}{\addvspace {10\p@ }}
\@writefile{lot}{\addvspace {10\p@ }}
\@writefile{toc}{\contentsline {section}{\numberline {5.1}Bibliotecas populares}{119}{section.5.1}\protected@file@percent }
\@writefile{lof}{\contentsline {figure}{\numberline {5.1}{\ignorespaces \url  {http://www.bnm.me.gov.ar/giga1/documentos/EL006122.pdf}\relax }}{122}{figure.caption.27}\protected@file@percent }
\newlabel{dron_01}{{5.1}{122}{\url {http://www.bnm.me.gov.ar/giga1/documentos/EL006122.pdf}\relax }{figure.caption.27}{}}
\@writefile{lof}{\contentsline {figure}{\numberline {5.2}{\ignorespaces \url  {https://cdn.educ.ar/repositorio/Download/file?file_id=14f5b337-a553-4cb4-a712-c754944f4394}\relax }}{123}{figure.caption.28}\protected@file@percent }
\newlabel{dron_02}{{5.2}{123}{\url {https://cdn.educ.ar/repositorio/Download/file?file_id=14f5b337-a553-4cb4-a712-c754944f4394}\relax }{figure.caption.28}{}}
\@writefile{toc}{\contentsline {section}{\numberline {5.2}Analizando la actividad con datos de Keylogging}{123}{section.5.2}\protected@file@percent }
\@writefile{lof}{\contentsline {figure}{\numberline {5.3}{\ignorespaces Grafico de uso del teclado de Fernanda en el Tercer día de clases, se puede ver como están los espacios vacíos de interacción (convertidos en mili segundos) que permitieron orientar el etiquetado con el software SATURAR\relax }}{125}{figure.caption.29}\protected@file@percent }
\newlabel{fer_01}{{5.3}{125}{Grafico de uso del teclado de \fernanda en el Tercer día de clases, se puede ver como están los espacios vacíos de interacción (convertidos en mili segundos) que permitieron orientar el etiquetado con el software SATURAR\relax }{figure.caption.29}{}}
\citation{fernandez_entrevistas_2010}
\@writefile{lof}{\contentsline {figure}{\numberline {5.4}{\ignorespaces grafico de las dos estudiantes de la brujula barrial y su trabajo durante 3 clases, tomando como referencia las pulsaciones de la tecla Backspace\relax }}{126}{figure.caption.30}\protected@file@percent }
\newlabel{fer_02}{{5.4}{126}{grafico de las dos estudiantes de la brujula barrial y su trabajo durante 3 clases, tomando como referencia las pulsaciones de la tecla Backspace\relax }{figure.caption.30}{}}
\citation{cabra_torres_nativos_2009}
\@writefile{lof}{\contentsline {figure}{\numberline {5.5}{\ignorespaces Comparación del uso de las teclas de posición del teclado, en este caso la tecla Left\relax }}{128}{figure.caption.31}\protected@file@percent }
\newlabel{fer_03}{{5.5}{128}{Comparación del uso de las teclas de posición del teclado, en este caso la tecla Left\relax }{figure.caption.31}{}}
\@writefile{toc}{\contentsline {section}{\numberline {5.3}Cursos de programación: Día uno, Python- turtle}{129}{section.5.3}\protected@file@percent }
\@writefile{lof}{\contentsline {figure}{\numberline {5.6}{\ignorespaces Secuencia didáctica clásica propuesta por Papert para el uso con el lenguaje LOGO\relax }}{130}{figure.caption.32}\protected@file@percent }
\newlabel{logo_01}{{5.6}{130}{Secuencia didáctica clásica propuesta por Papert para el uso con el lenguaje LOGO\relax }{figure.caption.32}{}}
\@writefile{lof}{\contentsline {figure}{\numberline {5.7}{\ignorespaces Lenguaje LOGO en un emulador de computadora MSX \relax }}{131}{figure.caption.33}\protected@file@percent }
\newlabel{logo_02}{{5.7}{131}{Lenguaje LOGO en un emulador de computadora MSX \relax }{figure.caption.33}{}}
\citation{reggini_alas_1986}
\@writefile{lof}{\contentsline {figure}{\numberline {5.8}{\ignorespaces Primer ejercicio de Jenifer (anexo SATURAR 01, ID 764)\relax }}{132}{figure.caption.34}\protected@file@percent }
\newlabel{reporte_01}{{5.8}{132}{Primer ejercicio de \jenifer (anexo SATURAR 01, ID 764)\relax }{figure.caption.34}{}}
\@writefile{lof}{\contentsline {figure}{\numberline {5.9}{\ignorespaces Página escaneada del libro 'Alas para la mente'\relax }}{133}{figure.caption.35}\protected@file@percent }
\newlabel{reginni}{{5.9}{133}{Página escaneada del libro 'Alas para la mente'\relax }{figure.caption.35}{}}
\@writefile{lof}{\contentsline {figure}{\numberline {5.10}{\ignorespaces Ejercicio de la silla escrito por Jeremias \relax }}{134}{figure.caption.36}\protected@file@percent }
\newlabel{reporte_02}{{5.10}{134}{Ejercicio de la silla escrito por \jeremias \relax }{figure.caption.36}{}}
\@writefile{lof}{\contentsline {figure}{\numberline {5.11}{\ignorespaces Detalle del código escrito por Jeremias \relax }}{135}{figure.caption.37}\protected@file@percent }
\newlabel{reporte_03}{{5.11}{135}{Detalle del código escrito por \jeremias \relax }{figure.caption.37}{}}
\@writefile{lof}{\contentsline {figure}{\numberline {5.12}{\ignorespaces Ejercicio usando bucles \textbf  {for} escrito por Jenifer (anexo SATURAR 01, ID 765)\relax }}{136}{figure.caption.38}\protected@file@percent }
\newlabel{reporte_04}{{5.12}{136}{Ejercicio usando bucles \textbf {for} escrito por \jenifer (anexo SATURAR 01, ID 765)\relax }{figure.caption.38}{}}
\citation{papert_desafio_1987}
\citation{papert_desafio_1987}
\@writefile{lof}{\contentsline {figure}{\numberline {5.13}{\ignorespaces jugando con los bucles \textbf  {for} y parte del ejercicio "sillas". Escrito por Agustin (anexo SATURAR 01, ID 824)\relax }}{137}{figure.caption.39}\protected@file@percent }
\newlabel{reporte_05}{{5.13}{137}{jugando con los bucles \textbf {for} y parte del ejercicio "sillas". Escrito por \agustin (anexo SATURAR 01, ID 824)\relax }{figure.caption.39}{}}
\citation{bossuet_computadora_1985,papert_desafio_1987}
\@writefile{lof}{\contentsline {figure}{\numberline {5.14}{\ignorespaces Ejercicio de la 'casa' \citep  [p. 26]{papert_desafio_1987}.\relax }}{138}{figure.caption.40}\protected@file@percent }
\newlabel{papert_01}{{5.14}{138}{Ejercicio de la 'casa' \citep [p. 26]{papert_desafio_1987}.\relax }{figure.caption.40}{}}
\@writefile{lof}{\contentsline {figure}{\numberline {5.15}{\ignorespaces Agustin esta tratando de hacer un triangulo con un bucle for, pero no da con los valores del angulo (anexo SATURAR 01, ID 829)\relax }}{139}{figure.caption.41}\protected@file@percent }
\newlabel{reporte_06}{{5.15}{139}{\agustin esta tratando de hacer un triangulo con un bucle for, pero no da con los valores del angulo (anexo SATURAR 01, ID 829)\relax }{figure.caption.41}{}}
\@writefile{lof}{\contentsline {figure}{\numberline {5.16}{\ignorespaces Agustin sigue tratando de dibujar una casa, la figura resultante es un 'sobre de carta' (anexo SATURAR 01, ID 834)\relax }}{140}{figure.caption.42}\protected@file@percent }
\newlabel{reporte_07}{{5.16}{140}{\agustin sigue tratando de dibujar una casa, la figura resultante es un 'sobre de carta' (anexo SATURAR 01, ID 834)\relax }{figure.caption.42}{}}
\@writefile{lof}{\contentsline {figure}{\numberline {5.17}{\ignorespaces Ejercicio de la 'casa' escrito por Jeremias usando recursión (anexo SATURAR 01, ID 805)\relax }}{141}{figure.caption.43}\protected@file@percent }
\newlabel{reporte_08}{{5.17}{141}{Ejercicio de la 'casa' escrito por \jeremias usando recursión (anexo SATURAR 01, ID 805)\relax }{figure.caption.43}{}}
\@writefile{lof}{\contentsline {figure}{\numberline {5.18}{\ignorespaces Código fuente de Jeremias para dibujar varias 'casas' usando bucles \textbf  {for} anidados (anexo SATURAR 01, ID 805)\relax }}{142}{figure.caption.44}\protected@file@percent }
\newlabel{reporte_09}{{5.18}{142}{Código fuente de \jeremias para dibujar varias 'casas' usando bucles \textbf {for} anidados (anexo SATURAR 01, ID 805)\relax }{figure.caption.44}{}}
\citation{baquero_en_1996}
\@writefile{toc}{\contentsline {section}{\numberline {5.4}Día dos, control del hardware}{143}{section.5.4}\protected@file@percent }
\citation{letzen_robotica_2019}
\citation{basel_hardware_2020,chavarria_software_2011}
\citation{hache_soberanitecnologica_2014}
\@writefile{lof}{\contentsline {figure}{\numberline {5.19}{\ignorespaces Placa DOMOTICARO con chasis construido con impresora 3D\relax }}{144}{figure.caption.45}\protected@file@percent }
\newlabel{domoticaro_01}{{5.19}{144}{Placa DOMOTICARO con chasis construido con impresora 3D\relax }{figure.caption.45}{}}
\@writefile{lof}{\contentsline {figure}{\numberline {5.20}{\ignorespaces ejercicio con las placas DOMOTICARO escrito por Jeremias (anexo SATURAR 01, ID 873)\relax }}{145}{figure.caption.46}\protected@file@percent }
\newlabel{reporte_10}{{5.20}{145}{ejercicio con las placas DOMOTICARO escrito por \jeremias (anexo SATURAR 01, ID 873)\relax }{figure.caption.46}{}}
\@writefile{lof}{\contentsline {figure}{\numberline {5.21}{\ignorespaces  Jenifer clono el código escrito anteriormente para prender y apagar el Rele 2 en vez de escribirlo todo de vuelta(anexo SATURAR 01, ID 885)\relax }}{147}{figure.caption.47}\protected@file@percent }
\newlabel{reporte_12}{{5.21}{147}{\jenifer clono el código escrito anteriormente para prender y apagar el Rele 2 en vez de escribirlo todo de vuelta(anexo SATURAR 01, ID 885)\relax }{figure.caption.47}{}}
\@writefile{lof}{\contentsline {figure}{\numberline {5.22}{\ignorespaces  Jenifer usa el mismo nombre de variable para todo (anexo SATURAR 01, ID 886)\relax }}{148}{figure.caption.48}\protected@file@percent }
\newlabel{reporte_13}{{5.22}{148}{\jenifer usa el mismo nombre de variable para todo (anexo SATURAR 01, ID 886)\relax }{figure.caption.48}{}}
\citation{radford_recorrido_2020}
\citation{radford_recorrido_2020}
\citation{radford_aspectos_2021}
\citation{benotti_despertando_2012}
\@writefile{lof}{\contentsline {figure}{\numberline {5.23}{\ignorespaces Se vuelve bastante caótico de cables y componentes una clase de domótica, Alberdi, turno mañana, día 09 de octubre\relax }}{151}{figure.caption.49}\protected@file@percent }
\newlabel{domoticaro_02}{{5.23}{151}{Se vuelve bastante caótico de cables y componentes una clase de domótica, Alberdi, turno mañana, día 09 de octubre\relax }{figure.caption.49}{}}
\@writefile{toc}{\contentsline {section}{\numberline {5.5}Día Tres, chatbots y Telegram}{151}{section.5.5}\protected@file@percent }
\citation{papert_mindstorms:_1980}
\citation{papert_desafio_1987}
\@writefile{lof}{\contentsline {figure}{\numberline {5.24}{\ignorespaces Script para probar el sistema de chatbot con ELIZA (anexo SATURAR 01, ID 896)\relax }}{153}{figure.caption.50}\protected@file@percent }
\newlabel{reporte_16}{{5.24}{153}{Script para probar el sistema de chatbot con ELIZA (anexo SATURAR 01, ID 896)\relax }{figure.caption.50}{}}
\@writefile{lof}{\contentsline {figure}{\numberline {5.25}{\ignorespaces Una prueba de conversación con el chatbot eliza escrita por Jeremias (anexo SATURAR 01, ID 952)\relax }}{154}{figure.caption.51}\protected@file@percent }
\newlabel{reporte_17}{{5.25}{154}{Una prueba de conversación con el chatbot eliza escrita por \jeremias (anexo SATURAR 01, ID 952)\relax }{figure.caption.51}{}}
\citation{radford_aspectos_2021}
\@writefile{lof}{\contentsline {figure}{\numberline {5.26}{\ignorespaces Ejercicio de chistes escrito por Jenifer (anexo SATURAR 01, ID 900)\relax }}{156}{figure.caption.52}\protected@file@percent }
\newlabel{reporte_18}{{5.26}{156}{Ejercicio de chistes escrito por \jenifer (anexo SATURAR 01, ID 900)\relax }{figure.caption.52}{}}
\citation{radford_que_2023}
\citation{angela_del_valle_aprendizaje_nodate,botella_nicolas_investigacion-accion_2019}
\@writefile{toc}{\contentsline {section}{\numberline {5.6}Día Cuatro, integrando todo}{157}{section.5.6}\protected@file@percent }
\citation{hassenfeld_if_2020}
\@writefile{lof}{\contentsline {figure}{\numberline {5.27}{\ignorespaces Agustin Interactuando con el bot de TELEGRAM, tiene un error y corrige porque faltaba una instrucción donde definía el ip de la placa (anexo SATURAR 01, ID 990)\relax }}{161}{figure.caption.53}\protected@file@percent }
\newlabel{reporte_20}{{5.27}{161}{\agustin Interactuando con el bot de TELEGRAM, tiene un error y corrige porque faltaba una instrucción donde definía el ip de la placa (anexo SATURAR 01, ID 990)\relax }{figure.caption.53}{}}
\@writefile{lof}{\contentsline {figure}{\numberline {5.28}{\ignorespaces  Jeremias probando TELEGRAM para integrar el bot con los chistes que hizo en el ejercicio anterior. (anexo SATURAR 01, ID 961)\relax }}{162}{figure.caption.54}\protected@file@percent }
\newlabel{reporte_21}{{5.28}{162}{\jeremias probando TELEGRAM para integrar el bot con los chistes que hizo en el ejercicio anterior. (anexo SATURAR 01, ID 961)\relax }{figure.caption.54}{}}
\citation{radford_politica_2023}
\@writefile{toc}{\contentsline {section}{\numberline {5.7}Reflexiones finales}{165}{section.5.7}\protected@file@percent }
\citation{radford_politica_2023}
\@setckpt{./capitulos/capitulo_05}{
\setcounter{page}{167}
\setcounter{equation}{0}
\setcounter{enumi}{7}
\setcounter{enumii}{0}
\setcounter{enumiii}{0}
\setcounter{enumiv}{0}
\setcounter{footnote}{2}
\setcounter{mpfootnote}{1}
\setcounter{part}{0}
\setcounter{chapter}{5}
\setcounter{section}{7}
\setcounter{subsection}{0}
\setcounter{subsubsection}{0}
\setcounter{paragraph}{0}
\setcounter{subparagraph}{0}
\setcounter{figure}{28}
\setcounter{table}{0}
\setcounter{float@type}{16}
\setcounter{Item}{29}
\setcounter{Hfootnote}{22}
\setcounter{Hy@AnnotLevel}{0}
\setcounter{bookmark@seq@number}{57}
\setcounter{BibCnt}{2}
\setcounter{NAT@ctr}{0}
\setcounter{lstnumber}{3}
\setcounter{tcbbreakpart}{0}
\setcounter{tcblayer}{0}
\setcounter{tcolorbox@number}{0}
\setcounter{caption@flags}{0}
\setcounter{continuedfloat}{0}
\setcounter{parentequation}{0}
\setcounter{FancyVerbLine}{0}
\setcounter{LT@tables}{0}
\setcounter{LT@chunks}{0}
\setcounter{section@level}{1}
\setcounter{maskedRefs}{0}
\setcounter{lstlisting}{0}
}
