\relax 
\providecommand\hyper@newdestlabel[2]{}
\citation{barrera_lombana_use_2015}
\citation{benavides_robotica_2016}
\citation{benotti_unc++_2017}
\citation{freire_pedagogiautonomi:_2006,freire_pedagogioprimido._2015,freire_educacion_2008}
\citation{adell_software_2007}
\citation{boyle_second_2003}
\citation{freire_educacion_2008}
\citation{freire_pedagogioprimido._2015}
\citation{mejia_tecnologi_2004,mejia_educacion_2014}
\citation{sunkel_tecnologias_2012}
\@writefile{toc}{\contentsline {chapter}{\numberline {3}Decisiones teóricas sobre la didáctica de la programación}{51}{chapter.3}\protected@file@percent }
\@writefile{lof}{\addvspace {10\p@ }}
\@writefile{lot}{\addvspace {10\p@ }}
\@writefile{toc}{\contentsline {section}{\numberline {3.1}Introducción}{51}{section.3.1}\protected@file@percent }
\citation{papert_desafio_1987-1}
\citation{reggini_alas_1986}
\citation{papert_evaluative_1976}
\@writefile{toc}{\contentsline {section}{\numberline {3.2}El lenguaje LOGO}{52}{section.3.2}\protected@file@percent }
\citation{papert_desafio_1987}
\citation{papert_desafio_1987}
\citation{papert_mindstorms:_1980}
\citation{papert_mindstorms:_1980,papert_desafio_1987,turkle_epistemological_1992}
\citation{solomon_case_1976}
\citation{bossuet_computadora_1985}
\citation{resnick_tortugas_2001}
\@writefile{toc}{\contentsline {section}{\numberline {3.3}Construccionismo}{54}{section.3.3}\protected@file@percent }
\citation{seymour_papert_maquina_1995}
\citation{papert_desafio_1987}
\citation{papert_desafio_1987}
\citation{gomez_constructivismo_2018}
\citation{saxe_construccionismo_2004}
\citation{turkle_epistemological_1992}
\citation{valdivia_construccionismo_2003}
\citation{resnick_tortugas_2001}
\citation{borras_gene_fundamentos_2015,eguia_experiencias_2017}
\citation{papert_desafio_1987}
\@writefile{toc}{\contentsline {section}{\numberline {3.4}La importancia de la depuración}{56}{section.3.4}\protected@file@percent }
\citation{papert_desafio_1987}
\citation{papert_desafio_1987}
\@writefile{toc}{\contentsline {section}{\numberline {3.5}El fenómeno QWERTY}{57}{section.3.5}\protected@file@percent }
\citation{basel_proyecto_2012,basel_hardware_2020,chavarria_software_2011}
\@writefile{toc}{\contentsline {section}{\numberline {3.6}El problema de los bienes comunes del conocimiento}{58}{section.3.6}\protected@file@percent }
\citation{hess_bienes_2016}
\citation{hess_bienes_2016}
\citation{boyle_second_2003}
\citation{saidel_definiendo_2017}
\citation{freire_pedagogioprimido._2015,freire_educacion_2008,garcia_fernandez_educacion_2022}
\citation{freire_pedagogioprimido._2015}
\citation{gonzalez_hardware_2003,gonzalez-gomez_hardware_2005,letzen_robotica_2019}
\citation{bordignon_soberanitecnologica_2015}
\citation{riskin_pagina12_2014}
\@writefile{toc}{\contentsline {section}{\numberline {3.7}Soberanía tecnológica}{60}{section.3.7}\protected@file@percent }
\citation{freire_educacion_2008}
\citation{bordignon_soberanitecnologica_2015}
\citation{ceballos_soberanitecnologica_2020}
\citation{boyle_second_2003}
\citation{stallman_software_2007}
\citation{chavarria_software_2011}
\citation{stallman_software_2007}
\citation{beatriz_busaniche_argentina_2010}
\@writefile{toc}{\contentsline {section}{\numberline {3.8}El software libre y educación}{62}{section.3.8}\protected@file@percent }
\citation{grune_diseno_2007}
\citation{giro_lenguaje_2015}
\citation{adell_software_2007}
\citation{beatriz_busaniche_argentina_2010}
\citation{adell_software_2007}
\citation{himanen_etica_2015}
\citation{eric_s._raymond_catedral_1998}
\citation{stallman_porque_2004}
\citation{adell_software_2007}
\citation{hart_open_2003}
\citation{boyle_second_2003}
\@writefile{toc}{\contentsline {section}{\numberline {3.9}Hardware de especificaciones libres en educación}{70}{section.3.9}\protected@file@percent }
\citation{gonzalez_hardware_2003}
\citation{gonzalez_hardware_2003}
\citation{pearce_case_2012}
\citation{moritz_value_2016,pearce_case_2012}
\citation{valderrama_teoriy_2004}
\citation{chandler_technological_1995,daly_studying_2000}
\citation{salazar_determinismo_2006}
\citation{negroponte_ser_1995}
\citation{pinch_social_1984}
\citation{van_baalen_extending_2016}
\citation{giannetti_representaciones_1994}
\citation{solorzano_gnulinux_2010}
\citation{zabala_robotica_2007}
\citation{reyes_cortes_robotica:_2011}
\@writefile{toc}{\contentsline {section}{\numberline {3.10}Robótica educativa}{74}{section.3.10}\protected@file@percent }
\citation{sanchez_robotica_2012}
\citation{radford_teoriobjetivacion_2014}
\@writefile{lof}{\contentsline {figure}{\numberline {3.1}{\ignorespaces vista de frente de un robot LEGO MINDSTORM EV3. Fuente: \url  {https://www.mathworks.com/help/supportpkg/android/ref/control-lego-mindstorms-ev3-robot-using-android-device.html}\relax }}{77}{figure.caption.18}\protected@file@percent }
\newlabel{lego01}{{3.1}{77}{vista de frente de un robot LEGO MINDSTORM EV3. Fuente: \url {https://www.mathworks.com/help/supportpkg/android/ref/control-lego-mindstorms-ev3-robot-using-android-device.html}\relax }{figure.caption.18}{}}
\@setckpt{./capitulos/capitulo_03}{
\setcounter{page}{79}
\setcounter{equation}{0}
\setcounter{enumi}{2}
\setcounter{enumii}{0}
\setcounter{enumiii}{0}
\setcounter{enumiv}{0}
\setcounter{footnote}{7}
\setcounter{mpfootnote}{1}
\setcounter{part}{0}
\setcounter{chapter}{3}
\setcounter{section}{10}
\setcounter{subsection}{0}
\setcounter{subsubsection}{0}
\setcounter{paragraph}{0}
\setcounter{subparagraph}{0}
\setcounter{figure}{1}
\setcounter{table}{0}
\setcounter{float@type}{16}
\setcounter{Item}{8}
\setcounter{Hfootnote}{17}
\setcounter{Hy@AnnotLevel}{0}
\setcounter{bookmark@seq@number}{31}
\setcounter{BibCnt}{2}
\setcounter{NAT@ctr}{0}
\setcounter{lstnumber}{14}
\setcounter{tcbbreakpart}{0}
\setcounter{tcblayer}{0}
\setcounter{tcolorbox@number}{0}
\setcounter{caption@flags}{0}
\setcounter{continuedfloat}{0}
\setcounter{parentequation}{0}
\setcounter{FancyVerbLine}{0}
\setcounter{LT@tables}{0}
\setcounter{LT@chunks}{0}
\setcounter{section@level}{1}
\setcounter{maskedRefs}{0}
\setcounter{lstlisting}{0}
}
