EESchema Schematic File Version 2
LIBS:power
LIBS:device
LIBS:switches
LIBS:relays
LIBS:motors
LIBS:transistors
LIBS:conn
LIBS:linear
LIBS:regul
LIBS:74xx
LIBS:cmos4000
LIBS:adc-dac
LIBS:memory
LIBS:xilinx
LIBS:microcontrollers
LIBS:dsp
LIBS:microchip
LIBS:analog_switches
LIBS:motorola
LIBS:texas
LIBS:intel
LIBS:audio
LIBS:interface
LIBS:digital-audio
LIBS:philips
LIBS:display
LIBS:cypress
LIBS:siliconi
LIBS:opto
LIBS:atmel
LIBS:contrib
LIBS:valves
LIBS:wemos_mini
LIBS:lacerar_wemos-cache
EELAYER 25 0
EELAYER END
$Descr A4 11693 8268
encoding utf-8
Sheet 1 2
Title "Proyecto de domótica basada en el esp12f"
Date "2019-11-17"
Rev "0.1"
Comp "Doctorado en Educación en Ciencias Básicas y Tecnología"
Comment1 "FAMAF - UNC "
Comment2 "Co directora: Dra Luciana Benotti"
Comment3 "director: Dr. Diego Letzen"
Comment4 "Docotorando: Lic. Valentín Basel"
$EndDescr
$Comp
L WeMos_mini U1
U 1 1 5DD1DCE1
P 2600 3300
F 0 "U1" H 2600 3800 60  0000 C CNN
F 1 "WeMos_mini" H 2600 2800 60  0000 C CNN
F 2 "wemos-d1-mini:wemos-d1-mini-with-pin-header-and-connector" H 3150 2600 60  0001 C CNN
F 3 "" H 3150 2600 60  0000 C CNN
	1    2600 3300
	1    0    0    -1  
$EndComp
$Comp
L ULN2003 U2
U 1 1 5DD1DDAE
P 6200 3250
F 0 "U2" H 6200 3775 50  0000 C CNN
F 1 "ULN2003" H 6200 3700 50  0000 C CNN
F 2 "Housings_DIP:DIP-16_W7.62mm_LongPads" H 6250 2600 50  0001 L CNN
F 3 "" H 6300 3150 50  0001 C CNN
	1    6200 3250
	1    0    0    -1  
$EndComp
Text GLabel 3250 3550 2    60   Input ~ 0
A0
Text GLabel 1950 3550 0    60   Input ~ 0
RX
Text GLabel 1950 3650 0    60   Input ~ 0
TX
Text GLabel 6700 2950 2    60   Input ~ 0
OUT_0
Text GLabel 6700 3050 2    60   Input ~ 0
OUT_1
Text GLabel 6700 3150 2    60   Input ~ 0
OUT_2
Text GLabel 6700 3250 2    60   Input ~ 0
OUT_3
$Comp
L D D1
U 1 1 5DD1E20E
P 9100 1300
F 0 "D1" H 9100 1400 50  0000 C CNN
F 1 "D" H 9100 1200 50  0000 C CNN
F 2 "Diodes_THT:D_A-405_P7.62mm_Horizontal" H 9100 1300 50  0001 C CNN
F 3 "" H 9100 1300 50  0001 C CNN
	1    9100 1300
	0    1    1    0   
$EndComp
$Comp
L D D2
U 1 1 5DD1E54F
P 9100 2100
F 0 "D2" H 9100 2200 50  0000 C CNN
F 1 "D" H 9100 2000 50  0000 C CNN
F 2 "Diodes_THT:D_A-405_P7.62mm_Horizontal" H 9100 2100 50  0001 C CNN
F 3 "" H 9100 2100 50  0001 C CNN
	1    9100 2100
	0    1    1    0   
$EndComp
$Comp
L D D3
U 1 1 5DD1E5A3
P 9100 2850
F 0 "D3" H 9100 2950 50  0000 C CNN
F 1 "D" H 9100 2750 50  0000 C CNN
F 2 "Diodes_THT:D_A-405_P7.62mm_Horizontal" H 9100 2850 50  0001 C CNN
F 3 "" H 9100 2850 50  0001 C CNN
	1    9100 2850
	0    1    1    0   
$EndComp
$Comp
L D D4
U 1 1 5DD1E5F7
P 9150 3650
F 0 "D4" H 9150 3750 50  0000 C CNN
F 1 "D" H 9150 3550 50  0000 C CNN
F 2 "Diodes_THT:D_A-405_P7.62mm_Horizontal" H 9150 3650 50  0001 C CNN
F 3 "" H 9150 3650 50  0001 C CNN
	1    9150 3650
	0    1    1    0   
$EndComp
$Comp
L Conn_01x03 J3
U 1 1 5DD1EABF
P 10650 1150
F 0 "J3" H 10650 1350 50  0000 C CNN
F 1 "Conn_01x03" H 10650 950 50  0000 C CNN
F 2 "Connectors:bornier3" H 10650 1150 50  0001 C CNN
F 3 "" H 10650 1150 50  0001 C CNN
	1    10650 1150
	1    0    0    -1  
$EndComp
$Comp
L Conn_01x03 J4
U 1 1 5DD1EB23
P 10650 1950
F 0 "J4" H 10650 2150 50  0000 C CNN
F 1 "Conn_01x03" H 10650 1750 50  0000 C CNN
F 2 "Connectors:bornier3" H 10650 1950 50  0001 C CNN
F 3 "" H 10650 1950 50  0001 C CNN
	1    10650 1950
	1    0    0    -1  
$EndComp
$Comp
L Conn_01x03 J5
U 1 1 5DD1EB8D
P 10650 2750
F 0 "J5" H 10650 2950 50  0000 C CNN
F 1 "Conn_01x03" H 10650 2550 50  0000 C CNN
F 2 "Connectors:bornier3" H 10650 2750 50  0001 C CNN
F 3 "" H 10650 2750 50  0001 C CNN
	1    10650 2750
	1    0    0    -1  
$EndComp
$Comp
L Conn_01x03 J6
U 1 1 5DD1EC25
P 10650 3550
F 0 "J6" H 10650 3750 50  0000 C CNN
F 1 "Conn_01x03" H 10650 3350 50  0000 C CNN
F 2 "Connectors:bornier3" H 10650 3550 50  0001 C CNN
F 3 "" H 10650 3550 50  0001 C CNN
	1    10650 3550
	1    0    0    -1  
$EndComp
Text GLabel 6700 3750 2    60   Input ~ 0
COM
Text GLabel 8850 1000 0    60   Input ~ 0
COM
Text GLabel 8850 1800 0    60   Input ~ 0
COM
Text GLabel 8850 2600 0    60   Input ~ 0
COM
Text GLabel 8850 3400 0    60   Input ~ 0
COM
Text GLabel 8850 1600 0    60   Input ~ 0
OUT_0
Text GLabel 8850 2400 0    60   Input ~ 0
OUT_1
Text GLabel 8850 3200 0    60   Input ~ 0
OUT_2
Text GLabel 8850 4000 0    60   Input ~ 0
OUT_3
$Comp
L Conn_01x02 J2
U 1 1 5DD1F8F1
P 9700 4950
F 0 "J2" H 9700 5050 50  0000 C CNN
F 1 "Conn_01x02" H 9700 4750 50  0000 C CNN
F 2 "Connectors:bornier2" H 9700 4950 50  0001 C CNN
F 3 "" H 9700 4950 50  0001 C CNN
	1    9700 4950
	1    0    0    -1  
$EndComp
Text GLabel 5650 3250 0    60   Input ~ 0
IN1
Text GLabel 5650 3150 0    60   Input ~ 0
IN2
Text GLabel 5650 3050 0    60   Input ~ 0
IN3
Text GLabel 5650 2950 0    60   Input ~ 0
IN4
$Comp
L GND #PWR01
U 1 1 5DD1FE4E
P 6200 4100
F 0 "#PWR01" H 6200 3850 50  0001 C CNN
F 1 "GND" H 6200 3950 50  0000 C CNN
F 2 "" H 6200 4100 50  0001 C CNN
F 3 "" H 6200 4100 50  0001 C CNN
	1    6200 4100
	1    0    0    -1  
$EndComp
$Comp
L GND #PWR02
U 1 1 5DD1FFC8
P 1950 3050
F 0 "#PWR02" H 1950 2800 50  0001 C CNN
F 1 "GND" H 1950 2900 50  0000 C CNN
F 2 "" H 1950 3050 50  0001 C CNN
F 3 "" H 1950 3050 50  0001 C CNN
	1    1950 3050
	0    1    1    0   
$EndComp
Text GLabel 3200 3350 2    60   Input ~ 0
IN1
Text GLabel 3200 3250 2    60   Input ~ 0
IN2
Text GLabel 3200 3150 2    60   Input ~ 0
IN3
Text GLabel 3200 3050 2    60   Input ~ 0
IN4
$Comp
L +5V #PWR03
U 1 1 5DDEE616
P 2050 2950
F 0 "#PWR03" H 2050 2800 50  0001 C CNN
F 1 "+5V" H 2050 3090 50  0000 C CNN
F 2 "" H 2050 2950 50  0001 C CNN
F 3 "" H 2050 2950 50  0001 C CNN
	1    2050 2950
	0    -1   -1   0   
$EndComp
$Comp
L +3.3V #PWR04
U 1 1 5DDEE684
P 3100 2900
F 0 "#PWR04" H 3100 2750 50  0001 C CNN
F 1 "+3.3V" H 3100 3040 50  0000 C CNN
F 2 "" H 3100 2900 50  0001 C CNN
F 3 "" H 3100 2900 50  0001 C CNN
	1    3100 2900
	1    0    0    -1  
$EndComp
$Sheet
S 8550 4850 550  350 
U 5DE6F9B8
F0 "FUENTE_5V" 60
F1 "FUENTE.sch" 60
F2 "IN" I R 9100 4950 60 
F3 "OUT" I L 8550 4950 60 
F4 "GND" I L 8550 5100 60 
$EndSheet
$Comp
L GND #PWR05
U 1 1 5DE6FF8C
P 8450 5100
F 0 "#PWR05" H 8450 4850 50  0001 C CNN
F 1 "GND" H 8450 4950 50  0000 C CNN
F 2 "" H 8450 5100 50  0001 C CNN
F 3 "" H 8450 5100 50  0001 C CNN
	1    8450 5100
	0    1    1    0   
$EndComp
$Comp
L +5V #PWR06
U 1 1 5DE6FF93
P 8450 4950
F 0 "#PWR06" H 8450 4800 50  0001 C CNN
F 1 "+5V" H 8450 5090 50  0000 C CNN
F 2 "" H 8450 4950 50  0001 C CNN
F 3 "" H 8450 4950 50  0001 C CNN
	1    8450 4950
	0    -1   -1   0   
$EndComp
$Comp
L GND #PWR07
U 1 1 5DE70E5D
P 9400 5250
F 0 "#PWR07" H 9400 5000 50  0001 C CNN
F 1 "GND" H 9400 5100 50  0000 C CNN
F 2 "" H 9400 5250 50  0001 C CNN
F 3 "" H 9400 5250 50  0001 C CNN
	1    9400 5250
	1    0    0    -1  
$EndComp
$Comp
L +5V #PWR08
U 1 1 5DE7164E
P 6600 3900
F 0 "#PWR08" H 6600 3750 50  0001 C CNN
F 1 "+5V" H 6600 4040 50  0000 C CNN
F 2 "" H 6600 3900 50  0001 C CNN
F 3 "" H 6600 3900 50  0001 C CNN
	1    6600 3900
	-1   0    0    1   
$EndComp
Text GLabel 5100 5100 2    60   Input ~ 0
A0
$Comp
L +3.3V #PWR09
U 1 1 5DE719E9
P 5100 5300
F 0 "#PWR09" H 5100 5150 50  0001 C CNN
F 1 "+3.3V" H 5100 5440 50  0000 C CNN
F 2 "" H 5100 5300 50  0001 C CNN
F 3 "" H 5100 5300 50  0001 C CNN
	1    5100 5300
	0    1    1    0   
$EndComp
$Comp
L GND #PWR010
U 1 1 5DE71A33
P 5100 5500
F 0 "#PWR010" H 5100 5250 50  0001 C CNN
F 1 "GND" H 5100 5350 50  0000 C CNN
F 2 "" H 5100 5500 50  0001 C CNN
F 3 "" H 5100 5500 50  0001 C CNN
	1    5100 5500
	0    -1   -1   0   
$EndComp
$Comp
L Conn_01x03 J1
U 1 1 5DE71B71
P 4650 5350
F 0 "J1" H 4650 5550 50  0000 C CNN
F 1 "Conn_01x03" H 4650 5150 50  0000 C CNN
F 2 "Pin_Headers:Pin_Header_Straight_1x03_Pitch2.54mm" H 4650 5350 50  0001 C CNN
F 3 "" H 4650 5350 50  0001 C CNN
	1    4650 5350
	-1   0    0    1   
$EndComp
$Comp
L SANYOU_SRD_Form_C K1
U 1 1 5DE7F4E5
P 9750 1300
F 0 "K1" H 10200 1450 50  0000 L CNN
F 1 "SANYOU_SRD_Form_C" H 9750 950 50  0000 L CNN
F 2 "Relays_THT:Relay_SPDT_SANYOU_SRD_Series_Form_C" H 11200 1250 50  0001 C CNN
F 3 "" H 9750 1300 50  0001 C CNN
	1    9750 1300
	1    0    0    -1  
$EndComp
$Comp
L SANYOU_SRD_Form_C K2
U 1 1 5DE7F5F9
P 9750 2100
F 0 "K2" H 10200 2250 50  0000 L CNN
F 1 "SANYOU_SRD_Form_C" H 9750 1750 50  0000 L CNN
F 2 "Relays_THT:Relay_SPDT_SANYOU_SRD_Series_Form_C" H 11200 2050 50  0001 C CNN
F 3 "" H 9750 2100 50  0001 C CNN
	1    9750 2100
	1    0    0    -1  
$EndComp
$Comp
L SANYOU_SRD_Form_C K3
U 1 1 5DE7F68F
P 9750 2900
F 0 "K3" H 10200 3050 50  0000 L CNN
F 1 "SANYOU_SRD_Form_C" H 9800 2500 50  0000 L CNN
F 2 "Relays_THT:Relay_SPDT_SANYOU_SRD_Series_Form_C" H 11200 2850 50  0001 C CNN
F 3 "" H 9750 2900 50  0001 C CNN
	1    9750 2900
	1    0    0    -1  
$EndComp
$Comp
L SANYOU_SRD_Form_C K4
U 1 1 5DE7F700
P 9750 3700
F 0 "K4" H 10200 3850 50  0000 L CNN
F 1 "SANYOU_SRD_Form_C" H 9800 3350 50  0000 L CNN
F 2 "Relays_THT:Relay_SPDT_SANYOU_SRD_Series_Form_C" H 11200 3650 50  0001 C CNN
F 3 "" H 9750 3700 50  0001 C CNN
	1    9750 3700
	1    0    0    -1  
$EndComp
$Comp
L PC817 U4
U 1 1 5DEC38C8
P 7450 1100
F 0 "U4" H 7250 1300 50  0000 L CNN
F 1 "PC817" H 7450 1300 50  0000 L CNN
F 2 "Housings_DIP:DIP-4_W7.62mm" H 7250 900 50  0001 L CIN
F 3 "" H 7450 1100 50  0001 L CNN
	1    7450 1100
	1    0    0    -1  
$EndComp
Wire Wire Line
	3100 3550 3250 3550
Wire Wire Line
	1950 3550 2100 3550
Wire Wire Line
	2100 3650 1950 3650
Wire Wire Line
	10450 3550 10200 3550
Wire Wire Line
	10200 3550 10200 4000
Wire Wire Line
	10200 4000 9950 4000
Wire Wire Line
	10050 3400 10300 3400
Wire Wire Line
	10300 3400 10300 3650
Wire Wire Line
	10300 3650 10450 3650
Wire Wire Line
	10450 3450 10450 3350
Wire Wire Line
	10450 3350 9850 3350
Wire Wire Line
	9850 3350 9850 3400
Wire Wire Line
	9950 3200 10250 3200
Wire Wire Line
	10250 3200 10250 2750
Wire Wire Line
	10250 2750 10450 2750
Wire Wire Line
	10450 2850 10350 2850
Wire Wire Line
	10350 2850 10350 2550
Wire Wire Line
	10350 2550 10050 2550
Wire Wire Line
	10050 2550 10050 2600
Wire Wire Line
	10450 2650 10450 2500
Wire Wire Line
	10450 2500 9850 2500
Wire Wire Line
	9850 2500 9850 2600
Wire Wire Line
	10450 1950 10200 1950
Wire Wire Line
	10200 1950 10200 2400
Wire Wire Line
	10200 2400 9950 2400
Wire Wire Line
	10050 1800 10300 1800
Wire Wire Line
	10300 1800 10300 2050
Wire Wire Line
	10300 2050 10450 2050
Wire Wire Line
	10450 1850 10450 1750
Wire Wire Line
	10450 1750 9850 1750
Wire Wire Line
	9850 1750 9850 1800
Wire Wire Line
	9950 1600 10250 1600
Wire Wire Line
	10250 1600 10250 1150
Wire Wire Line
	10250 1150 10450 1150
Wire Wire Line
	10450 1250 10350 1250
Wire Wire Line
	10350 1250 10350 1000
Wire Wire Line
	10350 1000 10050 1000
Wire Wire Line
	10450 1050 10450 900 
Wire Wire Line
	10450 900  9850 900 
Wire Wire Line
	9850 900  9850 1000
Wire Wire Line
	8850 1600 9550 1600
Wire Wire Line
	9100 1600 9100 1450
Wire Wire Line
	8850 1000 9550 1000
Wire Wire Line
	9100 1000 9100 1150
Wire Wire Line
	8850 1800 9550 1800
Wire Wire Line
	9100 1800 9100 1950
Wire Wire Line
	8850 2400 9550 2400
Wire Wire Line
	9100 2400 9100 2250
Wire Wire Line
	8850 2600 9550 2600
Wire Wire Line
	9100 2600 9100 2700
Wire Wire Line
	8850 3200 9550 3200
Wire Wire Line
	9100 3200 9100 3000
Wire Wire Line
	8850 3400 9550 3400
Wire Wire Line
	9150 3400 9150 3500
Wire Wire Line
	8850 4000 9550 4000
Wire Wire Line
	9150 4000 9150 3800
Wire Wire Line
	6600 3750 6700 3750
Connection ~ 9100 1000
Connection ~ 9100 1800
Connection ~ 9100 2600
Connection ~ 9150 3400
Connection ~ 9100 1600
Connection ~ 9100 2400
Connection ~ 9100 3200
Connection ~ 9150 4000
Wire Wire Line
	6700 2950 6600 2950
Wire Wire Line
	6600 3050 6700 3050
Wire Wire Line
	6700 3150 6600 3150
Wire Wire Line
	6600 3250 6700 3250
Wire Wire Line
	5650 2950 5800 2950
Wire Wire Line
	5800 3050 5650 3050
Wire Wire Line
	5650 3150 5800 3150
Wire Wire Line
	5800 3250 5650 3250
Wire Wire Line
	6200 3950 6200 4100
Wire Wire Line
	3100 3350 3200 3350
Wire Wire Line
	3200 3250 3100 3250
Wire Wire Line
	3100 3150 3200 3150
Wire Wire Line
	3200 3050 3100 3050
Wire Wire Line
	2100 3050 1950 3050
Wire Wire Line
	3100 2950 3100 2900
Wire Wire Line
	2050 2950 2100 2950
Wire Wire Line
	8450 4950 8550 4950
Wire Wire Line
	8450 5100 8550 5100
Wire Wire Line
	9100 4950 9500 4950
Wire Wire Line
	9500 5050 9400 5050
Wire Wire Line
	9400 5050 9400 5250
Wire Wire Line
	6600 3750 6600 3900
Wire Wire Line
	4850 5250 5000 5250
Wire Wire Line
	5000 5250 5000 5100
Wire Wire Line
	5000 5100 5100 5100
Wire Wire Line
	5100 5300 4950 5300
Wire Wire Line
	4950 5300 4950 5350
Wire Wire Line
	4950 5350 4850 5350
Wire Wire Line
	4850 5450 4950 5450
Wire Wire Line
	4950 5450 4950 5500
Wire Wire Line
	4950 5500 5100 5500
$EndSCHEMATC
