; generated by Slic3r 1.3.0 on 2021-03-25 at 00:36:40

; external perimeters extrusion width = 0.44mm (2.25mm^3/s)
; perimeters extrusion width = 0.48mm (5.03mm^3/s)
; infill extrusion width = 0.48mm (2.51mm^3/s)
; solid infill extrusion width = 0.48mm (2.51mm^3/s)
; top infill extrusion width = 0.48mm (1.88mm^3/s)

M107
M190 S60 ; set bed temperature and wait for it to be reached
M104 S195 ; set temperature
G28 ; home all axes
G1 Z15 F5000 ; lift nozzle

; Filament gcode

M109 S195 ; set temperature and wait for it to be reached
G21 ; set units to millimeters
G90 ; use absolute coordinates
M82 ; use absolute distances for extrusion
G92 E0
G1 Z0.400 F1800.000
G1 E-2.00000 F1800.00000
G92 E0
G1 X72.827 Y86.720 F1800.000
G1 E2.00000 F1800.00000
G1 F1800
G1 X74.583 Y85.220 E2.27422
G1 X76.743 Y84.405 E2.54845
G1 X78.000 Y84.286 E2.69842
G1 X122.000 Y84.286 E7.92408
G1 X124.275 Y84.683 E8.19831
G1 X126.280 Y85.827 E8.47253
G1 X127.780 Y87.583 E8.74676
G1 X128.595 Y89.743 E9.02098
G1 X128.714 Y91.000 E9.17095
G1 X128.714 Y109.000 E11.30872
G1 X128.317 Y111.275 E11.58295
G1 X127.173 Y113.280 E11.85717
G1 X125.417 Y114.780 E12.13140
G1 X123.257 Y115.595 E12.40562
G1 X122.000 Y115.714 E12.55559
G1 X78.000 Y115.714 E17.78126
G1 X75.725 Y115.317 E18.05548
G1 X73.720 Y114.173 E18.32971
G1 X72.220 Y112.417 E18.60393
G1 X71.405 Y110.257 E18.87816
G1 X71.286 Y109.000 E19.02812
G1 X71.286 Y91.000 E21.16590
G1 X71.683 Y88.725 E21.44012
G1 X72.797 Y86.772 E21.70722
G1 E19.70722 F1800.00000
G92 E0
G1 X86.779 Y106.900 F1800.000
G1 E2.00000 F1800.00000
G1 F1800
G1 X79.979 Y106.900 E2.80760
G1 X79.979 Y93.100 E4.44656
G1 X86.779 Y93.100 E5.25417
G1 X86.779 Y106.840 E6.88600
G1 X86.840 Y107.295 F1800.000
G1 X87.494 Y107.886 F1800.000
G1 F1800
G1 X87.494 Y92.114 E8.75913
G1 X120.886 Y92.114 E12.72497
G1 X120.886 Y107.886 E14.59809
G1 X87.554 Y107.886 E18.55681
G1 E16.55681 F1800.00000
G92 E0
G1 X78.400 Y108.600 F1800.000
G1 E2.00000 F1800.00000
G1 F1800
G1 X78.400 Y91.400 E4.04276
G1 X121.600 Y91.400 E9.17342
G1 X121.600 Y108.600 E11.21618
G1 X78.460 Y108.600 E16.33971
G1 X78.555 Y108.231 F1800.000
G1 X79.280 Y107.610 F1800.000
G1 F1800
G1 X79.302 Y107.698 E16.35490
G1 X79.516 Y107.733 E16.39102
G1 F1800
G1 X79.622 Y107.750 E16.40784
G1 X87.136 Y107.750 E17.57583
G1 E15.57583 F1800.00000
G92 E0
G1 X79.280 Y107.610 F1800.000
G1 E2.00000 F1800.00000
G1 F1800
G1 X79.235 Y107.433 E2.02767
G1 F1800
G1 X79.190 Y107.257 E2.05262
G1 X79.190 Y92.743 E4.04233
G1 X79.212 Y92.655 E4.05480
G1 F1800
G1 X79.257 Y92.478 E4.08247
G1 F1800
G1 X79.302 Y92.302 E4.11181
G1 X79.516 Y92.267 E4.14668
G1 F1800
G1 X79.622 Y92.250 E4.16287
G1 X87.136 Y92.250 E5.28752
G1 X87.930 Y93.106 F1800.000
G1 F1800
G1 X88.486 Y92.551 E5.38258
G1 X89.515 Y92.551 E5.50711
G1 X87.930 Y94.135 E5.77829
G1 X87.930 Y95.164 E5.90282
G1 X90.544 Y92.551 E6.35011
G1 X91.573 Y92.551 E6.47463
G1 X87.930 Y96.193 E7.09802
G1 X87.930 Y97.222 E7.22255
G1 X92.602 Y92.551 E8.02204
G1 X93.631 Y92.551 E8.14657
G1 X87.930 Y98.251 E9.12216
G1 X87.930 Y99.280 E9.24669
G1 X94.660 Y92.551 E10.39839
G1 X95.689 Y92.551 E10.52291
G1 X87.930 Y100.310 E11.85071
G1 X87.930 Y101.339 E11.97523
G1 X96.718 Y92.551 E13.47914
G1 X97.747 Y92.551 E13.60366
G1 X87.930 Y102.368 E15.28366
G1 X87.930 Y103.397 E15.40819
G1 X98.776 Y92.551 E17.26429
G1 X99.805 Y92.551 E17.38882
G1 X87.930 Y104.426 E19.42103
G1 X87.930 Y105.455 E19.54555
G1 X100.834 Y92.551 E21.75386
G1 X101.863 Y92.551 E21.87838
G1 X87.930 Y106.484 E24.26280
G1 X87.930 Y107.449 E24.37965
G1 X87.993 Y107.449 E24.38732
G1 X102.892 Y92.551 E26.93699
G1 X103.921 Y92.551 E27.06151
G1 X89.022 Y107.449 E29.61117
G1 X90.051 Y107.449 E29.73570
G1 X104.950 Y92.551 E32.28536
G1 X105.979 Y92.551 E32.40989
G1 X91.081 Y107.449 E34.95955
G1 X92.110 Y107.449 E35.08407
G1 X107.008 Y92.551 E37.63374
G1 X108.037 Y92.551 E37.75826
G1 X93.139 Y107.449 E40.30793
G1 X94.168 Y107.449 E40.43245
G1 X109.067 Y92.551 E42.98212
G1 X110.096 Y92.551 E43.10664
G1 X95.197 Y107.449 E45.65630
G1 X96.226 Y107.449 E45.78083
G1 X111.125 Y92.551 E48.33049
G1 X112.154 Y92.551 E48.45502
G1 X97.255 Y107.449 E51.00468
G1 X98.284 Y107.449 E51.12920
G1 X113.183 Y92.551 E53.67887
G1 X114.212 Y92.551 E53.80339
G1 X99.313 Y107.449 E56.35306
G1 X100.342 Y107.449 E56.47758
G1 X115.241 Y92.551 E59.02725
G1 X116.270 Y92.551 E59.15177
G1 X101.371 Y107.449 E61.70144
G1 X102.400 Y107.449 E61.82596
G1 X117.299 Y92.551 E64.37562
G1 X118.328 Y92.551 E64.50015
G1 X103.429 Y107.449 E67.04981
G1 X104.458 Y107.449 E67.17434
G1 X119.357 Y92.551 E69.72400
G1 X120.386 Y92.551 E69.84852
G1 X105.487 Y107.449 E72.39819
G1 X106.516 Y107.449 E72.52271
G1 X120.449 Y93.516 E74.90712
G1 X120.449 Y94.545 E75.03165
G1 X107.545 Y107.449 E77.23996
G1 X108.574 Y107.449 E77.36448
G1 X120.449 Y95.574 E79.39669
G1 X120.449 Y96.603 E79.52121
G1 X109.603 Y107.449 E81.37731
G1 X110.632 Y107.449 E81.50184
G1 X120.449 Y97.632 E83.18184
G1 X120.449 Y98.661 E83.30636
G1 X111.661 Y107.449 E84.81027
G1 X112.690 Y107.449 E84.93479
G1 X120.449 Y99.690 E86.26259
G1 X120.449 Y100.720 E86.38711
G1 X113.720 Y107.449 E87.53881
G1 X114.749 Y107.449 E87.66333
G1 X120.449 Y101.749 E88.63893
G1 X120.449 Y102.778 E88.76345
G1 X115.778 Y107.449 E89.56294
G1 X116.807 Y107.449 E89.68746
G1 X120.449 Y103.807 E90.31086
G1 X120.449 Y104.836 E90.43538
G1 X117.836 Y107.449 E90.88267
G1 X118.865 Y107.449 E91.00719
G1 X120.449 Y105.865 E91.27838
G1 X120.449 Y106.894 E91.40290
G1 X119.894 Y107.449 E91.49799
M104 S190 ; set temperature
M140 S55 ; set bed temperature
G1 Z0.700 F1800.000
G1 X79.762 Y107.117 F1800.000
G1 F2400
G1 X79.762 Y92.883 E92.24167
G1 X86.997 Y92.883 E92.61963
G1 X86.997 Y107.117 E93.36331
G1 X79.822 Y107.117 E93.73814
G1 X80.159 Y106.720 F1800.000
G1 F900
G1 X80.159 Y93.280 E94.36780
G1 X86.599 Y93.280 E94.66951
G1 X86.599 Y106.720 E95.29916
G1 X80.219 Y106.720 E95.59806
G1 X79.787 Y106.866 F1800.000
G1 X78.617 Y108.383 F1800.000
G1 F2400
G1 X78.617 Y91.617 E96.47397
G1 X121.383 Y91.617 E98.70825
G1 X121.383 Y108.383 E99.58416
G1 X78.677 Y108.383 E101.81531
G1 X78.220 Y108.780 F1800.000
G1 F1200
G1 X78.220 Y91.220 E102.63798
G1 X121.780 Y91.220 E104.67874
G1 X121.780 Y108.780 E105.50141
G1 X78.280 Y108.780 E107.53936
G1 X78.374 Y108.411 F1800.000
G1 X79.199 Y108.127 F1800.000
G1 F1200
G1 X78.873 Y107.801 E107.56360
G1 X78.873 Y107.204 E107.59497
G1 X79.796 Y108.127 E107.66359
G1 X80.392 Y108.127 E107.69497
G1 X79.964 Y107.699 E107.72679
G1 X79.506 Y107.699 E107.75089
G1 X79.506 Y107.241 E107.77499
G1 X78.873 Y106.608 E107.82208
G1 X78.873 Y106.011 E107.85345
G1 X79.506 Y106.644 E107.90054
G1 X79.506 Y106.048 E107.93192
G1 X78.873 Y105.415 E107.97901
G1 X78.873 Y104.819 E108.01038
G1 X79.506 Y105.452 E108.05747
G1 X79.506 Y104.855 E108.08885
G1 X78.873 Y104.222 E108.13594
G1 X78.873 Y103.626 E108.16731
G1 X79.506 Y104.259 E108.21440
G1 X79.506 Y103.662 E108.24578
G1 X78.873 Y103.029 E108.29287
G1 X78.873 Y102.433 E108.32424
G1 X79.506 Y103.066 E108.37133
G1 X79.506 Y102.469 E108.40271
G1 X78.873 Y101.836 E108.44980
G1 X78.873 Y101.240 E108.48117
G1 X79.506 Y101.873 E108.52827
G1 X79.506 Y101.276 E108.55964
G1 X78.873 Y100.643 E108.60673
G1 X78.873 Y100.047 E108.63811
G1 X79.506 Y100.680 E108.68520
G1 X79.506 Y100.084 E108.71657
G1 X78.873 Y99.451 E108.76366
G1 X78.873 Y98.854 E108.79504
G1 X79.506 Y99.487 E108.84213
G1 X79.506 Y98.891 E108.87350
G1 X78.873 Y98.258 E108.92059
G1 X78.873 Y97.661 E108.95197
G1 X79.506 Y98.294 E108.99906
G1 X79.506 Y97.698 E109.03043
G1 X78.873 Y97.065 E109.07752
G1 X78.873 Y96.468 E109.10890
G1 X79.506 Y97.101 E109.15599
G1 X79.506 Y96.505 E109.18736
G1 X78.873 Y95.872 E109.23445
G1 X78.873 Y95.275 E109.26583
G1 X79.506 Y95.908 E109.31292
G1 X79.506 Y95.312 E109.34429
G1 X78.873 Y94.679 E109.39139
G1 X78.873 Y94.083 E109.42276
G1 X79.506 Y94.716 E109.46985
G1 X79.506 Y94.119 E109.50123
G1 X78.873 Y93.486 E109.54832
G1 X78.873 Y92.890 E109.57969
G1 X79.506 Y93.523 E109.62678
G1 X79.506 Y92.926 E109.65816
G1 X78.873 Y92.293 E109.70525
G1 X78.873 Y91.873 E109.72734
G1 X79.050 Y91.873 E109.73662
G1 X79.803 Y92.627 E109.79268
G1 X80.400 Y92.627 E109.82406
G1 X79.646 Y91.873 E109.88012
G1 X80.243 Y91.873 E109.91150
G1 X80.996 Y92.627 E109.96756
G1 X81.593 Y92.627 E109.99893
G1 X80.839 Y91.873 E110.05499
G1 X81.435 Y91.873 E110.08637
G1 X82.189 Y92.627 E110.14243
G1 X82.785 Y92.627 E110.17381
G1 X82.032 Y91.873 E110.22987
G1 X82.628 Y91.873 E110.26124
G1 X83.382 Y92.627 E110.31730
G1 X83.978 Y92.627 E110.34868
G1 X83.225 Y91.873 E110.40474
G1 X83.821 Y91.873 E110.43612
G1 X84.575 Y92.627 E110.49218
G1 X85.171 Y92.627 E110.52355
G1 X84.418 Y91.873 E110.57961
G1 X85.014 Y91.873 E110.61099
G1 X85.768 Y92.627 E110.66705
G1 X86.364 Y92.627 E110.69843
G1 X85.611 Y91.873 E110.75449
G1 X86.207 Y91.873 E110.78586
G1 X86.961 Y92.627 E110.84192
G1 X87.557 Y92.627 E110.87330
G1 X86.803 Y91.873 E110.92936
G1 X87.400 Y91.873 E110.96074
G1 X103.653 Y108.127 E112.16987
G1 X104.250 Y108.127 E112.20125
G1 X87.996 Y91.873 E113.41039
G1 X88.593 Y91.873 E113.44176
G1 X104.846 Y108.127 E114.65090
G1 X105.443 Y108.127 E114.68228
G1 X89.189 Y91.873 E115.89141
G1 X89.786 Y91.873 E115.92279
G1 X106.039 Y108.127 E117.13193
G1 X106.636 Y108.127 E117.16330
G1 X90.382 Y91.873 E118.37244
G1 X90.979 Y91.873 E118.40382
G1 X107.232 Y108.127 E119.61295
G1 X107.829 Y108.127 E119.64433
G1 X91.575 Y91.873 E120.85347
G1 X92.171 Y91.873 E120.88484
G1 X108.425 Y108.127 E122.09398
G1 X109.021 Y108.127 E122.12535
G1 X92.768 Y91.873 E123.33449
G1 X93.364 Y91.873 E123.36587
G1 X109.618 Y108.127 E124.57501
G1 X110.214 Y108.127 E124.60638
G1 X93.961 Y91.873 E125.81552
G1 X94.557 Y91.873 E125.84689
G1 X110.811 Y108.127 E127.05603
G1 X111.407 Y108.127 E127.08741
G1 X95.154 Y91.873 E128.29654
G1 X95.750 Y91.873 E128.32792
G1 X112.004 Y108.127 E129.53706
G1 X112.600 Y108.127 E129.56843
G1 X96.347 Y91.873 E130.77757
G1 X96.943 Y91.873 E130.80895
G1 X113.197 Y108.127 E132.01808
G1 X113.793 Y108.127 E132.04946
G1 X97.539 Y91.873 E133.25860
G1 X98.136 Y91.873 E133.28997
G1 X114.389 Y108.127 E134.49911
G1 X114.986 Y108.127 E134.53049
G1 X98.732 Y91.873 E135.73962
G1 X99.329 Y91.873 E135.77100
G1 X115.582 Y108.127 E136.98014
G1 X116.179 Y108.127 E137.01151
G1 X99.925 Y91.873 E138.22065
G1 X100.522 Y91.873 E138.25202
G1 X116.775 Y108.127 E139.46116
G1 X117.372 Y108.127 E139.49254
G1 X101.118 Y91.873 E140.70168
G1 X101.715 Y91.873 E140.73305
G1 X117.968 Y108.127 E141.94219
G1 X118.565 Y108.127 E141.97356
G1 X102.311 Y91.873 E143.18270
G1 X102.907 Y91.873 E143.21408
G1 X119.161 Y108.127 E144.42322
G1 X119.758 Y108.127 E144.45459
G1 X103.504 Y91.873 E145.66373
G1 X104.100 Y91.873 E145.69510
G1 X120.354 Y108.127 E146.90424
G1 X120.950 Y108.127 E146.93562
G1 X104.697 Y91.873 E148.14475
G1 X105.293 Y91.873 E148.17613
G1 X121.127 Y107.707 E149.35402
G1 X121.127 Y107.110 E149.38539
G1 X105.890 Y91.873 E150.51891
G1 X106.486 Y91.873 E150.55029
G1 X121.127 Y106.514 E151.63944
G1 X121.127 Y105.917 E151.67081
G1 X107.083 Y91.873 E152.71559
G1 X107.679 Y91.873 E152.74696
G1 X121.127 Y105.321 E153.74737
G1 X121.127 Y104.725 E153.77875
G1 X108.275 Y91.873 E154.73478
G1 X108.872 Y91.873 E154.76616
G1 X121.127 Y104.128 E155.67782
G1 X121.127 Y103.532 E155.70920
G1 X109.468 Y91.873 E156.57649
G1 X110.065 Y91.873 E156.60786
G1 X121.127 Y102.935 E157.43079
G1 X121.127 Y102.339 E157.46216
G1 X110.661 Y91.873 E158.24072
G1 X111.258 Y91.873 E158.27209
G1 X121.127 Y101.742 E159.00627
G1 X121.127 Y101.146 E159.03765
G1 X111.854 Y91.873 E159.72746
G1 X112.451 Y91.873 E159.75883
G1 X121.127 Y100.549 E160.40427
G1 X121.127 Y99.953 E160.43565
G1 X113.047 Y91.873 E161.03672
G1 X113.643 Y91.873 E161.06809
G1 X121.127 Y99.357 E161.62479
G1 X121.127 Y98.760 E161.65616
G1 X114.240 Y91.873 E162.16849
G1 X114.836 Y91.873 E162.19987
G1 X121.127 Y98.164 E162.66782
G1 X121.127 Y97.567 E162.69920
G1 X115.433 Y91.873 E163.12278
G1 X116.029 Y91.873 E163.15416
G1 X121.127 Y96.971 E163.53337
G1 X121.127 Y96.374 E163.56475
G1 X116.626 Y91.873 E163.89959
G1 X117.222 Y91.873 E163.93097
G1 X121.127 Y95.778 E164.22144
G1 X121.127 Y95.181 E164.25282
G1 X117.819 Y91.873 E164.49892
G1 X118.415 Y91.873 E164.53029
G1 X121.127 Y94.585 E164.73203
G1 X121.127 Y93.988 E164.76340
G1 X119.012 Y91.873 E164.92076
G1 X119.608 Y91.873 E164.95214
G1 X121.127 Y93.392 E165.06513
G1 X121.127 Y92.796 E165.09650
G1 X120.204 Y91.873 E165.16512
G1 X120.801 Y91.873 E165.19649
G1 X121.127 Y92.199 E165.22074
G1 X103.057 Y108.127 F1800.000
G1 F1200
G1 X87.253 Y92.322 E166.39647
G1 X87.253 Y92.919 E166.42784
G1 X102.461 Y108.127 E167.55919
G1 X101.864 Y108.127 E167.59057
G1 X87.253 Y93.515 E168.67755
G1 X87.253 Y94.112 E168.70892
G1 X101.268 Y108.127 E169.75153
G1 X100.671 Y108.127 E169.78291
G1 X87.253 Y94.708 E170.78115
G1 X87.253 Y95.305 E170.81252
G1 X100.075 Y108.127 E171.76639
G1 X99.478 Y108.127 E171.79777
G1 X87.253 Y95.901 E172.70727
G1 X87.253 Y96.498 E172.73864
G1 X98.882 Y108.127 E173.60377
G1 X98.285 Y108.127 E173.63514
G1 X87.253 Y97.094 E174.45590
G1 X87.253 Y97.690 E174.48727
G1 X97.689 Y108.127 E175.26366
G1 X97.093 Y108.127 E175.29503
G1 X87.253 Y98.287 E176.02705
G1 X87.253 Y98.883 E176.05842
G1 X96.496 Y108.127 E176.74607
G1 X95.900 Y108.127 E176.77744
G1 X87.253 Y99.480 E177.42071
G1 X87.253 Y100.076 E177.45209
G1 X95.303 Y108.127 E178.05099
G1 X94.707 Y108.127 E178.08237
G1 X87.253 Y100.673 E178.63690
G1 X87.253 Y101.269 E178.66827
G1 X94.110 Y108.127 E179.17843
G1 X93.514 Y108.127 E179.20981
G1 X87.253 Y101.866 E179.67560
G1 X87.253 Y102.462 E179.70697
G1 X92.917 Y108.127 E180.12839
G1 X92.321 Y108.127 E180.15977
G1 X87.253 Y103.058 E180.53681
G1 X87.253 Y103.655 E180.56819
G1 X91.725 Y108.127 E180.90087
G1 X91.128 Y108.127 E180.93224
G1 X87.253 Y104.251 E181.22055
G1 X87.253 Y104.848 E181.25192
G1 X90.532 Y108.127 E181.49586
G1 X89.935 Y108.127 E181.52723
G1 X87.253 Y105.444 E181.72680
G1 X87.253 Y106.041 E181.75817
G1 X89.339 Y108.127 E181.91337
G1 X88.742 Y108.127 E181.94474
G1 X87.253 Y106.637 E182.05556
G1 X87.253 Y107.234 E182.08694
G1 X88.146 Y108.127 E182.15339
G1 X87.549 Y108.127 E182.18477
G1 X86.796 Y107.373 E182.24083
G1 X86.199 Y107.373 E182.27220
G1 X86.953 Y108.127 E182.32826
G1 X86.357 Y108.127 E182.35964
G1 X85.603 Y107.373 E182.41570
G1 X85.006 Y107.373 E182.44708
G1 X85.760 Y108.127 E182.50314
G1 X85.164 Y108.127 E182.53451
G1 X84.410 Y107.373 E182.59057
G1 X83.814 Y107.373 E182.62195
G1 X84.567 Y108.127 E182.67801
G1 X83.971 Y108.127 E182.70939
G1 X83.217 Y107.373 E182.76545
G1 X82.621 Y107.373 E182.79682
G1 X83.374 Y108.127 E182.85288
G1 X82.778 Y108.127 E182.88426
G1 X82.024 Y107.373 E182.94032
G1 X81.428 Y107.373 E182.97170
G1 X82.181 Y108.127 E183.02776
G1 X81.585 Y108.127 E183.05913
G1 X80.831 Y107.373 E183.11519
G1 X80.235 Y107.373 E183.14657
G1 X80.989 Y108.127 E183.20263
G1 X80.392 Y108.127 E183.23401
G1 Z1.000 F1800.000
G1 X79.762 Y107.117 F1800.000
G1 F2400
G1 X79.762 Y92.883 E183.97769
G1 X86.997 Y92.883 E184.35565
G1 X86.997 Y107.117 E185.09933
G1 X79.822 Y107.117 E185.47416
G1 X80.159 Y106.720 F1800.000
G1 F900
G1 X80.159 Y93.280 E186.10382
G1 X86.599 Y93.280 E186.40553
G1 X86.599 Y106.720 E187.03518
G1 X80.219 Y106.720 E187.33408
G1 X79.787 Y106.866 F1800.000
G1 X78.617 Y108.383 F1800.000
G1 F2400
G1 X78.617 Y91.617 E188.20999
G1 X121.383 Y91.617 E190.44427
G1 X121.383 Y108.383 E191.32018
G1 X78.677 Y108.383 E193.55133
G1 X78.220 Y108.780 F1800.000
G1 F1200
G1 X78.220 Y91.220 E194.37400
G1 X121.780 Y91.220 E196.41476
G1 X121.780 Y108.780 E197.23743
G1 X78.280 Y108.780 E199.27538
G1 X78.374 Y108.411 F1800.000
G1 X85.949 Y108.127 F1800.000
G1 F1200
G1 X86.703 Y107.373 E199.33106
G1 X80.779 Y107.373 E199.64055
G1 X80.026 Y108.127 E199.69623
G1 X78.873 Y108.127 E199.75643
G1 X78.873 Y103.355 E200.00572
G1 X79.506 Y102.722 E200.05249
G1 X79.506 Y96.798 E200.36198
G1 X78.873 Y97.431 E200.40874
G1 X78.873 Y92.199 E200.68211
G1 X84.106 Y92.199 E200.95548
G1 X84.431 Y91.873 F1800.000
G1 F1200
G1 X83.678 Y92.627 E201.01116
G1 X87.253 Y92.627 E201.19792
G1 X87.253 Y94.976 E201.32065
G1 X90.355 Y91.873 E201.54989
G1 X96.279 Y91.873 E201.85938
G1 X87.253 Y100.900 E202.52630
G1 X87.253 Y106.824 E202.83579
G1 X102.203 Y91.873 E203.94041
G1 X108.127 Y91.873 E204.24990
G1 X91.873 Y108.127 E205.45080
G1 X97.797 Y108.127 E205.76029
G1 X114.051 Y91.873 E206.96119
G1 X119.974 Y91.873 E207.27068
G1 X103.721 Y108.127 E208.47159
G1 X109.645 Y108.127 E208.78108
G1 X121.127 Y96.645 E209.62943
G1 X121.127 Y102.569 E209.93892
G1 X115.569 Y108.127 E210.34960
M106 S96.9
G1 Z1.300 F1800.000
G1 X79.762 Y107.117 F1800.000
G1 F2400
G1 X79.762 Y92.883 E211.09328
G1 X86.997 Y92.883 E211.47124
G1 X86.997 Y107.117 E212.21492
G1 X79.822 Y107.117 E212.58975
G1 X80.159 Y106.720 F1800.000
G1 F900
G1 X80.159 Y93.280 E213.21941
G1 X86.599 Y93.280 E213.52112
G1 X86.599 Y106.720 E214.15077
G1 X80.219 Y106.720 E214.44967
G1 X79.787 Y106.866 F1800.000
G1 X78.617 Y108.383 F1800.000
G1 F2400
G1 X78.617 Y91.617 E215.32558
G1 X121.383 Y91.617 E217.55986
G1 X121.383 Y108.383 E218.43577
G1 X78.677 Y108.383 E220.66692
G1 X78.220 Y108.780 F1800.000
G1 F1200
G1 X78.220 Y91.220 E221.48959
G1 X121.780 Y91.220 E223.53035
G1 X121.780 Y108.780 E224.35302
G1 X78.280 Y108.780 E226.39097
G1 X78.374 Y108.411 F1800.000
G1 X83.129 Y108.127 F1800.000
G1 F1200
G1 X82.803 Y107.801 E226.41685
G1 X82.803 Y107.373 E226.44087
G1 X83.012 Y107.373 E226.45263
G1 X83.766 Y108.127 E226.51249
G1 X84.403 Y108.127 E226.54827
G1 X83.649 Y107.373 E226.60813
G1 X84.286 Y107.373 E226.64391
G1 X85.040 Y108.127 E226.70377
G1 X85.676 Y108.127 E226.73955
G1 X84.923 Y107.373 E226.79941
G1 X85.560 Y107.373 E226.83519
G1 X86.313 Y108.127 E226.89505
G1 X86.950 Y108.127 E226.93083
G1 X86.197 Y107.373 E226.99069
G1 X86.834 Y107.373 E227.02647
G1 X87.160 Y107.699 E227.05236
G1 X87.600 Y108.117 F1800.000
M106 S255

G1 F1800
G1 X87.262 Y107.779 E227.07780
G1 X87.262 Y107.137 E227.11197
G1 X88.242 Y108.117 E227.18573
G1 X88.884 Y108.117 E227.21990
G1 X87.262 Y106.496 E227.34198
G1 X87.262 Y105.854 E227.37614
G1 X89.525 Y108.117 E227.54654
G1 X90.167 Y108.117 E227.58070
G1 X87.262 Y105.212 E227.79941
G1 X87.262 Y104.571 E227.83357
G1 X90.809 Y108.117 E228.10060
G1 X91.451 Y108.117 E228.13476
G1 X87.262 Y103.929 E228.45010
G1 X87.262 Y103.287 E228.48426
G1 X92.092 Y108.117 E228.84791
G1 X92.734 Y108.117 E228.88207
G1 X87.262 Y102.645 E229.29404
G1 X87.262 Y102.004 E229.32820
G1 X93.376 Y108.117 E229.78848
G1 X94.018 Y108.117 E229.82265
G1 X87.262 Y101.362 E230.33124
G1 X87.262 Y100.720 E230.36540
G1 X94.659 Y108.117 E230.92231
G1 X95.301 Y108.117 E230.95647
G1 X87.262 Y100.078 E231.56169
G1 X87.262 Y99.437 E231.59586
G1 X95.943 Y108.117 E232.24939
G1 X96.584 Y108.117 E232.28356
G1 X87.262 Y98.795 E232.98541
G1 X87.262 Y98.153 E233.01957
G1 X97.226 Y108.117 E233.76973
G1 X97.868 Y108.117 E233.80390
G1 X87.262 Y97.511 E234.60237
G1 X87.262 Y96.870 E234.63654
G1 X98.510 Y108.117 E235.48333
G1 X99.151 Y108.117 E235.51749
G1 X87.262 Y96.228 E236.41260
G1 X87.262 Y95.586 E236.44676
G1 X99.793 Y108.117 E237.39018
G1 X100.435 Y108.117 E237.42434
G1 X87.262 Y94.945 E238.41608
G1 X87.262 Y94.303 E238.45024
G1 X101.077 Y108.117 E239.49029
G1 X101.718 Y108.117 E239.52445
G1 X87.262 Y93.661 E240.61281
G1 X87.262 Y93.019 E240.64698
G1 X102.360 Y108.117 E241.78365
G1 X103.002 Y108.117 E241.81781
G1 X87.262 Y92.378 E243.00280
G1 X87.262 Y91.883 E243.02915
G1 X87.409 Y91.883 E243.03697
G1 X103.644 Y108.117 E244.25921
G1 X104.285 Y108.117 E244.29338
G1 X88.051 Y91.883 E245.51562
G1 X88.692 Y91.883 E245.54978
G1 X104.927 Y108.117 E246.77203
G1 X105.569 Y108.117 E246.80619
G1 X89.334 Y91.883 E248.02844
G1 X89.976 Y91.883 E248.06260
G1 X106.211 Y108.117 E249.28485
G1 X106.852 Y108.117 E249.31901
G1 X90.618 Y91.883 E250.54125
G1 X91.259 Y91.883 E250.57542
G1 X107.494 Y108.117 E251.79766
G1 X108.136 Y108.117 E251.83182
G1 X91.901 Y91.883 E253.05407
G1 X92.543 Y91.883 E253.08823
G1 X108.777 Y108.117 E254.31048
G1 X109.419 Y108.117 E254.34464
G1 X93.185 Y91.883 E255.56688
G1 X93.826 Y91.883 E255.60105
G1 X110.061 Y108.117 E256.82329
G1 X110.703 Y108.117 E256.85746
G1 X94.468 Y91.883 E258.07970
G1 X95.110 Y91.883 E258.11386
G1 X111.344 Y108.117 E259.33611
G1 X111.986 Y108.117 E259.37027
G1 X95.752 Y91.883 E260.59252
G1 X96.393 Y91.883 E260.62668
G1 X112.628 Y108.117 E261.84892
G1 X113.270 Y108.117 E261.88309
G1 X97.035 Y91.883 E263.10533
G1 X97.677 Y91.883 E263.13950
G1 X113.911 Y108.117 E264.36174
G1 X114.553 Y108.117 E264.39590
G1 X98.319 Y91.883 E265.61815
G1 X98.960 Y91.883 E265.65231
G1 X115.195 Y108.117 E266.87456
G1 X115.837 Y108.117 E266.90872
G1 X99.602 Y91.883 E268.13096
G1 X100.244 Y91.883 E268.16513
G1 X116.478 Y108.117 E269.38737
G1 X117.120 Y108.117 E269.42154
G1 X100.885 Y91.883 E270.64378
G1 X101.527 Y91.883 E270.67794
G1 X117.762 Y108.117 E271.90019
G1 X118.403 Y108.117 E271.93435
G1 X102.169 Y91.883 E273.15660
G1 X102.811 Y91.883 E273.19076
G1 X119.045 Y108.117 E274.41300
G1 X119.687 Y108.117 E274.44717
G1 X103.452 Y91.883 E275.66941
G1 X104.094 Y91.883 E275.70358
G1 X120.329 Y108.117 E276.92582
G1 X120.970 Y108.117 E276.95998
G1 X104.736 Y91.883 E278.18223
G1 X105.378 Y91.883 E278.21639
G1 X121.117 Y107.622 E279.40138
G1 X121.117 Y106.981 E279.43554
G1 X106.019 Y91.883 E280.57222
G1 X106.661 Y91.883 E280.60638
G1 X121.117 Y106.339 E281.69474
G1 X121.117 Y105.697 E281.72890
G1 X107.303 Y91.883 E282.76895
G1 X107.945 Y91.883 E282.80311
G1 X121.117 Y105.055 E283.79484
G1 X121.117 Y104.414 E283.82901
G1 X108.586 Y91.883 E284.77242
G1 X109.228 Y91.883 E284.80659
G1 X121.117 Y103.772 E285.70169
G1 X121.117 Y103.130 E285.73585
G1 X109.870 Y91.883 E286.58264
G1 X110.511 Y91.883 E286.61681
G1 X121.117 Y102.489 E287.41528
G1 X121.117 Y101.847 E287.44944
G1 X111.153 Y91.883 E288.19961
G1 X111.795 Y91.883 E288.23377
G1 X121.117 Y101.205 E288.93562
G1 X121.117 Y100.563 E288.96978
G1 X112.437 Y91.883 E289.62331
G1 X113.078 Y91.883 E289.65748
G1 X121.117 Y99.922 E290.26270
G1 X121.117 Y99.280 E290.29686
G1 X113.720 Y91.883 E290.85376
G1 X114.362 Y91.883 E290.88793
G1 X121.117 Y98.638 E291.39652
G1 X121.117 Y97.996 E291.43068
G1 X115.004 Y91.883 E291.89096
G1 X115.645 Y91.883 E291.92512
G1 X121.117 Y97.355 E292.33709
G1 X121.117 Y96.713 E292.37125
G1 X116.287 Y91.883 E292.73490
G1 X116.929 Y91.883 E292.76906
G1 X121.117 Y96.071 E293.08440
G1 X121.117 Y95.429 E293.11856
G1 X117.571 Y91.883 E293.38558
G1 X118.212 Y91.883 E293.41974
G1 X121.117 Y94.788 E293.63845
G1 X121.117 Y94.146 E293.67261
G1 X118.854 Y91.883 E293.84301
G1 X119.496 Y91.883 E293.87717
G1 X121.117 Y93.504 E293.99925
G1 X121.117 Y92.863 E294.03341
G1 X120.137 Y91.883 E294.10718
G1 X120.779 Y91.883 E294.14134
G1 X121.117 Y92.221 E294.16679
M106 S96.9

G1 X87.160 Y92.199 F1800.000
G1 F1200
G1 X86.834 Y91.873 E294.19269
G1 X86.197 Y91.873 E294.22846
G1 X86.950 Y92.627 E294.28833
G1 X86.313 Y92.627 E294.32410
G1 X85.560 Y91.873 E294.38397
G1 X84.923 Y91.873 E294.41974
G1 X85.676 Y92.627 E294.47961
G1 X85.040 Y92.627 E294.51539
G1 X84.286 Y91.873 E294.57525
G1 X83.649 Y91.873 E294.61103
G1 X84.403 Y92.627 E294.67089
G1 X83.766 Y92.627 E294.70667
G1 X83.012 Y91.873 E294.76653
G1 X82.803 Y91.873 E294.77829
G1 X82.803 Y92.301 E294.80231
G1 X83.129 Y92.627 E294.82819
G1 X80.779 Y92.627 F1800.000
G1 F1200
G1 X80.026 Y91.873 E294.88387
G1 X78.873 Y91.873 E294.94407
G1 X78.873 Y96.645 E295.19336
G1 X79.506 Y97.278 E295.24013
G1 X79.506 Y103.202 E295.54962
G1 X78.873 Y102.569 E295.59638
M107
G1 Z1.600 F1800.000
G1 X79.762 Y107.117 F1800.000
G1 F2400
G1 X79.762 Y92.883 E296.34006
G1 X86.997 Y92.883 E296.71803
G1 X86.997 Y107.117 E297.46171
G1 X79.822 Y107.117 E297.83654
G1 X80.159 Y106.720 F1800.000
G1 F900
G1 X80.159 Y93.280 E298.46619
G1 X86.599 Y93.280 E298.76790
G1 X86.599 Y106.720 E299.39756
G1 X80.219 Y106.720 E299.69646
G1 X79.787 Y106.866 F1800.000
G1 X78.617 Y108.383 F1800.000
G1 F2400
G1 X78.617 Y91.617 E300.57237
G1 X121.383 Y91.617 E302.80665
G1 X121.383 Y108.383 E303.68256
G1 X78.677 Y108.383 E305.91371
G1 X78.220 Y108.780 F1800.000
G1 F1200
G1 X78.220 Y91.220 E306.73638
G1 X121.780 Y91.220 E308.77714
G1 X121.780 Y108.780 E309.59981
G1 X78.280 Y108.780 E311.63776
G1 X78.374 Y108.411 F1800.000
G1 X80.026 Y108.127 F1800.000
G1 F1200
G1 X80.779 Y107.373 E311.69344
G1 X79.506 Y107.373 E311.75994
G1 X79.506 Y102.722 E312.00293
G1 X78.873 Y103.355 E312.04970
G1 X78.873 Y97.431 E312.35919
G1 X79.506 Y96.798 E312.40595
G1 E310.40595 F1800.00000
G92 E0
G1 X83.678 Y92.627 F1800.000
G1 E2.00000 F1800.00000
G1 F1200
G1 X84.160 Y92.145 E2.03559
G1 X84.160 Y92.301 E2.04373
G1 X84.004 Y92.301 E2.05188
G1 X84.579 Y91.873 F1800.000
G1 F900
G1 X84.253 Y92.199 E2.07613
G1 X84.253 Y92.627 E2.09861
G1 X84.421 Y92.627 E2.10749
G1 X85.175 Y91.873 E2.16354
G1 X85.771 Y91.873 E2.19490
G1 X85.018 Y92.627 E2.25095
G1 X85.614 Y92.627 E2.28231
G1 X86.368 Y91.873 E2.33836
G1 X86.964 Y91.873 E2.36972
G1 X86.210 Y92.627 E2.42577
G1 X86.807 Y92.627 E2.45713
G1 X87.560 Y91.873 E2.51318
G1 X88.157 Y91.873 E2.54454
G1 X87.253 Y92.777 E2.61177
G1 X87.253 Y93.373 E2.64314
G1 X88.753 Y91.873 E2.75472
G1 X89.349 Y91.873 E2.78608
G1 X87.253 Y93.970 E2.94201
G1 X87.253 Y94.566 E2.97337
G1 X89.945 Y91.873 E3.17366
G1 X90.542 Y91.873 E3.20502
G1 X87.253 Y95.162 E3.44966
G1 X87.253 Y95.759 E3.48102
G1 X91.138 Y91.873 E3.77001
G1 X91.734 Y91.873 E3.80137
G1 X87.253 Y96.355 E4.13471
G1 X87.253 Y96.951 E4.16607
G1 X92.331 Y91.873 E4.54376
G1 X92.927 Y91.873 E4.57512
G1 X87.253 Y97.548 E4.99716
G1 X87.253 Y98.144 E5.02853
G1 X93.523 Y91.873 E5.49492
G1 X94.120 Y91.873 E5.52628
G1 X87.253 Y98.740 E6.03703
G1 X87.253 Y99.337 E6.06839
G1 X94.716 Y91.873 E6.62349
G1 X95.312 Y91.873 E6.65485
G1 X87.253 Y99.933 E7.25430
G1 X87.253 Y100.529 E7.28566
G1 X95.909 Y91.873 E7.92946
G1 X96.505 Y91.873 E7.96082
G1 X87.253 Y101.126 E8.64897
G1 X87.253 Y101.722 E8.68033
G1 X97.101 Y91.873 E9.41283
G1 X97.698 Y91.873 E9.44419
G1 X87.253 Y102.318 E10.22105
G1 X87.253 Y102.915 E10.25241
G1 X98.294 Y91.873 E11.07362
G1 X98.890 Y91.873 E11.10498
G1 X87.253 Y103.511 E11.97053
G1 X87.253 Y104.107 E12.00190
G1 X99.487 Y91.873 E12.91180
G1 X100.083 Y91.873 E12.94317
G1 X87.253 Y104.703 E13.89743
G1 X87.253 Y105.300 E13.92879
G1 X100.679 Y91.873 E14.92740
G1 X101.275 Y91.873 E14.95876
G1 X87.253 Y105.896 E16.00172
G1 X87.253 Y106.492 E16.03309
G1 X101.872 Y91.873 E17.12040
G1 X102.468 Y91.873 E17.15176
G1 X87.253 Y107.089 E18.28343
G1 X87.253 Y107.685 E18.31479
G1 X103.064 Y91.873 E19.49081
G1 X103.661 Y91.873 E19.52217
G1 X87.407 Y108.127 E20.73104
G1 X88.003 Y108.127 E20.76240
G1 X104.257 Y91.873 E21.97128
G1 X104.853 Y91.873 E22.00264
G1 X88.600 Y108.127 E23.21151
G1 X89.196 Y108.127 E23.24288
G1 X105.450 Y91.873 E24.45175
G1 X106.046 Y91.873 E24.48311
G1 X89.792 Y108.127 E25.69199
G1 X90.389 Y108.127 E25.72335
G1 X106.642 Y91.873 E26.93222
G1 X107.239 Y91.873 E26.96358
G1 X90.985 Y108.127 E28.17246
G1 X91.581 Y108.127 E28.20382
G1 X107.835 Y91.873 E29.41269
G1 X108.431 Y91.873 E29.44405
G1 X92.178 Y108.127 E30.65293
G1 X92.774 Y108.127 E30.68429
G1 X109.028 Y91.873 E31.89317
G1 X109.624 Y91.873 E31.92453
G1 X93.370 Y108.127 E33.13340
G1 X93.967 Y108.127 E33.16476
G1 X110.220 Y91.873 E34.37364
G1 X110.817 Y91.873 E34.40500
G1 X94.563 Y108.127 E35.61387
G1 X95.159 Y108.127 E35.64523
G1 X111.413 Y91.873 E36.85411
G1 X112.009 Y91.873 E36.88547
G1 X95.756 Y108.127 E38.09434
G1 X96.352 Y108.127 E38.12571
G1 X112.605 Y91.873 E39.33458
G1 X113.202 Y91.873 E39.36594
G1 X96.948 Y108.127 E40.57482
G1 X97.545 Y108.127 E40.60618
G1 X113.798 Y91.873 E41.81505
G1 X114.394 Y91.873 E41.84641
G1 X98.141 Y108.127 E43.05529
G1 X98.737 Y108.127 E43.08665
G1 X114.991 Y91.873 E44.29552
G1 X115.587 Y91.873 E44.32689
G1 X99.333 Y108.127 E45.53576
G1 X99.930 Y108.127 E45.56712
G1 X116.183 Y91.873 E46.77600
G1 X116.780 Y91.873 E46.80736
G1 X100.526 Y108.127 E48.01623
G1 X101.122 Y108.127 E48.04759
G1 X117.376 Y91.873 E49.25647
G1 X117.972 Y91.873 E49.28783
G1 X101.719 Y108.127 E50.49670
G1 X102.315 Y108.127 E50.52807
G1 X118.569 Y91.873 E51.73694
G1 X119.165 Y91.873 E51.76830
G1 X102.911 Y108.127 E52.97718
G1 X103.508 Y108.127 E53.00854
G1 X119.761 Y91.873 E54.21741
G1 X120.358 Y91.873 E54.24877
G1 X104.104 Y108.127 E55.45765
G1 X104.700 Y108.127 E55.48901
G1 X120.954 Y91.873 E56.69788
G1 X121.127 Y91.873 E56.70698
G1 X121.127 Y92.297 E56.72925
G1 X105.297 Y108.127 E57.90663
G1 X105.893 Y108.127 E57.93799
G1 X121.127 Y92.893 E59.07102
G1 X121.127 Y93.489 E59.10238
G1 X106.489 Y108.127 E60.19106
G1 X107.086 Y108.127 E60.22242
G1 X121.127 Y94.086 E61.26675
G1 X121.127 Y94.682 E61.29811
G1 X107.682 Y108.127 E62.29808
G1 X108.278 Y108.127 E62.32944
G1 X121.127 Y95.278 E63.28507
G1 X121.127 Y95.875 E63.31643
G1 X108.875 Y108.127 E64.22770
G1 X109.471 Y108.127 E64.25906
G1 X121.127 Y96.471 E65.12598
G1 X121.127 Y97.067 E65.15734
G1 X110.067 Y108.127 E65.97991
G1 X110.663 Y108.127 E66.01128
G1 X121.127 Y97.663 E66.78949
G1 X121.127 Y98.260 E66.82085
G1 X111.260 Y108.127 E67.55472
G1 X111.856 Y108.127 E67.58608
G1 X121.127 Y98.856 E68.27560
G1 X121.127 Y99.452 E68.30696
G1 X112.452 Y108.127 E68.95212
G1 X113.049 Y108.127 E68.98348
G1 X121.127 Y100.049 E69.58430
G1 X121.127 Y100.645 E69.61566
G1 X113.645 Y108.127 E70.17212
G1 X114.241 Y108.127 E70.20348
G1 X121.127 Y101.241 E70.71559
G1 X121.127 Y101.838 E70.74695
G1 X114.838 Y108.127 E71.21471
G1 X115.434 Y108.127 E71.24607
G1 X121.127 Y102.434 E71.66947
G1 X121.127 Y103.030 E71.70084
G1 X116.030 Y108.127 E72.07989
G1 X116.627 Y108.127 E72.11125
G1 X121.127 Y103.627 E72.44595
G1 X121.127 Y104.223 E72.47732
G1 X117.223 Y108.127 E72.76767
G1 X117.819 Y108.127 E72.79903
G1 X121.127 Y104.819 E73.04503
G1 X121.127 Y105.416 E73.07639
G1 X118.416 Y108.127 E73.27804
G1 X119.012 Y108.127 E73.30940
G1 X121.127 Y106.012 E73.46670
G1 X121.127 Y106.608 E73.49806
G1 X119.608 Y108.127 E73.61101
G1 X120.205 Y108.127 E73.64237
G1 X121.127 Y107.205 E73.71096
G1 X121.127 Y107.801 E73.74232
G1 X120.801 Y108.127 E73.76657
G1 X86.811 Y108.127 F1800.000
G1 F900
G1 X87.564 Y107.373 E73.82261
G1 X86.968 Y107.373 E73.85398
G1 X86.215 Y108.127 E73.91003
G1 X85.618 Y108.127 E73.94139
G1 X86.372 Y107.373 E73.99744
G1 X85.775 Y107.373 E74.02880
G1 X85.022 Y108.127 E74.08485
G1 X84.426 Y108.127 E74.11621
G1 X85.179 Y107.373 E74.17226
G1 X84.583 Y107.373 E74.20362
G1 X84.257 Y107.699 E74.22785
M106 S201.45
G1 Z1.900 F1800.000
G1 X79.749 Y107.117 F1800.000
G1 F2400
G1 X79.749 Y92.883 E74.97153
G1 X120.984 Y92.883 E77.12582
G1 X120.984 Y107.117 E77.86950
G1 X79.809 Y107.117 E80.02066
G1 X80.146 Y106.720 F1800.000
G1 F1200
G1 X80.146 Y93.280 E80.65032
G1 X120.586 Y93.280 E82.54490
G1 X120.586 Y106.720 E83.17456
G1 X80.206 Y106.720 E85.06633
G1 X79.749 Y106.763 F1800.000
G1 X78.617 Y108.383 F1800.000
G1 F2400
G1 X78.617 Y91.617 E85.94225
G1 X121.383 Y91.617 E88.17652
G1 X121.383 Y108.383 E89.05244
G1 X78.677 Y108.383 E91.28358
G1 X78.220 Y108.780 F1800.000
G1 F1200
G1 X78.220 Y91.220 E92.10626
G1 X121.780 Y91.220 E94.14701
G1 X121.780 Y108.780 E94.96969
G1 X78.280 Y108.780 E97.00763
G1 X78.374 Y108.411 F1800.000
G1 X83.678 Y107.373 F1800.000
G1 F1200
G1 X84.431 Y108.127 E97.06331
G1 X90.355 Y108.127 E97.37280
G1 X89.602 Y107.373 E97.42848
G1 X95.526 Y107.373 E97.73797
G1 X96.279 Y108.127 E97.79365
G1 X102.203 Y108.127 E98.10314
G1 X101.449 Y107.373 E98.15882
G1 X107.373 Y107.373 E98.46831
G1 X108.127 Y108.127 E98.52399
G1 X114.051 Y108.127 E98.83348
G1 X113.297 Y107.373 E98.88916
G1 X119.221 Y107.373 E99.19865
G1 X119.974 Y108.127 E99.25433
G1 E97.25433 F1800.00000
G92 E0
G1 X116.322 Y92.627 F1800.000
G1 E2.00000 F1800.00000
G1 F1200
G1 X115.569 Y91.873 E2.05568
G1 X109.645 Y91.873 E2.36517
G1 X110.398 Y92.627 E2.42085
G1 X104.474 Y92.627 E2.73034
G1 X103.721 Y91.873 E2.78602
G1 X97.797 Y91.873 E3.09551
G1 X98.551 Y92.627 E3.15119
G1 X92.627 Y92.627 E3.46068
G1 X91.873 Y91.873 E3.51636
G1 X85.949 Y91.873 E3.82585
G1 X86.703 Y92.627 E3.88152
G1 X80.779 Y92.627 E4.19101
G1 X80.026 Y91.873 E4.24669
G1 X78.873 Y91.873 E4.30690
G1 X78.873 Y96.645 E4.55618
G1 X79.493 Y97.265 E4.60199
G1 X79.493 Y103.189 E4.91148
G1 X78.873 Y102.569 E4.95729
G1 Z2.200 F1800.000
G1 X79.749 Y107.117 F1800.000
G1 F2400
G1 X79.749 Y92.883 E5.70097
G1 X120.984 Y92.883 E7.85527
G1 X120.984 Y107.117 E8.59895
G1 X79.809 Y107.117 E10.75010
G1 X80.146 Y106.720 F1800.000
G1 F1200
G1 X80.146 Y93.280 E11.37976
G1 X120.586 Y93.280 E13.27435
G1 X120.586 Y106.720 E13.90400
G1 X80.206 Y106.720 E15.79578
G1 X79.749 Y106.763 F1800.000
G1 X78.617 Y108.383 F1800.000
G1 F2400
G1 X78.617 Y91.617 E16.67169
G1 X121.383 Y91.617 E18.90597
G1 X121.383 Y108.383 E19.78188
G1 X78.677 Y108.383 E22.01303
G1 X78.220 Y108.780 F1800.000
G1 F1200
G1 X78.220 Y91.220 E22.83570
G1 X121.780 Y91.220 E24.87646
G1 X121.780 Y108.780 E25.69913
G1 X78.280 Y108.780 E27.73708
G1 X78.374 Y108.411 F1800.000
G1 X79.493 Y96.811 F1800.000
G1 F1200
G1 X78.873 Y97.431 E27.78289
G1 X78.873 Y103.355 E28.09238
G1 X79.493 Y102.735 E28.13819
G1 X79.493 Y107.373 E28.38050
G1 X80.779 Y107.373 E28.44768
G1 X80.026 Y108.127 E28.50336
G1 X85.949 Y108.127 E28.81285
G1 X86.703 Y107.373 E28.86853
G1 X92.627 Y107.373 E29.17802
G1 X91.873 Y108.127 E29.23370
G1 X97.797 Y108.127 E29.54319
G1 X98.551 Y107.373 E29.59886
G1 X104.474 Y107.373 E29.90835
G1 X103.721 Y108.127 E29.96403
G1 X109.645 Y108.127 E30.27352
G1 X110.398 Y107.373 E30.32920
G1 X116.322 Y107.373 E30.63869
G1 X115.569 Y108.127 E30.69437
G1 E28.69437 F1800.00000
G92 E0
G1 X119.221 Y92.627 F1800.000
G1 E2.00000 F1800.00000
G1 F1200
G1 X119.974 Y91.873 E2.05568
G1 X114.051 Y91.873 E2.36517
G1 X113.297 Y92.627 E2.42085
G1 X107.373 Y92.627 E2.73034
G1 X108.127 Y91.873 E2.78602
G1 X102.203 Y91.873 E3.09551
G1 X101.449 Y92.627 E3.15119
G1 X95.526 Y92.627 E3.46068
G1 X96.279 Y91.873 E3.51636
G1 X90.355 Y91.873 E3.82585
G1 X89.602 Y92.627 E3.88152
G1 X83.678 Y92.627 E4.19102
G1 X84.431 Y91.873 E4.24669
G1 Z2.500 F1800.000
G1 E2.24669 F1800.00000
G92 E0
G1 X79.749 Y107.117 F1800.000
G1 E2.00000 F1800.00000
G1 F2400
G1 X79.749 Y92.883 E2.74368
G1 X120.984 Y92.883 E4.89797
G1 X120.984 Y107.117 E5.64165
G1 X79.809 Y107.117 E7.79281
G1 X80.146 Y106.720 F1800.000
G1 F1200
G1 X80.146 Y93.280 E8.42246
G1 X120.586 Y93.280 E10.31705
G1 X120.586 Y106.720 E10.94671
G1 X80.206 Y106.720 E12.83848
G1 X79.749 Y106.763 F1800.000
G1 X78.617 Y108.383 F1800.000
G1 F2400
G1 X78.617 Y91.617 E13.71439
G1 X121.383 Y91.617 E15.94867
G1 X121.383 Y108.383 E16.82459
G1 X78.677 Y108.383 E19.05573
G1 X78.220 Y108.780 F1800.000
G1 F1200
G1 X78.220 Y91.220 E19.87840
G1 X121.780 Y91.220 E21.91916
G1 X121.780 Y108.780 E22.74184
G1 X78.280 Y108.780 E24.77978
G1 X78.374 Y108.411 F1800.000
G1 X83.678 Y107.373 F1800.000
G1 F1200
G1 X84.431 Y108.127 E24.83546
G1 X90.355 Y108.127 E25.14495
G1 X89.602 Y107.373 E25.20063
G1 X95.526 Y107.373 E25.51012
G1 X96.279 Y108.127 E25.56580
G1 X102.203 Y108.127 E25.87529
G1 X101.449 Y107.373 E25.93097
G1 X107.373 Y107.373 E26.24046
G1 X108.127 Y108.127 E26.29614
G1 X114.051 Y108.127 E26.60563
G1 X113.297 Y107.373 E26.66131
G1 X119.221 Y107.373 E26.97080
G1 X119.974 Y108.127 E27.02647
G1 E25.02647 F1800.00000
G92 E0
G1 X116.322 Y92.627 F1800.000
G1 E2.00000 F1800.00000
G1 F1200
G1 X115.569 Y91.873 E2.05568
G1 X109.645 Y91.873 E2.36517
G1 X110.398 Y92.627 E2.42085
G1 X104.474 Y92.627 E2.73034
G1 X103.721 Y91.873 E2.78602
G1 X97.797 Y91.873 E3.09551
G1 X98.551 Y92.627 E3.15119
G1 X92.627 Y92.627 E3.46068
G1 X91.873 Y91.873 E3.51636
G1 X85.949 Y91.873 E3.82585
G1 X86.703 Y92.627 E3.88152
G1 X80.779 Y92.627 E4.19101
G1 X80.026 Y91.873 E4.24669
G1 X78.873 Y91.873 E4.30690
G1 X78.873 Y96.645 E4.55618
G1 X79.493 Y97.265 E4.60199
G1 X79.493 Y103.189 E4.91148
G1 X78.873 Y102.569 E4.95729
G1 Z2.800 F1800.000
G1 X79.749 Y107.117 F1800.000
G1 F2400
G1 X79.749 Y92.883 E5.70097
G1 X120.984 Y92.883 E7.85527
G1 X120.984 Y107.117 E8.59895
G1 X79.809 Y107.117 E10.75010
G1 X80.146 Y106.720 F1800.000
G1 F1200
G1 X80.146 Y93.280 E11.37976
G1 X120.586 Y93.280 E13.27435
G1 X120.586 Y106.720 E13.90400
G1 X80.206 Y106.720 E15.79578
G1 X79.749 Y106.763 F1800.000
G1 X78.617 Y108.383 F1800.000
G1 F2400
G1 X78.617 Y91.617 E16.67169
G1 X121.383 Y91.617 E18.90597
G1 X121.383 Y108.383 E19.78188
G1 X78.677 Y108.383 E22.01303
G1 X78.220 Y108.780 F1800.000
G1 F1200
G1 X78.220 Y91.220 E22.83570
G1 X121.780 Y91.220 E24.87646
G1 X121.780 Y108.780 E25.69913
G1 X78.280 Y108.780 E27.73708
G1 X78.374 Y108.411 F1800.000
G1 X79.493 Y96.811 F1800.000
G1 F1200
G1 X78.873 Y97.431 E27.78289
G1 X78.873 Y103.355 E28.09238
G1 X79.493 Y102.735 E28.13819
G1 X79.493 Y107.373 E28.38050
G1 X80.779 Y107.373 E28.44768
G1 X80.026 Y108.127 E28.50336
G1 X85.949 Y108.127 E28.81285
G1 X86.703 Y107.373 E28.86853
G1 X92.627 Y107.373 E29.17802
G1 X91.873 Y108.127 E29.23370
G1 X97.797 Y108.127 E29.54319
G1 X98.551 Y107.373 E29.59886
G1 X104.474 Y107.373 E29.90835
G1 X103.721 Y108.127 E29.96403
G1 X109.645 Y108.127 E30.27352
G1 X110.398 Y107.373 E30.32920
G1 X116.322 Y107.373 E30.63869
G1 X115.569 Y108.127 E30.69437
G1 E28.69437 F1800.00000
G92 E0
G1 X119.221 Y92.627 F1800.000
G1 E2.00000 F1800.00000
G1 F1200
G1 X119.974 Y91.873 E2.05568
G1 X114.051 Y91.873 E2.36517
G1 X113.297 Y92.627 E2.42085
G1 X107.373 Y92.627 E2.73034
G1 X108.127 Y91.873 E2.78602
G1 X102.203 Y91.873 E3.09551
G1 X101.449 Y92.627 E3.15119
G1 X95.526 Y92.627 E3.46068
G1 X96.279 Y91.873 E3.51636
G1 X90.355 Y91.873 E3.82585
G1 X89.602 Y92.627 E3.88152
G1 X83.678 Y92.627 E4.19102
G1 X84.431 Y91.873 E4.24669
G1 Z3.100 F1800.000
G1 E2.24669 F1800.00000
G92 E0
G1 X79.749 Y107.117 F1800.000
G1 E2.00000 F1800.00000
G1 F2400
G1 X79.749 Y92.883 E2.74368
G1 X120.984 Y92.883 E4.89797
G1 X120.984 Y107.117 E5.64165
G1 X79.809 Y107.117 E7.79281
G1 X80.146 Y106.720 F1800.000
G1 F1200
G1 X80.146 Y93.280 E8.42246
G1 X120.586 Y93.280 E10.31705
G1 X120.586 Y106.720 E10.94671
G1 X80.206 Y106.720 E12.83848
G1 X79.749 Y106.763 F1800.000
G1 X78.617 Y108.383 F1800.000
G1 F2400
G1 X78.617 Y91.617 E13.71439
G1 X121.383 Y91.617 E15.94867
G1 X121.383 Y108.383 E16.82459
G1 X78.677 Y108.383 E19.05573
G1 X78.220 Y108.780 F1800.000
G1 F1200
G1 X78.220 Y91.220 E19.87840
G1 X121.780 Y91.220 E21.91916
G1 X121.780 Y108.780 E22.74184
G1 X78.280 Y108.780 E24.77978
G1 X78.374 Y108.411 F1800.000
G1 X83.678 Y107.373 F1800.000
G1 F1200
G1 X84.431 Y108.127 E24.83546
G1 X90.355 Y108.127 E25.14495
G1 X89.602 Y107.373 E25.20063
G1 X95.526 Y107.373 E25.51012
G1 X96.279 Y108.127 E25.56580
G1 X102.203 Y108.127 E25.87529
G1 X101.449 Y107.373 E25.93097
G1 X107.373 Y107.373 E26.24046
G1 X108.127 Y108.127 E26.29614
G1 X114.051 Y108.127 E26.60563
G1 X113.297 Y107.373 E26.66131
G1 X119.221 Y107.373 E26.97080
G1 X119.974 Y108.127 E27.02647
G1 E25.02647 F1800.00000
G92 E0
G1 X116.322 Y92.627 F1800.000
G1 E2.00000 F1800.00000
G1 F1200
G1 X115.569 Y91.873 E2.05568
G1 X109.645 Y91.873 E2.36517
G1 X110.398 Y92.627 E2.42085
G1 X104.474 Y92.627 E2.73034
G1 X103.721 Y91.873 E2.78602
G1 X97.797 Y91.873 E3.09551
G1 X98.551 Y92.627 E3.15119
G1 X92.627 Y92.627 E3.46068
G1 X91.873 Y91.873 E3.51636
G1 X85.949 Y91.873 E3.82585
G1 X86.703 Y92.627 E3.88152
G1 X80.779 Y92.627 E4.19101
G1 X80.026 Y91.873 E4.24669
G1 X78.873 Y91.873 E4.30690
G1 X78.873 Y96.645 E4.55618
G1 X79.493 Y97.265 E4.60199
G1 X79.493 Y103.189 E4.91148
G1 X78.873 Y102.569 E4.95729
G1 Z3.400 F1800.000
G1 X79.749 Y107.117 F1800.000
G1 F2400
G1 X79.749 Y92.883 E5.70097
G1 X120.984 Y92.883 E7.85527
G1 X120.984 Y107.117 E8.59895
G1 X79.809 Y107.117 E10.75010
G1 X80.146 Y106.720 F1800.000
G1 F1200
G1 X80.146 Y93.280 E11.37976
G1 X120.586 Y93.280 E13.27435
G1 X120.586 Y106.720 E13.90400
G1 X80.206 Y106.720 E15.79578
G1 X79.749 Y106.763 F1800.000
G1 X78.617 Y108.383 F1800.000
G1 F2400
G1 X78.617 Y91.617 E16.67169
G1 X121.383 Y91.617 E18.90597
G1 X121.383 Y108.383 E19.78188
G1 X78.677 Y108.383 E22.01303
G1 X78.220 Y108.780 F1800.000
G1 F1200
G1 X78.220 Y91.220 E22.83570
G1 X121.780 Y91.220 E24.87646
G1 X121.780 Y108.780 E25.69913
G1 X78.280 Y108.780 E27.73708
G1 X78.374 Y108.411 F1800.000
G1 X79.493 Y96.811 F1800.000
G1 F1200
G1 X78.873 Y97.431 E27.78289
G1 X78.873 Y103.355 E28.09238
G1 X79.493 Y102.735 E28.13819
G1 X79.493 Y107.373 E28.38050
G1 X80.779 Y107.373 E28.44768
G1 X80.026 Y108.127 E28.50336
G1 X85.949 Y108.127 E28.81285
G1 X86.703 Y107.373 E28.86853
G1 X92.627 Y107.373 E29.17802
G1 X91.873 Y108.127 E29.23370
G1 X97.797 Y108.127 E29.54319
G1 X98.551 Y107.373 E29.59886
G1 X104.474 Y107.373 E29.90835
G1 X103.721 Y108.127 E29.96403
G1 X109.645 Y108.127 E30.27352
G1 X110.398 Y107.373 E30.32920
G1 X116.322 Y107.373 E30.63869
G1 X115.569 Y108.127 E30.69437
G1 E28.69437 F1800.00000
G92 E0
G1 X119.221 Y92.627 F1800.000
G1 E2.00000 F1800.00000
G1 F1200
G1 X119.974 Y91.873 E2.05568
G1 X114.051 Y91.873 E2.36517
G1 X113.297 Y92.627 E2.42085
G1 X107.373 Y92.627 E2.73034
G1 X108.127 Y91.873 E2.78602
G1 X102.203 Y91.873 E3.09551
G1 X101.449 Y92.627 E3.15119
G1 X95.526 Y92.627 E3.46068
G1 X96.279 Y91.873 E3.51636
G1 X90.355 Y91.873 E3.82585
G1 X89.602 Y92.627 E3.88152
G1 X83.678 Y92.627 E4.19102
G1 X84.431 Y91.873 E4.24669
G1 Z3.700 F1800.000
G1 E2.24669 F1800.00000
G92 E0
G1 X79.749 Y107.117 F1800.000
G1 E2.00000 F1800.00000
G1 F2400
G1 X79.749 Y92.883 E2.74368
G1 X120.984 Y92.883 E4.89797
G1 X120.984 Y107.117 E5.64165
G1 X79.809 Y107.117 E7.79281
G1 X80.146 Y106.720 F1800.000
G1 F1200
G1 X80.146 Y93.280 E8.42246
G1 X120.586 Y93.280 E10.31705
G1 X120.586 Y106.720 E10.94671
G1 X80.206 Y106.720 E12.83848
G1 X79.749 Y106.763 F1800.000
G1 X78.617 Y108.383 F1800.000
G1 F2400
G1 X78.617 Y91.617 E13.71439
G1 X121.383 Y91.617 E15.94867
G1 X121.383 Y108.383 E16.82459
G1 X78.677 Y108.383 E19.05573
G1 X78.220 Y108.780 F1800.000
G1 F1200
G1 X78.220 Y91.220 E19.87840
G1 X121.780 Y91.220 E21.91916
G1 X121.780 Y108.780 E22.74184
G1 X78.280 Y108.780 E24.77978
G1 X78.374 Y108.411 F1800.000
G1 X83.678 Y107.373 F1800.000
G1 F1200
G1 X84.431 Y108.127 E24.83546
G1 X90.355 Y108.127 E25.14495
G1 X89.602 Y107.373 E25.20063
G1 X95.526 Y107.373 E25.51012
G1 X96.279 Y108.127 E25.56580
G1 X102.203 Y108.127 E25.87529
G1 X101.449 Y107.373 E25.93097
G1 X107.373 Y107.373 E26.24046
G1 X108.127 Y108.127 E26.29614
G1 X114.051 Y108.127 E26.60563
G1 X113.297 Y107.373 E26.66131
G1 X119.221 Y107.373 E26.97080
G1 X119.974 Y108.127 E27.02647
G1 E25.02647 F1800.00000
G92 E0
G1 X116.322 Y92.627 F1800.000
G1 E2.00000 F1800.00000
G1 F1200
G1 X115.569 Y91.873 E2.05568
G1 X109.645 Y91.873 E2.36517
G1 X110.398 Y92.627 E2.42085
G1 X104.474 Y92.627 E2.73034
G1 X103.721 Y91.873 E2.78602
G1 X97.797 Y91.873 E3.09551
G1 X98.551 Y92.627 E3.15119
G1 X92.627 Y92.627 E3.46068
G1 X91.873 Y91.873 E3.51636
G1 X85.949 Y91.873 E3.82585
G1 X86.703 Y92.627 E3.88152
G1 X80.779 Y92.627 E4.19101
G1 X80.026 Y91.873 E4.24669
G1 X78.873 Y91.873 E4.30690
G1 X78.873 Y96.645 E4.55618
G1 X79.493 Y97.265 E4.60199
G1 X79.493 Y103.189 E4.91148
G1 X78.873 Y102.569 E4.95729
G1 Z4.000 F1800.000
G1 X79.749 Y107.117 F1800.000
G1 F2400
G1 X79.749 Y92.883 E5.70097
G1 X120.984 Y92.883 E7.85527
G1 X120.984 Y107.117 E8.59895
G1 X79.809 Y107.117 E10.75010
G1 X80.146 Y106.720 F1800.000
G1 F1200
G1 X80.146 Y93.280 E11.37976
G1 X120.586 Y93.280 E13.27435
G1 X120.586 Y106.720 E13.90400
G1 X80.206 Y106.720 E15.79578
G1 X79.749 Y106.763 F1800.000
G1 X78.617 Y108.383 F1800.000
G1 F2400
G1 X78.617 Y91.617 E16.67169
G1 X121.383 Y91.617 E18.90597
G1 X121.383 Y108.383 E19.78188
G1 X78.677 Y108.383 E22.01303
G1 X78.220 Y108.780 F1800.000
G1 F1200
G1 X78.220 Y91.220 E22.83570
G1 X121.780 Y91.220 E24.87646
G1 X121.780 Y108.780 E25.69913
G1 X78.280 Y108.780 E27.73708
G1 X78.374 Y108.411 F1800.000
G1 X79.493 Y96.811 F1800.000
G1 F1200
G1 X78.873 Y97.431 E27.78289
G1 X78.873 Y103.355 E28.09238
G1 X79.493 Y102.735 E28.13819
G1 X79.493 Y107.373 E28.38050
G1 X80.779 Y107.373 E28.44768
G1 X80.026 Y108.127 E28.50336
G1 X85.949 Y108.127 E28.81285
G1 X86.703 Y107.373 E28.86853
G1 X92.627 Y107.373 E29.17802
G1 X91.873 Y108.127 E29.23370
G1 X97.797 Y108.127 E29.54319
G1 X98.551 Y107.373 E29.59886
G1 X104.474 Y107.373 E29.90835
G1 X103.721 Y108.127 E29.96403
G1 X109.645 Y108.127 E30.27352
G1 X110.398 Y107.373 E30.32920
G1 X116.322 Y107.373 E30.63869
G1 X115.569 Y108.127 E30.69437
G1 E28.69437 F1800.00000
G92 E0
G1 X119.221 Y92.627 F1800.000
G1 E2.00000 F1800.00000
G1 F1200
G1 X119.974 Y91.873 E2.05568
G1 X114.051 Y91.873 E2.36517
G1 X113.297 Y92.627 E2.42085
G1 X107.373 Y92.627 E2.73034
G1 X108.127 Y91.873 E2.78602
G1 X102.203 Y91.873 E3.09551
G1 X101.449 Y92.627 E3.15119
G1 X95.526 Y92.627 E3.46068
G1 X96.279 Y91.873 E3.51636
G1 X90.355 Y91.873 E3.82585
G1 X89.602 Y92.627 E3.88152
G1 X83.678 Y92.627 E4.19102
G1 X84.431 Y91.873 E4.24669
G1 Z4.300 F1800.000
G1 E2.24669 F1800.00000
G92 E0
G1 X79.749 Y107.117 F1800.000
G1 E2.00000 F1800.00000
G1 F2400
G1 X79.749 Y92.883 E2.74368
G1 X120.984 Y92.883 E4.89797
G1 X120.984 Y107.117 E5.64165
G1 X79.809 Y107.117 E7.79281
G1 X80.146 Y106.720 F1800.000
G1 F1200
G1 X80.146 Y93.280 E8.42246
G1 X120.586 Y93.280 E10.31705
G1 X120.586 Y106.720 E10.94671
G1 X80.206 Y106.720 E12.83848
G1 X79.749 Y106.763 F1800.000
G1 X78.617 Y108.383 F1800.000
G1 F2400
G1 X78.617 Y91.617 E13.71439
G1 X121.383 Y91.617 E15.94867
G1 X121.383 Y108.383 E16.82459
G1 X78.677 Y108.383 E19.05573
G1 X78.220 Y108.780 F1800.000
G1 F1200
G1 X78.220 Y91.220 E19.87840
G1 X121.780 Y91.220 E21.91916
G1 X121.780 Y108.780 E22.74184
G1 X78.280 Y108.780 E24.77978
G1 X78.374 Y108.411 F1800.000
G1 X83.678 Y107.373 F1800.000
G1 F1200
G1 X84.431 Y108.127 E24.83546
G1 X90.355 Y108.127 E25.14495
G1 X89.602 Y107.373 E25.20063
G1 X95.526 Y107.373 E25.51012
G1 X96.279 Y108.127 E25.56580
G1 X102.203 Y108.127 E25.87529
G1 X101.449 Y107.373 E25.93097
G1 X107.373 Y107.373 E26.24046
G1 X108.127 Y108.127 E26.29614
G1 X114.051 Y108.127 E26.60563
G1 X113.297 Y107.373 E26.66131
G1 X119.221 Y107.373 E26.97080
G1 X119.974 Y108.127 E27.02647
G1 E25.02647 F1800.00000
G92 E0
G1 X116.322 Y92.627 F1800.000
G1 E2.00000 F1800.00000
G1 F1200
G1 X115.569 Y91.873 E2.05568
G1 X109.645 Y91.873 E2.36517
G1 X110.398 Y92.627 E2.42085
G1 X104.474 Y92.627 E2.73034
G1 X103.721 Y91.873 E2.78602
G1 X97.797 Y91.873 E3.09551
G1 X98.551 Y92.627 E3.15119
G1 X92.627 Y92.627 E3.46068
G1 X91.873 Y91.873 E3.51636
G1 X85.949 Y91.873 E3.82585
G1 X86.703 Y92.627 E3.88152
G1 X80.779 Y92.627 E4.19101
G1 X80.026 Y91.873 E4.24669
G1 X78.873 Y91.873 E4.30690
G1 X78.873 Y96.645 E4.55618
G1 X79.493 Y97.265 E4.60199
G1 X79.493 Y103.189 E4.91148
G1 X78.873 Y102.569 E4.95729
G1 Z4.600 F1800.000
G1 X79.749 Y107.117 F1800.000
G1 F2400
G1 X79.749 Y92.883 E5.70097
G1 X120.984 Y92.883 E7.85527
G1 X120.984 Y107.117 E8.59895
G1 X79.809 Y107.117 E10.75010
G1 X80.146 Y106.720 F1800.000
G1 F1200
G1 X80.146 Y93.280 E11.37976
G1 X120.586 Y93.280 E13.27435
G1 X120.586 Y106.720 E13.90400
G1 X80.206 Y106.720 E15.79578
G1 X79.749 Y106.763 F1800.000
G1 X78.617 Y108.383 F1800.000
G1 F2400
G1 X78.617 Y91.617 E16.67169
G1 X121.383 Y91.617 E18.90597
G1 X121.383 Y108.383 E19.78188
G1 X78.677 Y108.383 E22.01303
G1 X78.220 Y108.780 F1800.000
G1 F1200
G1 X78.220 Y91.220 E22.83570
G1 X121.780 Y91.220 E24.87646
G1 X121.780 Y108.780 E25.69913
G1 X78.280 Y108.780 E27.73708
G1 X78.374 Y108.411 F1800.000
G1 X79.493 Y96.811 F1800.000
G1 F1200
G1 X78.873 Y97.431 E27.78289
G1 X78.873 Y103.355 E28.09238
G1 X79.493 Y102.735 E28.13819
G1 X79.493 Y107.373 E28.38050
G1 X80.779 Y107.373 E28.44768
G1 X80.026 Y108.127 E28.50336
G1 X85.949 Y108.127 E28.81285
G1 X86.703 Y107.373 E28.86853
G1 X92.627 Y107.373 E29.17802
G1 X91.873 Y108.127 E29.23370
G1 X97.797 Y108.127 E29.54319
G1 X98.551 Y107.373 E29.59886
G1 X104.474 Y107.373 E29.90835
G1 X103.721 Y108.127 E29.96403
G1 X109.645 Y108.127 E30.27352
G1 X110.398 Y107.373 E30.32920
G1 X116.322 Y107.373 E30.63869
G1 X115.569 Y108.127 E30.69437
G1 E28.69437 F1800.00000
G92 E0
G1 X119.221 Y92.627 F1800.000
G1 E2.00000 F1800.00000
G1 F1200
G1 X119.974 Y91.873 E2.05568
G1 X114.051 Y91.873 E2.36517
G1 X113.297 Y92.627 E2.42085
G1 X107.373 Y92.627 E2.73034
G1 X108.127 Y91.873 E2.78602
G1 X102.203 Y91.873 E3.09551
G1 X101.449 Y92.627 E3.15119
G1 X95.526 Y92.627 E3.46068
G1 X96.279 Y91.873 E3.51636
G1 X90.355 Y91.873 E3.82585
G1 X89.602 Y92.627 E3.88152
G1 X83.678 Y92.627 E4.19102
G1 X84.431 Y91.873 E4.24669
G1 Z4.900 F1800.000
G1 E2.24669 F1800.00000
G92 E0
G1 X79.749 Y107.117 F1800.000
G1 E2.00000 F1800.00000
G1 F2400
G1 X79.749 Y92.883 E2.74368
G1 X120.984 Y92.883 E4.89797
G1 X120.984 Y107.117 E5.64165
G1 X79.809 Y107.117 E7.79281
G1 X80.146 Y106.720 F1800.000
G1 F1200
G1 X80.146 Y93.280 E8.42246
G1 X120.586 Y93.280 E10.31705
G1 X120.586 Y106.720 E10.94671
G1 X80.206 Y106.720 E12.83848
G1 X79.749 Y106.763 F1800.000
G1 X78.617 Y108.383 F1800.000
G1 F2400
G1 X78.617 Y91.617 E13.71439
G1 X121.383 Y91.617 E15.94867
G1 X121.383 Y108.383 E16.82459
G1 X78.677 Y108.383 E19.05573
G1 X78.220 Y108.780 F1800.000
G1 F1200
G1 X78.220 Y91.220 E19.87840
G1 X121.780 Y91.220 E21.91916
G1 X121.780 Y108.780 E22.74184
G1 X78.280 Y108.780 E24.77978
G1 X78.374 Y108.411 F1800.000
G1 X83.678 Y107.373 F1800.000
G1 F1200
G1 X84.431 Y108.127 E24.83546
G1 X90.355 Y108.127 E25.14495
G1 X89.602 Y107.373 E25.20063
G1 X95.526 Y107.373 E25.51012
G1 X96.279 Y108.127 E25.56580
G1 X102.203 Y108.127 E25.87529
G1 X101.449 Y107.373 E25.93097
G1 X107.373 Y107.373 E26.24046
G1 X108.127 Y108.127 E26.29614
G1 X114.051 Y108.127 E26.60563
G1 X113.297 Y107.373 E26.66131
G1 X119.221 Y107.373 E26.97080
G1 X119.974 Y108.127 E27.02647
G1 E25.02647 F1800.00000
G92 E0
G1 X116.322 Y92.627 F1800.000
G1 E2.00000 F1800.00000
G1 F1200
G1 X115.569 Y91.873 E2.05568
G1 X109.645 Y91.873 E2.36517
G1 X110.398 Y92.627 E2.42085
G1 X104.474 Y92.627 E2.73034
G1 X103.721 Y91.873 E2.78602
G1 X97.797 Y91.873 E3.09551
G1 X98.551 Y92.627 E3.15119
G1 X92.627 Y92.627 E3.46068
G1 X91.873 Y91.873 E3.51636
G1 X85.949 Y91.873 E3.82585
G1 X86.703 Y92.627 E3.88152
G1 X80.779 Y92.627 E4.19101
G1 X80.026 Y91.873 E4.24669
G1 X78.873 Y91.873 E4.30690
G1 X78.873 Y96.645 E4.55618
G1 X79.493 Y97.265 E4.60199
G1 X79.493 Y103.189 E4.91148
G1 X78.873 Y102.569 E4.95729
G1 Z5.200 F1800.000
G1 X79.749 Y107.117 F1800.000
G1 F2400
G1 X79.749 Y92.883 E5.70097
G1 X120.984 Y92.883 E7.85527
G1 X120.984 Y107.117 E8.59895
G1 X79.809 Y107.117 E10.75010
G1 X80.146 Y106.720 F1800.000
G1 F1200
G1 X80.146 Y93.280 E11.37976
G1 X120.586 Y93.280 E13.27435
G1 X120.586 Y106.720 E13.90400
G1 X80.206 Y106.720 E15.79578
G1 X79.749 Y106.763 F1800.000
G1 X78.617 Y108.383 F1800.000
G1 F2400
G1 X78.617 Y91.617 E16.67169
G1 X121.383 Y91.617 E18.90597
G1 X121.383 Y108.383 E19.78188
G1 X78.677 Y108.383 E22.01303
G1 X78.220 Y108.780 F1800.000
G1 F1200
G1 X78.220 Y91.220 E22.83570
G1 X121.780 Y91.220 E24.87646
G1 X121.780 Y108.780 E25.69913
G1 X78.280 Y108.780 E27.73708
G1 X78.374 Y108.411 F1800.000
G1 X79.493 Y96.811 F1800.000
G1 F1200
G1 X78.873 Y97.431 E27.78289
G1 X78.873 Y103.355 E28.09238
G1 X79.493 Y102.735 E28.13819
G1 X79.493 Y107.373 E28.38050
G1 X80.779 Y107.373 E28.44768
G1 X80.026 Y108.127 E28.50336
G1 X85.949 Y108.127 E28.81285
G1 X86.703 Y107.373 E28.86853
G1 X92.627 Y107.373 E29.17802
G1 X91.873 Y108.127 E29.23370
G1 X97.797 Y108.127 E29.54319
G1 X98.551 Y107.373 E29.59886
G1 X104.474 Y107.373 E29.90835
G1 X103.721 Y108.127 E29.96403
G1 X109.645 Y108.127 E30.27352
G1 X110.398 Y107.373 E30.32920
G1 X116.322 Y107.373 E30.63869
G1 X115.569 Y108.127 E30.69437
G1 E28.69437 F1800.00000
G92 E0
G1 X119.221 Y92.627 F1800.000
G1 E2.00000 F1800.00000
G1 F1200
G1 X119.974 Y91.873 E2.05568
G1 X114.051 Y91.873 E2.36517
G1 X113.297 Y92.627 E2.42085
G1 X107.373 Y92.627 E2.73034
G1 X108.127 Y91.873 E2.78602
G1 X102.203 Y91.873 E3.09551
G1 X101.449 Y92.627 E3.15119
G1 X95.526 Y92.627 E3.46068
G1 X96.279 Y91.873 E3.51636
G1 X90.355 Y91.873 E3.82585
G1 X89.602 Y92.627 E3.88152
G1 X83.678 Y92.627 E4.19102
G1 X84.431 Y91.873 E4.24669
G1 Z5.500 F1800.000
G1 E2.24669 F1800.00000
G92 E0
G1 X79.749 Y107.117 F1800.000
G1 E2.00000 F1800.00000
G1 F2400
G1 X79.749 Y92.883 E2.74368
G1 X120.984 Y92.883 E4.89797
G1 X120.984 Y107.117 E5.64165
G1 X79.809 Y107.117 E7.79281
G1 X80.146 Y106.720 F1800.000
G1 F1200
G1 X80.146 Y93.280 E8.42246
G1 X120.586 Y93.280 E10.31705
G1 X120.586 Y106.720 E10.94671
G1 X80.206 Y106.720 E12.83848
G1 X79.749 Y106.763 F1800.000
G1 X78.617 Y108.383 F1800.000
G1 F2400
G1 X78.617 Y91.617 E13.71439
G1 X121.383 Y91.617 E15.94867
G1 X121.383 Y108.383 E16.82459
G1 X78.677 Y108.383 E19.05573
G1 X78.220 Y108.780 F1800.000
G1 F1200
G1 X78.220 Y91.220 E19.87840
G1 X121.780 Y91.220 E21.91916
G1 X121.780 Y108.780 E22.74184
G1 X78.280 Y108.780 E24.77978
G1 X78.374 Y108.411 F1800.000
G1 X83.678 Y107.373 F1800.000
G1 F1200
G1 X84.431 Y108.127 E24.83546
G1 X90.355 Y108.127 E25.14495
G1 X89.602 Y107.373 E25.20063
G1 X95.526 Y107.373 E25.51012
G1 X96.279 Y108.127 E25.56580
G1 X102.203 Y108.127 E25.87529
G1 X101.449 Y107.373 E25.93097
G1 X107.373 Y107.373 E26.24046
G1 X108.127 Y108.127 E26.29614
G1 X114.051 Y108.127 E26.60563
G1 X113.297 Y107.373 E26.66131
G1 X119.221 Y107.373 E26.97080
G1 X119.974 Y108.127 E27.02647
G1 E25.02647 F1800.00000
G92 E0
G1 X116.322 Y92.627 F1800.000
G1 E2.00000 F1800.00000
G1 F1200
G1 X115.569 Y91.873 E2.05568
G1 X109.645 Y91.873 E2.36517
G1 X110.398 Y92.627 E2.42085
G1 X104.474 Y92.627 E2.73034
G1 X103.721 Y91.873 E2.78602
G1 X97.797 Y91.873 E3.09551
G1 X98.551 Y92.627 E3.15119
G1 X92.627 Y92.627 E3.46068
G1 X91.873 Y91.873 E3.51636
G1 X85.949 Y91.873 E3.82585
G1 X86.703 Y92.627 E3.88152
G1 X80.779 Y92.627 E4.19101
G1 X80.026 Y91.873 E4.24669
G1 X78.873 Y91.873 E4.30690
G1 X78.873 Y96.645 E4.55618
G1 X79.493 Y97.265 E4.60199
G1 X79.493 Y103.189 E4.91148
G1 X78.873 Y102.569 E4.95729
M106 S175.95
G1 Z5.800 F1800.000
G1 X79.749 Y107.117 F1800.000
G1 F2400
G1 X79.749 Y92.883 E5.70097
G1 X120.984 Y92.883 E7.85527
G1 X120.984 Y107.117 E8.59895
G1 X79.809 Y107.117 E10.75010
G1 X80.146 Y106.720 F1800.000
G1 F1200
G1 X80.146 Y93.280 E11.37976
G1 X120.586 Y93.280 E13.27435
G1 X120.586 Y106.720 E13.90400
G1 X80.206 Y106.720 E15.79578
G1 X79.749 Y106.763 F1800.000
G1 X78.617 Y108.383 F1800.000
G1 F2400
G1 X78.617 Y91.617 E16.67169
G1 X121.383 Y91.617 E18.90597
G1 X121.383 Y108.383 E19.78188
G1 X78.677 Y108.383 E22.01303
G1 X78.220 Y108.780 F1800.000
G1 F1200
G1 X78.220 Y91.220 E22.83570
G1 X121.780 Y91.220 E24.87646
G1 X121.780 Y108.780 E25.69913
G1 X78.280 Y108.780 E27.73708
G1 X78.374 Y108.411 F1800.000
G1 X79.167 Y93.098 F1800.000
G1 F1200
G1 X79.167 Y92.627 E27.76185
G1 X79.638 Y92.627 E27.78663
G1 X80.392 Y91.873 E27.84270
G1 X80.989 Y91.873 E27.87407
G1 X80.235 Y92.627 E27.93013
G1 X80.831 Y92.627 E27.96151
G1 X81.585 Y91.873 E28.01757
G1 X82.181 Y91.873 E28.04894
G1 X81.428 Y92.627 E28.10501
G1 X82.024 Y92.627 E28.13638
G1 X82.778 Y91.873 E28.19244
G1 X83.374 Y91.873 E28.22382
G1 X82.621 Y92.627 E28.27988
G1 X83.217 Y92.627 E28.31125
G1 X83.971 Y91.873 E28.36732
G1 X84.567 Y91.873 E28.39869
G1 X83.814 Y92.627 E28.45475
G1 X84.410 Y92.627 E28.48613
G1 X85.164 Y91.873 E28.54219
G1 X85.760 Y91.873 E28.57356
G1 X85.006 Y92.627 E28.62963
G1 X85.603 Y92.627 E28.66100
G1 X86.357 Y91.873 E28.71706
G1 X86.953 Y91.873 E28.74844
G1 X86.199 Y92.627 E28.80450
G1 X86.796 Y92.627 E28.83587
G1 X87.549 Y91.873 E28.89194
G1 X88.146 Y91.873 E28.92331
G1 X87.392 Y92.627 E28.97937
G1 X87.989 Y92.627 E29.01075
G1 X88.742 Y91.873 E29.06681
G1 X89.339 Y91.873 E29.09818
G1 X88.585 Y92.627 E29.15425
G1 X89.182 Y92.627 E29.18562
G1 X89.935 Y91.873 E29.24168
G1 X90.532 Y91.873 E29.27306
G1 X89.778 Y92.627 E29.32912
G1 X90.375 Y92.627 E29.36049
G1 X91.128 Y91.873 E29.41656
G1 X91.725 Y91.873 E29.44793
G1 X90.971 Y92.627 E29.50399
G1 X91.567 Y92.627 E29.53537
G1 X92.321 Y91.873 E29.59143
G1 X92.917 Y91.873 E29.62280
G1 X92.164 Y92.627 E29.67887
G1 X92.760 Y92.627 E29.71024
G1 X93.514 Y91.873 E29.76630
G1 X94.110 Y91.873 E29.79768
G1 X93.357 Y92.627 E29.85374
G1 X93.953 Y92.627 E29.88511
G1 X94.707 Y91.873 E29.94118
G1 X95.303 Y91.873 E29.97255
G1 X94.550 Y92.627 E30.02861
G1 X95.146 Y92.627 E30.05999
G1 X95.900 Y91.873 E30.11605
G1 X96.496 Y91.873 E30.14742
G1 X95.743 Y92.627 E30.20349
G1 X96.339 Y92.627 E30.23486
G1 X97.093 Y91.873 E30.29092
G1 X97.689 Y91.873 E30.32230
G1 X96.935 Y92.627 E30.37836
G1 X97.532 Y92.627 E30.40973
G1 X98.285 Y91.873 E30.46580
G1 X98.882 Y91.873 E30.49717
G1 X98.128 Y92.627 E30.55323
G1 X98.725 Y92.627 E30.58461
G1 X99.478 Y91.873 E30.64067
G1 X100.075 Y91.873 E30.67204
G1 X99.321 Y92.627 E30.72811
G1 X99.918 Y92.627 E30.75948
G1 X100.671 Y91.873 E30.81554
G1 X101.268 Y91.873 E30.84692
G1 X100.514 Y92.627 E30.90298
G1 X101.111 Y92.627 E30.93435
G1 X101.864 Y91.873 E30.99042
G1 X102.461 Y91.873 E31.02179
G1 X101.707 Y92.627 E31.07785
G1 X102.303 Y92.627 E31.10923
G1 X103.057 Y91.873 E31.16529
G1 X103.653 Y91.873 E31.19666
G1 X102.900 Y92.627 E31.25272
G1 X103.496 Y92.627 E31.28410
G1 X104.250 Y91.873 E31.34016
G1 X104.846 Y91.873 E31.37154
G1 X104.093 Y92.627 E31.42760
G1 X104.689 Y92.627 E31.45897
G1 X105.443 Y91.873 E31.51504
G1 X106.039 Y91.873 E31.54641
G1 X105.286 Y92.627 E31.60247
G1 X105.882 Y92.627 E31.63385
G1 X106.636 Y91.873 E31.68991
G1 X107.232 Y91.873 E31.72128
G1 X106.479 Y92.627 E31.77735
G1 X107.075 Y92.627 E31.80872
G1 X107.829 Y91.873 E31.86478
G1 X108.425 Y91.873 E31.89616
G1 X107.671 Y92.627 E31.95222
G1 X108.268 Y92.627 E31.98359
G1 X109.021 Y91.873 E32.03966
G1 X109.618 Y91.873 E32.07103
G1 X108.864 Y92.627 E32.12709
G1 X109.461 Y92.627 E32.15847
G1 X110.214 Y91.873 E32.21453
G1 X110.811 Y91.873 E32.24590
G1 X110.057 Y92.627 E32.30197
G1 X110.654 Y92.627 E32.33334
G1 X111.407 Y91.873 E32.38940
G1 X112.004 Y91.873 E32.42078
G1 X111.250 Y92.627 E32.47684
G1 X111.847 Y92.627 E32.50821
G1 X112.600 Y91.873 E32.56428
G1 X113.197 Y91.873 E32.59565
G1 X112.443 Y92.627 E32.65171
G1 X113.039 Y92.627 E32.68309
G1 X113.793 Y91.873 E32.73915
G1 X114.389 Y91.873 E32.77052
G1 X113.636 Y92.627 E32.82659
G1 X114.232 Y92.627 E32.85796
G1 X114.986 Y91.873 E32.91402
G1 X115.582 Y91.873 E32.94540
G1 X114.829 Y92.627 E33.00146
G1 X115.425 Y92.627 E33.03284
G1 X116.179 Y91.873 E33.08890
G1 X116.775 Y91.873 E33.12027
G1 X116.022 Y92.627 E33.17633
G1 X116.618 Y92.627 E33.20771
G1 X117.372 Y91.873 E33.26377
G1 X117.968 Y91.873 E33.29515
G1 X117.215 Y92.627 E33.35121
G1 X117.811 Y92.627 E33.38258
G1 X118.565 Y91.873 E33.43864
G1 X119.161 Y91.873 E33.47002
G1 X118.407 Y92.627 E33.52608
G1 X119.004 Y92.627 E33.55746
G1 X119.758 Y91.873 E33.61352
G1 X120.354 Y91.873 E33.64489
G1 X119.600 Y92.627 E33.70095
G1 X120.197 Y92.627 E33.73233
G1 X120.950 Y91.873 E33.78839
G1 X121.127 Y91.873 E33.79767
G1 X121.127 Y92.293 E33.81977
G1 X120.793 Y92.627 E33.84458
G1 X120.801 Y108.127 F1800.000
G1 F1200
G1 X121.127 Y107.801 E33.86883
G1 X121.127 Y107.373 E33.89132
G1 X120.958 Y107.373 E33.90020
G1 X120.204 Y108.127 E33.95626
G1 X119.608 Y108.127 E33.98764
G1 X120.362 Y107.373 E34.04370
G1 X119.765 Y107.373 E34.07508
G1 X119.012 Y108.127 E34.13114
G1 X118.415 Y108.127 E34.16251
G1 X119.169 Y107.373 E34.21857
G1 X118.572 Y107.373 E34.24995
G1 X117.819 Y108.127 E34.30601
G1 X117.222 Y108.127 E34.33739
G1 X117.976 Y107.373 E34.39345
G1 X117.379 Y107.373 E34.42482
G1 X116.626 Y108.127 E34.48088
G1 X116.029 Y108.127 E34.51226
G1 X116.783 Y107.373 E34.56832
G1 X116.186 Y107.373 E34.59970
G1 X115.433 Y108.127 E34.65576
G1 X114.836 Y108.127 E34.68713
G1 X115.590 Y107.373 E34.74319
G1 X114.994 Y107.373 E34.77457
G1 X114.240 Y108.127 E34.83063
G1 X113.643 Y108.127 E34.86201
G1 X114.397 Y107.373 E34.91807
G1 X113.801 Y107.373 E34.94944
G1 X113.047 Y108.127 E35.00550
G1 X112.451 Y108.127 E35.03688
G1 X113.204 Y107.373 E35.09294
G1 X112.608 Y107.373 E35.12432
G1 X111.854 Y108.127 E35.18038
G1 X111.258 Y108.127 E35.21175
G1 X112.011 Y107.373 E35.26782
G1 X111.415 Y107.373 E35.29919
G1 X110.661 Y108.127 E35.35525
G1 X110.065 Y108.127 E35.38663
G1 X110.818 Y107.373 E35.44269
G1 X110.222 Y107.373 E35.47406
G1 X109.468 Y108.127 E35.53013
G1 X108.872 Y108.127 E35.56150
G1 X109.626 Y107.373 E35.61756
G1 X109.029 Y107.373 E35.64894
G1 X108.275 Y108.127 E35.70500
G1 X107.679 Y108.127 E35.73637
G1 X108.433 Y107.373 E35.79244
G1 X107.836 Y107.373 E35.82381
G1 X107.083 Y108.127 E35.87987
G1 X106.486 Y108.127 E35.91125
G1 X107.240 Y107.373 E35.96731
G1 X106.643 Y107.373 E35.99868
G1 X105.890 Y108.127 E36.05475
G1 X105.293 Y108.127 E36.08612
G1 X106.047 Y107.373 E36.14218
G1 X105.450 Y107.373 E36.17356
G1 X104.697 Y108.127 E36.22962
G1 X104.100 Y108.127 E36.26099
G1 X104.854 Y107.373 E36.31706
G1 X104.258 Y107.373 E36.34843
G1 X103.504 Y108.127 E36.40449
G1 X102.907 Y108.127 E36.43587
G1 X103.661 Y107.373 E36.49193
G1 X103.065 Y107.373 E36.52330
G1 X102.311 Y108.127 E36.57937
G1 X101.715 Y108.127 E36.61074
G1 X102.468 Y107.373 E36.66680
G1 X101.872 Y107.373 E36.69818
G1 X101.118 Y108.127 E36.75424
G1 X100.522 Y108.127 E36.78561
G1 X101.275 Y107.373 E36.84168
G1 X100.679 Y107.373 E36.87305
G1 X99.925 Y108.127 E36.92911
G1 X99.329 Y108.127 E36.96049
G1 X100.082 Y107.373 E37.01655
G1 X99.486 Y107.373 E37.04792
G1 X98.732 Y108.127 E37.10399
G1 X98.136 Y108.127 E37.13536
G1 X98.889 Y107.373 E37.19142
G1 X98.293 Y107.373 E37.22280
G1 X97.539 Y108.127 E37.27886
G1 X96.943 Y108.127 E37.31023
G1 X97.697 Y107.373 E37.36630
G1 X97.100 Y107.373 E37.39767
G1 X96.347 Y108.127 E37.45373
G1 X95.750 Y108.127 E37.48511
G1 X96.504 Y107.373 E37.54117
G1 X95.907 Y107.373 E37.57254
G1 X95.154 Y108.127 E37.62861
G1 X94.557 Y108.127 E37.65998
G1 X95.311 Y107.373 E37.71604
G1 X94.714 Y107.373 E37.74742
G1 X93.961 Y108.127 E37.80348
G1 X93.364 Y108.127 E37.83485
G1 X94.118 Y107.373 E37.89092
G1 X93.521 Y107.373 E37.92229
G1 X92.768 Y108.127 E37.97835
G1 X92.171 Y108.127 E38.00973
G1 X92.925 Y107.373 E38.06579
G1 X92.329 Y107.373 E38.09716
G1 X91.575 Y108.127 E38.15323
G1 X90.979 Y108.127 E38.18460
G1 X91.732 Y107.373 E38.24066
G1 X91.136 Y107.373 E38.27204
G1 X90.382 Y108.127 E38.32810
G1 X89.786 Y108.127 E38.35947
G1 X90.539 Y107.373 E38.41554
G1 X89.943 Y107.373 E38.44691
G1 X89.189 Y108.127 E38.50297
G1 X88.593 Y108.127 E38.53435
G1 X89.346 Y107.373 E38.59041
G1 X88.750 Y107.373 E38.62178
G1 X87.996 Y108.127 E38.67785
G1 X87.400 Y108.127 E38.70922
G1 X88.153 Y107.373 E38.76528
G1 X87.557 Y107.373 E38.79666
G1 X86.803 Y108.127 E38.85272
G1 X86.207 Y108.127 E38.88410
G1 X86.961 Y107.373 E38.94016
G1 X86.364 Y107.373 E38.97153
G1 X85.611 Y108.127 E39.02759
G1 X85.014 Y108.127 E39.05897
G1 X85.768 Y107.373 E39.11503
G1 X85.171 Y107.373 E39.14641
G1 X84.418 Y108.127 E39.20247
G1 X83.821 Y108.127 E39.23384
G1 X84.575 Y107.373 E39.28990
G1 X83.978 Y107.373 E39.32128
G1 X83.225 Y108.127 E39.37734
G1 X82.628 Y108.127 E39.40872
G1 X83.382 Y107.373 E39.46478
G1 X82.785 Y107.373 E39.49615
G1 X82.032 Y108.127 E39.55221
G1 X81.435 Y108.127 E39.58359
G1 X82.189 Y107.373 E39.63965
G1 X81.593 Y107.373 E39.67103
G1 X80.839 Y108.127 E39.72709
G1 X80.243 Y108.127 E39.75846
G1 X80.996 Y107.373 E39.81452
G1 X80.400 Y107.373 E39.84590
G1 X79.646 Y108.127 E39.90196
G1 X79.050 Y108.127 E39.93334
G1 X79.803 Y107.373 E39.98940
G1 X79.493 Y107.373 E40.00570
G1 X79.493 Y107.087 E40.02077
G1 X78.873 Y107.707 E40.06690
G1 X78.873 Y107.110 E40.09827
G1 X79.493 Y106.490 E40.14440
G1 X79.493 Y105.894 E40.17577
G1 X78.873 Y106.514 E40.22190
G1 X78.873 Y105.917 E40.25327
G1 X79.493 Y105.297 E40.29940
G1 X79.493 Y104.701 E40.33078
G1 X78.873 Y105.321 E40.37690
G1 X78.873 Y104.725 E40.40828
G1 X79.493 Y104.105 E40.45440
G1 X79.493 Y103.508 E40.48578
G1 X78.873 Y104.128 E40.53190
G1 X78.873 Y103.532 E40.56328
G1 X79.493 Y102.912 E40.60940
G1 X79.493 Y102.315 E40.64078
G1 X78.873 Y102.935 E40.68690
G1 X78.873 Y102.339 E40.71828
G1 X79.493 Y101.719 E40.76440
G1 X79.493 Y101.122 E40.79578
G1 X78.873 Y101.742 E40.84191
G1 X78.873 Y101.146 E40.87328
G1 X79.493 Y100.526 E40.91941
G1 X79.493 Y99.929 E40.95078
G1 X78.873 Y100.549 E40.99691
G1 X78.873 Y99.953 E41.02828
G1 X79.493 Y99.333 E41.07441
G1 X79.493 Y98.736 E41.10578
G1 X78.873 Y99.357 E41.15191
G1 X78.873 Y98.760 E41.18328
G1 X79.493 Y98.140 E41.22941
G1 X79.493 Y97.544 E41.26078
G1 X78.873 Y98.164 E41.30691
G1 X78.873 Y97.567 E41.33828
G1 X79.493 Y96.947 E41.38441
G1 X79.493 Y96.351 E41.41579
G1 X78.873 Y96.971 E41.46191
G1 X78.873 Y96.374 E41.49329
G1 X79.493 Y95.754 E41.53941
G1 X79.493 Y95.158 E41.57079
G1 X78.873 Y95.778 E41.61691
G1 X78.873 Y95.181 E41.64829
G1 X79.493 Y94.561 E41.69441
G1 X79.493 Y93.965 E41.72579
G1 X78.873 Y94.585 E41.77191
G1 X78.873 Y93.989 E41.80329
G1 X79.493 Y93.368 E41.84942
G1 X79.493 Y92.772 E41.88079
G1 X78.873 Y93.392 E41.92692
G1 X78.873 Y92.796 E41.95829
G1 X79.796 Y91.873 E42.02691
G1 X79.199 Y91.873 E42.05829
G1 X78.873 Y92.199 E42.08252
M106 S163.2
G1 Z6.100 F1800.000
G1 E40.08252 F1800.00000
G92 E0
G1 X79.749 Y107.117 F1800.000
G1 E2.00000 F1800.00000
G1 F2400
G1 X79.749 Y92.883 E2.74368
G1 X120.984 Y92.883 E4.89797
G1 X120.984 Y107.117 E5.64165
G1 X79.809 Y107.117 E7.79281
G1 X80.146 Y106.720 F1800.000
G1 F1200
G1 X80.146 Y93.280 E8.42246
G1 X120.586 Y93.280 E10.31705
G1 X120.586 Y106.720 E10.94671
G1 X80.206 Y106.720 E12.83848
G1 X79.749 Y106.763 F1800.000
G1 E10.83848 F1800.00000
G92 E0
G1 X78.617 Y108.383 F1800.000
G1 E2.00000 F1800.00000
G1 F2400
G1 X78.617 Y91.617 E2.87591
G1 X121.383 Y91.617 E5.11019
G1 X121.383 Y108.383 E5.98610
G1 X78.677 Y108.383 E8.21725
G1 X78.220 Y108.780 F1800.000
G1 F1200
G1 X78.220 Y91.220 E9.03992
G1 X121.780 Y91.220 E11.08068
G1 X121.780 Y108.780 E11.90335
G1 X78.280 Y108.780 E13.94130
G1 X78.374 Y108.411 F1800.000
G1 X79.199 Y108.127 F1800.000
G1 F900
G1 X78.873 Y107.801 E13.96554
G1 X78.873 Y107.204 E13.99691
G1 X79.796 Y108.127 E14.06553
G1 X80.392 Y108.127 E14.09691
G1 X79.964 Y107.699 E14.12873
G1 X79.493 Y107.699 E14.15351
G1 X79.493 Y107.228 E14.17829
G1 X78.873 Y106.608 E14.22442
G1 X78.873 Y106.011 E14.25579
G1 X79.493 Y106.632 E14.30192
G1 X79.493 Y106.035 E14.33329
G1 X78.873 Y105.415 E14.37942
G1 X78.873 Y104.819 E14.41079
G1 X79.493 Y105.439 E14.45692
G1 X79.493 Y104.842 E14.48829
G1 X78.873 Y104.222 E14.53442
G1 X78.873 Y103.626 E14.56579
G1 X79.493 Y104.246 E14.61192
G1 X79.493 Y103.649 E14.64329
G1 X78.873 Y103.029 E14.68942
G1 X78.873 Y102.433 E14.72079
G1 X79.493 Y103.053 E14.76692
G1 X79.493 Y102.456 E14.79830
G1 X78.873 Y101.836 E14.84442
G1 X78.873 Y101.240 E14.87580
G1 X79.493 Y101.860 E14.92192
G1 X79.493 Y101.263 E14.95330
G1 X78.873 Y100.643 E14.99942
G1 X78.873 Y100.047 E15.03080
G1 X79.493 Y100.667 E15.07692
G1 X79.493 Y100.071 E15.10830
G1 X78.873 Y99.451 E15.15442
G1 X78.873 Y98.854 E15.18580
G1 X79.493 Y99.474 E15.23193
G1 X79.493 Y98.878 E15.26330
G1 X78.873 Y98.258 E15.30943
G1 X78.873 Y97.661 E15.34080
G1 X79.493 Y98.281 E15.38693
G1 X79.493 Y97.685 E15.41830
G1 X78.873 Y97.065 E15.46443
G1 X78.873 Y96.468 E15.49580
G1 X79.493 Y97.088 E15.54193
G1 X79.493 Y96.492 E15.57330
G1 X78.873 Y95.872 E15.61943
G1 X78.873 Y95.275 E15.65080
G1 X79.493 Y95.895 E15.69693
G1 X79.493 Y95.299 E15.72830
G1 X78.873 Y94.679 E15.77443
G1 X78.873 Y94.083 E15.80581
G1 X79.493 Y94.703 E15.85193
G1 X79.493 Y94.106 E15.88331
G1 X78.873 Y93.486 E15.92943
G1 X78.873 Y92.890 E15.96081
G1 X79.493 Y93.510 E16.00693
G1 X79.493 Y92.913 E16.03831
G1 X78.873 Y92.293 E16.08443
G1 X78.873 Y91.873 E16.10653
G1 X79.050 Y91.873 E16.11581
G1 X79.803 Y92.627 E16.17187
G1 X80.400 Y92.627 E16.20324
G1 X79.646 Y91.873 E16.25931
G1 X80.243 Y91.873 E16.29068
G1 X80.996 Y92.627 E16.34674
G1 X81.593 Y92.627 E16.37812
G1 X80.839 Y91.873 E16.43418
G1 X81.435 Y91.873 E16.46555
G1 X82.189 Y92.627 E16.52162
G1 X82.785 Y92.627 E16.55299
G1 X82.032 Y91.873 E16.60905
G1 X82.628 Y91.873 E16.64043
G1 X83.382 Y92.627 E16.69649
G1 X83.978 Y92.627 E16.72786
G1 X83.225 Y91.873 E16.78393
G1 X83.821 Y91.873 E16.81530
G1 X84.575 Y92.627 E16.87136
G1 X85.171 Y92.627 E16.90274
G1 X84.418 Y91.873 E16.95880
G1 X85.014 Y91.873 E16.99017
G1 X85.768 Y92.627 E17.04624
G1 X86.364 Y92.627 E17.07761
G1 X85.611 Y91.873 E17.13367
G1 X86.207 Y91.873 E17.16505
G1 X86.961 Y92.627 E17.22111
G1 X87.557 Y92.627 E17.25248
G1 X86.803 Y91.873 E17.30855
G1 X87.400 Y91.873 E17.33992
G1 X88.153 Y92.627 E17.39598
G1 X88.750 Y92.627 E17.42736
G1 X87.996 Y91.873 E17.48342
G1 X88.593 Y91.873 E17.51479
G1 X89.346 Y92.627 E17.57086
G1 X89.943 Y92.627 E17.60223
G1 X89.189 Y91.873 E17.65829
G1 X89.786 Y91.873 E17.68967
G1 X90.539 Y92.627 E17.74573
G1 X91.136 Y92.627 E17.77710
G1 X90.382 Y91.873 E17.83317
G1 X90.979 Y91.873 E17.86454
G1 X91.732 Y92.627 E17.92060
G1 X92.329 Y92.627 E17.95198
G1 X91.575 Y91.873 E18.00804
G1 X92.171 Y91.873 E18.03941
G1 X92.925 Y92.627 E18.09548
G1 X93.521 Y92.627 E18.12685
G1 X92.768 Y91.873 E18.18291
G1 X93.364 Y91.873 E18.21429
G1 X94.118 Y92.627 E18.27035
G1 X94.714 Y92.627 E18.30172
G1 X93.961 Y91.873 E18.35779
G1 X94.557 Y91.873 E18.38916
G1 X95.311 Y92.627 E18.44522
G1 X95.907 Y92.627 E18.47660
G1 X95.154 Y91.873 E18.53266
G1 X95.750 Y91.873 E18.56403
G1 X96.504 Y92.627 E18.62010
G1 X97.100 Y92.627 E18.65147
G1 X96.347 Y91.873 E18.70753
G1 X96.943 Y91.873 E18.73891
G1 X97.697 Y92.627 E18.79497
G1 X98.293 Y92.627 E18.82634
G1 X97.539 Y91.873 E18.88241
G1 X98.136 Y91.873 E18.91378
G1 X98.889 Y92.627 E18.96984
G1 X99.486 Y92.627 E19.00122
G1 X98.732 Y91.873 E19.05728
G1 X99.329 Y91.873 E19.08865
G1 X100.082 Y92.627 E19.14472
G1 X100.679 Y92.627 E19.17609
G1 X99.925 Y91.873 E19.23215
G1 X100.522 Y91.873 E19.26353
G1 X101.275 Y92.627 E19.31959
G1 X101.872 Y92.627 E19.35096
G1 X101.118 Y91.873 E19.40703
G1 X101.715 Y91.873 E19.43840
G1 X102.468 Y92.627 E19.49446
G1 X103.065 Y92.627 E19.52584
G1 X102.311 Y91.873 E19.58190
G1 X102.907 Y91.873 E19.61327
G1 X103.661 Y92.627 E19.66934
G1 X104.258 Y92.627 E19.70071
G1 X103.504 Y91.873 E19.75677
G1 X104.100 Y91.873 E19.78815
G1 X104.854 Y92.627 E19.84421
G1 X105.450 Y92.627 E19.87558
G1 X104.697 Y91.873 E19.93165
G1 X105.293 Y91.873 E19.96302
G1 X106.047 Y92.627 E20.01908
G1 X106.643 Y92.627 E20.05046
G1 X105.890 Y91.873 E20.10652
G1 X106.486 Y91.873 E20.13789
G1 X107.240 Y92.627 E20.19396
G1 X107.836 Y92.627 E20.22533
G1 X107.083 Y91.873 E20.28139
G1 X107.679 Y91.873 E20.31277
G1 X108.433 Y92.627 E20.36883
G1 X109.029 Y92.627 E20.40020
G1 X108.275 Y91.873 E20.45627
G1 X108.872 Y91.873 E20.48764
G1 X109.626 Y92.627 E20.54370
G1 X110.222 Y92.627 E20.57508
G1 X109.468 Y91.873 E20.63114
G1 X110.065 Y91.873 E20.66251
G1 X110.818 Y92.627 E20.71858
G1 X111.415 Y92.627 E20.74995
G1 X110.661 Y91.873 E20.80601
G1 X111.258 Y91.873 E20.83739
G1 X112.011 Y92.627 E20.89345
G1 X112.608 Y92.627 E20.92482
G1 X111.854 Y91.873 E20.98089
G1 X112.451 Y91.873 E21.01226
G1 X113.204 Y92.627 E21.06832
G1 X113.801 Y92.627 E21.09970
G1 X113.047 Y91.873 E21.15576
G1 X113.643 Y91.873 E21.18713
G1 X114.397 Y92.627 E21.24320
G1 X114.994 Y92.627 E21.27457
G1 X114.240 Y91.873 E21.33063
G1 X114.836 Y91.873 E21.36201
G1 X115.590 Y92.627 E21.41807
G1 X116.186 Y92.627 E21.44945
G1 X115.433 Y91.873 E21.50551
G1 X116.029 Y91.873 E21.53688
G1 X116.783 Y92.627 E21.59294
G1 X117.379 Y92.627 E21.62432
G1 X116.626 Y91.873 E21.68038
G1 X117.222 Y91.873 E21.71176
G1 X117.976 Y92.627 E21.76782
G1 X118.572 Y92.627 E21.79919
G1 X117.819 Y91.873 E21.85525
G1 X118.415 Y91.873 E21.88663
G1 X119.169 Y92.627 E21.94269
G1 X119.765 Y92.627 E21.97407
G1 X119.012 Y91.873 E22.03013
G1 X119.608 Y91.873 E22.06150
G1 X120.362 Y92.627 E22.11756
G1 X120.958 Y92.627 E22.14894
G1 X120.204 Y91.873 E22.20500
G1 X120.801 Y91.873 E22.23638
G1 X121.127 Y92.199 E22.26062
G1 E20.26062 F1800.00000
G92 E0
G1 X121.127 Y107.707 F1800.000
G1 E2.00000 F1800.00000
G1 F900
G1 X120.793 Y107.373 E2.02481
G1 X120.197 Y107.373 E2.05619
G1 X120.950 Y108.127 E2.11225
G1 X120.354 Y108.127 E2.14363
G1 X119.600 Y107.373 E2.19969
G1 X119.004 Y107.373 E2.23106
G1 X119.758 Y108.127 E2.28712
G1 X119.161 Y108.127 E2.31850
G1 X118.407 Y107.373 E2.37456
G1 X117.811 Y107.373 E2.40594
G1 X118.565 Y108.127 E2.46200
G1 X117.968 Y108.127 E2.49337
G1 X117.215 Y107.373 E2.54943
G1 X116.618 Y107.373 E2.58081
G1 X117.372 Y108.127 E2.63687
G1 X116.775 Y108.127 E2.66825
G1 X116.022 Y107.373 E2.72431
G1 X115.425 Y107.373 E2.75568
G1 X116.179 Y108.127 E2.81174
G1 X115.582 Y108.127 E2.84312
G1 X114.829 Y107.373 E2.89918
G1 X114.232 Y107.373 E2.93056
G1 X114.986 Y108.127 E2.98662
G1 X114.389 Y108.127 E3.01799
G1 X113.636 Y107.373 E3.07405
G1 X113.039 Y107.373 E3.10543
G1 X113.793 Y108.127 E3.16149
G1 X113.197 Y108.127 E3.19287
G1 X112.443 Y107.373 E3.24893
G1 X111.847 Y107.373 E3.28030
G1 X112.600 Y108.127 E3.33636
G1 X112.004 Y108.127 E3.36774
G1 X111.250 Y107.373 E3.42380
G1 X110.654 Y107.373 E3.45518
G1 X111.407 Y108.127 E3.51124
G1 X110.811 Y108.127 E3.54261
G1 X110.057 Y107.373 E3.59867
G1 X109.461 Y107.373 E3.63005
G1 X110.214 Y108.127 E3.68611
G1 X109.618 Y108.127 E3.71749
G1 X108.864 Y107.373 E3.77355
G1 X108.268 Y107.373 E3.80492
G1 X109.021 Y108.127 E3.86098
G1 X108.425 Y108.127 E3.89236
G1 X107.671 Y107.373 E3.94842
G1 X107.075 Y107.373 E3.97980
G1 X107.829 Y108.127 E4.03586
G1 X107.232 Y108.127 E4.06723
G1 X106.479 Y107.373 E4.12329
G1 X105.882 Y107.373 E4.15467
G1 X106.636 Y108.127 E4.21073
G1 X106.039 Y108.127 E4.24211
G1 X105.286 Y107.373 E4.29817
G1 X104.689 Y107.373 E4.32954
G1 X105.443 Y108.127 E4.38560
G1 X104.846 Y108.127 E4.41698
G1 X104.093 Y107.373 E4.47304
G1 X103.496 Y107.373 E4.50442
G1 X104.250 Y108.127 E4.56048
G1 X103.653 Y108.127 E4.59185
G1 X102.900 Y107.373 E4.64791
G1 X102.303 Y107.373 E4.67929
G1 X103.057 Y108.127 E4.73535
G1 X102.461 Y108.127 E4.76673
G1 X101.707 Y107.373 E4.82279
G1 X101.111 Y107.373 E4.85416
G1 X101.864 Y108.127 E4.91023
G1 X101.268 Y108.127 E4.94160
G1 X100.514 Y107.373 E4.99766
G1 X99.918 Y107.373 E5.02904
G1 X100.671 Y108.127 E5.08510
G1 X100.075 Y108.127 E5.11647
G1 X99.321 Y107.373 E5.17254
G1 X98.725 Y107.373 E5.20391
G1 X99.478 Y108.127 E5.25997
G1 X98.882 Y108.127 E5.29135
G1 X98.128 Y107.373 E5.34741
G1 X97.532 Y107.373 E5.37878
G1 X98.285 Y108.127 E5.43485
G1 X97.689 Y108.127 E5.46622
G1 X96.935 Y107.373 E5.52228
G1 X96.339 Y107.373 E5.55366
G1 X97.093 Y108.127 E5.60972
G1 X96.496 Y108.127 E5.64109
G1 X95.743 Y107.373 E5.69716
G1 X95.146 Y107.373 E5.72853
G1 X95.900 Y108.127 E5.78459
G1 X95.303 Y108.127 E5.81597
G1 X94.550 Y107.373 E5.87203
G1 X93.953 Y107.373 E5.90340
G1 X94.707 Y108.127 E5.95947
G1 X94.110 Y108.127 E5.99084
G1 X93.357 Y107.373 E6.04690
G1 X92.760 Y107.373 E6.07828
G1 X93.514 Y108.127 E6.13434
G1 X92.917 Y108.127 E6.16571
G1 X92.164 Y107.373 E6.22178
G1 X91.567 Y107.373 E6.25315
G1 X92.321 Y108.127 E6.30921
G1 X91.725 Y108.127 E6.34059
G1 X90.971 Y107.373 E6.39665
G1 X90.375 Y107.373 E6.42802
G1 X91.128 Y108.127 E6.48409
G1 X90.532 Y108.127 E6.51546
G1 X89.778 Y107.373 E6.57152
G1 X89.182 Y107.373 E6.60290
G1 X89.935 Y108.127 E6.65896
G1 X89.339 Y108.127 E6.69033
G1 X88.585 Y107.373 E6.74640
G1 X87.989 Y107.373 E6.77777
G1 X88.742 Y108.127 E6.83383
G1 X88.146 Y108.127 E6.86521
G1 X87.392 Y107.373 E6.92127
G1 X86.796 Y107.373 E6.95265
G1 X87.549 Y108.127 E7.00871
G1 X86.953 Y108.127 E7.04008
G1 X86.199 Y107.373 E7.09614
G1 X85.603 Y107.373 E7.12752
G1 X86.357 Y108.127 E7.18358
G1 X85.760 Y108.127 E7.21496
G1 X85.006 Y107.373 E7.27102
G1 X84.410 Y107.373 E7.30239
G1 X85.164 Y108.127 E7.35845
G1 X84.567 Y108.127 E7.38983
G1 X83.814 Y107.373 E7.44589
G1 X83.217 Y107.373 E7.47727
G1 X83.971 Y108.127 E7.53333
G1 X83.374 Y108.127 E7.56470
G1 X82.621 Y107.373 E7.62076
G1 X82.024 Y107.373 E7.65214
G1 X82.778 Y108.127 E7.70820
G1 X82.181 Y108.127 E7.73958
G1 X81.428 Y107.373 E7.79564
G1 X80.831 Y107.373 E7.82701
G1 X81.585 Y108.127 E7.88307
G1 X80.989 Y108.127 E7.91445
G1 X80.235 Y107.373 E7.97051
G1 X79.638 Y107.373 E8.00189
G1 E6.00189 F1800.00000
G92 E0
M107
; Filament-specific end gcode 
;END gcode for filament

M104 S0 ; turn off temperature
G28 X0  ; home X axis
M84     ; disable motors

M140 S0 ; set bed temperature
; filament used = 872.5mm (2.1cm3)
; total filament cost = 0.0

; avoid_crossing_perimeters = 0
; bed_shape = 0x0,200x0,200x200,0x200
; bed_temperature = 55
; before_layer_gcode = 
; between_objects_gcode = 
; bridge_acceleration = 0
; bridge_fan_speed = 100
; brim_connections_width = 0
; brim_width = 0
; complete_objects = 0
; cooling = 1
; default_acceleration = 0
; disable_fan_first_layers = 3
; duplicate_distance = 6
; end_filament_gcode = "; Filament-specific end gcode \n;END gcode for filament\n"
; end_gcode = M104 S0 ; turn off temperature\nG28 X0  ; home X axis\nM84     ; disable motors\n
; extruder_clearance_height = 20
; extruder_clearance_radius = 20
; extruder_offset = 0x0
; extrusion_axis = E
; extrusion_multiplier = 1
; fan_always_on = 0
; fan_below_layer_time = 60
; filament_colour = #FFFFFF
; filament_cost = 0
; filament_density = 0
; filament_diameter = 1.75
; filament_max_volumetric_speed = 0
; filament_notes = ""
; first_layer_acceleration = 0
; first_layer_bed_temperature = 60
; first_layer_extrusion_width = 200%
; first_layer_speed = 30
; first_layer_temperature = 195
; gcode_arcs = 0
; gcode_comments = 0
; gcode_flavor = reprap
; has_heatbed = 1
; infill_acceleration = 0
; infill_first = 0
; interior_brim_width = 0
; layer_gcode = 
; max_fan_speed = 100
; max_layer_height = 0.3
; max_print_speed = 80
; max_volumetric_speed = 0
; min_fan_speed = 35
; min_layer_height = 0.15
; min_print_speed = 10
; min_skirt_length = 0
; notes = 
; nozzle_diameter = 0.4
; only_retract_when_crossing_perimeters = 1
; ooze_prevention = 0
; output_filename_format = [input_filename_base].gcode
; perimeter_acceleration = 0
; post_process = 
; pressure_advance = 0
; printer_notes = 
; resolution = 0
; retract_before_travel = 2
; retract_layer_change = 0
; retract_length = 2
; retract_length_toolchange = 10
; retract_lift = 0
; retract_lift_above = 0
; retract_lift_below = 0
; retract_restart_extra = 0
; retract_restart_extra_toolchange = 0
; retract_speed = 30
; skirt_distance = 6
; skirt_height = 1
; skirts = 1
; slowdown_below_layer_time = 5
; spiral_vase = 0
; standby_temperature_delta = -5
; start_filament_gcode = "; Filament gcode\n"
; start_gcode = G28 ; home all axes\nG1 Z15 F5000 ; lift nozzle\n
; temperature = 190
; threads = 4
; toolchange_gcode = 
; travel_speed = 30
; use_firmware_retraction = 0
; use_relative_e_distances = 0
; use_set_and_wait_bed = 0
; use_set_and_wait_extruder = 0
; use_volumetric_e = 0
; vibration_limit = 0
; wipe = 0
; z_offset = 0
; z_steps_per_mm = 0
; adaptive_slicing = 0
; adaptive_slicing_quality = 75%
; dont_support_bridges = 1
; extrusion_width = 0
; first_layer_height = 0.4
; infill_only_where_needed = 0
; interface_shells = 0
; layer_height = 0.3
; match_horizontal_surfaces = 0
; raft_layers = 0
; regions_overlap = 0
; seam_position = aligned
; sequential_print_priority = 0
; support_material = 0
; support_material_angle = 0
; support_material_buildplate_only = 0
; support_material_contact_distance = 0.2
; support_material_enforce_layers = 0
; support_material_extruder = 1
; support_material_extrusion_width = 0
; support_material_interface_extruder = 1
; support_material_interface_extrusion_width = 0
; support_material_interface_layers = 3
; support_material_interface_spacing = 0
; support_material_interface_speed = 100%
; support_material_max_layers = 0
; support_material_pattern = rectilinear-grid
; support_material_spacing = 2.5
; support_material_speed = 30
; support_material_threshold = 40%
; xy_size_compensation = 0
; bottom_infill_pattern = rectilinear
; bottom_solid_layers = 2
; bridge_flow_ratio = 1
; bridge_speed = 30
; external_perimeter_extrusion_width = 0
; external_perimeter_speed = 50%
; external_perimeters_first = 0
; extra_perimeters = 1
; fill_angle = 45
; fill_density = 10%
; fill_gaps = 1
; fill_pattern = rectilinear
; gap_fill_speed = 20
; infill_every_layers = 1
; infill_extruder = 1
; infill_extrusion_width = 0
; infill_overlap = 55%
; infill_speed = 20
; overhangs = 1
; perimeter_extruder = 1
; perimeter_extrusion_width = 0
; perimeter_speed = 40
; perimeters = 2
; small_perimeter_speed = 15
; solid_infill_below_area = 70
; solid_infill_every_layers = 0
; solid_infill_extruder = 1
; solid_infill_extrusion_width = 0
; solid_infill_speed = 20
; thin_walls = 1
; top_infill_extrusion_width = 0
; top_infill_pattern = rectilinear
; top_solid_infill_speed = 15
; top_solid_layers = 2
